{"count":1904,"next":"http://councils.g0v.tw/api/councilors/?page=2","previous":null,"results":[{"url":"http://councils.g0v.tw/api/councilors/1903/","each_terms":[{"url":"http://councils.g0v.tw/api/councilors_terms/3365/","election_year":"2014","name":"劉陳昭玲","gender":"女","party":"中國國民黨","title":"議長","constituency":1,"county":"澎湖縣","district":"馬公市","in_office":true,"contact_details":[{"type":"address","value":"880澎湖縣馬公市中興里中正路76號","label":"服務處"},{"type":"voice","value":"06-9263521","label":"連絡電話"}],"term_start":"2014-12-25","term_end":{"date":"2018-12-25"},"education":"國立中山大學公共事務管理研究所碩士","experience":"第15、16、17、18屆議長\n第12、13屆副議長\n第10、11屆議員\n救國團澎湖縣團委會主任委員\n澎湖家庭扶助中心扶幼委員會主任委員\n澎湖縣地方自治協會理事長\n國立中山大學澎湖校友會理事長","remark":null,"image":"http://www.phcouncil.gov.tw/attachments/mop/M06030004.jpg","links":null,"social_media":null,"platform":"","param":{"bills_role_statistics":{"total":20,"priproposer":0,"sponsor":0,"cosponsor":20},"suggestions_years":{"count":162,"sum":10496043,"years":[{"count":162,"sum":10496043,"suggest_year":"2015","small_purchase":151}]},"suggestions_associations":[{"count":7,"sum":250000,"label":"學會"},{"count":1,"sum":100000,"label":"研習會"},{"count":2,"sum":100000,"label":"農會"},{"count":2,"sum":99940,"label":"婦女會"},{"count":2,"sum":50000,"label":"體育會"},{"count":1,"sum":10000,"label":"公會"},{"count":0,"sum":0,"label":"社區發展協會"},{"count":0,"sum":0,"label":"商會"},{"count":0,"sum":0,"label":"協進會"},{"count":0,"sum":0,"label":"促進會"},{"count":0,"sum":0,"label":"婦聯會"},{"count":0,"sum":0,"label":"同心會"},{"count":0,"sum":0,"label":"早起會"},{"count":0,"sum":0,"label":"健身會"},{"count":0,"sum":0,"label":"宗親會"},{"count":0,"sum":0,"label":"功德會"},{"count":0,"sum":0,"label":"商業會"},{"count":0,"sum":0,"label":"長青會"},{"count":0,"sum":0,"label":"民眾服務社"},{"count":0,"sum":0,"label":"聯盟"}],"suggestions_piles":[{"count":15,"tokens":"廟|宮","sum":2585000,"label":"廟"},{"count":52,"tokens":"協會|學會|商會|公會|協進會|促進會|研習會|婦聯會|婦女會|體育會|同心會|農會|早起會|健身會|宗親會|功德會|商業會|長青會|民眾服務社|聯盟","sum":1819531,"label":"協會"},{"count":16,"tokens":"辦公室|辦公處","sum":633000,"label":"辦公室"},{"count":3,"tokens":"國中|國小","sum":178800,"label":"國中、國小"},{"count":0,"tokens":"警察局|分局","sum":0,"label":"警察局"},{"count":0,"tokens":"消防局|消防隊|分隊|中隊","sum":0,"label":"消防局"}],"bills_party_diversity":[{"party":"中國國民黨","ratio":0.49230769230769234},{"party":"無黨籍","ratio":0.3384615384615385},{"party":"無黨團結聯盟","ratio":0.15384615384615385},{"party":"民主進步黨","ratio":0.015384615384615385}]},"councilor":"31c8c3f879f8455abbd9ce802a2ac740"},{"url":"http://councils.g0v.tw/api/councilors_terms/26400/","election_year":"2009","name":"劉陳昭玲","gender":"女","party":"中國國民黨","title":"議員","constituency":1,"county":"澎湖縣","district":"","in_office":true,"contact_details":null,"term_start":null,"term_end":{},"education":null,"experience":null,"remark":null,"image":"","links":null,"social_media":null,"platform":"","param":{"bills_role_statistics":{"total":67,"priproposer":0,"sponsor":0,"cosponsor":67},"suggestions_years":{"count":436,"sum":28673241,"years":[{"count":147,"sum":7021100,"suggest_year":"2011","small_purchase":147},{"count":54,"sum":3087097,"suggest_year":"2012","small_purchase":52},{"count":132,"sum":10114315,"suggest_year":"2013","small_purchase":116},{"count":103,"sum":8450729,"suggest_year":"2014","small_purchase":91}]},"suggestions_associations":[{"count":44,"sum":1969500,"label":"社區發展協會"},{"count":17,"sum":600000,"label":"學會"},{"count":7,"sum":220000,"label":"公會"},{"count":4,"sum":200000,"label":"農會"},{"count":2,"sum":140000,"label":"婦女會"},{"count":3,"sum":120000,"label":"研習會"},{"count":2,"sum":100000,"label":"促進會"},{"count":2,"sum":45000,"label":"協進會"},{"count":1,"sum":20000,"label":"聯盟"},{"count":0,"sum":0,"label":"商會"},{"count":0,"sum":0,"label":"婦聯會"},{"count":0,"sum":0,"label":"體育會"},{"count":0,"sum":0,"label":"同心會"},{"count":0,"sum":0,"label":"早起會"},{"count":0,"sum":0,"label":"健身會"},{"count":0,"sum":0,"label":"宗親會"},{"count":0,"sum":0,"label":"功德會"},{"count":0,"sum":0,"label":"商業會"},{"count":0,"sum":0,"label":"長青會"},{"count":0,"sum":0,"label":"民眾服務社"}],"suggestions_piles":[{"count":46,"tokens":"廟|宮","sum":7603701,"label":"廟"},{"count":158,"tokens":"協會|學會|商會|公會|協進會|促進會|研習會|婦聯會|婦女會|體育會|同心會|農會|早起會|健身會|宗親會|功德會|商業會|長青會|民眾服務社|聯盟","sum":5850901,"label":"協會"},{"count":57,"tokens":"辦公室|辦公處","sum":2328790,"label":"辦公室"},{"count":8,"tokens":"國中|國小","sum":452897,"label":"國中、國小"},{"count":0,"tokens":"警察局|分局","sum":0,"label":"警察局"},{"count":0,"tokens":"消防局|消防隊|分隊|中隊","sum":0,"label":"消防局"}]},"councilor":"31c8c3f879f8455abbd9ce802a2ac740"}],"uid":"31c8c3f879f8455abbd9ce802a2ac740","name":"劉陳昭玲","birth":"1956-06-18","former_names":"","identifiers":["劉陳昭玲","劉陳昭玲","劉陳昭玲","劉陳昭玲"]},{"url":"http://councils.g0v.tw/api/councilors/1904/","each_terms":[{"url":"http://councils.g0v.tw/api/councilors_terms/3366/","election_year":"2014","name":"呂啟宗","gender":"男","party":"無黨籍","title":"議員","constituency":6,"county":"澎湖縣","district":"七美鄉","in_office":true,"contact_details":[{"type":"address","value":"880澎湖縣馬公市中興里中正路76號","label":"服務處"},{"type":"voice","value":"06-9263521","label":"連絡電話"}],"term_start":"2014-12-25","term_end":{"date":"2018-12-25"},"education":"七美國中","experience":"第15.18屆議員\n七美鄉第15.16屆鄉民代表","remark":null,"image":"http://www.phcouncil.gov.tw/attachments/mop/M06030020.jpg","links":null,"social_media":null,"platform":"","param":{"bills_role_statistics":{"total":41,"priproposer":0,"sponsor":0,"cosponsor":41},"suggestions_years":{"count":35,"sum":1483500,"years":[{"count":35,"sum":1483500,"suggest_year":"2015","small_purchase":35}]},"suggestions_associations":[{"count":1,"sum":50000,"label":"公會"},{"count":2,"sum":50000,"label":"促進會"},{"count":1,"sum":50000,"label":"婦女會"},{"count":0,"sum":0,"label":"社區發展協會"},{"count":0,"sum":0,"label":"學會"},{"count":0,"sum":0,"label":"商會"},{"count":0,"sum":0,"label":"協進會"},{"count":0,"sum":0,"label":"研習會"},{"count":0,"sum":0,"label":"婦聯會"},{"count":0,"sum":0,"label":"體育會"},{"count":0,"sum":0,"label":"同心會"},{"count":0,"sum":0,"label":"農會"},{"count":0,"sum":0,"label":"早起會"},{"count":0,"sum":0,"label":"健身會"},{"count":0,"sum":0,"label":"宗親會"},{"count":0,"sum":0,"label":"功德會"},{"count":0,"sum":0,"label":"商業會"},{"count":0,"sum":0,"label":"長青會"},{"count":0,"sum":0,"label":"民眾服務社"},{"count":0,"sum":0,"label":"聯盟"}],"suggestions_piles":[{"count":4,"tokens":"廟|宮","sum":215000,"label":"廟"},{"count":5,"tokens":"協會|學會|商會|公會|協進會|促進會|研習會|婦聯會|婦女會|體育會|同心會|農會|早起會|健身會|宗親會|功德會|商業會|長青會|民眾服務社|聯盟","sum":180000,"label":"協會"},{"count":4,"tokens":"辦公室|辦公處","sum":140000,"label":"辦公室"},{"count":1,"tokens":"國中|國小","sum":99500,"label":"國中、國小"},{"count":0,"tokens":"警察局|分局","sum":0,"label":"警察局"},{"count":0,"tokens":"消防局|消防隊|分隊|中隊","sum":0,"label":"消防局"}],"bills_party_diversity":[{"party":"無黨籍","ratio":0.6352201257861635},{"party":"中國國民黨","ratio":0.1761006289308176},{"party":"無黨團結聯盟","ratio":0.11949685534591195},{"party":"民主進步黨","ratio":0.06918238993710692}]},"councilor":"5ec7f1c9d4244405b0870f6fe80d713f"}],"uid":"5ec7f1c9d4244405b0870f6fe80d713f","name":"呂啟宗","birth":"1952-03-18","former_names":"","identifiers":["呂啓宗","呂啟宗"]},{"url":"http://councils.g0v.tw/api/councilors/1905/","each_terms":[{"url":"http://councils.g0v.tw/api/councilors_terms/3367/","election_year":"2014","name":"陳佩真","gender":"女","party":"無黨籍","title":"","constituency":4,"county":"澎湖縣","district":"望安鄉","in_office":true,"contact_details":[],"term_start":"2016-07-04","term_end":{"date":"2018-12-25"},"education":"高職：國立澎湖海事水產高級職業學校","experience":"望安鄉公所職代課員\n西嶼鄉公所約僱人員","remark":null,"image":"http://www.phcouncil.gov.tw/attachments/mop/M16070001.jpg","links":null,"social_media":null,"platform":"","param":{"bills_role_statistics":{"total":9,"priproposer":0,"sponsor":0,"cosponsor":9},"bills_party_diversity":[{"party":"無黨籍","ratio":0.7058823529411765},{"party":"中國國民黨","ratio":0.23529411764705882},{"party":"無黨團結聯盟","ratio":0.029411764705882353},{"party":"民主進步黨","ratio":0.029411764705882353}]},"councilor":"9472aed9d6f04f08b5350129f25cd06a"}],"uid":"9472aed9d6f04f08b5350129f25cd06a","name":"陳佩真","birth":"1983-05-24","former_names":"","identifiers":["陳佩真","陳佩眞"]},{"url":"http://councils.g0v.tw/api/councilors/1906/","each_terms":[{"url":"http://councils.g0v.tw/api/councilors_terms/3368/","election_year":"2014","name":"楊石龍","gender":"男","party":"無黨籍","title":"議員","constituency":4,"county":"澎湖縣","district":"西嶼鄉","in_office":true,"contact_details":[{"type":"address","value":"880澎湖縣馬公市中興里中正路76號","label":"服務處"},{"type":"voice","value":"06-9263521","label":"連絡電話"}],"term_start":"2014-12-25","term_end":{"date":"2018-12-25"},"education":"正修工專畢業","experience":"第18屆議員\n第13.15.16屆西嶼鄉鄉長","remark":null,"image":"http://www.phcouncil.gov.tw/attachments/mop/M06030018.jpg","links":null,"social_media":null,"platform":"","param":{"bills_role_statistics":{"total":87,"priproposer":0,"sponsor":0,"cosponsor":87},"suggestions_years":{"count":30,"sum":1939600,"years":[{"count":30,"sum":1939600,"suggest_year":"2015","small_purchase":29}]},"suggestions_associations":[{"count":1,"sum":50000,"label":"促進會"},{"count":1,"sum":20000,"label":"學會"},{"count":0,"sum":0,"label":"社區發展協會"},{"count":0,"sum":0,"label":"商會"},{"count":0,"sum":0,"label":"公會"},{"count":0,"sum":0,"label":"協進會"},{"count":0,"sum":0,"label":"研習會"},{"count":0,"sum":0,"label":"婦聯會"},{"count":0,"sum":0,"label":"婦女會"},{"count":0,"sum":0,"label":"體育會"},{"count":0,"sum":0,"label":"同心會"},{"count":0,"sum":0,"label":"農會"},{"count":0,"sum":0,"label":"早起會"},{"count":0,"sum":0,"label":"健身會"},{"count":0,"sum":0,"label":"宗親會"},{"count":0,"sum":0,"label":"功德會"},{"count":0,"sum":0,"label":"商業會"},{"count":0,"sum":0,"label":"長青會"},{"count":0,"sum":0,"label":"民眾服務社"},{"count":0,"sum":0,"label":"聯盟"}],"suggestions_piles":[{"count":6,"tokens":"廟|宮","sum":550000,"label":"廟"},{"count":3,"tokens":"辦公室|辦公處","sum":198000,"label":"辦公室"},{"count":4,"tokens":"協會|學會|商會|公會|協進會|促進會|研習會|婦聯會|婦女會|體育會|同心會|農會|早起會|健身會|宗親會|功德會|商業會|長青會|民眾服務社|聯盟","sum":170000,"label":"協會"},{"count":0,"tokens":"警察局|分局","sum":0,"label":"警察局"},{"count":0,"tokens":"消防局|消防隊|分隊|中隊","sum":0,"label":"消防局"},{"count":0,"tokens":"國中|國小","sum":0,"label":"國中、國小"}],"bills_party_diversity":[{"party":"無黨籍","ratio":0.4819672131147541},{"party":"中國國民黨","ratio":0.21639344262295082},{"party":"無黨團結聯盟","ratio":0.15737704918032788},{"party":"民主進步黨","ratio":0.14426229508196722}]},"councilor":"c73cb1507f3c4fdd8eaf65f1cebffb5c"}],"uid":"c73cb1507f3c4fdd8eaf65f1cebffb5c","name":"楊石龍","birth":"1959-12-21","former_names":"","identifiers":["楊石龍"]},{"url":"http://councils.g0v.tw/api/councilors/1909/","each_terms":[{"url":"http://councils.g0v.tw/api/councilors_terms/3371/","election_year":"2014","name":"陳振中","gender":"男","party":"中國國民黨","title":"議員","constituency":2,"county":"澎湖縣","district":"湖西鄉","in_office":true,"contact_details":[{"type":"address","value":"885澎湖縣湖西鄉中西村中寮16-2號","label":"服務處"},{"type":"voice","value":"06-9264597","label":"連絡電話"}],"term_start":"2014-12-25","term_end":{"date":"2018-12-25"},"education":"沙港國小\n志清國中\n馬公高中\n文化大學經濟系畢業\n中山大學公共事務碩士學分班結業","experience":"澎湖縣政府人事助理員\n湖西鄉公所圖書館管理員\n湖西鄉公所秘書\n湖西鄉鄉長","remark":null,"image":"http://www.phcouncil.gov.tw/attachments/mop/M15050002.jpg","links":null,"social_media":null,"platform":"","param":{"bills_role_statistics":{"total":73,"priproposer":0,"sponsor":0,"cosponsor":73},"suggestions_years":{"count":64,"sum":1897850,"years":[{"count":64,"sum":1897850,"suggest_year":"2015","small_purchase":64}]},"suggestions_associations":[{"count":3,"sum":60000,"label":"協進會"},{"count":1,"sum":30000,"label":"婦女會"},{"count":0,"sum":0,"label":"社區發展協會"},{"count":0,"sum":0,"label":"學會"},{"count":0,"sum":0,"label":"商會"},{"count":0,"sum":0,"label":"公會"},{"count":0,"sum":0,"label":"促進會"},{"count":0,"sum":0,"label":"研習會"},{"count":0,"sum":0,"label":"婦聯會"},{"count":0,"sum":0,"label":"體育會"},{"count":0,"sum":0,"label":"同心會"},{"count":0,"sum":0,"label":"農會"},{"count":0,"sum":0,"label":"早起會"},{"count":0,"sum":0,"label":"健身會"},{"count":0,"sum":0,"label":"宗親會"},{"count":0,"sum":0,"label":"功德會"},{"count":0,"sum":0,"label":"商業會"},{"count":0,"sum":0,"label":"長青會"},{"count":0,"sum":0,"label":"民眾服務社"},{"count":0,"sum":0,"label":"聯盟"}],"suggestions_piles":[{"count":11,"tokens":"協會|學會|商會|公會|協進會|促進會|研習會|婦聯會|婦女會|體育會|同心會|農會|早起會|健身會|宗親會|功德會|商業會|長青會|民眾服務社|聯盟","sum":220000,"label":"協會"},{"count":4,"tokens":"廟|宮","sum":170000,"label":"廟"},{"count":6,"tokens":"辦公室|辦公處","sum":130500,"label":"辦公室"},{"count":3,"tokens":"國中|國小","sum":100000,"label":"國中、國小"},{"count":0,"tokens":"警察局|分局","sum":0,"label":"警察局"},{"count":0,"tokens":"消防局|消防隊|分隊|中隊","sum":0,"label":"消防局"}],"bills_party_diversity":[{"party":"無黨籍","ratio":0.362962962962963},{"party":"中國國民黨","ratio":0.3592592592592593},{"party":"無黨團結聯盟","ratio":0.15185185185185185},{"party":"民主進步黨","ratio":0.1259259259259259}]},"councilor":"7e8c56b6bdf244278705f09a1191c9f1"}],"uid":"7e8c56b6bdf244278705f09a1191c9f1","name":"陳振中","birth":"1963-01-11","former_names":"","identifiers":["陳振中"]},{"url":"http://councils.g0v.tw/api/councilors/1910/","each_terms":[{"url":"http://councils.g0v.tw/api/councilors_terms/3372/","election_year":"2014","name":"蔡清續","gender":"男","party":"無黨籍","title":"","constituency":1,"county":"澎湖縣","district":"湖西鄉","in_office":true,"contact_details":[],"term_start":"2015-12-18","term_end":{"date":"2018-12-25"},"education":"一、澎湖縣立湖西國民小學。二、專科學校畢業工程類電機工程科。","experience":"","remark":null,"image":"http://www.phcouncil.gov.tw/attachments/mop/M16010002.jpg","links":null,"social_media":null,"platform":"","param":{"bills_role_statistics":{"total":8,"priproposer":0,"sponsor":0,"cosponsor":8},"bills_party_diversity":[{"party":"無黨籍","ratio":0.6},{"party":"中國國民黨","ratio":0.16666666666666666},{"party":"民主進步黨","ratio":0.16666666666666666},{"party":"無黨團結聯盟","ratio":0.06666666666666667}]},"councilor":"33e5ba56b4d14c3c80d72747b76beefe"}],"uid":"33e5ba56b4d14c3c80d72747b76beefe","name":"蔡清續","birth":"1957-09-20","former_names":"","identifiers":["蔡清續"]},{"url":"http://councils.g0v.tw/api/councilors/1912/","each_terms":[{"url":"http://councils.g0v.tw/api/councilors_terms/3374/","election_year":"2014","name":"蘇陳綉色","gender":"女","party":"無黨籍","title":"議員","constituency":1,"county":"澎湖縣","district":"馬公市","in_office":true,"contact_details":[{"type":"address","value":"澎湖縣","label":"服務處"}],"term_start":"2015-12-08","term_end":{"date":"2018-12-25"},"education":"馬公國中","experience":"蘇文佐議員助理、澎湖國際蘭馨交流協會第七屆會長、澎湖縣餐飲工會理事、歡喜樓餐廳負責人。真善美聯誼會委員、菊島關懷協會","remark":null,"image":"http://www.phcouncil.gov.tw/attachments/mop/M16010001.jpg","links":null,"social_media":null,"platform":"","param":{"bills_role_statistics":{"total":22,"priproposer":0,"sponsor":0,"cosponsor":22},"bills_party_diversity":[{"party":"無黨籍","ratio":0.7051282051282052},{"party":"中國國民黨","ratio":0.24358974358974358},{"party":"民主進步黨","ratio":0.038461538461538464},{"party":"無黨團結聯盟","ratio":0.01282051282051282}]},"councilor":"cc3e4a8099ba4820bc552cf424adeec9"}],"uid":"cc3e4a8099ba4820bc552cf424adeec9","name":"蘇陳綉色","birth":"1957-04-04","former_names":"","identifiers":["蘇陳綉色"]},{"url":"http://councils.g0v.tw/api/councilors/1919/","each_terms":[{"url":"http://councils.g0v.tw/api/councilors_terms/3381/","election_year":"2014","name":"藍俊逸","gender":"男","party":"中國國民黨","title":"議員","constituency":1,"county":"澎湖縣","district":"馬公市","in_office":true,"contact_details":[{"type":"address","value":"880澎湖縣馬公市中興里中正路76號","label":"服務處"},{"type":"voice","value":"06-9263521","label":"連絡電話"}],"term_start":"2014-12-25","term_end":{"date":"2018-12-25"},"education":"高雄私立中正中學畢業","experience":"第18屆議員\n第16、17屆副議長\n東連船務有限公司董事長\n佳期大飯店董事長\n澎湖縣商會理事長、常務監事","remark":null,"image":"http://www.phcouncil.gov.tw/attachments/mop/M06030005.jpg","links":null,"social_media":null,"platform":"","param":{"bills_role_statistics":{"total":1,"priproposer":0,"sponsor":0,"cosponsor":1},"suggestions_years":{"count":32,"sum":1717460,"years":[{"count":32,"sum":1717460,"suggest_year":"2015","small_purchase":30}]},"suggestions_associations":[{"count":5,"sum":190000,"label":"公會"},{"count":3,"sum":95000,"label":"研習會"},{"count":1,"sum":50000,"label":"商業會"},{"count":1,"sum":20000,"label":"宗親會"},{"count":0,"sum":0,"label":"社區發展協會"},{"count":0,"sum":0,"label":"學會"},{"count":0,"sum":0,"label":"商會"},{"count":0,"sum":0,"label":"協進會"},{"count":0,"sum":0,"label":"促進會"},{"count":0,"sum":0,"label":"婦聯會"},{"count":0,"sum":0,"label":"婦女會"},{"count":0,"sum":0,"label":"體育會"},{"count":0,"sum":0,"label":"同心會"},{"count":0,"sum":0,"label":"農會"},{"count":0,"sum":0,"label":"早起會"},{"count":0,"sum":0,"label":"健身會"},{"count":0,"sum":0,"label":"功德會"},{"count":0,"sum":0,"label":"長青會"},{"count":0,"sum":0,"label":"民眾服務社"},{"count":0,"sum":0,"label":"聯盟"}],"suggestions_piles":[{"count":12,"tokens":"協會|學會|商會|公會|協進會|促進會|研習會|婦聯會|婦女會|體育會|同心會|農會|早起會|健身會|宗親會|功德會|商業會|長青會|民眾服務社|聯盟","sum":445000,"label":"協會"},{"count":6,"tokens":"辦公室|辦公處","sum":388000,"label":"辦公室"},{"count":2,"tokens":"廟|宮","sum":160000,"label":"廟"},{"count":0,"tokens":"警察局|分局","sum":0,"label":"警察局"},{"count":0,"tokens":"消防局|消防隊|分隊|中隊","sum":0,"label":"消防局"},{"count":0,"tokens":"國中|國小","sum":0,"label":"國中、國小"}],"bills_party_diversity":[{"party":"中國國民黨","ratio":0.8333333333333334},{"party":"民主進步黨","ratio":0.16666666666666666}]},"councilor":"cff4ecec718d47df9020a5b1dede453d"},{"url":"http://councils.g0v.tw/api/councilors_terms/26402/","election_year":"2009","name":"藍俊逸","gender":"男","party":"中國國民黨","title":"議員","constituency":1,"county":"澎湖縣","district":"","in_office":true,"contact_details":null,"term_start":null,"term_end":{},"education":null,"experience":null,"remark":null,"image":"","links":null,"social_media":null,"platform":"","param":{"bills_role_statistics":{"total":42,"priproposer":0,"sponsor":0,"cosponsor":42},"suggestions_years":{"count":198,"sum":12216155,"years":[{"count":43,"sum":2447339,"suggest_year":"2011","small_purchase":42},{"count":36,"sum":2177906,"suggest_year":"2012","small_purchase":35},{"count":70,"sum":4344690,"suggest_year":"2013","small_purchase":64},{"count":49,"sum":3246220,"suggest_year":"2014","small_purchase":44}]},"suggestions_associations":[{"count":8,"sum":376000,"label":"社區發展協會"},{"count":8,"sum":210000,"label":"公會"},{"count":3,"sum":120000,"label":"協進會"},{"count":3,"sum":110000,"label":"研習會"},{"count":2,"sum":100000,"label":"體育會"},{"count":4,"sum":80000,"label":"宗親會"},{"count":2,"sum":60000,"label":"學會"},{"count":1,"sum":50000,"label":"婦女會"},{"count":0,"sum":0,"label":"商會"},{"count":0,"sum":0,"label":"促進會"},{"count":0,"sum":0,"label":"婦聯會"},{"count":0,"sum":0,"label":"同心會"},{"count":0,"sum":0,"label":"農會"},{"count":0,"sum":0,"label":"早起會"},{"count":0,"sum":0,"label":"健身會"},{"count":0,"sum":0,"label":"功德會"},{"count":0,"sum":0,"label":"商業會"},{"count":0,"sum":0,"label":"長青會"},{"count":0,"sum":0,"label":"民眾服務社"},{"count":0,"sum":0,"label":"聯盟"}],"suggestions_piles":[{"count":24,"tokens":"廟|宮","sum":2920000,"label":"廟"},{"count":51,"tokens":"協會|學會|商會|公會|協進會|促進會|研習會|婦聯會|婦女會|體育會|同心會|農會|早起會|健身會|宗親會|功德會|商業會|長青會|民眾服務社|聯盟","sum":1831650,"label":"協會"},{"count":37,"tokens":"辦公室|辦公處","sum":1802699,"label":"辦公室"},{"count":1,"tokens":"國中|國小","sum":30000,"label":"國中、國小"},{"count":0,"tokens":"警察局|分局","sum":0,"label":"警察局"},{"count":0,"tokens":"消防局|消防隊|分隊|中隊","sum":0,"label":"消防局"}]},"councilor":"cff4ecec718d47df9020a5b1dede453d"}],"uid":"cff4ecec718d47df9020a5b1dede453d","name":"藍俊逸","birth":"1946-10-16","former_names":"","identifiers":["藍俊逸"]},{"url":"http://councils.g0v.tw/api/councilors/1920/","each_terms":[{"url":"http://councils.g0v.tw/api/councilors_terms/26405/","election_year":"2009","name":"陳雙全","gender":"男","party":"中國國民黨","title":"議員","constituency":1,"county":"澎湖縣","district":"","in_office":true,"contact_details":null,"term_start":null,"term_end":{},"education":null,"experience":null,"remark":null,"image":"","links":null,"social_media":null,"platform":"","param":{"bills_role_statistics":{"total":7,"priproposer":0,"sponsor":0,"cosponsor":7},"suggestions_years":{"count":187,"sum":9153575,"years":[{"count":49,"sum":2538000,"suggest_year":"2011","small_purchase":49},{"count":13,"sum":634600,"suggest_year":"2012","small_purchase":13},{"count":58,"sum":3039637,"suggest_year":"2013","small_purchase":56},{"count":67,"sum":2941338,"suggest_year":"2014","small_purchase":66}]},"suggestions_associations":[{"count":18,"sum":630000,"label":"社區發展協會"},{"count":10,"sum":370000,"label":"公會"},{"count":6,"sum":164550,"label":"學會"},{"count":3,"sum":120000,"label":"婦女會"},{"count":2,"sum":75000,"label":"研習會"},{"count":2,"sum":60000,"label":"促進會"},{"count":1,"sum":30000,"label":"體育會"},{"count":1,"sum":20000,"label":"協進會"},{"count":1,"sum":20000,"label":"宗親會"},{"count":0,"sum":0,"label":"商會"},{"count":0,"sum":0,"label":"婦聯會"},{"count":0,"sum":0,"label":"同心會"},{"count":0,"sum":0,"label":"農會"},{"count":0,"sum":0,"label":"早起會"},{"count":0,"sum":0,"label":"健身會"},{"count":0,"sum":0,"label":"功德會"},{"count":0,"sum":0,"label":"商業會"},{"count":0,"sum":0,"label":"長青會"},{"count":0,"sum":0,"label":"民眾服務社"},{"count":0,"sum":0,"label":"聯盟"}],"suggestions_piles":[{"count":82,"tokens":"協會|學會|商會|公會|協進會|促進會|研習會|婦聯會|婦女會|體育會|同心會|農會|早起會|健身會|宗親會|功德會|商業會|長青會|民眾服務社|聯盟","sum":2700550,"label":"協會"},{"count":22,"tokens":"廟|宮","sum":1531400,"label":"廟"},{"count":21,"tokens":"辦公室|辦公處","sum":1418360,"label":"辦公室"},{"count":2,"tokens":"國中|國小","sum":80000,"label":"國中、國小"},{"count":0,"tokens":"警察局|分局","sum":0,"label":"警察局"},{"count":0,"tokens":"消防局|消防隊|分隊|中隊","sum":0,"label":"消防局"}]},"councilor":"6313b1642b1c40cb9d883c03f96c9c55"},{"url":"http://councils.g0v.tw/api/councilors_terms/3382/","election_year":"2014","name":"陳雙全","gender":"男","party":"中國國民黨","title":"副議長","constituency":1,"county":"澎湖縣","district":"馬公市","in_office":true,"contact_details":[{"type":"address","value":"880澎湖縣馬公市中興里中正路76號","label":"服務處"},{"type":"voice","value":"06-9263521","label":"連絡電話"}],"term_start":"2014-12-25","term_end":{"date":"2018-12-25"},"education":"正修科技大學工業工程與管理研究所碩士\n國立澎湖科技大學附設專科部水產養殖科\n永達技術學院經營管理系","experience":"第18屆副議長\n第14、15、16、17屆議員\n澎湖科技大學校友會會長\n澎湖縣生命線協會理事長\n澎湖縣帆船協會理事長\n澎湖縣照顧者協會理事長\n澎湖縣動物照顧協會理事長","remark":null,"image":"http://www.phcouncil.gov.tw/attachments/mop/M06030014.jpg","links":null,"social_media":null,"platform":"","param":{"bills_role_statistics":{"total":8,"priproposer":0,"sponsor":0,"cosponsor":8},"suggestions_years":{"count":102,"sum":4574932,"years":[{"count":102,"sum":4574932,"suggest_year":"2015","small_purchase":98}]},"suggestions_associations":[{"count":3,"sum":100000,"label":"公會"},{"count":3,"sum":70000,"label":"學會"},{"count":3,"sum":70000,"label":"協進會"},{"count":2,"sum":70000,"label":"體育會"},{"count":2,"sum":50000,"label":"研習會"},{"count":1,"sum":20000,"label":"婦女會"},{"count":0,"sum":0,"label":"社區發展協會"},{"count":0,"sum":0,"label":"商會"},{"count":0,"sum":0,"label":"促進會"},{"count":0,"sum":0,"label":"婦聯會"},{"count":0,"sum":0,"label":"同心會"},{"count":0,"sum":0,"label":"農會"},{"count":0,"sum":0,"label":"早起會"},{"count":0,"sum":0,"label":"健身會"},{"count":0,"sum":0,"label":"宗親會"},{"count":0,"sum":0,"label":"功德會"},{"count":0,"sum":0,"label":"商業會"},{"count":0,"sum":0,"label":"長青會"},{"count":0,"sum":0,"label":"民眾服務社"},{"count":0,"sum":0,"label":"聯盟"}],"suggestions_piles":[{"count":12,"tokens":"廟|宮","sum":965000,"label":"廟"},{"count":32,"tokens":"協會|學會|商會|公會|協進會|促進會|研習會|婦聯會|婦女會|體育會|同心會|農會|早起會|健身會|宗親會|功德會|商業會|長青會|民眾服務社|聯盟","sum":902227,"label":"協會"},{"count":10,"tokens":"辦公室|辦公處","sum":279930,"label":"辦公室"},{"count":4,"tokens":"國中|國小","sum":180000,"label":"國中、國小"},{"count":0,"tokens":"警察局|分局","sum":0,"label":"警察局"},{"count":0,"tokens":"消防局|消防隊|分隊|中隊","sum":0,"label":"消防局"}],"bills_party_diversity":[{"party":"中國國民黨","ratio":0.43478260869565216},{"party":"無黨籍","ratio":0.30434782608695654},{"party":"無黨團結聯盟","ratio":0.21739130434782608},{"party":"民主進步黨","ratio":0.043478260869565216}]},"councilor":"6313b1642b1c40cb9d883c03f96c9c55"}],"uid":"6313b1642b1c40cb9d883c03f96c9c55","name":"陳雙全","birth":"1961-11-15","former_names":"","identifiers":["陳雙全"]},{"url":"http://councils.g0v.tw/api/councilors/1602/","each_terms":[{"url":"http://councils.g0v.tw/api/councilors_terms/2528/","election_year":"2009","name":"陳滄江","gender":"","party":"民主進步黨","title":"","constituency":null,"county":"金門縣","district":"","in_office":true,"contact_details":[{"type":"address","value":"金門縣金城鎮民生路43號11樓","label":"地址"},{"type":"voice","value":"（082）320111","label":"電話"}],"term_start":"2009-12-25","term_end":{"date":"2014-12-25"},"education":"淡江大學管理科學研究所博士\n南華大學管理科學研究所碩士\n世新大學傳播管理學系學士\n國立金門大學兼任助理教授。\n福建省政府專任委員。\n凱達格蘭學校校友會理事、國家領導策略班第五期。\n世新大學金門校友會理事、金門校友會總幹事。\n淡江大學金門校友會常務理事。\n民主進步黨金門縣黨部第四、五屆主任委員。\n民主進步黨金門縣黨部第二屆評委召集人。\n民主進步黨全國黨代表。\n民進黨金門總統競選總部主委2000/2008。\n金門縣建築開發商業同業公會理事長。\n太武山生活美學工作站召集人。\n金門縣體操運動委員會主任委員。\n金門縣鄉土文化建設促進會理事長。\n小板凳工坊負責人。\n金門縣議會跨黨策進聯盟新聞發言人。\n金門縣議會第五屆第三會期程序委員。","experience":"國立金門大學兼任助理教授。\n福建省政府專任委員。\n凱達格蘭學校校友會理事、國家領導策略班第五期。\n世新大學金門校友會理事、金門校友會總幹事。\n淡江大學金門校友會常務理事。\n民主進步黨金門縣黨部第四、五屆主任委員。\n民主進步黨金門縣黨部第二屆評委召集人。\n民主進步黨全國黨代表。\n民進黨金門總統競選總部主委2000/2008。\n金門縣建築開發商業同業公會理事長。\n太武山生活美學工作站召集人。\n金門縣體操運動委員會主任委員。\n金門縣鄉土文化建設促進會理事長。\n小板凳工坊負責人。\n金門縣議會跨黨策進聯盟新聞發言人。\n金門縣議會第五屆第三會期程序委員。","remark":null,"image":"http://www.kmcc.gov.tw/images/people/test.jpg","links":[{"url":"http://www.kmcc.gov.tw/men/05-020.htm","note":"議會個人官網"}],"social_media":null,"platform":"改善金門水質，設立更優質淨水廠、更優質海水淡化處理廠。\n積極爭取金門成為自由經濟免稅特區。\n積極爭取金門地區設立醫療中心，提昇醫療水準。\n加強傷殘低收入戶及獨居老人照顧，擴大社會救助與完善福利制度。\n開創青、壯年創業，制訂完善的補助條款，爭取青、壯年創業補助。\n幫助中年失業者重新學習並投入職場。\n要求政府應積極真正正視弱勢族群、殘障族群保障工作權。\n爭取臨時人員及約僱人員工作權。\n要求政府放寬土地政策及不合理的法規，重新建立離島政策。\n縮減國家公園土地管轄範圍權，使百姓擁有自己真正土地使用權力。\n重新檢討改善全縣紅綠燈及指示牌，維護人、車安全，生命無價。\n要求縣府設立真正與民窗口讓民眾直接有申訴的管道。\n監督金酒政策，穩定財政收入，維護民眾及地區酒商權益。\n培育體育人才、師資人才，百年教育向下紮根，讓金門子弟出頭天。\n開拓百米花園大道及夜間觀光活動區域，提昇金門觀光國際水準。\n全心投入金烈大橋興建，開創觀光資源，爭取就業機會，帶動經濟復甦。","param":{"suggestions_years":{"count":31,"sum":8798532,"years":[{"count":7,"sum":2999762,"suggest_year":"2012","small_purchase":1},{"count":7,"sum":2979600,"suggest_year":"2013","small_purchase":3},{"count":17,"sum":2819170,"suggest_year":"2014","small_purchase":12}]},"suggestions_associations":[{"count":13,"sum":1438200,"label":"社區發展協會"},{"count":0,"sum":0,"label":"學會"},{"count":0,"sum":0,"label":"商會"},{"count":0,"sum":0,"label":"公會"},{"count":0,"sum":0,"label":"協進會"},{"count":0,"sum":0,"label":"促進會"},{"count":0,"sum":0,"label":"研習會"},{"count":0,"sum":0,"label":"婦聯會"},{"count":0,"sum":0,"label":"婦女會"},{"count":0,"sum":0,"label":"體育會"},{"count":0,"sum":0,"label":"同心會"},{"count":0,"sum":0,"label":"農會"},{"count":0,"sum":0,"label":"早起會"},{"count":0,"sum":0,"label":"健身會"},{"count":0,"sum":0,"label":"宗親會"},{"count":0,"sum":0,"label":"功德會"},{"count":0,"sum":0,"label":"商業會"},{"count":0,"sum":0,"label":"長青會"},{"count":0,"sum":0,"label":"民眾服務社"},{"count":0,"sum":0,"label":"聯盟"}],"suggestions_piles":[{"count":14,"tokens":"廟|宮","sum":1636000,"label":"廟"},{"count":13,"tokens":"協會|學會|商會|公會|協進會|促進會|研習會|婦聯會|婦女會|體育會|同心會|農會|早起會|健身會|宗親會|功德會|商業會|長青會|民眾服務社|聯盟","sum":1438200,"label":"協會"},{"count":2,"tokens":"國中|國小","sum":769732,"label":"國中、國小"},{"count":3,"tokens":"辦公室|辦公處","sum":290000,"label":"辦公室"},{"count":0,"tokens":"警察局|分局","sum":0,"label":"警察局"},{"count":0,"tokens":"消防局|消防隊|分隊|中隊","sum":0,"label":"消防局"}]},"councilor":"a07eac483f81450480ef7b92430c0681"},{"url":"http://councils.g0v.tw/api/councilors_terms/3383/","election_year":"2014","name":"陳滄江","gender":"男","party":"民主進步黨","title":"議員","constituency":1,"county":"金門縣","district":"金城鎮、金寧鄉、烏坵鄉","in_office":true,"contact_details":[{"type":"address","value":"金門縣金城鎮民生路43號11樓","label":"服務地址"},{"type":"voice","value":"(082)320111","label":"聯絡電話"}],"term_start":"2014-12-25","term_end":{"date":"2018-12-25"},"education":"淡江大學管理學博士\n南華大學管理學碩士\n世新大學傳播管理學系學士","experience":"金門縣議會第五屆縣議員\n國立金門大學兼任助理教授\n福建省政府專任委員\n民主進步黨金門縣黨部創黨黨員，第四、五、七、八屆主任委員\n凱達格蘭學校校友會理事、國家領導策略班第五期\n世新大學金門校友會理事、金門校友會總幹事\n淡江大學金門校友會常務理事\n民主進步黨金門縣黨部第二屆評委召集人\n民主進步黨全國黨代表\n民進黨金門總統競選總部主委2000/2008\n金門縣建築開發商業同業公會理事長\n太武山生活美學工作站召集人\n金門縣體操運動委員會主任委員\n金門縣鄉土文化建設促進會理事長\n小板凳工坊負責人\n金門縣議會跨黨策進聯盟新聞發言人\n金門縣議會第五屆第三會期程序委員","remark":null,"image":"http://www.kmcc.gov.tw/images/men/m_7.jpg","links":[{"url":"http://www.kmcc.gov.tw/men/men07.aspx","note":"議會個人官網"}],"social_media":null,"platform":"","param":{"bills_role_statistics":{"total":10,"priproposer":9,"sponsor":10,"cosponsor":0},"suggestions_years":{"count":27,"sum":5297909,"years":[{"count":21,"sum":3511883,"suggest_year":"2015","small_purchase":18},{"count":6,"sum":1786026,"suggest_year":"2016","small_purchase":4}]},"suggestions_associations":[{"count":14,"sum":1299600,"label":"社區發展協會"},{"count":0,"sum":0,"label":"學會"},{"count":0,"sum":0,"label":"商會"},{"count":0,"sum":0,"label":"公會"},{"count":0,"sum":0,"label":"協進會"},{"count":0,"sum":0,"label":"促進會"},{"count":0,"sum":0,"label":"研習會"},{"count":0,"sum":0,"label":"婦聯會"},{"count":0,"sum":0,"label":"婦女會"},{"count":0,"sum":0,"label":"體育會"},{"count":0,"sum":0,"label":"同心會"},{"count":0,"sum":0,"label":"農會"},{"count":0,"sum":0,"label":"早起會"},{"count":0,"sum":0,"label":"健身會"},{"count":0,"sum":0,"label":"宗親會"},{"count":0,"sum":0,"label":"功德會"},{"count":0,"sum":0,"label":"商業會"},{"count":0,"sum":0,"label":"長青會"},{"count":0,"sum":0,"label":"民眾服務社"},{"count":0,"sum":0,"label":"聯盟"}],"suggestions_piles":[{"count":14,"tokens":"協會|學會|商會|公會|協進會|促進會|研習會|婦聯會|婦女會|體育會|同心會|農會|早起會|健身會|宗親會|功德會|商業會|長青會|民眾服務社|聯盟","sum":1299600,"label":"協會"},{"count":5,"tokens":"辦公室|辦公處","sum":1298983,"label":"辦公室"},{"count":5,"tokens":"廟|宮","sum":480000,"label":"廟"},{"count":1,"tokens":"國中|國小","sum":403500,"label":"國中、國小"},{"count":0,"tokens":"警察局|分局","sum":0,"label":"警察局"},{"count":0,"tokens":"消防局|消防隊|分隊|中隊","sum":0,"label":"消防局"}],"bills_party_diversity":[{"party":"民主進步黨","ratio":0.7142857142857143},{"party":"中國國民黨","ratio":0.21428571428571427},{"party":"無黨籍","ratio":0.07142857142857142}]},"councilor":"a07eac483f81450480ef7b92430c0681"}],"uid":"a07eac483f81450480ef7b92430c0681","name":"陳滄江","birth":null,"former_names":"","identifiers":["陳滄江"]}]}