{"count":1904,"next":"http://councils.g0v.tw/api/councilors/?page=11","previous":"http://councils.g0v.tw/api/councilors/?page=9","results":[{"url":"http://councils.g0v.tw/api/councilors/883/","each_terms":[{"url":"http://councils.g0v.tw/api/councilors_terms/1562/","election_year":"1953","name":"林詩仁","gender":"","party":"","title":"議員","constituency":4,"county":"新北市","district":"淡水鎮、三芝鄉、石門鄉、八里鄉","in_office":true,"contact_details":null,"term_start":"1953-01-16","term_end":{"date":"1955-01-15"},"education":"國校畢業","experience":"農會理事長\n縣聯合社理事\n莊協議會員\n臺北縣淡水區土地委員\n整理石門鄉茶葉社常委\n以及南華公司總經理\n臺北縣議會第2屆議員","remark":null,"image":"http://www.ntp.gov.tw/UpFile/CouncilorFile/TTCC0229.jpg","links":[{"url":"http://www.ntp.gov.tw/content/history/history01-5-p.aspx?sid=136","note":"議會個人官網"}],"social_media":null,"platform":"","param":null,"councilor":"55c7d2dbffc344218a4f98ff8f6d6556"}],"uid":"55c7d2dbffc344218a4f98ff8f6d6556","name":"林詩仁","birth":null,"former_names":"","identifiers":["林詩仁","林詩仁"]},{"url":"http://councils.g0v.tw/api/councilors/739/","each_terms":[{"url":"http://councils.g0v.tw/api/councilors_terms/1368/","election_year":"2006","name":"王棋","gender":"","party":"","title":"議員","constituency":5,"county":"新北市","district":"三重市、蘆洲市","in_office":true,"contact_details":null,"term_start":"2006-03-01","term_end":{"date":"2010-12-24"},"education":"","experience":"臺北縣議會第16屆議員\n蘆洲市調解委員會主席\n蘆洲市市民代表\n鷺江國中第三、四屆家長會會長\n臺北縣慢速壘球委員會主任委員\n中華民國普濟門慈善會名譽理事長\n蘆洲市幼兒教保協會顧問\n臺北縣重光慈善會會員及志工\n蘆洲市正義社區發展協會第三屆理事長\n蘆洲市第二屆正義里里長\n蘆洲市忠義國小家長委員會創會會長\n民國99年11月4日歿","remark":null,"image":"http://www.ntp.gov.tw/UpFile/CouncilorFile/TTCC1637.jpg","links":[{"url":"http://www.ntp.gov.tw/content/history/history01-5-p.aspx?sid=539","note":"議會個人官網"}],"social_media":null,"platform":"","param":null,"councilor":"ba139be72b454f2e92dac6bd0f58cac2"}],"uid":"ba139be72b454f2e92dac6bd0f58cac2","name":"王棋","birth":null,"former_names":"","identifiers":["王棋"]},{"url":"http://councils.g0v.tw/api/councilors/757/","each_terms":[{"url":"http://councils.g0v.tw/api/councilors_terms/1407/","election_year":"1946","name":"林賢一","gender":"","party":"","title":"議員","constituency":null,"county":"新北市","district":"","in_office":true,"contact_details":null,"term_start":"1946-04-15","term_end":{"date":"1950-12-31"},"education":"國民學校畢業","experience":"太平鄉合作社理事主席\n臺灣省物資供銷會太平分處主任\n*太平鄉選出山胞議員\n補李榮進缺","remark":null,"image":"http://www.ntp.gov.tw/UpFile/CouncilorFile/TTCC0068.jpg","links":[{"url":"http://www.ntp.gov.tw/content/history/history01-5-p.aspx?sid=68","note":"議會個人官網"}],"social_media":null,"platform":"","param":null,"councilor":"8825c39e80e3429c91d277990bc53bcf"}],"uid":"8825c39e80e3429c91d277990bc53bcf","name":"林賢一","birth":null,"former_names":"","identifiers":["林賢一","林賢一"]},{"url":"http://councils.g0v.tw/api/councilors/563/","each_terms":[{"url":"http://councils.g0v.tw/api/councilors_terms/971/","election_year":"1986","name":"廖秀雄","gender":"","party":"","title":"議員","constituency":8,"county":"新北市","district":"瑞芳鎮、雙溪鄉、貢寮鄉、平溪鄉","in_office":true,"contact_details":null,"term_start":"1986-03-01","term_end":{"date":"1990-02-28"},"education":"","experience":"1.瑞芳鎮第12、13屆鎮長\n2.台北縣議會第11、12、15、16屆議員\n3.瑞芳鎮第10、11屆鎮民代表\n4.瑞芳鎮調解委員會主席\n5.台灣區煤礦業同業公會理事長\n6.台灣省礦工福利委員會主任委員\n7.重光煤礦總經理\n8.八堵礦工醫院董事長\n9.考試院公職候選人檢覈合格（動公覈縣字第１３８２號）","remark":null,"image":"http://www.ntp.gov.tw/UpFile/CouncilorFile/TTCC1157.jpg","links":[{"url":"http://www.ntp.gov.tw/content/history/history01-5-p.aspx?sid=410","note":"議會個人官網"}],"social_media":null,"platform":"","param":null,"councilor":"0f9f4cda0ce5466e8267de3d5cbda96c"},{"url":"http://councils.g0v.tw/api/councilors_terms/1092/","election_year":"1990","name":"廖秀雄","gender":"","party":"","title":"議員","constituency":9,"county":"新北市","district":"瑞芳鎮、雙溪鄉、貢寮鄉、平溪鄉","in_office":true,"contact_details":null,"term_start":"1990-03-01","term_end":{"date":"1994-02-28"},"education":"","experience":"1.瑞芳鎮第12、13屆鎮長\n2.台北縣議會第11、12、15、16屆議員\n3.瑞芳鎮第10、11屆鎮民代表\n4.瑞芳鎮調解委員會主席\n5.台灣區煤礦業同業公會理事長\n6.台灣省礦工福利委員會主任委員\n7.重光煤礦總經理\n8.八堵礦工醫院董事長\n9.考試院公職候選人檢覈合格（動公覈縣字第１３８２號）","remark":null,"image":"http://www.ntp.gov.tw/UpFile/CouncilorFile/TTCC1157.jpg","links":[{"url":"http://www.ntp.gov.tw/content/history/history01-5-p.aspx?sid=410","note":"議會個人官網"}],"social_media":null,"platform":"","param":null,"councilor":"0f9f4cda0ce5466e8267de3d5cbda96c"},{"url":"http://councils.g0v.tw/api/councilors_terms/1283/","election_year":"2002","name":"廖秀雄","gender":"","party":"","title":"議員","constituency":9,"county":"新北市","district":"瑞芳鎮、雙溪鄉、貢寮鄉、平溪鄉","in_office":true,"contact_details":null,"term_start":"2002-03-01","term_end":{"date":"2006-02-28"},"education":"","experience":"1.瑞芳鎮第12、13屆鎮長\n2.台北縣議會第11、12、15、16屆議員\n3.瑞芳鎮第10、11屆鎮民代表\n4.瑞芳鎮調解委員會主席\n5.台灣區煤礦業同業公會理事長\n6.台灣省礦工福利委員會主任委員\n7.重光煤礦總經理\n8.八堵礦工醫院董事長\n9.考試院公職候選人檢覈合格（動公覈縣字第１３８２號）","remark":null,"image":"http://www.ntp.gov.tw/UpFile/CouncilorFile/TTCC1157.jpg","links":[{"url":"http://www.ntp.gov.tw/content/history/history01-5-p.aspx?sid=410","note":"議會個人官網"}],"social_media":null,"platform":"","param":null,"councilor":"0f9f4cda0ce5466e8267de3d5cbda96c"},{"url":"http://councils.g0v.tw/api/councilors_terms/1348/","election_year":"2006","name":"廖秀雄","gender":"","party":"","title":"議員","constituency":9,"county":"新北市","district":"瑞芳鎮、雙溪鄉、貢寮鄉、平溪鄉","in_office":true,"contact_details":null,"term_start":"2006-03-01","term_end":{"date":"2010-12-24"},"education":"","experience":"1.瑞芳鎮第12、13屆鎮長\n2.台北縣議會第11、12、15、16屆議員\n3.瑞芳鎮第10、11屆鎮民代表\n4.瑞芳鎮調解委員會主席\n5.台灣區煤礦業同業公會理事長\n6.台灣省礦工福利委員會主任委員\n7.重光煤礦總經理\n8.八堵礦工醫院董事長\n9.考試院公職候選人檢覈合格（動公覈縣字第１３８２號）","remark":null,"image":"http://www.ntp.gov.tw/UpFile/CouncilorFile/TTCC1157.jpg","links":[{"url":"http://www.ntp.gov.tw/content/history/history01-5-p.aspx?sid=410","note":"議會個人官網"}],"social_media":null,"platform":"","param":null,"councilor":"0f9f4cda0ce5466e8267de3d5cbda96c"},{"url":"http://councils.g0v.tw/api/councilors_terms/1896/","election_year":"2010","name":"廖秀雄","gender":"","party":"中國國民黨","title":"議員","constituency":9,"county":"新北市","district":"平溪區、瑞芳區、雙溪區、貢寮區","in_office":true,"contact_details":[{"type":"voice","value":"02-24978585","label":"電話"},{"type":"fax","value":"02-24062698","label":"傳真"},{"type":"address","value":"22441新北市瑞芳區民生街36號2F","label":"通訊處"},{"type":"email","value":"","label":"E-mail"}],"term_start":"2010-12-25","term_end":{"date":"2014-12-24"},"education":"","experience":"1.瑞芳鎮第12、13屆鎮長\n2.台北縣議會第11、12、15、16屆議員\n3.瑞芳鎮第10、11屆鎮民代表\n4.瑞芳鎮調解委員會主席\n5.台灣區煤礦業同業公會理事長\n6.台灣省礦工福利委員會主任委員\n7.重光煤礦總經理\n8.八堵礦工醫院董事長\n9.考試院公職候選人檢覈合格（動公覈縣字第１３８２號）","remark":null,"image":"http://www.ntp.gov.tw/UpFile/CouncilorFile/TTCC1157.jpg","links":[{"url":"http://www.ntp.gov.tw/content/list/list01-1-03-1.aspx?sid=410&cid=176","note":"議會個人官網"}],"social_media":null,"platform":"1.觀光：爭取觀光建設，推動選區四鄉鎮觀光遊憩整體發展，串聯各風景點觀光人潮，繁榮地方。\n2.交通：爭取交通建設經費，打通四鄉鎮環狀交通網。\n3.治水：整治水患預防山坡地土石流，各地野溪、雙溪河及基隆河整治以防水患。\n4.治安：推動四鄉鎮增設監視器並且汰舊換新及加強消防設備，建立長治久安。\n5.福利：全力爭取學校教育經費及鄉鎮醫療資源，增強老弱婦幼弱勢團體應有的福利。\n6.運動公園增加設施，適當管理，充分發揮其功能。\n7.推動工業區發展，增加青年就業機會，解決人口外流。\n8.順應民意，合理解決貢寮蔗民經濟計劃案。\n9.爭取漁船用油補助，以減輕漁民負擔；簡化大陸漁工雇用限制並設法協助漁港污泥處理。","param":{"attendance_statistics":{"absent":119,"total":124},"diversity":{},"bills_party_diversity":null},"councilor":"0f9f4cda0ce5466e8267de3d5cbda96c"}],"uid":"0f9f4cda0ce5466e8267de3d5cbda96c","name":"廖秀雄","birth":null,"former_names":"","identifiers":["廖秀雄"]},{"url":"http://councils.g0v.tw/api/councilors/994/","each_terms":[{"url":"http://councils.g0v.tw/api/councilors_terms/1885/","election_year":"2010","name":"夷將‧拔路兒Icyang‧Parod","gender":"","party":"民主進步黨","title":"議員","constituency":11,"county":"新北市","district":"平地原住民","in_office":true,"contact_details":[{"type":"voice","value":"02-22675766","label":"電話"},{"type":"fax","value":"02-22676542","label":"傳真"},{"type":"address","value":"23671新北市土城區中央路3段87號8樓","label":"通訊處"},{"type":"email","value":"icyang@ntp.gov.tw","label":"E-mail"}],"term_start":"2010-12-25","term_end":{"date":"2014-12-24"},"education":"國立台灣大學政治學系畢業\n私立台北縣淡江中學畢業","experience":"行政院原住民族委員會主任委員\n台北縣原住民族行政局長\n台北市政府原住民委員會專門委員\n為爭取原住民族權利遭司法迫害入獄一年\n台灣原住民族權利促進會長","remark":null,"image":"http://www.ntp.gov.tw/UpFile/CouncilorFile/XCC0164.jpg","links":[{"url":"http://www.ntp.gov.tw/content/list/list01-1-03-1.aspx?sid=559&cid=178","note":"議會個人官網"}],"social_media":null,"platform":"制定保障就業、教育、文化、經濟、住宅等權利之新北市原住民族基本法。\n立法創造工作機會，市府機關、民間企業規定進用3%原住民勞工。\n原住民族學生從學齡前到大學學雜費全免、專案培植原住民族運動人才。\n購屋者利息補貼、租屋者租屋補助，向政府承租住宅之住戶以租代購建立家園。\n以就地安置原則解決河濱部落長期居住問題。\n督促市政府加強與各教會的夥伴關係，共同推動原住民族的發展。\n增加社團預算強化各頭目、協進會、同鄉會以及藝術團的文化傳承使命。\n編列預算進用專職族語老師，擔任學校及語言巢的族語教學工作。\n興建可舉行文化藝術活動、集會研習及手工藝品展售之原住民族綜合大樓。\n要求市政府在各鄉鎮市設立原住民族行政課。","param":{"attendance_statistics":{"absent":26,"total":124},"bills_role_statistics":{"total":72,"priproposer":1,"sponsor":10,"cosponsor":62},"diversity":{"中國國民黨":0.19876484489215332,"無黨團結聯盟":0.035816237630464126,"民主進步黨":0.7595597729378666,"無黨籍":0.005859144539515892},"bills_party_diversity":[{"party":"民主進步黨","ratio":0.6319234642497482},{"party":"中國國民黨","ratio":0.26535750251762336},{"party":"無黨團結聯盟","ratio":0.044310171198388724},{"party":"無黨籍","ratio":0.0377643504531722},{"party":"臺灣團結聯盟","ratio":0.020644511581067473}]},"councilor":"9a1ea83a31ba4a0a81095dc2eb3586b0"},{"url":"http://councils.g0v.tw/api/councilors_terms/11684/","election_year":"2014","name":"夷將‧拔路兒Icyang‧Parod","gender":"男","party":"民主進步黨","title":null,"constituency":11,"county":"新北市","district":"平地原住民","in_office":false,"contact_details":null,"term_start":"2014-12-25","term_end":{"date":"2016-05-20","judicial_links":"","reason":"請辭，就任原民會主委","ref":"","replacement":""},"education":null,"experience":null,"remark":null,"image":"","links":null,"social_media":null,"platform":"","param":{"suggestions_years":{"count":17,"sum":5693670,"years":[{"count":11,"sum":3722925,"suggest_year":"2015","small_purchase":4},{"count":6,"sum":1970745,"suggest_year":"2016","small_purchase":2}]},"bills_role_statistics":{"total":85,"priproposer":1,"sponsor":16,"cosponsor":69},"attendance_statistics":{"absent":25,"total":77},"suggestions_associations":[{"count":0,"sum":0,"label":"社區發展協會"},{"count":0,"sum":0,"label":"學會"},{"count":0,"sum":0,"label":"商會"},{"count":0,"sum":0,"label":"公會"},{"count":0,"sum":0,"label":"協進會"},{"count":0,"sum":0,"label":"促進會"},{"count":0,"sum":0,"label":"研習會"},{"count":0,"sum":0,"label":"婦聯會"},{"count":0,"sum":0,"label":"婦女會"},{"count":0,"sum":0,"label":"體育會"},{"count":0,"sum":0,"label":"同心會"},{"count":0,"sum":0,"label":"農會"},{"count":0,"sum":0,"label":"早起會"},{"count":0,"sum":0,"label":"健身會"},{"count":0,"sum":0,"label":"宗親會"},{"count":0,"sum":0,"label":"功德會"},{"count":0,"sum":0,"label":"商業會"},{"count":0,"sum":0,"label":"長青會"},{"count":0,"sum":0,"label":"民眾服務社"},{"count":0,"sum":0,"label":"聯盟"}],"bills_party_diversity":[{"party":"民主進步黨","ratio":0.6355263157894737},{"party":"中國國民黨","ratio":0.2679824561403509},{"party":"無黨團結聯盟","ratio":0.041666666666666664},{"party":"無黨籍","ratio":0.03640350877192983},{"party":"臺灣團結聯盟","ratio":0.018421052631578946}],"suggestions_piles":[{"count":14,"tokens":"國中|國小","sum":5132670,"label":"國中、國小"},{"count":1,"tokens":"消防局|消防隊|分隊|中隊","sum":11000,"label":"消防局"},{"count":0,"tokens":"協會|學會|商會|公會|協進會|促進會|研習會|婦聯會|婦女會|體育會|同心會|農會|早起會|健身會|宗親會|功德會|商業會|長青會|民眾服務社|聯盟","sum":0,"label":"協會"},{"count":0,"tokens":"辦公室|辦公處","sum":0,"label":"辦公室"},{"count":0,"tokens":"廟|宮","sum":0,"label":"廟"},{"count":0,"tokens":"警察局|分局","sum":0,"label":"警察局"}]},"councilor":"9a1ea83a31ba4a0a81095dc2eb3586b0"}],"uid":"9a1ea83a31ba4a0a81095dc2eb3586b0","name":"夷將‧拔路兒Icyang‧Parod","birth":null,"former_names":"","identifiers":["夷將‧拔路兒Icyang‧Parod","icyangparod","夷將拔路兒"]},{"url":"http://councils.g0v.tw/api/councilors/66/","each_terms":[{"url":"http://councils.g0v.tw/api/councilors_terms/66/","election_year":"1969","name":"紀榮治","gender":"男","party":"中國國民黨","title":"議員","constituency":null,"county":"臺北市","district":"","in_office":true,"contact_details":null,"term_start":"1969-12-25","term_end":{"date":"1973-12-25"},"education":"逢甲學院企業管理系畢業。","experience":"聯勤總部預備軍官服役一年、經理。","remark":"","image":"http://www.tcc.gov.tw/../upload/photo/%E7%B4%80%E6%A6%AE%E6%B2%BB09.jpg","links":[{"url":"http://www.tcc.gov.tw/Councilor_Content_All.aspx?s=1549&d=450101&n=%E7%B4%80%E6%A6%AE%E6%B2%BB","note":"議會個人官網"}],"social_media":null,"platform":"","param":null,"councilor":"db280469164e4f918913d5401fe9b995"},{"url":"http://councils.g0v.tw/api/councilors_terms/576/","election_year":"1973","name":"紀榮治","gender":"男","party":"中國國民黨","title":"議員","constituency":null,"county":"臺北市","district":"","in_office":true,"contact_details":null,"term_start":"1973-12-25","term_end":{"date":"1977-12-25"},"education":"逢甲學院企業管理系畢業、美國希佛童軍行政學院結訓。","experience":"臺北市第一屆議會議員、臺北市商業會理事、臺北市糖商公會理事長、雙園國際獅子會會長。","remark":"","image":"http://www.tcc.gov.tw/../upload/photo/%E7%B4%80%E6%A6%AE10.jpg","links":[{"url":"http://www.tcc.gov.tw/Councilor_Content_All.aspx?s=1927&d=450101&n=%E7%B4%80%E6%A6%AE%E6%B2%BB","note":"議會個人官網"}],"social_media":null,"platform":"","param":null,"councilor":"db280469164e4f918913d5401fe9b995"}],"uid":"db280469164e4f918913d5401fe9b995","name":"紀榮治","birth":"1945-01-01","former_names":"","identifiers":["紀榮治"]},{"url":"http://councils.g0v.tw/api/councilors/439/","each_terms":[{"url":"http://councils.g0v.tw/api/councilors_terms/781/","election_year":"2002","name":"張雲龍","gender":"","party":"","title":"議員","constituency":12,"county":"新北市","district":"山地原住民","in_office":true,"contact_details":null,"term_start":"2002-03-01","term_end":{"date":"2006-02-28"},"education":"省立臺北師範專科學校畢\n省立台東師範學校普師科畢\n桃園農校初中部\n烏來國民學校","experience":"臺北縣議會第15屆議員\n社區理事理事長\n主任\n教師","remark":null,"image":"http://www.ntp.gov.tw/UpFile/CouncilorFile/TTCC1562.jpg","links":[{"url":"http://www.ntp.gov.tw/content/history/history01-5-p.aspx?sid=524","note":"議會個人官網"}],"social_media":null,"platform":"","param":null,"councilor":"f52dbc4a1914403c99ff3c412e1b922c"}],"uid":"f52dbc4a1914403c99ff3c412e1b922c","name":"張雲龍","birth":null,"former_names":"","identifiers":["張雲龍"]},{"url":"http://councils.g0v.tw/api/councilors/440/","each_terms":[{"url":"http://councils.g0v.tw/api/councilors_terms/783/","election_year":"1994","name":"張金榮","gender":"","party":"","title":"議員","constituency":12,"county":"新北市","district":"山地山胞","in_office":true,"contact_details":null,"term_start":"1994-03-01","term_end":{"date":"1998-02-28"},"education":"省立屏東師範專科學校畢\n後幹140期結業","experience":"臺北縣議會第13、14屆議員\n烏來國民中小學擔任教師與代理主任\n烏來社區理事長\n烏來鄉黨部分部常委\n烏來鄉黨委員\n烏來體育會總幹事\n臺北縣烏來鄉原住民福利服務協會常務理事\n臺北縣原住民自強協會會員\n中華臺灣原住民文化藝術協會候補理事","remark":null,"image":"http://www.ntp.gov.tw/UpFile/CouncilorFile/TTCC1365.jpg","links":[{"url":"http://www.ntp.gov.tw/content/history/history01-5-p.aspx?sid=475","note":"議會個人官網"}],"social_media":null,"platform":"","param":null,"councilor":"f26e8f43ea3349d6a8fc6a1b25399b3c"},{"url":"http://councils.g0v.tw/api/councilors_terms/782/","election_year":"1998","name":"張金榮","gender":"","party":"","title":"議員","constituency":12,"county":"新北市","district":"山地原住民","in_office":true,"contact_details":null,"term_start":"1998-03-01","term_end":{"date":"2002-02-28"},"education":"省立屏東師範專科學校畢\n後幹140期結業","experience":"臺北縣議會第13、14屆議員\n烏來國民中小學擔任教師與代理主任\n烏來社區理事長\n烏來鄉黨部分部常委\n烏來鄉黨委員\n烏來體育會總幹事\n臺北縣烏來鄉原住民福利服務協會常務理事\n臺北縣原住民自強協會會員\n中華臺灣原住民文化藝術協會候補理事","remark":null,"image":"http://www.ntp.gov.tw/UpFile/CouncilorFile/TTCC1365.jpg","links":[{"url":"http://www.ntp.gov.tw/content/history/history01-5-p.aspx?sid=475","note":"議會個人官網"}],"social_media":null,"platform":"","param":null,"councilor":"f26e8f43ea3349d6a8fc6a1b25399b3c"}],"uid":"f26e8f43ea3349d6a8fc6a1b25399b3c","name":"張金榮","birth":null,"former_names":"","identifiers":["張金榮"]},{"url":"http://councils.g0v.tw/api/councilors/684/","each_terms":[{"url":"http://councils.g0v.tw/api/councilors_terms/1221/","election_year":"1998","name":"顏世雄","gender":"","party":"","title":"議員","constituency":9,"county":"新北市","district":"瑞芳鎮、雙溪鄉、貢寮鄉、平溪鄉","in_office":true,"contact_details":null,"term_start":"1998-03-01","term_end":{"date":"2002-02-28"},"education":"瑞芳國小\n瑞芳國中\n恒毅中學\n成功高中","experience":"第14屆台北縣議員\n第14屆瑞芳鎮鎮長\n第15屆瑞芳鎮鎮長","remark":null,"image":"http://www.ntp.gov.tw/UpFile/CouncilorFile/TTCC1457.jpg","links":[{"url":"http://www.ntp.gov.tw/content/history/history01-5-p.aspx?sid=498","note":"議會個人官網"}],"social_media":null,"platform":"","param":null,"councilor":"6c15a8dc0d0545b69d297f06e0210bdf"}],"uid":"6c15a8dc0d0545b69d297f06e0210bdf","name":"顏世雄","birth":null,"former_names":"","identifiers":["顏世雄"]},{"url":"http://councils.g0v.tw/api/councilors/698/","each_terms":[{"url":"http://councils.g0v.tw/api/councilors_terms/1251/","election_year":"1998","name":"朱子孟","gender":"","party":"","title":"議員","constituency":4,"county":"新北市","district":"土城市、樹林市、鶯歌鎮、三峽鎮","in_office":true,"contact_details":null,"term_start":"1998-03-01","term_end":{"date":"2002-02-28"},"education":"樹林國小\n恆毅初中\n成功高中\n逢甲大學工業工程學士\n美國華盛頓州西堤大學企業管理碩士\n美國佛羅里達州諾瓦東企業管理博士班研究","experience":"臺北縣議會第14、15屆議員\n樹林後備軍人輔導中心主任\n樹林青商會會長\n臺北縣農會理事\n樹林農會理事\n現職為臺北縣政府機要參議秘\n致理技術學院兼任助理教授\n樹林市柑園義消分隊長等","remark":null,"image":"http://www.ntp.gov.tw/UpFile/CouncilorFile/TTCC1429.jpg","links":[{"url":"http://www.ntp.gov.tw/content/history/history01-5-p.aspx?sid=486","note":"議會個人官網"}],"social_media":null,"platform":"","param":null,"councilor":"72c1f98e4c1d4cdbb6d8bb7932609e40"},{"url":"http://councils.g0v.tw/api/councilors_terms/1320/","election_year":"2002","name":"朱子孟","gender":"","party":"","title":"議員","constituency":4,"county":"新北市","district":"土城市、樹林市、鶯歌鎮、三峽鎮","in_office":true,"contact_details":null,"term_start":"2002-03-01","term_end":{"date":"2006-02-28"},"education":"樹林國小\n恆毅初中\n成功高中\n逢甲大學工業工程學士\n美國華盛頓州西堤大學企業管理碩士\n美國佛羅里達州諾瓦東企業管理博士班研究","experience":"臺北縣議會第14、15屆議員\n樹林後備軍人輔導中心主任\n樹林青商會會長\n臺北縣農會理事\n樹林農會理事\n現職為臺北縣政府機要參議秘\n致理技術學院兼任助理教授\n樹林市柑園義消分隊長等","remark":null,"image":"http://www.ntp.gov.tw/UpFile/CouncilorFile/TTCC1429.jpg","links":[{"url":"http://www.ntp.gov.tw/content/history/history01-5-p.aspx?sid=486","note":"議會個人官網"}],"social_media":null,"platform":"","param":null,"councilor":"72c1f98e4c1d4cdbb6d8bb7932609e40"}],"uid":"72c1f98e4c1d4cdbb6d8bb7932609e40","name":"朱子孟","birth":null,"former_names":"","identifiers":["朱子孟"]}]}