{"count":1904,"next":"http://councils.g0v.tw/api/councilors/?page=102","previous":"http://councils.g0v.tw/api/councilors/?page=100","results":[{"url":"http://councils.g0v.tw/api/councilors/1695/","each_terms":[{"url":"http://councils.g0v.tw/api/councilors_terms/2712/","election_year":"2014","name":"邱婷蔚","gender":"","party":"民主進步黨","title":"議員","constituency":3,"county":"新北市","district":"蘆洲區、三重區","in_office":true,"contact_details":[{"type":"email","value":"tw29883239@gmail.com","label":"E-mail"},{"type":"voice","value":"02-29809895","label":"電話"},{"type":"fax","value":"02-29809769","label":"傳真"},{"type":"address","value":"24154新北市三重區忠孝路二段87號1樓","label":"通訊處"}],"term_start":"2014-12-25","term_end":{"date":"2018-12-24"},"education":"中國文化大學法律學系\n臺北市立明倫高中\n明志國中\n二重國小\n重愛幼稚園","experience":"臺灣大學政治研究所碩士班\n幼稚園園長\n蔡英文競選總統高志鵬競選立委聯合總部文宣部主任\n２０１０年11月以１９０２２票，差４８票高票落選第一屆新北市議員（三蘆區）\n余天競選立法委員文宣部主任","remark":null,"image":"http://www.ntp.gov.tw/UpFile/CouncilorFile/IMG_0873.JPG","links":[{"url":"http://www.ntp.gov.tw/content/list/list01-1-03-1.aspx?sid=582","note":"議會個人官網"}],"social_media":null,"platform":"一、社會福利\n安心生育：從生育津貼、育嬰假、育嬰補助皆應爭取所有全面配套措施有效落實。\n安心托育：０至２歲保母津貼提升，保母系統社區化落實。\n２至６歲幼托補助提高。\n安心教育：國中小課後照顧應完善體系，提高教育品質。\n安心托老：爭取社區托老中心。\n二、醫療資源\n催生三蘆地區性醫院之急重病症病醫療，及增加病床數。加強地區醫院及三蘆周邊教學醫院，對三蘆各社區之老幼照顧。\n三 法律服務\n提供三重蘆洲市民免費法律諮詢及協助弱勢市民之法律扶助。\n四 社區治安\n提升警力配置及資源，整合社區巡守隊及監視系統。\n五 交通安全\n檢討現有交通號誌燈是否符合現況需求。\n標示不清之指標或路牌應全面改善。\n六 居住權利\n遏止地價飆漲，推動政府設置人人住的起的住宅。","param":{"suggestions_years":{"count":50,"sum":5555862,"years":[{"count":20,"sum":2279195,"suggest_year":"2015","small_purchase":16},{"count":30,"sum":3276667,"suggest_year":"2016","small_purchase":24}]},"bills_role_statistics":{"total":71,"priproposer":3,"sponsor":17,"cosponsor":54},"attendance_statistics":{"absent":21,"total":111},"suggestions_associations":[{"count":0,"sum":0,"label":"社區發展協會"},{"count":0,"sum":0,"label":"學會"},{"count":0,"sum":0,"label":"商會"},{"count":0,"sum":0,"label":"公會"},{"count":0,"sum":0,"label":"協進會"},{"count":0,"sum":0,"label":"促進會"},{"count":0,"sum":0,"label":"研習會"},{"count":0,"sum":0,"label":"婦聯會"},{"count":0,"sum":0,"label":"婦女會"},{"count":0,"sum":0,"label":"體育會"},{"count":0,"sum":0,"label":"同心會"},{"count":0,"sum":0,"label":"農會"},{"count":0,"sum":0,"label":"早起會"},{"count":0,"sum":0,"label":"健身會"},{"count":0,"sum":0,"label":"宗親會"},{"count":0,"sum":0,"label":"功德會"},{"count":0,"sum":0,"label":"商業會"},{"count":0,"sum":0,"label":"長青會"},{"count":0,"sum":0,"label":"民眾服務社"},{"count":0,"sum":0,"label":"聯盟"}],"bills_party_diversity":[{"party":"民主進步黨","ratio":0.7538659793814433},{"party":"中國國民黨","ratio":0.18814432989690721},{"party":"無黨籍","ratio":0.03221649484536082},{"party":"無黨團結聯盟","ratio":0.024484536082474227},{"party":"臺灣團結聯盟","ratio":0.001288659793814433}],"suggestions_piles":[{"count":24,"tokens":"國中|國小","sum":3557862,"label":"國中、國小"},{"count":7,"tokens":"辦公室|辦公處","sum":1050208,"label":"辦公室"},{"count":0,"tokens":"協會|學會|商會|公會|協進會|促進會|研習會|婦聯會|婦女會|體育會|同心會|農會|早起會|健身會|宗親會|功德會|商業會|長青會|民眾服務社|聯盟","sum":0,"label":"協會"},{"count":0,"tokens":"廟|宮","sum":0,"label":"廟"},{"count":0,"tokens":"警察局|分局","sum":0,"label":"警察局"},{"count":0,"tokens":"消防局|消防隊|分隊|中隊","sum":0,"label":"消防局"}]},"councilor":"8ca19474755d4cadb610f1ab4943d7dc"}],"uid":"8ca19474755d4cadb610f1ab4943d7dc","name":"邱婷蔚","birth":null,"former_names":"","identifiers":["邱婷蔚"]},{"url":"http://councils.g0v.tw/api/councilors/1696/","each_terms":[{"url":"http://councils.g0v.tw/api/councilors_terms/2715/","election_year":"2014","name":"宋雨蓁Nikar‧Falong","gender":"","party":"中國國民黨","title":"議員","constituency":11,"county":"新北市","district":"平地原住民","in_office":true,"contact_details":[{"type":"email","value":"nikar520717@ntp.gov.tw","label":"E-mail"},{"type":"voice","value":"02-32336717","label":"電話"},{"type":"fax","value":"02-22326717","label":"傳真"},{"type":"address","value":"23447新北市永和區中和路343號11樓之3","label":"通訊處"}],"term_start":"2014-12-25","term_end":{"date":"2018-12-24"},"education":"國立臺北大學法律學系\n臺北商業技術學院國際貿易科（二專）\n光仁中學附設國中部\n新北市秀朗國民小學","experience":"．國民黨永和區黨部青工會-副會長\n．新北市原住民文化藝術團-幹事\n．新北市原住民文化產業推廣協會-秘書\n．雲景獅子會-秘書\n．新北市原住民婦女服務協會 助理社工\n．同志諮詢熱線-實習秘書\n．新北市原住民青年團-副團長","remark":null,"image":"http://www.ntp.gov.tw/UpFile/CouncilorFile/%E5%AE%8B%E9%9B%A8%E8%93%81.jpg","links":[{"url":"http://www.ntp.gov.tw/content/list/list01-1-03-1.aspx?sid=589","note":"議會個人官網"}],"social_media":null,"platform":"一、在地傳承\n1、提高族語授課鐘點並加強推動族語教學。\n2、編列預算推動原住民族傳統工藝及文化創意產業培訓課程。\n3、積極督促原住民族傳統文化並增加預算經費。\n4、要求市府提高原住民族社團(頭目、協進會、同鄉會、藝術團及宗教團體等)經費補助。\n二 、在地就學\n1、充分保障原住民族學童免費就讀幼兒園。\n2、擴編原住民族學童課後輔導及陪讀經費。\n3、爭取都會區原住民族學童營養午餐免費。\n4、督促市府普遍設立高中職原住民族專班。\n5、要求市府編列大專生工讀及實習經費。\n6、爭取都會精華區設置原住民族青年交流活動中心。\n7、要求市府廣設原住民族才藝班、證照訓練及公職考試課程。\n三 、在地就業\n1、制定新北市原住民族工作權自治條例。\n2、爭取公有閒置地供原住民族種植農作物。\n3、督促市府成立原住民族青年職涯輔導平台。\n4、爭取成立新北市原住民族中小企業專業輔導團。\n5、爭取閒置空間設置新北市原住民族產業推廣中心。\n6、爭取提供獎勵轄內企業僱用原住民族中高齡勞工。\n7、建置原住民族多元求職網絡與就業服務行動辦公室。\n四、在地就養\n1、提高原住民族育兒津貼及生育獎勵。\n2、廣設原住民族家庭暨婦女服務中心。\n3、爭取設置都會原住民族專屬公共托育中心。\n4、督促市府普遍設置原住民族老人日間關懷站。\n5、爭取一定比例社會住宅以提供原住民族承租。\n6、要求市府編列專款解決河岸部落就地安置貸款問題。\n7、放寬都會區原住民族房屋補貼標準並增加補助額度。\n8、原住民族55歲以上長者免費裝置假牙及每年健康檢查。","param":{"suggestions_years":{"count":12,"sum":2216333,"years":[{"count":2,"sum":280000,"suggest_year":"2015","small_purchase":1},{"count":10,"sum":1936333,"suggest_year":"2016","small_purchase":4}]},"bills_role_statistics":{"total":63,"priproposer":9,"sponsor":12,"cosponsor":51},"attendance_statistics":{"absent":20,"total":111},"suggestions_associations":[{"count":1,"sum":200000,"label":"協進會"},{"count":0,"sum":0,"label":"社區發展協會"},{"count":0,"sum":0,"label":"學會"},{"count":0,"sum":0,"label":"商會"},{"count":0,"sum":0,"label":"公會"},{"count":0,"sum":0,"label":"促進會"},{"count":0,"sum":0,"label":"研習會"},{"count":0,"sum":0,"label":"婦聯會"},{"count":0,"sum":0,"label":"婦女會"},{"count":0,"sum":0,"label":"體育會"},{"count":0,"sum":0,"label":"同心會"},{"count":0,"sum":0,"label":"農會"},{"count":0,"sum":0,"label":"早起會"},{"count":0,"sum":0,"label":"健身會"},{"count":0,"sum":0,"label":"宗親會"},{"count":0,"sum":0,"label":"功德會"},{"count":0,"sum":0,"label":"商業會"},{"count":0,"sum":0,"label":"長青會"},{"count":0,"sum":0,"label":"民眾服務社"},{"count":0,"sum":0,"label":"聯盟"}],"bills_party_diversity":[{"party":"中國國民黨","ratio":0.7420718816067653},{"party":"民主進步黨","ratio":0.22410147991543342},{"party":"無黨團結聯盟","ratio":0.021141649048625793},{"party":"無黨籍","ratio":0.012684989429175475}],"suggestions_piles":[{"count":8,"tokens":"國中|國小","sum":1481333,"label":"國中、國小"},{"count":1,"tokens":"協會|學會|商會|公會|協進會|促進會|研習會|婦聯會|婦女會|體育會|同心會|農會|早起會|健身會|宗親會|功德會|商業會|長青會|民眾服務社|聯盟","sum":200000,"label":"協會"},{"count":1,"tokens":"辦公室|辦公處","sum":200000,"label":"辦公室"},{"count":0,"tokens":"廟|宮","sum":0,"label":"廟"},{"count":0,"tokens":"警察局|分局","sum":0,"label":"警察局"},{"count":0,"tokens":"消防局|消防隊|分隊|中隊","sum":0,"label":"消防局"}]},"councilor":"3c28bc3fcdaf4b7c95af26d5b89d84d0"}],"uid":"3c28bc3fcdaf4b7c95af26d5b89d84d0","name":"宋雨蓁Nikar‧Falong","birth":null,"former_names":"","identifiers":["nikarfalong","宋雨蓁Nikar‧Falong","宋雨蓁"]},{"url":"http://councils.g0v.tw/api/councilors/280/","each_terms":[{"url":"http://councils.g0v.tw/api/councilors_terms/570/","election_year":"1973","name":"張宗明","gender":"男","party":"中國國民黨","title":"議員","constituency":null,"county":"臺北市","district":"","in_office":true,"contact_details":null,"term_start":"1973-12-25","term_end":{"date":"1977-12-25"},"education":"輔仁大學哲學系畢業。","experience":"臺北市第一屆議會議員、中國青年反共救國團委員、南港義警中隊長、南港防護大隊幹事、南港大專青年俱樂部會長、後備部隊營長、教員、講師。","remark":"","image":"http://www.tcc.gov.tw/../upload/photo/%E5%BC%B5%E5%AE%97%E6%98%8E10.jpg","links":[{"url":"http://www.tcc.gov.tw/Councilor_Content_All.aspx?s=1424&d=440818&n=%E5%BC%B5%E5%AE%97%E6%98%8E","note":"議會個人官網"}],"social_media":null,"platform":"","param":null,"councilor":"098a1d14c153495390f53a0046f5c6d0"},{"url":"http://councils.g0v.tw/api/councilors_terms/622/","election_year":"1969","name":"張宗明","gender":"男","party":"中國國民黨","title":"議員","constituency":null,"county":"臺北市","district":"","in_office":true,"contact_details":null,"term_start":"1969-12-25","term_end":{"date":"1973-12-25"},"education":"輔仁大學哲學系。","experience":"教員、常委、中隊長、會長。","remark":"","image":"http://www.tcc.gov.tw/../upload/photo/%E5%BC%B5%E5%AE%97%E6%98%8E09.jpg","links":[{"url":"http://www.tcc.gov.tw/Councilor_Content_All.aspx?s=1607&d=440818&n=%E5%BC%B5%E5%AE%97%E6%98%8E","note":"議會個人官網"}],"social_media":null,"platform":"","param":null,"councilor":"098a1d14c153495390f53a0046f5c6d0"}],"uid":"098a1d14c153495390f53a0046f5c6d0","name":"張宗明","birth":"1944-08-18","former_names":"","identifiers":["張宗明"]},{"url":"http://councils.g0v.tw/api/councilors/281/","each_terms":[{"url":"http://councils.g0v.tw/api/councilors_terms/574/","election_year":"1973","name":"高金殿","gender":"男","party":"中國國民黨","title":"議員","constituency":null,"county":"臺北市","district":"","in_office":true,"contact_details":null,"term_start":"1973-12-25","term_end":{"date":"1977-12-25"},"education":"國立藝術專科學校畢業。","experience":"臺北市高姓宗親會理事、大虎實業公司董事長、騎士木業公司總經理。","remark":"","image":"http://www.tcc.gov.tw/../upload/photo/%E9%AB%98%E9%87%91%E6%AE%BF10.jpg","links":[{"url":"http://www.tcc.gov.tw/Councilor_Content_All.aspx?s=2226&d=390714&n=%E9%AB%98%E9%87%91%E6%AE%BF","note":"議會個人官網"}],"social_media":null,"platform":"","param":null,"councilor":"b9a16349a16d4169a5a1938cc328ba1b"}],"uid":"b9a16349a16d4169a5a1938cc328ba1b","name":"高金殿","birth":"1939-07-14","former_names":"","identifiers":["高金殿"]},{"url":"http://councils.g0v.tw/api/councilors/190/","each_terms":[{"url":"http://councils.g0v.tw/api/councilors_terms/331/","election_year":"1994","name":"林慶隆","gender":"男","party":"中國國民黨","title":"議員","constituency":null,"county":"臺北市","district":"","in_office":true,"contact_details":null,"term_start":"1994-12-25","term_end":{"date":"1998-12-25"},"education":"大甲中學、景文高中、德明商專企管科、文化大學銀保系、政治大學財政所碩士、諾瓦大學企管所博士班、哈佛大學企管研究、考試院財稅人員高考、關稅人員特考、專技人員會計師考試及格。","experience":"教育部合格副教授，德明商專財稅科主任，實踐學院；空中大學、政大空中行專講師，高等考試襄試委員，大安國中、金華國中、建安國小家長會會長，臺北市議會民政、財建召集人，中國文化大學副教授，臺北市直轄市議會第六屆議員。","remark":"","image":"http://www.tcc.gov.tw/../upload/photo/%E6%9E%97%E6%85%B6%E9%9A%8615.jpg","links":[{"url":"http://www.tcc.gov.tw/Councilor_Content_All.aspx?s=1518&d=521116&n=%E6%9E%97%E6%85%B6%E9%9A%86","note":"議會個人官網"}],"social_media":null,"platform":"","param":null,"councilor":"66cd3cfe059d4cfc9128aac3248f0057"},{"url":"http://councils.g0v.tw/api/councilors_terms/383/","election_year":"1989","name":"林慶隆","gender":"男","party":"中國國民黨","title":"議員","constituency":null,"county":"臺北市","district":"","in_office":true,"contact_details":null,"term_start":"1989-12-25","term_end":{"date":"1994-12-25"},"education":"大甲中學、景文高中、德明商專企管科、文化大學銀保系、政治大學財政所碩士、美國諾瓦大學企管所博士班。","experience":"德明商專財稅科主任、政大行專、空中大學、文化大學講師、會計師、大安國中家長會會長。","remark":"","image":"http://www.tcc.gov.tw/../upload/photo/%E6%9E%97%E6%85%B6%E9%9A%8614.jpg","links":[{"url":"http://www.tcc.gov.tw/Councilor_Content_All.aspx?s=1598&d=521116&n=%E6%9E%97%E6%85%B6%E9%9A%86","note":"議會個人官網"}],"social_media":null,"platform":"","param":null,"councilor":"66cd3cfe059d4cfc9128aac3248f0057"}],"uid":"66cd3cfe059d4cfc9128aac3248f0057","name":"林慶隆","birth":"1952-11-16","former_names":"","identifiers":["林慶隆","林慶隆"]},{"url":"http://councils.g0v.tw/api/councilors/191/","each_terms":[{"url":"http://councils.g0v.tw/api/councilors_terms/334/","election_year":"1994","name":"林美倫","gender":"女","party":"新黨","title":"議員","constituency":null,"county":"臺北市","district":"","in_office":true,"contact_details":null,"term_start":"1994-12-25","term_end":{"date":"1998-12-25"},"education":"北市國語實驗小學、北市南門國中、北一女中、國立中興大學法律系。","experience":"普考書記官及格。乙等刑事警察人員考試及格。高等律師考試及格。慈濟功德會會員。臺北地方法院薦任書記官。時代法律事務所創辦人。中華民國殘疾協會法律顧問。現代婦女基金會法律顧問。消費者文教基金會義務律師。綠色消費者基金會法律委員會委員。內政部警政署法律顧問。董氏基金會法律顧問。律師公會全國聯合會聯繫委員會委員。中央選舉委員會常任巡迴監察員。新黨發起人。","remark":"","image":"http://www.tcc.gov.tw/../upload/photo/%E6%9E%97%E7%BE%8E%E5%80%AB15.jpg","links":[{"url":"http://www.tcc.gov.tw/Councilor_Content_All.aspx?s=1521&d=580317&n=%E6%9E%97%E7%BE%8E%E5%80%AB","note":"議會個人官網"}],"social_media":null,"platform":"","param":null,"councilor":"1d369aa016fa4e7999e346af92aa6af6"}],"uid":"1d369aa016fa4e7999e346af92aa6af6","name":"林美倫","birth":"1958-03-17","former_names":"","identifiers":["林美倫","林美倫"]},{"url":"http://councils.g0v.tw/api/councilors/192/","each_terms":[{"url":"http://councils.g0v.tw/api/councilors_terms/335/","election_year":"1994","name":"林宏熙","gender":"男","party":"中國國民黨","title":"議員","constituency":null,"county":"臺北市","district":"","in_office":false,"contact_details":null,"term_start":"1994-12-25","term_end":{"date":"1998-12-25","reason":"第三、四屆臺北市議員。"},"education":"育達商職畢業、革命實踐研究院結業。","experience":"臺北市西門商業中心更新會常務委員、育達商職校友會會長、嘉義同鄉會理事、世界客屬總會榮譽會員、臺北市客家聯誼會榮譽會員、臺北市國際龍山獅子會第八屆會長、臺北市直轄市議會第三、四、五、六屆議員。","remark":"第三、四屆臺北市議員。","image":"http://www.tcc.gov.tw/../upload/photo/%E6%9E%97%E5%AE%8F%E7%86%9915.jpg","links":[{"url":"http://www.tcc.gov.tw/Councilor_Content_All.aspx?s=1530&d=350512&n=%E6%9E%97%E5%AE%8F%E7%86%99","note":"議會個人官網"}],"social_media":null,"platform":"","param":null,"councilor":"9517e594b0a24becb87c59aa0bd5120d"},{"url":"http://councils.g0v.tw/api/councilors_terms/387/","election_year":"1989","name":"林宏熙","gender":"男","party":"中國國民黨","title":"議員","constituency":null,"county":"臺北市","district":"","in_office":true,"contact_details":null,"term_start":"1989-12-25","term_end":{"date":"1994-12-25"},"education":"育達商職畢業、革命實踐研究院結業。","experience":"臺北市西門商業中心更新會常務委員、世界客屬總會榮譽會員、臺北市國際龍山獅子會第八屆會長、臺北市直轄市議會第三、四、五屆議員。","remark":"","image":"http://www.tcc.gov.tw/../upload/photo/%E6%9E%97%E5%AE%8F%E7%86%9914.jpg","links":[{"url":"http://www.tcc.gov.tw/Councilor_Content_All.aspx?s=2152&d=350512&n=%E6%9E%97%E5%AE%8F%E7%86%99","note":"議會個人官網"}],"social_media":null,"platform":"","param":null,"councilor":"9517e594b0a24becb87c59aa0bd5120d"},{"url":"http://councils.g0v.tw/api/councilors_terms/438/","election_year":"1985","name":"林宏熙","gender":"男","party":"中國國民黨","title":"議員","constituency":null,"county":"臺北市","district":"","in_office":true,"contact_details":null,"term_start":"1985-12-25","term_end":{"date":"1989-12-25"},"education":"育達商職畢業、革命實踐研究院結業。","experience":"臺北市龍山國際師子會第八屆會長、臺北市油漆公會顧問、財團法人中華民國龍人文教基金會顧問、臺北市旅館同業公會顧問、臺北市直轄市議會第三、四屆議員。","remark":"","image":"http://www.tcc.gov.tw/../upload/photo/%E6%9E%97%E5%AE%8F%E7%86%9913.jpg","links":[{"url":"http://www.tcc.gov.tw/Councilor_Content_All.aspx?s=1980&d=350512&n=%E6%9E%97%E5%AE%8F%E7%86%99","note":"議會個人官網"}],"social_media":null,"platform":"","param":null,"councilor":"9517e594b0a24becb87c59aa0bd5120d"},{"url":"http://councils.g0v.tw/api/councilors_terms/484/","election_year":"1981","name":"林宏熙","gender":"男","party":"中國國民黨","title":"議員","constituency":null,"county":"臺北市","district":"","in_office":true,"contact_details":null,"term_start":"1981-12-25","term_end":{"date":"1985-12-25"},"education":"育達商職畢業、日本大學肄業。","experience":"萬華沙石開發公司董事長、日誠建設公司總經理、育達商職校友會會長、龍山區民眾服務分社理事、龍山區獅子會會長、國際獅子會中華民國總會理事、副祕書長、臺北市直轄市議會第三屆議員。","remark":"","image":"http://www.tcc.gov.tw/../upload/photo/%E6%9E%97%E5%AE%8F%E7%86%9912.jpg","links":[{"url":"http://www.tcc.gov.tw/Councilor_Content_All.aspx?s=1977&d=350512&n=%E6%9E%97%E5%AE%8F%E7%86%99","note":"議會個人官網"}],"social_media":null,"platform":"","param":null,"councilor":"9517e594b0a24becb87c59aa0bd5120d"},{"url":"http://councils.g0v.tw/api/councilors_terms/532/","election_year":"1977","name":"林宏熙","gender":"男","party":"中國國民黨","title":"議員","constituency":null,"county":"臺北市","district":"","in_office":true,"contact_details":null,"term_start":"1977-12-25","term_end":{"date":"1981-12-25"},"education":"育達高級商業職業學校畢業。","experience":"萬華砂石開發股份有限公司董事長、日誠建設股份有限公司總經理、育達商職校友會會長、龍山區民眾服務分社理事、龍山區調解委員會委員、龍山區國際獅子會會長、國際獅子會中華民國總會理事、中華民國水上救生協會理事、國際獅子會中華民國總會副秘書長。","remark":"","image":"http://www.tcc.gov.tw/../upload/photo/%E6%9E%97%E5%AE%8F%E7%86%9911.jpg","links":[{"url":"http://www.tcc.gov.tw/Councilor_Content_All.aspx?s=2108&d=350512&n=%E6%9E%97%E5%AE%8F%E7%86%99","note":"議會個人官網"}],"social_media":null,"platform":"","param":null,"councilor":"9517e594b0a24becb87c59aa0bd5120d"}],"uid":"9517e594b0a24becb87c59aa0bd5120d","name":"林宏熙","birth":"1935-05-12","former_names":"","identifiers":["林宏熙","林宏熙"]},{"url":"http://councils.g0v.tw/api/councilors/298/","each_terms":[{"url":"http://councils.g0v.tw/api/councilors_terms/628/","election_year":"1969","name":"孫鳴","gender":"男","party":"中國國民黨","title":"議員","constituency":null,"county":"臺北市","district":"","in_office":true,"contact_details":null,"term_start":"1969-12-25","term_end":{"date":"1973-12-25"},"education":"上海法政學院法律系、高等考試及格。","experience":"教授、校長、理事長、委員、臺北市省轄市議會第六屆以及臨時市議會議員。","remark":"","image":"http://www.tcc.gov.tw/../upload/photo/%E5%AD%AB09.jpg","links":[{"url":"http://www.tcc.gov.tw/Councilor_Content_All.aspx?s=1878&d=211110&n=%E5%AD%AB%E9%B3%B4","note":"議會個人官網"}],"social_media":null,"platform":"","param":null,"councilor":"a226d477a8814c1bb5cde36a1ca40674"}],"uid":"a226d477a8814c1bb5cde36a1ca40674","name":"孫鳴","birth":"1921-11-10","former_names":"","identifiers":["孫鳴"]},{"url":"http://councils.g0v.tw/api/councilors/389/","each_terms":[{"url":"http://councils.g0v.tw/api/councilors_terms/727/","election_year":"2010","name":"俄鄧‧殷艾","gender":"","party":"民主進步黨","title":"議員","constituency":12,"county":"高雄市","district":"居住高雄市之平地原住民","in_office":true,"contact_details":[{"type":"voice","value":"8112358","label":"傳真"},{"type":"fax","value":"8418045","label":"傳真"},{"type":"address","value":"806前鎮區翠亨南路231-1號","label":"通訊處"}],"term_start":"2010-12-25","term_end":{"date":"2014-12-25"},"education":"高雄市立空中大學法政系畢業","experience":"1.高雄市第六屆市議員。\n2.美港長老教會牧師。\n3.行政院原住民族委員會委員。\n4.教育部原住民教育政策委員會委員。\n5.台北市原民會籌備委員。\n6.高雄市原民會委員。\n7.高雄市原民會主任委員。","remark":null,"image":"http://www.kcc.gov.tw/Upload/PeriodMembers/0701063.jpg","links":[{"url":"http://www.kcc.gov.tw/PeriodMembers/Introduction.aspx?KeyID=63","note":"議會個人官網"}],"social_media":null,"platform":"1.設置高雄市原住民基金會。\n2.爭取家戶購置電腦補助金。\n3.設置原住民特色商街。\n4.設置原住民都會菜園。\n5.開辦原住民微型保險\n6.辦理原住民老人免費健康檢查。\n7.辦理乙、丙級證照訓練班，提高就業競爭力。\n8.開設原住民產業微型貸款，輔導原住民發展經濟事業之運作。\n9.爭取原住民專屬棒壘球場，提供安全標準場地，以提升球員運動品質。\n10.爭取原住民運動獎勵輔導措施，落實國小、國中、高中、大學原住民運動人才培訓，並爭取原住民專業教練就業保障名額。","param":{"bills_role_statistics":{"total":165,"priproposer":23,"sponsor":23,"cosponsor":142},"votes_decision_statistics":{"abstain":0,"disagree":2,"not_voting":1,"total":3,"agree":0,"conflict":0},"diversity":{"中國國民黨":0.07152777777777776,"民主進步黨":0.8256944444444447,"親民黨":0.0,"無黨籍":0.1027777777777778},"suggestions_years":{"count":34,"sum":35279538,"years":[{"count":3,"sum":10724210,"suggest_year":"2011","small_purchase":0},{"count":15,"sum":12208328,"suggest_year":"2012","small_purchase":1},{"count":13,"sum":12347000,"suggest_year":"2013","small_purchase":3},{"count":3,"sum":0,"suggest_year":"2014","small_purchase":3}]},"attendance_statistics":{"absent":9,"total":392},"suggestions_associations":[{"count":0,"sum":0,"label":"社區發展協會"},{"count":0,"sum":0,"label":"學會"},{"count":0,"sum":0,"label":"商會"},{"count":0,"sum":0,"label":"公會"},{"count":0,"sum":0,"label":"協進會"},{"count":0,"sum":0,"label":"促進會"},{"count":0,"sum":0,"label":"研習會"},{"count":0,"sum":0,"label":"婦聯會"},{"count":0,"sum":0,"label":"婦女會"},{"count":0,"sum":0,"label":"體育會"},{"count":0,"sum":0,"label":"同心會"},{"count":0,"sum":0,"label":"農會"},{"count":0,"sum":0,"label":"早起會"},{"count":0,"sum":0,"label":"健身會"},{"count":0,"sum":0,"label":"宗親會"},{"count":0,"sum":0,"label":"功德會"},{"count":0,"sum":0,"label":"商業會"},{"count":0,"sum":0,"label":"長青會"},{"count":0,"sum":0,"label":"民眾服務社"},{"count":0,"sum":0,"label":"聯盟"}],"bills_party_diversity":[{"party":"民主進步黨","ratio":0.8309037900874635},{"party":"中國國民黨","ratio":0.09037900874635568},{"party":"無黨籍","ratio":0.07580174927113703},{"party":"親民黨","ratio":0.0029154518950437317}],"suggestions_piles":[{"count":12,"tokens":"國中|國小","sum":17703328,"label":"國中、國小"},{"count":8,"tokens":"警察局|分局","sum":1242210,"label":"警察局"},{"count":0,"tokens":"協會|學會|商會|公會|協進會|促進會|研習會|婦聯會|婦女會|體育會|同心會|農會|早起會|健身會|宗親會|功德會|商業會|長青會|民眾服務社|聯盟","sum":0,"label":"協會"},{"count":0,"tokens":"辦公室|辦公處","sum":0,"label":"辦公室"},{"count":0,"tokens":"廟|宮","sum":0,"label":"廟"},{"count":0,"tokens":"消防局|消防隊|分隊|中隊","sum":0,"label":"消防局"}]},"councilor":"12674a6d155b4d4d87ee731364f24646"},{"url":"http://councils.g0v.tw/api/councilors_terms/3317/","election_year":"2014","name":"俄鄧‧殷艾","gender":"男","party":"民主進步黨","title":"議員","constituency":12,"county":"高雄市","district":"居住高雄市之平地原住民","in_office":true,"contact_details":[{"type":"voice","value":"8112358","label":"聯絡電話"},{"type":"address","value":"812小港區翠亨南路229-1號","label":"通訊地址"},{"type":"fax","value":"8418045","label":"傳真電話"}],"term_start":"2014-12-25","term_end":{"date":"2018-12-24"},"education":"高雄市立空中大學法政學系法律組","experience":"一、現任高雄市議員\n二、高雄市議會社政、民政委員會召集人\n三、第六屆高雄市議員\n四、美港長老教會牧師\n五、高雄市原民會主任委員\n六、台北市原民會委員\n七、行政院原住民族委員會委員\n八、教育部原住民教育政策委員會委員","remark":null,"image":"http://www.kcc.gov.tw/Upload/PeriodMembers/0702063.jpg","links":[{"url":"http://www.kcc.gov.tw/PeriodMembers/Introduction.aspx?KeyID=1822","note":"議會個人官網"},{"url":"http://www.facebook.com/etengingay","note":"個人臉書"}],"social_media":null,"platform":"一、提高原住民生育津貼。\n二、爭取北區原住民傳統聚會所。\n三、爭取舊原民會館改造為原住民社會福利服務中心。\n四、創造中高齡工作舞台，改造都會農園為有機農場並與學校合作，收購為學生營養午餐用菜。\n五、爭取國、高中學生補救教學補助金。\n六、爭取原住民大專生實習及暑期工讀機會，提早適應與累積工作經驗。\n七、敦促市政府於大高雄地區大專院校開設原住民專班，增加原住民學生入學機會。\n八、推動原住民部落大學與市立空大合作，修業取得市立空大大學學分及大學學位，逐步落實建構在地原住民族知識體系。\n九、爭取高雄銀行成立信貸基金，以專案辦理原住民貸款。\n十、爭取設置原住民秀場及文化產業中心，成為大高雄地區觀光資源新亮點。","param":{"attendance_statistics":{"absent":7,"total":243},"bills_role_statistics":{"total":118,"priproposer":3,"sponsor":3,"cosponsor":115},"bills_party_diversity":[{"party":"民主進步黨","ratio":0.8503253796095445},{"party":"臺灣團結聯盟","ratio":0.05422993492407809},{"party":"中國國民黨","ratio":0.04772234273318872},{"party":"無黨籍","ratio":0.026030368763557483},{"party":"親民黨","ratio":0.019522776572668113},{"party":"無黨團結聯盟","ratio":0.0021691973969631237}]},"councilor":"12674a6d155b4d4d87ee731364f24646"}],"uid":"12674a6d155b4d4d87ee731364f24646","name":"俄鄧‧殷艾","birth":null,"former_names":"","identifiers":["俄鄧殷艾","俄鄧‧殷艾"]},{"url":"http://councils.g0v.tw/api/councilors/1732/","each_terms":[{"url":"http://councils.g0v.tw/api/councilors_terms/2879/","election_year":"2014","name":"彭余美玲","gender":"女","party":"中國國民黨","title":"議員","constituency":8,"county":"新竹縣","district":"竹東鎮、五峰鄉","in_office":true,"contact_details":[],"term_start":"2014-12-25","term_end":{"date":"2018-12-24"},"education":"親民技術學院附設專科進修學校","experience":"新竹縣議會第十四、十六、十七屆議員\n新竹縣竹東鎮民代表會第十五屆代表","remark":null,"image":"http://www.hcc.gov.tw/2016hcc/upload/manager/speaker_201610041332284.jpg","links":[{"url":"http://www.hcc.gov.tw/2016hcc/member/member-detail.php?skid=60","note":"議會個人官網"},{"url":"https://www.facebook.com/profile.php?id=100006768573947","note":"個人網站"}],"social_media":null,"platform":"一、 全力支持發放老人年金。\n二、 兩性平權。\n三、 推動客家文化。\n四、 爭取地方建設。\n五、 提高生育補助。\n六、 推動教改政策。","param":{"bills_role_statistics":{"total":83,"priproposer":5,"sponsor":5,"cosponsor":78},"suggestions_years":{"count":329,"sum":6116170,"years":[{"count":164,"sum":2116170,"suggest_year":"2015","small_purchase":163},{"count":165,"sum":4000000,"suggest_year":"2016","small_purchase":161}]},"suggestions_associations":[{"count":109,"sum":1060060,"label":"社區發展協會"},{"count":20,"sum":285000,"label":"宗親會"},{"count":9,"sum":90000,"label":"協進會"},{"count":6,"sum":80000,"label":"促進會"},{"count":5,"sum":75000,"label":"婦女會"},{"count":4,"sum":70000,"label":"聯盟"},{"count":6,"sum":50000,"label":"同心會"},{"count":5,"sum":39000,"label":"農會"},{"count":4,"sum":27000,"label":"體育會"},{"count":2,"sum":20000,"label":"商會"},{"count":2,"sum":15000,"label":"公會"},{"count":1,"sum":5000,"label":"學會"},{"count":0,"sum":0,"label":"研習會"},{"count":0,"sum":0,"label":"婦聯會"},{"count":0,"sum":0,"label":"早起會"},{"count":0,"sum":0,"label":"健身會"},{"count":0,"sum":0,"label":"功德會"},{"count":0,"sum":0,"label":"商業會"},{"count":0,"sum":0,"label":"長青會"},{"count":0,"sum":0,"label":"民眾服務社"}],"suggestions_piles":[{"count":265,"tokens":"協會|學會|商會|公會|協進會|促進會|研習會|婦聯會|婦女會|體育會|同心會|農會|早起會|健身會|宗親會|功德會|商業會|長青會|民眾服務社|聯盟","sum":2995060,"label":"協會"},{"count":7,"tokens":"警察局|分局","sum":203000,"label":"警察局"},{"count":8,"tokens":"消防局|消防隊|分隊|中隊","sum":160000,"label":"消防局"},{"count":3,"tokens":"辦公室|辦公處","sum":85025,"label":"辦公室"},{"count":0,"tokens":"廟|宮","sum":0,"label":"廟"},{"count":0,"tokens":"國中|國小","sum":0,"label":"國中、國小"}],"bills_party_diversity":[{"party":"中國國民黨","ratio":0.7922794117647058},{"party":"無黨籍","ratio":0.06801470588235294},{"party":"民主進步黨","ratio":0.04595588235294118},{"party":"民國黨","ratio":0.034926470588235295},{"party":"勞動黨","ratio":0.03308823529411765},{"party":"綠黨","ratio":0.025735294117647058}]},"councilor":"855d4267bda54e32af55f82ad138664e"}],"uid":"855d4267bda54e32af55f82ad138664e","name":"彭余美玲","birth":null,"former_names":"","identifiers":["彭余美玲","彭余美玲"]}]}