{"count":1904,"next":"http://councils.g0v.tw/api/councilors/?page=105","previous":"http://councils.g0v.tw/api/councilors/?page=103","results":[{"url":"http://councils.g0v.tw/api/councilors/1331/","each_terms":[{"url":"http://councils.g0v.tw/api/councilors_terms/2257/","election_year":"2009","name":"吳勝松","gender":"","party":"中國國民黨","title":"議員","constituency":8,"county":"新竹縣","district":"竹東鎮、五峰鄉","in_office":true,"contact_details":[{"type":"email","value":"a16032@hcc.gov.tw","label":"E-mail"}],"term_start":"2009-12-25","term_end":{"date":"2014-12-25"},"education":"中山國小\n竹東國中\n竹東高中","experience":"中山國小、竹東國中、竹東高中家長會會長\n竹東中興獅子會2006∼2007會長\n鎮民代表（四）\n第十四、十五屆縣議員","remark":null,"image":"http://www.hcc.gov.tw/03councilor/photo/IMG_0391s.jpg","links":[{"url":"http://www.hcc.gov.tw/03councilor/view.asp?id=70","note":"議會個人官網"},{"url":"http://www.hcc.gov.tw/blog/style03/04list.asp?ald_id=70","note":"個人網站"}],"social_media":null,"platform":"誠心誠意，腳踏實地，為縣民服務，嚴格監督政府，不浪費公帑。\n重視教育，積極推動提昇國中、小基本學測能力方案，縮短城鄉差距。\n推動各級學校重點發展體育活動，鼓勵學生參與，培養優秀體育人才。\n加強治安、保障社會安寧及婦幼，校園安全。\n極力爭取地方建設經費及社區，社會團體活動費，促使均衡發展。\n全力督促竹東河濱公園興建工程，快速完成，提供青少年，親子休閒活動空間。\n強化環保工作，消除公害污染，以潔淨居住生活空間。\n支持縣政福利政策，老人年金、生育補助、學童免費營養午餐，殘障福利，共創安樂社會。","param":{"suggestions_years":{"count":4,"sum":218000,"years":[{"count":4,"sum":218000,"suggest_year":"2014","small_purchase":4}]},"diversity":{"":0.01413889200613474,"中國國民黨":0.8087327424473926,"民主進步黨":0.021202196526234233,"勞動黨":0.00916523887360494,"無黨籍":0.14676093014663308},"bills_role_statistics":{"total":103,"priproposer":1,"sponsor":2,"cosponsor":101},"suggestions_associations":[{"count":0,"sum":0,"label":"社區發展協會"},{"count":0,"sum":0,"label":"學會"},{"count":0,"sum":0,"label":"商會"},{"count":0,"sum":0,"label":"公會"},{"count":0,"sum":0,"label":"協進會"},{"count":0,"sum":0,"label":"促進會"},{"count":0,"sum":0,"label":"研習會"},{"count":0,"sum":0,"label":"婦聯會"},{"count":0,"sum":0,"label":"婦女會"},{"count":0,"sum":0,"label":"體育會"},{"count":0,"sum":0,"label":"同心會"},{"count":0,"sum":0,"label":"農會"},{"count":0,"sum":0,"label":"早起會"},{"count":0,"sum":0,"label":"健身會"},{"count":0,"sum":0,"label":"宗親會"},{"count":0,"sum":0,"label":"功德會"},{"count":0,"sum":0,"label":"商業會"},{"count":0,"sum":0,"label":"長青會"},{"count":0,"sum":0,"label":"民眾服務社"},{"count":0,"sum":0,"label":"聯盟"}],"bills_party_diversity":[{"party":"中國國民黨","ratio":0.7648183556405354},{"party":"無黨籍","ratio":0.17973231357552583},{"party":"","ratio":0.02676864244741874},{"party":"民主進步黨","ratio":0.017208413001912046},{"party":"勞動黨","ratio":0.011472275334608031}],"suggestions_piles":[{"count":0,"tokens":"協會|學會|商會|公會|協進會|促進會|研習會|婦聯會|婦女會|體育會|同心會|農會|早起會|健身會|宗親會|功德會|商業會|長青會|民眾服務社|聯盟","sum":0,"label":"協會"},{"count":0,"tokens":"辦公室|辦公處","sum":0,"label":"辦公室"},{"count":0,"tokens":"廟|宮","sum":0,"label":"廟"},{"count":0,"tokens":"警察局|分局","sum":0,"label":"警察局"},{"count":0,"tokens":"消防局|消防隊|分隊|中隊","sum":0,"label":"消防局"},{"count":0,"tokens":"國中|國小","sum":0,"label":"國中、國小"}]},"councilor":"31a794e87aab4c488bd86e98dd4aa936"},{"url":"http://councils.g0v.tw/api/councilors_terms/11782/","election_year":"2014","name":"吳勝松","gender":"男","party":"中國國民黨","title":null,"constituency":8,"county":"新竹縣","district":"竹東鎮、五峰鄉","in_office":false,"contact_details":null,"term_start":"2014-12-25","term_end":{"date":"2016-03-25","judicial_links":"","reason":"當選無效","ref":"http://www.cec.gov.tw/central/cms/bulletin/714","replacement":"林昭錡"},"education":null,"experience":null,"remark":null,"image":"","links":null,"social_media":null,"platform":"","param":{"bills_role_statistics":{"total":1,"priproposer":0,"sponsor":0,"cosponsor":1},"suggestions_years":{"count":202,"sum":3051407,"years":[{"count":171,"sum":1828407,"suggest_year":"2015","small_purchase":171},{"count":31,"sum":1223000,"suggest_year":"2016","small_purchase":29}]},"suggestions_associations":[{"count":69,"sum":565000,"label":"社區發展協會"},{"count":12,"sum":290000,"label":"體育會"},{"count":13,"sum":120000,"label":"宗親會"},{"count":3,"sum":20000,"label":"同心會"},{"count":2,"sum":20000,"label":"早起會"},{"count":1,"sum":20000,"label":"民眾服務社"},{"count":2,"sum":15000,"label":"商會"},{"count":2,"sum":15000,"label":"協進會"},{"count":2,"sum":15000,"label":"促進會"},{"count":1,"sum":5000,"label":"學會"},{"count":1,"sum":5000,"label":"研習會"},{"count":1,"sum":5000,"label":"婦女會"},{"count":1,"sum":5000,"label":"農會"},{"count":1,"sum":5000,"label":"聯盟"},{"count":0,"sum":0,"label":"公會"},{"count":0,"sum":0,"label":"婦聯會"},{"count":0,"sum":0,"label":"健身會"},{"count":0,"sum":0,"label":"功德會"},{"count":0,"sum":0,"label":"商業會"},{"count":0,"sum":0,"label":"長青會"}],"suggestions_piles":[{"count":173,"tokens":"協會|學會|商會|公會|協進會|促進會|研習會|婦聯會|婦女會|體育會|同心會|農會|早起會|健身會|宗親會|功德會|商業會|長青會|民眾服務社|聯盟","sum":1780000,"label":"協會"},{"count":3,"tokens":"消防局|消防隊|分隊|中隊","sum":30000,"label":"消防局"},{"count":0,"tokens":"辦公室|辦公處","sum":0,"label":"辦公室"},{"count":0,"tokens":"廟|宮","sum":0,"label":"廟"},{"count":0,"tokens":"警察局|分局","sum":0,"label":"警察局"},{"count":0,"tokens":"國中|國小","sum":0,"label":"國中、國小"}],"bills_party_diversity":[{"party":"中國國民黨","ratio":0.5555555555555556},{"party":"無黨籍","ratio":0.2222222222222222},{"party":"勞動黨","ratio":0.1111111111111111},{"party":"綠黨","ratio":0.1111111111111111}]},"councilor":"31a794e87aab4c488bd86e98dd4aa936"}],"uid":"31a794e87aab4c488bd86e98dd4aa936","name":"吳勝松","birth":null,"former_names":"","identifiers":["吳勝松"]},{"url":"http://councils.g0v.tw/api/councilors/1334/","each_terms":[{"url":"http://councils.g0v.tw/api/councilors_terms/2260/","election_year":"2009","name":"林保祿","gender":"","party":"無黨籍","title":"議員","constituency":5,"county":"新竹縣","district":"新埔鎮","in_office":true,"contact_details":[{"type":"email","value":"a16021@hcc.gov.tw","label":"E-mail"}],"term_start":"2009-12-25","term_end":{"date":"2014-12-25"},"education":"明新工專畢業","experience":"新埔鎮下寮社區發展協會理事長\n新竹縣加油站商業同業公會理事長\n新埔鎮第二十五屆獅子會會長\n新竹縣議會第十五、十六屆議員","remark":null,"image":"http://www.hcc.gov.tw/03councilor/photo/IMG_0304s.jpg","links":[{"url":"http://www.hcc.gov.tw/03councilor/view.asp?id=67","note":"議會個人官網"},{"url":"http://www.hcc.gov.tw/blog/style03/04list.asp?ald_id=67","note":"個人網站"}],"social_media":null,"platform":"全力推動地方建設、增進地方繁榮。\n督促老人年金及社會福利如期執行發放。\n鳳山溪、霄裡溪及野溪繼續整治，爭取儘速全面完成。\n協助新埔田新都市計劃案；依循公平公正之程序圓滿完成。\n爭取偏遠地區自來水裝設。\n115線（楊新公路）尚未拓寬路段，爭取預算儘早開工。\n118線（竹北—關西）易淹水地區排水道疏通。\n加強地方文化產業及農產品之推廣。","param":{"suggestions_years":{"count":2,"sum":90000,"years":[{"count":2,"sum":90000,"suggest_year":"2014","small_purchase":2}]},"diversity":{"":0.027847152847152848,"中國國民黨":0.544080502830503,"民主進步黨":0.020454722045631132,"勞動黨":0.03150302979848434,"無黨籍":0.3761145924782289},"bills_role_statistics":{"total":77,"priproposer":33,"sponsor":40,"cosponsor":37},"suggestions_associations":[{"count":0,"sum":0,"label":"社區發展協會"},{"count":0,"sum":0,"label":"學會"},{"count":0,"sum":0,"label":"商會"},{"count":0,"sum":0,"label":"公會"},{"count":0,"sum":0,"label":"協進會"},{"count":0,"sum":0,"label":"促進會"},{"count":0,"sum":0,"label":"研習會"},{"count":0,"sum":0,"label":"婦聯會"},{"count":0,"sum":0,"label":"婦女會"},{"count":0,"sum":0,"label":"體育會"},{"count":0,"sum":0,"label":"同心會"},{"count":0,"sum":0,"label":"農會"},{"count":0,"sum":0,"label":"早起會"},{"count":0,"sum":0,"label":"健身會"},{"count":0,"sum":0,"label":"宗親會"},{"count":0,"sum":0,"label":"功德會"},{"count":0,"sum":0,"label":"商業會"},{"count":0,"sum":0,"label":"長青會"},{"count":0,"sum":0,"label":"民眾服務社"},{"count":0,"sum":0,"label":"聯盟"}],"bills_party_diversity":[{"party":"中國國民黨","ratio":0.5544041450777202},{"party":"無黨籍","ratio":0.3601036269430052},{"party":"勞動黨","ratio":0.03626943005181347},{"party":"民主進步黨","ratio":0.025906735751295335},{"party":"","ratio":0.023316062176165803}],"suggestions_piles":[{"count":0,"tokens":"協會|學會|商會|公會|協進會|促進會|研習會|婦聯會|婦女會|體育會|同心會|農會|早起會|健身會|宗親會|功德會|商業會|長青會|民眾服務社|聯盟","sum":0,"label":"協會"},{"count":0,"tokens":"辦公室|辦公處","sum":0,"label":"辦公室"},{"count":0,"tokens":"廟|宮","sum":0,"label":"廟"},{"count":0,"tokens":"警察局|分局","sum":0,"label":"警察局"},{"count":0,"tokens":"消防局|消防隊|分隊|中隊","sum":0,"label":"消防局"},{"count":0,"tokens":"國中|國小","sum":0,"label":"國中、國小"}]},"councilor":"e42cb0a17e4b4822aa5b66e3232c3a34"}],"uid":"e42cb0a17e4b4822aa5b66e3232c3a34","name":"林保祿","birth":null,"former_names":"","identifiers":["林保祿","林保祿"]},{"url":"http://councils.g0v.tw/api/councilors/268/","each_terms":[{"url":"http://councils.g0v.tw/api/councilors_terms/536/","election_year":"1977","name":"周夢熊","gender":"男","party":"中國國民黨","title":"議員","constituency":null,"county":"臺北市","district":"","in_office":true,"contact_details":null,"term_start":"1977-12-25","term_end":{"date":"1981-12-25"},"education":"三軍聯合參謀大學第十期卒業。","experience":"政戰部主任、大學總教官、黃復興黨部評議員、東吳大學副教授。","remark":"","image":"http://www.tcc.gov.tw/../upload/photo/%E5%91%A8%E5%A4%A2%E7%86%8A11.jpg","links":[{"url":"http://www.tcc.gov.tw/Councilor_Content_All.aspx?s=2012&d=230312&n=%E5%91%A8%E5%A4%A2%E7%86%8A","note":"議會個人官網"}],"social_media":null,"platform":"","param":null,"councilor":"933fdb6d5f2c42458e275d9eb518a6c0"}],"uid":"933fdb6d5f2c42458e275d9eb518a6c0","name":"周夢熊","birth":"1923-03-12","former_names":"","identifiers":["周夢熊"]},{"url":"http://councils.g0v.tw/api/councilors/269/","each_terms":[{"url":"http://councils.g0v.tw/api/councilors_terms/588/","election_year":"1973","name":"周洪根","gender":"男","party":"中國國民黨","title":"議員","constituency":null,"county":"臺北市","district":"","in_office":true,"contact_details":null,"term_start":"1973-12-25","term_end":{"date":"1977-12-25"},"education":"陸軍官校十六期畢業、陸軍參謀大學正十期畢業。","experience":"排、連、營長、科組處長、臺北市第一屆議員。","remark":"","image":"http://www.tcc.gov.tw/../upload/photo/%E5%91%A8%E6%B4%AA%E6%A0%B910.jpg","links":[{"url":"http://www.tcc.gov.tw/Councilor_Content_All.aspx?s=2137&d=211107&n=%E5%91%A8%E6%B4%AA%E6%A0%B9","note":"議會個人官網"}],"social_media":null,"platform":"","param":null,"councilor":"36b496f87a4347d28a799e15ecaf2e95"},{"url":"http://councils.g0v.tw/api/councilors_terms/539/","election_year":"1977","name":"周洪根","gender":"男","party":"中國國民黨","title":"議員","constituency":null,"county":"臺北市","district":"","in_office":true,"contact_details":null,"term_start":"1977-12-25","term_end":{"date":"1981-12-25"},"education":"軍校十六期、陸軍參謀大學正十期。","experience":"排長、連長、營長、科長、組長、處長、臺北市直轄市議會第一、二屆議員。","remark":"","image":"http://www.tcc.gov.tw/../upload/photo/%E5%91%A8%E6%B4%AA%E6%A0%B911.jpg","links":[{"url":"http://www.tcc.gov.tw/Councilor_Content_All.aspx?s=1985&d=211107&n=%E5%91%A8%E6%B4%AA%E6%A0%B9","note":"議會個人官網"}],"social_media":null,"platform":"","param":null,"councilor":"36b496f87a4347d28a799e15ecaf2e95"},{"url":"http://councils.g0v.tw/api/councilors_terms/632/","election_year":"1969","name":"周洪根","gender":"男","party":"中國國民黨","title":"議員","constituency":null,"county":"臺北市","district":"","in_office":true,"contact_details":null,"term_start":"1969-12-25","term_end":{"date":"1973-12-25"},"education":"中央軍校十六期。","experience":"排連營長、大隊長、科、組、處長。","remark":"","image":"http://www.tcc.gov.tw/../upload/photo/%E5%91%A8%E6%B4%AA%E6%A0%B909.jpg","links":[{"url":"http://www.tcc.gov.tw/Councilor_Content_All.aspx?s=2170&d=211107&n=%E5%91%A8%E6%B4%AA%E6%A0%B9","note":"議會個人官網"}],"social_media":null,"platform":"","param":null,"councilor":"36b496f87a4347d28a799e15ecaf2e95"}],"uid":"36b496f87a4347d28a799e15ecaf2e95","name":"周洪根","birth":"1921-11-07","former_names":"","identifiers":["周洪根"]},{"url":"http://councils.g0v.tw/api/councilors/270/","each_terms":[{"url":"http://councils.g0v.tw/api/councilors_terms/541/","election_year":"1977","name":"李黃恒貞","gender":"女","party":"中國國民黨","title":"議員","constituency":null,"county":"臺北市","district":"","in_office":true,"contact_details":null,"term_start":"1977-12-25","term_end":{"date":"1981-12-25"},"education":"印尼中華中學高中畢業、革命實踐研究院結業。","experience":"臺北市第二屆議員、私立華江幼稚園董事長、臺北市義勇警察大隊督導、雙園區調解委員會委員、教員、婦訓隊隊長、臺北市(省轄市)四、五、六屆市議員。","remark":"","image":"http://www.tcc.gov.tw/../upload/photo/%E6%9D%8E%E9%BB%83%E6%81%92%E8%B2%9E11.jpg","links":[{"url":"http://www.tcc.gov.tw/Councilor_Content_All.aspx?s=2201&d=211107&n=%E6%9D%8E%E9%BB%83%E6%81%92%E8%B2%9E","note":"議會個人官網"}],"social_media":null,"platform":"","param":null,"councilor":"1a1d887e89e545898d09b5326a51d623"},{"url":"http://councils.g0v.tw/api/councilors_terms/589/","election_year":"1973","name":"李黃恒貞","gender":"女","party":"中國國民黨","title":"議員","constituency":null,"county":"臺北市","district":"","in_office":true,"contact_details":null,"term_start":"1973-12-25","term_end":{"date":"1977-12-25"},"education":"印尼中華中學高中畢業。","experience":"臺北市第四、五、六屆議會議員，臺北市私立華江幼稚園董事長、臺北市兒童福利基金會管理會委員、臺北市雙園區婦女會理事長、臺北市婦女會常務監事、中國家庭計畫協會顧問、臺北市道教會顧問、臺北市國術會駐會顧問、臺北市佛教會天后宮媽祖會副會長。","remark":"","image":"http://www.tcc.gov.tw/../upload/photo/%E6%9D%8E%E9%BB%83%E6%81%92%E8%B2%9E10.jpg","links":[{"url":"http://www.tcc.gov.tw/Councilor_Content_All.aspx?s=1392&d=211107&n=%E6%9D%8E%E9%BB%83%E6%81%92%E8%B2%9E","note":"議會個人官網"}],"social_media":null,"platform":"","param":null,"councilor":"1a1d887e89e545898d09b5326a51d623"}],"uid":"1a1d887e89e545898d09b5326a51d623","name":"李黃恒貞","birth":"1921-11-07","former_names":"","identifiers":["李黃恒貞","李黄恒貞","李黃恒貞","李黄恒貞"]},{"url":"http://councils.g0v.tw/api/councilors/973/","each_terms":[{"url":"http://councils.g0v.tw/api/councilors_terms/1789/","election_year":"1961","name":"劉阿蚶","gender":"","party":"","title":"議員","constituency":2,"county":"新北市","district":"三峽鎮、鶯歌鎮、樹林鎮","in_office":true,"contact_details":null,"term_start":"1961-02-21","term_end":{"date":"1964-02-20"},"education":"私塾３年肄","experience":"樹林酒廠工友３５年\n耕農１０年\n里長２任\n臺北縣議會第5屆議員","remark":null,"image":"http://www.ntp.gov.tw/UpFile/CouncilorFile/TTCC0514.jpg","links":[{"url":"http://www.ntp.gov.tw/content/history/history01-5-p.aspx?sid=228","note":"議會個人官網"}],"social_media":null,"platform":"","param":null,"councilor":"c32c475b07294b658f78dbdf517a4b57"}],"uid":"c32c475b07294b658f78dbdf517a4b57","name":"劉阿蚶","birth":null,"former_names":"","identifiers":["劉阿蚶","劉阿蚶"]},{"url":"http://councils.g0v.tw/api/councilors/974/","each_terms":[{"url":"http://councils.g0v.tw/api/councilors_terms/1794/","election_year":"1961","name":"許吉","gender":"","party":"","title":"議員","constituency":2,"county":"新北市","district":"三峽鎮、鶯歌鎮、樹林鎮","in_office":true,"contact_details":null,"term_start":"1961-02-21","term_end":{"date":"1964-02-20"},"education":"臺北師範學校","experience":"鶯歌街協議會員\n鶯歌鎮合作社理事\n鶯歌鎮農會理監事\n鶯歌鎮農會總幹事\n鶯歌鎮第2屆鎮民代表會主席\n鶯歌鎮第1、2屆鎮長\n臺北縣議會第5屆議員","remark":null,"image":"http://www.ntp.gov.tw/UpFile/CouncilorFile/TTCC0509.jpg","links":[{"url":"http://www.ntp.gov.tw/content/history/history01-5-p.aspx?sid=227","note":"議會個人官網"}],"social_media":null,"platform":"","param":null,"councilor":"c7f1636c48b34a64b236cf0409553663"}],"uid":"c7f1636c48b34a64b236cf0409553663","name":"許吉","birth":null,"former_names":"","identifiers":["許吉"]},{"url":"http://councils.g0v.tw/api/councilors/975/","each_terms":[{"url":"http://councils.g0v.tw/api/councilors_terms/1796/","election_year":"1961","name":"陳邵若","gender":"","party":"","title":"議員","constituency":1,"county":"新北市","district":"板橋鎮、中和鄉、永和鎮、土城鄉","in_office":true,"contact_details":null,"term_start":"1961-02-21","term_end":{"date":"1964-02-20"},"education":"河南省立百泉師範畢\n革命實踐研究院婦訓班８期結業","experience":"中學教師\n國校教師\n河堤國小研究室主任兼文書組長\n臺北縣議會第5屆議員\n民國82年9月22日歿","remark":null,"image":"http://www.ntp.gov.tw/UpFile/CouncilorFile/TTCC0507.jpg","links":[{"url":"http://www.ntp.gov.tw/content/history/history01-5-p.aspx?sid=226","note":"議會個人官網"}],"social_media":null,"platform":"","param":null,"councilor":"0c49bb48b8d6498190cfd1a9e42e6606"}],"uid":"0c49bb48b8d6498190cfd1a9e42e6606","name":"陳邵若","birth":null,"former_names":"","identifiers":["陳邵若"]},{"url":"http://councils.g0v.tw/api/councilors/976/","each_terms":[{"url":"http://councils.g0v.tw/api/councilors_terms/1801/","election_year":"1961","name":"劉順天","gender":"","party":"","title":"議員","constituency":1,"county":"新北市","district":"板橋鎮、中和鄉、永和鎮、土城鄉","in_office":true,"contact_details":null,"term_start":"1961-02-21","term_end":{"date":"1964-02-20"},"education":"宜蘭農林學校","experience":"沙崙國校教員\n板橋鎮公所經濟股長\n北縣警察局刑警隊員\n製材廠經理\n第5、6屆板橋鎮長\n第1屆板橋市長\n臺北縣議會第5屆議員\n97年11月3日歿","remark":null,"image":"http://www.ntp.gov.tw/UpFile/CouncilorFile/TTCC0502.jpg","links":[{"url":"http://www.ntp.gov.tw/content/history/history01-5-p.aspx?sid=225","note":"議會個人官網"}],"social_media":null,"platform":"","param":null,"councilor":"b60794cdf809455ca01fd5351303ad34"}],"uid":"b60794cdf809455ca01fd5351303ad34","name":"劉順天","birth":null,"former_names":"","identifiers":["劉順天","劉順天"]},{"url":"http://councils.g0v.tw/api/councilors/977/","each_terms":[{"url":"http://councils.g0v.tw/api/councilors_terms/1812/","election_year":"1964","name":"李喬嵩","gender":"","party":"","title":"議員","constituency":8,"county":"新北市","district":"瑞芳鎮、雙溪鄉、貢寮鄉、平溪鄉","in_office":true,"contact_details":null,"term_start":"1964-02-21","term_end":{"date":"1968-02-20"},"education":"中國新聞專科\n日本東京教育學院","experience":"臺北縣平溪鄉電話建設協會主任委員\n臺北縣新聞記者公會理事長\n臺北縣平溪鄉體育會理事長\n臺北縣運輸公會理事\n臺灣省新藥公會成藥委員\n聯合版駐臺北縣記者\n遠東冷氣汽車服務中心總經理\n大華運輸行經理\n連壽西藥行經理\n平溪醫院院長\n遠東遊覽汽車股份有限公司董事長\n金山旅行社股份有限公司總經理\n臺北縣議會第6屆議員","remark":null,"image":"http://www.ntp.gov.tw/UpFile/CouncilorFile/TTCC0653.jpg","links":[{"url":"http://www.ntp.gov.tw/content/history/history01-5-p.aspx?sid=273","note":"議會個人官網"}],"social_media":null,"platform":"","param":null,"councilor":"30eca742b5b2474394185d87f5dc110d"}],"uid":"30eca742b5b2474394185d87f5dc110d","name":"李喬嵩","birth":null,"former_names":"","identifiers":["李喬嵩","李喬嵩"]}]}