{"count":1904,"next":"http://councils.g0v.tw/api/councilors/?page=108","previous":"http://councils.g0v.tw/api/councilors/?page=106","results":[{"url":"http://councils.g0v.tw/api/councilors/914/","each_terms":[{"url":"http://councils.g0v.tw/api/councilors_terms/1626/","election_year":"1955","name":"蘇清波","gender":"","party":"","title":"議員","constituency":5,"county":"新北市","district":"汐止鎮、南港鎮、內湖鄉","in_office":true,"contact_details":null,"term_start":"1955-01-16","term_end":{"date":"1958-02-20"},"education":"臺灣總督府鐵道教習所運輸科","experience":"臺北縣第5、6屆縣長\n信興煤礦公司\n泰興通運實業公司董事長\n臺北縣議會第3屆議員\n臺北縣議會第4、5屆議長\n民國102年12月30日歿","remark":null,"image":"http://www.ntp.gov.tw/UpFile/CouncilorFile/TTCC0335.jpg","links":[{"url":"http://www.ntp.gov.tw/content/history/history01-5-p.aspx?sid=169","note":"議會個人官網"}],"social_media":null,"platform":"","param":null,"councilor":"56c1065fd8a446f4abe65fd138c0caab"},{"url":"http://councils.g0v.tw/api/councilors_terms/1696/","election_year":"1958","name":"蘇清波","gender":"","party":"","title":"議長","constituency":5,"county":"新北市","district":"汐止鎮、南港鎮、內湖鄉","in_office":true,"contact_details":null,"term_start":"1958-02-21","term_end":{"date":"1961-02-20"},"education":"臺灣總督府鐵道教習所運輸科","experience":"臺北縣第5、6屆縣長\n信興煤礦公司\n泰興通運實業公司董事長\n臺北縣議會第3屆議員\n臺北縣議會第4、5屆議長\n民國102年12月30日歿","remark":null,"image":"http://www.ntp.gov.tw/UpFile/CouncilorFile/TTCC0335.jpg","links":[{"url":"http://www.ntp.gov.tw/content/history/history01-5-p.aspx?sid=169","note":"議會個人官網"}],"social_media":null,"platform":"","param":null,"councilor":"56c1065fd8a446f4abe65fd138c0caab"},{"url":"http://councils.g0v.tw/api/councilors_terms/1770/","election_year":"1961","name":"蘇清波","gender":"","party":"","title":"議長","constituency":5,"county":"新北市","district":"汐止鎮、南港鎮、內湖鄉","in_office":true,"contact_details":null,"term_start":"1961-02-21","term_end":{"date":"1964-02-20"},"education":"臺灣總督府鐵道教習所運輸科","experience":"臺北縣第5、6屆縣長\n信興煤礦公司\n泰興通運實業公司董事長\n臺北縣議會第3屆議員\n臺北縣議會第4、5屆議長\n民國102年12月30日歿","remark":null,"image":"http://www.ntp.gov.tw/UpFile/CouncilorFile/TTCC0335.jpg","links":[{"url":"http://www.ntp.gov.tw/content/history/history01-5-p.aspx?sid=169","note":"議會個人官網"}],"social_media":null,"platform":"","param":null,"councilor":"56c1065fd8a446f4abe65fd138c0caab"}],"uid":"56c1065fd8a446f4abe65fd138c0caab","name":"蘇清波","birth":null,"former_names":"","identifiers":["蘇清波"]},{"url":"http://councils.g0v.tw/api/councilors/915/","each_terms":[{"url":"http://councils.g0v.tw/api/councilors_terms/1627/","election_year":"1955","name":"劉木祈","gender":"","party":"","title":"議員","constituency":4,"county":"新北市","district":"淡水鎮、三芝鄉、石門鄉、八里鄉","in_office":true,"contact_details":null,"term_start":"1955-01-16","term_end":{"date":"1958-02-20"},"education":"日人所設公學校","experience":"日治時代民防隊長\n泰安行經理\n軍人之友社石門支社監事\n石門汽車公司經理\n臺北縣議會第3、4屆議員","remark":null,"image":"http://www.ntp.gov.tw/UpFile/CouncilorFile/TTCC0334.jpg","links":[{"url":"http://www.ntp.gov.tw/content/history/history01-5-p.aspx?sid=168","note":"議會個人官網"}],"social_media":null,"platform":"","param":null,"councilor":"062d7b2a337141b8844a327f5fe845cf"},{"url":"http://councils.g0v.tw/api/councilors_terms/1701/","election_year":"1958","name":"劉木祈","gender":"","party":"","title":"議員","constituency":4,"county":"新北市","district":"淡水鎮、三芝鄉、石門鄉、八里鄉","in_office":true,"contact_details":null,"term_start":"1958-02-21","term_end":{"date":"1961-02-20"},"education":"日人所設公學校","experience":"日治時代民防隊長\n泰安行經理\n軍人之友社石門支社監事\n石門汽車公司經理\n臺北縣議會第3、4屆議員","remark":null,"image":"http://www.ntp.gov.tw/UpFile/CouncilorFile/TTCC0334.jpg","links":[{"url":"http://www.ntp.gov.tw/content/history/history01-5-p.aspx?sid=168","note":"議會個人官網"}],"social_media":null,"platform":"","param":null,"councilor":"062d7b2a337141b8844a327f5fe845cf"}],"uid":"062d7b2a337141b8844a327f5fe845cf","name":"劉木祈","birth":null,"former_names":"","identifiers":["劉木祈","劉木祈"]},{"url":"http://councils.g0v.tw/api/councilors/916/","each_terms":[{"url":"http://councils.g0v.tw/api/councilors_terms/1629/","election_year":"1955","name":"卓宏義","gender":"","party":"","title":"議員","constituency":4,"county":"新北市","district":"淡水鎮、三芝鄉、石門鄉、八里鄉","in_office":true,"contact_details":null,"term_start":"1955-01-16","term_end":{"date":"1958-02-20"},"education":"中央軍校14期\n革命實踐研究員議員班結業","experience":"雲南省呈貢縣代縣長\n救國團北縣支隊社會大隊長\n臺北縣議會第3、4屆議員\n民國96年7月3日歿","remark":null,"image":"http://www.ntp.gov.tw/UpFile/CouncilorFile/TTCC0332.jpg","links":[{"url":"http://www.ntp.gov.tw/content/history/history01-5-p.aspx?sid=167","note":"議會個人官網"}],"social_media":null,"platform":"","param":null,"councilor":"7dd8a03944dd458385ec206d6933e65f"},{"url":"http://councils.g0v.tw/api/councilors_terms/1700/","election_year":"1958","name":"卓宏義","gender":"","party":"","title":"議員","constituency":4,"county":"新北市","district":"淡水鎮、三芝鄉、石門鄉、八里鄉","in_office":true,"contact_details":null,"term_start":"1958-02-21","term_end":{"date":"1961-02-20"},"education":"中央軍校14期\n革命實踐研究員議員班結業","experience":"雲南省呈貢縣代縣長\n救國團北縣支隊社會大隊長\n臺北縣議會第3、4屆議員\n民國96年7月3日歿","remark":null,"image":"http://www.ntp.gov.tw/UpFile/CouncilorFile/TTCC0332.jpg","links":[{"url":"http://www.ntp.gov.tw/content/history/history01-5-p.aspx?sid=167","note":"議會個人官網"}],"social_media":null,"platform":"","param":null,"councilor":"7dd8a03944dd458385ec206d6933e65f"}],"uid":"7dd8a03944dd458385ec206d6933e65f","name":"卓宏義","birth":null,"former_names":"","identifiers":["卓宏義"]},{"url":"http://councils.g0v.tw/api/councilors/917/","each_terms":[{"url":"http://councils.g0v.tw/api/councilors_terms/1630/","election_year":"1955","name":"劉阿才","gender":"","party":"","title":"議員","constituency":4,"county":"新北市","district":"淡水鎮、三芝鄉、石門鄉、八里鄉","in_office":true,"contact_details":null,"term_start":"1955-01-16","term_end":{"date":"1958-02-20"},"education":"國民學校畢","experience":"淡水汽車貨運股份有限公司董事長\n劉合發碾米廠總經理\n臺北縣議會第3屆議員\n*民國60年8月8日歿","remark":null,"image":"http://www.ntp.gov.tw/UpFile/CouncilorFile/TTCC0331.jpg","links":[{"url":"http://www.ntp.gov.tw/content/history/history01-5-p.aspx?sid=166","note":"議會個人官網"}],"social_media":null,"platform":"","param":null,"councilor":"841b00f7ec984c10baffb050b64a1b2f"}],"uid":"841b00f7ec984c10baffb050b64a1b2f","name":"劉阿才","birth":null,"former_names":"","identifiers":["劉阿才","劉阿才"]},{"url":"http://councils.g0v.tw/api/councilors/918/","each_terms":[{"url":"http://councils.g0v.tw/api/councilors_terms/1634/","election_year":"1955","name":"郭水益","gender":"","party":"","title":"議員","constituency":3,"county":"新北市","district":"新莊鎮、泰山鄉、三重鎮、五股鄉、蘆洲鄉、林口鄉","in_office":true,"contact_details":null,"term_start":"1955-01-16","term_end":{"date":"1958-02-20"},"education":"國民學校畢業","experience":"鄉民代表\n警民支會理事\n蘆洲鄉調解會委員\n臺北縣議會第3屆議員\n*民國50年9月2日歿","remark":null,"image":"http://www.ntp.gov.tw/UpFile/CouncilorFile/TTCC0326.jpg","links":[{"url":"http://www.ntp.gov.tw/content/history/history01-5-p.aspx?sid=164","note":"議會個人官網"}],"social_media":null,"platform":"","param":null,"councilor":"ef1dadf1a5ae44ee8c314038bd978e12"}],"uid":"ef1dadf1a5ae44ee8c314038bd978e12","name":"郭水益","birth":null,"former_names":"","identifiers":["郭水益"]},{"url":"http://councils.g0v.tw/api/councilors/919/","each_terms":[{"url":"http://councils.g0v.tw/api/councilors_terms/1638/","election_year":"1955","name":"林媽成","gender":"","party":"","title":"議員","constituency":3,"county":"新北市","district":"新莊鎮、泰山鄉、三重鎮、五股鄉、蘆洲鄉、林口鄉","in_office":true,"contact_details":null,"term_start":"1955-01-16","term_end":{"date":"1958-02-20"},"education":"基隆中學\n私墊修讀漢學及中醫學10餘年","experience":"臺灣省政府交通處\n臺灣航業公司\n端陽被服廠總經理\n三重市林姓宗親會理事長\n三重市民代表\n三重市農會總幹事\n臺北縣議會第3、4屆議員","remark":null,"image":"http://www.ntp.gov.tw/UpFile/CouncilorFile/TTCC0322.jpg","links":[{"url":"http://www.ntp.gov.tw/content/history/history01-5-p.aspx?sid=163","note":"議會個人官網"}],"social_media":null,"platform":"","param":null,"councilor":"4fb0595b86474fa69cf399e27e64249f"},{"url":"http://councils.g0v.tw/api/councilors_terms/1707/","election_year":"1958","name":"林媽成","gender":"","party":"","title":"議員","constituency":3,"county":"新北市","district":"新莊鎮、泰山鄉、三重鎮、五股鄉、林口鄉、蘆洲鄉","in_office":true,"contact_details":null,"term_start":"1958-02-21","term_end":{"date":"1961-02-20"},"education":"基隆中學\n私墊修讀漢學及中醫學10餘年","experience":"臺灣省政府交通處\n臺灣航業公司\n端陽被服廠總經理\n三重市林姓宗親會理事長\n三重市民代表\n三重市農會總幹事\n臺北縣議會第3、4屆議員","remark":null,"image":"http://www.ntp.gov.tw/UpFile/CouncilorFile/TTCC0322.jpg","links":[{"url":"http://www.ntp.gov.tw/content/history/history01-5-p.aspx?sid=163","note":"議會個人官網"}],"social_media":null,"platform":"","param":null,"councilor":"4fb0595b86474fa69cf399e27e64249f"}],"uid":"4fb0595b86474fa69cf399e27e64249f","name":"林媽成","birth":null,"former_names":"","identifiers":["林媽成","林媽成"]},{"url":"http://councils.g0v.tw/api/councilors/920/","each_terms":[{"url":"http://councils.g0v.tw/api/councilors_terms/1639/","election_year":"1955","name":"王慶賢","gender":"","party":"","title":"議員","constituency":4,"county":"新北市","district":"淡水鎮、三芝鄉、石門鄉、八里鄉","in_office":true,"contact_details":null,"term_start":"1955-01-16","term_end":{"date":"1958-02-20"},"education":"高中畢業","experience":"福建家鄉當鄉長\n金門港區管理\n淡水建設科科長\n淡水第1任鎮長\n農會總幹\n臺北縣議會第3、4屆議員\n民國86年9月14日歿","remark":null,"image":"http://www.ntp.gov.tw/UpFile/CouncilorFile/TTCC0330.jpg","links":[{"url":"http://www.ntp.gov.tw/content/history/history01-5-p.aspx?sid=165","note":"議會個人官網"}],"social_media":null,"platform":"","param":null,"councilor":"f043bdd9d7394dfb81693dd87e366b00"},{"url":"http://councils.g0v.tw/api/councilors_terms/1702/","election_year":"1958","name":"王慶賢","gender":"","party":"","title":"議員","constituency":4,"county":"新北市","district":"淡水鎮、三芝鄉、石門鄉、八里鄉","in_office":true,"contact_details":null,"term_start":"1958-02-21","term_end":{"date":"1961-02-20"},"education":"高中畢業","experience":"福建家鄉當鄉長\n金門港區管理\n淡水建設科科長\n淡水第1任鎮長\n農會總幹\n臺北縣議會第3、4屆議員\n民國86年9月14日歿","remark":null,"image":"http://www.ntp.gov.tw/UpFile/CouncilorFile/TTCC0330.jpg","links":[{"url":"http://www.ntp.gov.tw/content/history/history01-5-p.aspx?sid=165","note":"議會個人官網"}],"social_media":null,"platform":"","param":null,"councilor":"f043bdd9d7394dfb81693dd87e366b00"}],"uid":"f043bdd9d7394dfb81693dd87e366b00","name":"王慶賢","birth":null,"former_names":"","identifiers":["王慶賢"]},{"url":"http://councils.g0v.tw/api/councilors/921/","each_terms":[{"url":"http://councils.g0v.tw/api/councilors_terms/1641/","election_year":"1955","name":"連清傳","gender":"","party":"","title":"議員","constituency":3,"county":"新北市","district":"新莊鎮、泰山鄉、三重鎮、五股鄉、蘆洲鄉、林口鄉","in_office":true,"contact_details":null,"term_start":"1955-01-16","term_end":{"date":"1958-02-20"},"education":"國民學校畢","experience":"三重鎮五谷里長\n三重鎮民代表\n三重鎮農會理事長\n新莊水利委員會委員\n三重鎮調解委員會委員\n臺北縣議會第3、5屆議員\n臺北保安宮管理委員會委員\n三重市太璞宮管理人\n臺北縣財團法人先嗇宮董事長\n*民國81年7月28日歿","remark":null,"image":"http://www.ntp.gov.tw/UpFile/CouncilorFile/TTCC0320.jpg","links":[{"url":"http://www.ntp.gov.tw/content/history/history01-5-p.aspx?sid=162","note":"議會個人官網"}],"social_media":null,"platform":"","param":null,"councilor":"3467da81cd0c4271b804f2ea79191a94"},{"url":"http://councils.g0v.tw/api/councilors_terms/1783/","election_year":"1961","name":"連清傳","gender":"","party":"","title":"議員","constituency":3,"county":"新北市","district":"新莊鎮、泰山鄉、三重鎮、五股鄉、蘆洲鄉、林口鄉","in_office":true,"contact_details":null,"term_start":"1961-02-21","term_end":{"date":"1964-02-20"},"education":"國民學校畢","experience":"三重鎮五谷里長\n三重鎮民代表\n三重鎮農會理事長\n新莊水利委員會委員\n三重鎮調解委員會委員\n臺北縣議會第3、5屆議員\n臺北保安宮管理委員會委員\n三重市太璞宮管理人\n臺北縣財團法人先嗇宮董事長\n*民國81年7月28日歿","remark":null,"image":"http://www.ntp.gov.tw/UpFile/CouncilorFile/TTCC0320.jpg","links":[{"url":"http://www.ntp.gov.tw/content/history/history01-5-p.aspx?sid=162","note":"議會個人官網"}],"social_media":null,"platform":"","param":null,"councilor":"3467da81cd0c4271b804f2ea79191a94"}],"uid":"3467da81cd0c4271b804f2ea79191a94","name":"連清傳","birth":null,"former_names":"","identifiers":["連清傳"]},{"url":"http://councils.g0v.tw/api/councilors/922/","each_terms":[{"url":"http://councils.g0v.tw/api/councilors_terms/1642/","election_year":"1955","name":"蔡火慶","gender":"","party":"","title":"議員","constituency":3,"county":"新北市","district":"新莊鎮、泰山鄉、三重鎮、五股鄉、蘆洲鄉、林口鄉","in_office":true,"contact_details":null,"term_start":"1955-01-16","term_end":{"date":"1958-02-20"},"education":"臺灣臨濟宗佛教中學畢業","experience":"\n臺北地方法院書記\n司法書士\n土地代書人\n臺北縣議會第3、4屆議員","remark":null,"image":"http://www.ntp.gov.tw/UpFile/CouncilorFile/TTCC0319.jpg","links":[{"url":"http://www.ntp.gov.tw/content/history/history01-5-p.aspx?sid=161","note":"議會個人官網"}],"social_media":null,"platform":"","param":null,"councilor":"37a50bcf46f64472a1114d88886ec992"},{"url":"http://councils.g0v.tw/api/councilors_terms/1712/","election_year":"1958","name":"蔡火慶","gender":"","party":"","title":"議員","constituency":3,"county":"新北市","district":"新莊鎮、泰山鄉、三重鎮、五股鄉、林口鄉、蘆洲鄉","in_office":true,"contact_details":null,"term_start":"1958-02-21","term_end":{"date":"1961-02-20"},"education":"臺灣臨濟宗佛教中學畢業","experience":"\n臺北地方法院書記\n司法書士\n土地代書人\n臺北縣議會第3、4屆議員","remark":null,"image":"http://www.ntp.gov.tw/UpFile/CouncilorFile/TTCC0319.jpg","links":[{"url":"http://www.ntp.gov.tw/content/history/history01-5-p.aspx?sid=161","note":"議會個人官網"}],"social_media":null,"platform":"","param":null,"councilor":"37a50bcf46f64472a1114d88886ec992"}],"uid":"37a50bcf46f64472a1114d88886ec992","name":"蔡火慶","birth":null,"former_names":"","identifiers":["蔡火慶"]},{"url":"http://councils.g0v.tw/api/councilors/923/","each_terms":[{"url":"http://councils.g0v.tw/api/councilors_terms/1645/","election_year":"1955","name":"廖敏伊","gender":"","party":"","title":"議員","constituency":3,"county":"新北市","district":"新莊鎮、泰山鄉、三重鎮、五股鄉、蘆洲鄉、林口鄉","in_office":true,"contact_details":null,"term_start":"1955-01-16","term_end":{"date":"1958-02-20"},"education":"中國大學畢業","experience":"民本廣播電臺播音部主任\n中華廣播電臺副總經理\n臺北縣議會第3屆議員","remark":null,"image":"http://www.ntp.gov.tw/UpFile/CouncilorFile/TTCC0316.jpg","links":[{"url":"http://www.ntp.gov.tw/content/history/history01-5-p.aspx?sid=160","note":"議會個人官網"}],"social_media":null,"platform":"","param":null,"councilor":"2fd8bbcf5f654e5da290c41eaae7feec"}],"uid":"2fd8bbcf5f654e5da290c41eaae7feec","name":"廖敏伊","birth":null,"former_names":"","identifiers":["廖敏伊"]}]}