{"count":1904,"next":"http://councils.g0v.tw/api/councilors/?page=109","previous":"http://councils.g0v.tw/api/councilors/?page=107","results":[{"url":"http://councils.g0v.tw/api/councilors/924/","each_terms":[{"url":"http://councils.g0v.tw/api/councilors_terms/1649/","election_year":"1955","name":"王文仁","gender":"","party":"","title":"議員","constituency":2,"county":"新北市","district":"三峽鎮、鶯歌鎮、樹林鎮","in_office":true,"contact_details":null,"term_start":"1955-01-16","term_end":{"date":"1958-02-20"},"education":"臺灣大學政治系畢業","experience":"鶯歌初中教師\n臺北縣窯業公會理事\n中央磁器廠總經理\n臺北縣議會第3、4屆議員\n*民國69年5月20日歿","remark":null,"image":"http://www.ntp.gov.tw/UpFile/CouncilorFile/TTCC0312.jpg","links":[{"url":"http://www.ntp.gov.tw/content/history/history01-5-p.aspx?sid=159","note":"議會個人官網"}],"social_media":null,"platform":"","param":null,"councilor":"6ab7ffda73e54344b2f762ad178208c0"},{"url":"http://councils.g0v.tw/api/councilors_terms/1725/","election_year":"1958","name":"王文仁","gender":"","party":"","title":"議員","constituency":2,"county":"新北市","district":"三峽鎮、鶯歌鎮、樹林鎮","in_office":true,"contact_details":null,"term_start":"1958-02-21","term_end":{"date":"1961-02-20"},"education":"臺灣大學政治系畢業","experience":"鶯歌初中教師\n臺北縣窯業公會理事\n中央磁器廠總經理\n臺北縣議會第3、4屆議員\n*民國69年5月20日歿","remark":null,"image":"http://www.ntp.gov.tw/UpFile/CouncilorFile/TTCC0312.jpg","links":[{"url":"http://www.ntp.gov.tw/content/history/history01-5-p.aspx?sid=159","note":"議會個人官網"}],"social_media":null,"platform":"","param":null,"councilor":"6ab7ffda73e54344b2f762ad178208c0"}],"uid":"6ab7ffda73e54344b2f762ad178208c0","name":"王文仁","birth":null,"former_names":"","identifiers":["王文仁"]},{"url":"http://councils.g0v.tw/api/councilors/925/","each_terms":[{"url":"http://councils.g0v.tw/api/councilors_terms/1657/","election_year":"1955","name":"呂傳杏","gender":"","party":"","title":"議員","constituency":1,"county":"新北市","district":"板橋鎮、中和鄉、土城鄉","in_office":true,"contact_details":null,"term_start":"1955-01-16","term_end":{"date":"1958-02-20"},"education":"日本產業經濟事務幹部實習訓練所畢業","experience":"臺灣省鐵路工會常務理事\n臺灣省鐵路工會人事小組研究委員會委員\n臺北縣議會第3、4屆議員","remark":null,"image":"http://www.ntp.gov.tw/UpFile/CouncilorFile/TTCC0304.jpg","links":[{"url":"http://www.ntp.gov.tw/content/history/history01-5-p.aspx?sid=157","note":"議會個人官網"}],"social_media":null,"platform":"","param":null,"councilor":"58ff6dbc5ca24d55919dd57f0a29ae93"},{"url":"http://councils.g0v.tw/api/councilors_terms/1731/","election_year":"1958","name":"呂傳杏","gender":"","party":"","title":"議員","constituency":1,"county":"新北市","district":"板橋鎮、中和鄉、土城鄉","in_office":true,"contact_details":null,"term_start":"1958-02-21","term_end":{"date":"1961-02-20"},"education":"日本產業經濟事務幹部實習訓練所畢業","experience":"臺灣省鐵路工會常務理事\n臺灣省鐵路工會人事小組研究委員會委員\n臺北縣議會第3、4屆議員","remark":null,"image":"http://www.ntp.gov.tw/UpFile/CouncilorFile/TTCC0304.jpg","links":[{"url":"http://www.ntp.gov.tw/content/history/history01-5-p.aspx?sid=157","note":"議會個人官網"}],"social_media":null,"platform":"","param":null,"councilor":"58ff6dbc5ca24d55919dd57f0a29ae93"}],"uid":"58ff6dbc5ca24d55919dd57f0a29ae93","name":"呂傳杏","birth":null,"former_names":"","identifiers":["呂傳杏"]},{"url":"http://councils.g0v.tw/api/councilors/926/","each_terms":[{"url":"http://councils.g0v.tw/api/councilors_terms/1658/","election_year":"1955","name":"邱海水","gender":"","party":"","title":"議員","constituency":1,"county":"新北市","district":"板橋鎮、中和鄉、土城鄉","in_office":true,"contact_details":null,"term_start":"1955-01-16","term_end":{"date":"1958-02-20"},"education":"板橋國小畢業","experience":"北縣商業會\n米穀商業同業公會理事長\n板橋信用合作社理事\n北縣民眾服務支社常務監事\n板橋體育會理事長\n臺北縣議會第3、4屆議員","remark":null,"image":"http://www.ntp.gov.tw/UpFile/CouncilorFile/TTCC0303.jpg","links":[{"url":"http://www.ntp.gov.tw/content/history/history01-5-p.aspx?sid=156","note":"議會個人官網"}],"social_media":null,"platform":"","param":null,"councilor":"bae22da2527044c38fb6b70b1ea467b7"},{"url":"http://councils.g0v.tw/api/councilors_terms/1735/","election_year":"1958","name":"邱海水","gender":"","party":"","title":"議員","constituency":1,"county":"新北市","district":"板橋鎮、中和鄉、土城鄉","in_office":true,"contact_details":null,"term_start":"1958-02-21","term_end":{"date":"1961-02-20"},"education":"板橋國小畢業","experience":"北縣商業會\n米穀商業同業公會理事長\n板橋信用合作社理事\n北縣民眾服務支社常務監事\n板橋體育會理事長\n臺北縣議會第3、4屆議員","remark":null,"image":"http://www.ntp.gov.tw/UpFile/CouncilorFile/TTCC0303.jpg","links":[{"url":"http://www.ntp.gov.tw/content/history/history01-5-p.aspx?sid=156","note":"議會個人官網"}],"social_media":null,"platform":"","param":null,"councilor":"bae22da2527044c38fb6b70b1ea467b7"}],"uid":"bae22da2527044c38fb6b70b1ea467b7","name":"邱海水","birth":null,"former_names":"","identifiers":["邱海水"]},{"url":"http://councils.g0v.tw/api/councilors/244/","each_terms":[{"url":"http://councils.g0v.tw/api/councilors_terms/468/","election_year":"1981","name":"郭錦章","gender":"男","party":"中國國民黨","title":"議員","constituency":null,"county":"臺北市","district":"","in_office":true,"contact_details":null,"term_start":"1981-12-25","term_end":{"date":"1985-12-25"},"education":"樹林初中畢業、日本東京高千穗高等學校畢業。","experience":"國聲酒店有限公司董事長、大光明歌劇院公司董事長、義警大隊建成中隊中隊長、建成區黨部常務委員。","remark":"","image":"http://www.tcc.gov.tw/../upload/photo/%E9%83%AD%E9%8C%A6%E7%AB%A012.jpg","links":[{"url":"http://www.tcc.gov.tw/Councilor_Content_All.aspx?s=1365&d=340923&n=%E9%83%AD%E9%8C%A6%E7%AB%A0","note":"議會個人官網"}],"social_media":null,"platform":"","param":null,"councilor":"a264ece950b04a33ac6a5ec890a212af"}],"uid":"a264ece950b04a33ac6a5ec890a212af","name":"郭錦章","birth":"1934-09-23","former_names":"","identifiers":["郭錦章"]},{"url":"http://councils.g0v.tw/api/councilors/245/","each_terms":[{"url":"http://councils.g0v.tw/api/councilors_terms/472/","election_year":"1981","name":"張朝枝","gender":"男","party":"中國國民黨","title":"議員","constituency":null,"county":"臺北市","district":"","in_office":true,"contact_details":null,"term_start":"1981-12-25","term_end":{"date":"1985-12-25"},"education":"泰北高中畢業、淡江英語專科學校畢業、夏威夷大學旅館系結業。","experience":"臺北市直轄市議會第二、三屆議員、北投區後備軍人輔導組長、圓山實業公司董事長、陽明山旅館公會理事長、臺北市體育會常務監事、理事。","remark":"","image":"http://www.tcc.gov.tw/../upload/photo/%E5%BC%B5%E6%9C%9D%E6%9E%9D12.jpg","links":[{"url":"http://www.tcc.gov.tw/Councilor_Content_All.aspx?s=1628&d=350721&n=%E5%BC%B5%E6%9C%9D%E6%9E%9D","note":"議會個人官網"}],"social_media":null,"platform":"","param":null,"councilor":"40251a3b247e4f3a9b3a498ba7af6f55"},{"url":"http://councils.g0v.tw/api/councilors_terms/521/","election_year":"1977","name":"張朝枝","gender":"男","party":"中國國民黨","title":"議員","constituency":null,"county":"臺北市","district":"","in_office":true,"contact_details":null,"term_start":"1977-12-25","term_end":{"date":"1981-12-25"},"education":"泰北中學畢業、淡江英語專科學校肄業。","experience":"中國國民黨北投區黨部委員、北投區後備軍人輔導組長、臺北市體育會常務監事、理事、新民國中家長會會長、泰北中學校友會幹事、臺北市議會第二屆議員。","remark":"","image":"http://www.tcc.gov.tw/../upload/photo/%E5%BC%B5%E6%9C%9D%E6%9E%9D11.jpg","links":[{"url":"http://www.tcc.gov.tw/Councilor_Content_All.aspx?s=1935&d=350721&n=%E5%BC%B5%E6%9C%9D%E6%9E%9D","note":"議會個人官網"}],"social_media":null,"platform":"","param":null,"councilor":"40251a3b247e4f3a9b3a498ba7af6f55"},{"url":"http://councils.g0v.tw/api/councilors_terms/569/","election_year":"1973","name":"張朝枝","gender":"男","party":"中國國民黨","title":"議員","constituency":null,"county":"臺北市","district":"","in_office":true,"contact_details":null,"term_start":"1973-12-25","term_end":{"date":"1977-12-25"},"education":"泰北中學高中畢業、淡江英語專科學校肄業。","experience":"中國國民黨北投區黨部委員、北投區後備軍人輔導組組長、陽明山觀光協會副會長、陽明山旅館公會理事長、泰北中學校友會顧問、新秀閣大飯店常務董事。","remark":"","image":"http://www.tcc.gov.tw/../upload/photo/%E5%BC%B5%E6%9C%9D%E6%9E%9D10.jpg","links":[{"url":"http://www.tcc.gov.tw/Councilor_Content_All.aspx?s=2100&d=350721&n=%E5%BC%B5%E6%9C%9D%E6%9E%9D","note":"議會個人官網"}],"social_media":null,"platform":"","param":null,"councilor":"40251a3b247e4f3a9b3a498ba7af6f55"}],"uid":"40251a3b247e4f3a9b3a498ba7af6f55","name":"張朝枝","birth":"1935-07-21","former_names":"","identifiers":["張朝枝"]},{"url":"http://councils.g0v.tw/api/councilors/246/","each_terms":[{"url":"http://councils.g0v.tw/api/councilors_terms/481/","election_year":"1981","name":"胡益壽","gender":"男","party":"中國國民黨","title":"議員","constituency":null,"county":"臺北市","district":"","in_office":true,"contact_details":null,"term_start":"1981-12-25","term_end":{"date":"1985-12-25"},"education":"臺北市立商業職業學校高級部畢業。","experience":"胡添登商行公司經理、胡添登木業公司董事長、城中建設公司董事長、城中區梅花里里長、臺北市木商業公會常務理監事、城中區忠孝東路義警分隊長。","remark":"","image":"http://www.tcc.gov.tw/../upload/photo/%E8%83%A1%E7%9B%8A%E5%A3%BD12.jpg","links":[{"url":"http://www.tcc.gov.tw/Councilor_Content_All.aspx?s=1475&d=380209&n=%E8%83%A1%E7%9B%8A%E5%A3%BD","note":"議會個人官網"}],"social_media":null,"platform":"","param":null,"councilor":"8c4edc616621471a9afe3f5987df585d"}],"uid":"8c4edc616621471a9afe3f5987df585d","name":"胡益壽","birth":"1938-02-09","former_names":"","identifiers":["胡益壽"]},{"url":"http://councils.g0v.tw/api/councilors/1528/","each_terms":[{"url":"http://councils.g0v.tw/api/councilors_terms/2454/","election_year":"2009","name":"陳建光","gender":"男","party":"中國國民黨","title":"","constituency":3,"county":"連江縣","district":"莒光鄉","in_office":true,"contact_details":[{"type":"address","value":"馬祖莒光鄉田沃村68-3號","label":"通訊處"},{"type":"voice","value":"0836-25359、0928-278877","label":"電話"}],"term_start":"2009-12-25","term_end":{"date":"2014-12-25"},"education":null,"experience":"1. 敬恆國中小教師兼訓導\n2. 莒光鄉鄉長\n3. 東莒國小校長\n4. 台北市福德國小教師兼教務\n5. 連江縣議會議員","remark":null,"image":"http://www.mtcc.gov.tw/representative/ChenChienKuang.jpg","links":[{"url":"http://www.mtcc.gov.tw/cu_representative6.htm","note":"議會個人官網"}],"social_media":null,"platform":"充實東、西莒中正堂內部設施，提供多用途活動使用。\n爭取小三通身心障礙朋友船票半價。\n改善醫療環境，爭取縣立醫院增設洗腎設施。\n繼續爭取經費修建生活圈道路。\n督促汙水下水道早日全面完成，並落實村容改善。\n繼續改善公共設施及環境綠美化，以提昇生活品質。\n擴建東、西莒碼頭改善港埠設施。\n督促購建「新順風號」、「新莒光號」，改善島際間交通。\n積極規劃開發軍方釋出之營區，並落實福正、大埔聚落保存區開發計畫，以利推展觀光。\n繼續協助各社區及相關團體，爭取各項活動經費。\n爭取經費興建東、西莒入島意象或圖騰。\n坤坵賞鷗景點週邊環境及相關設施充實與改善。\n改善自來水品質，督促自來水管及設施汰舊換新。\n利用東、西莒珍貴之生態及人文風情資源，建請縣府協助莒光鄉里並推動樂活生態旅遊，來吸引觀光人潮。","param":null,"councilor":"21b63db9081e4a9d800ccdb3054ce0f7"}],"uid":"21b63db9081e4a9d800ccdb3054ce0f7","name":"陳建光","birth":null,"former_names":"","identifiers":["陳建光"]},{"url":"http://councils.g0v.tw/api/councilors/542/","each_terms":[{"url":"http://councils.g0v.tw/api/councilors_terms/932/","election_year":"1977","name":"陳寶琦","gender":"","party":"","title":"議員","constituency":3,"county":"新北市","district":"三重市、新莊鎮、泰山鄉、五股鄉、蘆洲鄉、林口鄉","in_office":true,"contact_details":null,"term_start":"1977-12-30","term_end":{"date":"1982-02-28"},"education":"林口國小畢\n建國中學肄業\n私立醒吾高中附設補校\n臺灣省訓練團議事機關人員訓練班","experience":"林口村村長\n林口鄉民代表會秘書\n林口鄉第6、7屆鄉長\n林口鄉民防分團團長\n代祥開發公司董事長\n臺北縣議會第9屆議員","remark":null,"image":"http://www.ntp.gov.tw/UpFile/CouncilorFile/TTCC0929.jpg","links":[{"url":"http://www.ntp.gov.tw/content/history/history01-5-p.aspx?sid=339","note":"議會個人官網"}],"social_media":null,"platform":"","param":null,"councilor":"24b1e4418d30424b8be8559864c38bbb"}],"uid":"24b1e4418d30424b8be8559864c38bbb","name":"陳寶琦","birth":null,"former_names":"","identifiers":["陳寶琦","陳寳琦"]},{"url":"http://councils.g0v.tw/api/councilors/543/","each_terms":[{"url":"http://councils.g0v.tw/api/councilors_terms/933/","election_year":"1977","name":"李炎照","gender":"","party":"","title":"議員","constituency":3,"county":"新北市","district":"三重市、新莊鎮、泰山鄉、五股鄉、蘆洲鄉、林口鄉","in_office":true,"contact_details":null,"term_start":"1977-12-30","term_end":{"date":"1982-02-28"},"education":"三重國小畢業\n臺北市立太平商職初商部\n省立臺北商職高商部畢","experience":"三重市民代表會副主席\n三重第6屆市長\n北縣都市計畫委員會委員\n三重果菜市場公司董事長\n中國國民黨臺北縣黨部副主任委員\n臺北縣議會第9屆議員","remark":null,"image":"http://www.ntp.gov.tw/UpFile/CouncilorFile/TTCC0928.jpg","links":[{"url":"http://www.ntp.gov.tw/content/history/history01-5-p.aspx?sid=338","note":"議會個人官網"}],"social_media":null,"platform":"","param":null,"councilor":"728b8e4bf0ed4df280fa884cd43c0e31"}],"uid":"728b8e4bf0ed4df280fa884cd43c0e31","name":"李炎照","birth":null,"former_names":"","identifiers":["李炎照","李炎照"]},{"url":"http://councils.g0v.tw/api/councilors/544/","each_terms":[{"url":"http://councils.g0v.tw/api/councilors_terms/935/","election_year":"1977","name":"陳萬富","gender":"","party":"","title":"議員","constituency":3,"county":"新北市","district":"三重市、新莊鎮、泰山鄉、五股鄉、蘆洲鄉、林口鄉","in_office":true,"contact_details":null,"term_start":"1977-12-30","term_end":{"date":"1982-02-28"},"education":"和尚洲公學校\n東海中學初中部\n東海中學高中部\n鄉鎮市長研習班結業","experience":"蘆洲鄉農會理監事\n租佃委員會主席\n鄉民代表會主席\n蘆洲鄉第5、6屆鄉長\n鷺江國際獅子會創會會長\n臺北縣米穀公會理事長\n中國國民黨臺北縣黨部委員\n臺北縣議會第9、12屆議員\n臺北縣議會第10屆議長\n民國91年8月歿","remark":null,"image":"http://www.ntp.gov.tw/UpFile/CouncilorFile/TTCC0927.jpg","links":[{"url":"http://www.ntp.gov.tw/content/history/history01-5-p.aspx?sid=337","note":"議會個人官網"}],"social_media":null,"platform":"","param":null,"councilor":"ae0a2b20e47640efa574b43b684dbbdd"},{"url":"http://councils.g0v.tw/api/councilors_terms/1049/","election_year":"1982","name":"陳萬富","gender":"","party":"","title":"議長","constituency":4,"county":"新北市","district":"三重市、蘆洲鄉","in_office":true,"contact_details":null,"term_start":"1982-03-01","term_end":{"date":"1986-02-28"},"education":"和尚洲公學校\n東海中學初中部\n東海中學高中部\n鄉鎮市長研習班結業","experience":"蘆洲鄉農會理監事\n租佃委員會主席\n鄉民代表會主席\n蘆洲鄉第5、6屆鄉長\n鷺江國際獅子會創會會長\n臺北縣米穀公會理事長\n中國國民黨臺北縣黨部委員\n臺北縣議會第9、12屆議員\n臺北縣議會第10屆議長\n民國91年8月歿","remark":null,"image":"http://www.ntp.gov.tw/UpFile/CouncilorFile/TTCC0927.jpg","links":[{"url":"http://www.ntp.gov.tw/content/history/history01-5-p.aspx?sid=337","note":"議會個人官網"}],"social_media":null,"platform":"","param":null,"councilor":"ae0a2b20e47640efa574b43b684dbbdd"},{"url":"http://councils.g0v.tw/api/councilors_terms/1117/","election_year":"1990","name":"陳萬富","gender":"","party":"","title":"議員","constituency":5,"county":"新北市","district":"三重市、蘆洲鄉","in_office":true,"contact_details":null,"term_start":"1990-03-01","term_end":{"date":"1994-02-28"},"education":"和尚洲公學校\n東海中學初中部\n東海中學高中部\n鄉鎮市長研習班結業","experience":"蘆洲鄉農會理監事\n租佃委員會主席\n鄉民代表會主席\n蘆洲鄉第5、6屆鄉長\n鷺江國際獅子會創會會長\n臺北縣米穀公會理事長\n中國國民黨臺北縣黨部委員\n臺北縣議會第9、12屆議員\n臺北縣議會第10屆議長\n民國91年8月歿","remark":null,"image":"http://www.ntp.gov.tw/UpFile/CouncilorFile/TTCC0927.jpg","links":[{"url":"http://www.ntp.gov.tw/content/history/history01-5-p.aspx?sid=337","note":"議會個人官網"}],"social_media":null,"platform":"","param":null,"councilor":"ae0a2b20e47640efa574b43b684dbbdd"}],"uid":"ae0a2b20e47640efa574b43b684dbbdd","name":"陳萬富","birth":null,"former_names":"","identifiers":["陳萬富"]}]}