{"count":1904,"next":"http://councils.g0v.tw/api/councilors/?page=12","previous":"http://councils.g0v.tw/api/councilors/?page=10","results":[{"url":"http://councils.g0v.tw/api/councilors/700/","each_terms":[{"url":"http://councils.g0v.tw/api/councilors_terms/1262/","election_year":"1998","name":"游文煌","gender":"","party":"","title":"議員","constituency":2,"county":"新北市","district":"中和市","in_office":true,"contact_details":null,"term_start":"1998-03-01","term_end":{"date":"2002-02-28"},"education":"興南國小\n中和國中\n東南工專電機工程科","experience":"臺北縣議會第14屆議員\n臺北縣更生保護會輔導員\n臺北縣青少年福利協會理事\n景新國小、復興國小家長會顧問\n興南國小桌球隊後援會會長\n中和市民代表","remark":null,"image":"http://www.ntp.gov.tw/UpFile/CouncilorFile/TTCC1417.jpg","links":[{"url":"http://www.ntp.gov.tw/content/history/history01-5-p.aspx?sid=481","note":"議會個人官網"}],"social_media":null,"platform":"","param":null,"councilor":"67158f1fef204fd28611814106e98ff3"}],"uid":"67158f1fef204fd28611814106e98ff3","name":"游文煌","birth":null,"former_names":"","identifiers":["游文煌"]},{"url":"http://councils.g0v.tw/api/councilors/835/","each_terms":[{"url":"http://councils.g0v.tw/api/councilors_terms/1492/","election_year":"1951","name":"丁雲霖","gender":"","party":"","title":"議員","constituency":6,"county":"新北市","district":"北投鎮、士林鎮","in_office":true,"contact_details":null,"term_start":"1951-01-04","term_end":{"date":"1953-01-05"},"education":"日本釀造學校","experience":"臺北縣議會第1、2屆議員\n士林鎮民代表會主席\n士林鎮長\n臺灣省政府參議\n臺灣區橡膠工業同業公會理事\n中華民國商會全國聯合會理事\n復興橡膠工業公司\n臺灣日光燈公司董事長","remark":null,"image":"http://www.ntp.gov.tw/UpFile/CouncilorFile/TTCC0141.jpg","links":[{"url":"http://www.ntp.gov.tw/content/history/history01-5-p.aspx?sid=105","note":"議會個人官網"}],"social_media":null,"platform":"","param":null,"councilor":"2c137956082046098287e7766f3aa59b"},{"url":"http://councils.g0v.tw/api/councilors_terms/1556/","election_year":"1953","name":"丁雲霖","gender":"","party":"","title":"議員","constituency":6,"county":"新北市","district":"北投鎮、士林鎮","in_office":true,"contact_details":null,"term_start":"1953-01-16","term_end":{"date":"1955-01-15"},"education":"日本釀造學校","experience":"臺北縣議會第1、2屆議員\n士林鎮民代表會主席\n士林鎮長\n臺灣省政府參議\n臺灣區橡膠工業同業公會理事\n中華民國商會全國聯合會理事\n復興橡膠工業公司\n臺灣日光燈公司董事長","remark":null,"image":"http://www.ntp.gov.tw/UpFile/CouncilorFile/TTCC0141.jpg","links":[{"url":"http://www.ntp.gov.tw/content/history/history01-5-p.aspx?sid=105","note":"議會個人官網"}],"social_media":null,"platform":"","param":null,"councilor":"2c137956082046098287e7766f3aa59b"}],"uid":"2c137956082046098287e7766f3aa59b","name":"丁雲霖","birth":null,"former_names":"","identifiers":["丁雲霖"]},{"url":"http://councils.g0v.tw/api/councilors/836/","each_terms":[{"url":"http://councils.g0v.tw/api/councilors_terms/1493/","election_year":"1951","name":"陳彩戀","gender":"","party":"","title":"議員","constituency":6,"county":"新北市","district":"北投鎮、士林鎮","in_office":true,"contact_details":null,"term_start":"1951-01-04","term_end":{"date":"1953-01-05"},"education":"","experience":"保正\n壯丁團團長\n士林鎮鎮民代表\n社子地區農會創辦人\n臺北縣議會第1、2屆議員\n*民國73年歿","remark":null,"image":"http://www.ntp.gov.tw/UpFile/CouncilorFile/TTCC0140.jpg","links":[{"url":"http://www.ntp.gov.tw/content/history/history01-5-p.aspx?sid=104","note":"議會個人官網"}],"social_media":null,"platform":"","param":null,"councilor":"1ae01ff5a1ee436a803116074a22b9fc"}],"uid":"1ae01ff5a1ee436a803116074a22b9fc","name":"陳彩戀","birth":null,"former_names":"","identifiers":["陳彩戀"]},{"url":"http://councils.g0v.tw/api/councilors/837/","each_terms":[{"url":"http://councils.g0v.tw/api/councilors_terms/1494/","election_year":"1951","name":"賴映光","gender":"","party":"","title":"議員","constituency":6,"county":"新北市","district":"北投鎮、士林鎮","in_office":true,"contact_details":null,"term_start":"1951-01-04","term_end":{"date":"1953-01-05"},"education":"日據時代臺北州師範第一屆畢業生\n臺大園藝系學士學位","experience":"青年團團長\n鎮民代表\n教員、教務主任\n石牌、大理、西園、長春國小校長\n臺北縣議會第1屆議員\n*民國56年歿","remark":null,"image":"http://www.ntp.gov.tw/UpFile/CouncilorFile/TTCC0139.jpg","links":[{"url":"http://www.ntp.gov.tw/content/history/history01-5-p.aspx?sid=103","note":"議會個人官網"}],"social_media":null,"platform":"","param":null,"councilor":"dbc6f9cdf67643a3af5baadfd74c157c"}],"uid":"dbc6f9cdf67643a3af5baadfd74c157c","name":"賴映光","birth":null,"former_names":"","identifiers":["賴映光","頼映光"]},{"url":"http://councils.g0v.tw/api/councilors/185/","each_terms":[{"url":"http://councils.g0v.tw/api/councilors_terms/316/","election_year":"1994","name":"陳勝宏","gender":"男","party":"民主進步黨","title":"議員","constituency":null,"county":"臺北市","district":"","in_office":true,"contact_details":null,"term_start":"1994-12-25","term_end":{"date":"1998-12-25"},"education":"社子國小、大龍國小畢業、成淵初中、北士商畢業、逢甲大學國貿系畢業。","experience":"臺北市直轄市議會第三、四、五、六屆議員、陽明信用合作社理事主席、俄羅斯國際人文合作協會理事長。","remark":"","image":"http://www.tcc.gov.tw/../upload/photo/%E9%99%B3%E5%8B%9D%E5%AE%8F15.jpg","links":[{"url":"http://www.tcc.gov.tw/Councilor_Content_All.aspx?s=1721&d=440605&n=%E9%99%B3%E5%8B%9D%E5%AE%8F","note":"議會個人官網"}],"social_media":null,"platform":"","param":null,"councilor":"fa5ba3b9a4f94f7abee5ee80ef6122f0"},{"url":"http://councils.g0v.tw/api/councilors_terms/413/","election_year":"1985","name":"陳勝宏","gender":"男","party":"民主進步黨","title":"議員","constituency":null,"county":"臺北市","district":"","in_office":true,"contact_details":null,"term_start":"1985-12-25","term_end":{"date":"1989-12-25"},"education":"逢甲大學國貿系畢業。","experience":"臺北市直轄市議會第三、四屆議員、臺灣華嶠貿易股份有限公司、陽明山信用合作社理事主席、中華民國信用合作社監事主席、合作金庫常務理事。","remark":"","image":"http://www.tcc.gov.tw/../upload/photo/%E9%99%B3%E5%8B%9D%E5%AE%8F13.jpg","links":[{"url":"http://www.tcc.gov.tw/Councilor_Content_All.aspx?s=2102&d=440605&n=%E9%99%B3%E5%8B%9D%E5%AE%8F","note":"議會個人官網"}],"social_media":null,"platform":"","param":null,"councilor":"fa5ba3b9a4f94f7abee5ee80ef6122f0"},{"url":"http://councils.g0v.tw/api/councilors_terms/365/","election_year":"1989","name":"陳勝宏","gender":"男","party":"民主進步黨","title":"議員","constituency":null,"county":"臺北市","district":"","in_office":true,"contact_details":null,"term_start":"1989-12-25","term_end":{"date":"1994-12-25"},"education":"社子國小肄業、大龍國小畢業、成淵中學畢業、臺北市商職畢業、逢甲大學國貿系畢業。","experience":"臺北市直轄市議會第三、四、五屆議員、陽明山信用合作社理事主席、中華民國合作社聯合社常務理事、中華民國信用合作社聯合監事主席。","remark":"","image":"http://www.tcc.gov.tw/../upload/photo/%E9%99%B3%E5%8B%9D%E5%AE%8F14.jpg","links":[{"url":"http://www.tcc.gov.tw/Councilor_Content_All.aspx?s=2130&d=440605&n=%E9%99%B3%E5%8B%9D%E5%AE%8F","note":"議會個人官網"}],"social_media":null,"platform":"","param":null,"councilor":"fa5ba3b9a4f94f7abee5ee80ef6122f0"},{"url":"http://councils.g0v.tw/api/councilors_terms/461/","election_year":"1981","name":"陳勝宏","gender":"男","party":"無黨籍","title":"議員","constituency":null,"county":"臺北市","district":"","in_office":true,"contact_details":null,"term_start":"1981-12-25","term_end":{"date":"1985-12-25"},"education":"臺北市立成淵中學畢業、臺北市立商職畢業、逢甲工商學院國貿系畢業。","experience":"臺北市直轄市議會第三屆議員、陽明山信用合作社理事長、臺灣華嶠貿易公司董事長、瑞昶貿易公司常務理事、臺北市百齡獅子會會長。","remark":"","image":"http://www.tcc.gov.tw/../upload/photo/%E9%99%B3%E5%8B%9D%E5%AE%8F12.jpg","links":[{"url":"http://www.tcc.gov.tw/Councilor_Content_All.aspx?s=1850&d=440605&n=%E9%99%B3%E5%8B%9D%E5%AE%8F","note":"議會個人官網"}],"social_media":null,"platform":"","param":null,"councilor":"fa5ba3b9a4f94f7abee5ee80ef6122f0"},{"url":"http://councils.g0v.tw/api/councilors_terms/515/","election_year":"1977","name":"陳勝宏","gender":"男","party":"無黨籍","title":"議員","constituency":null,"county":"臺北市","district":"","in_office":true,"contact_details":null,"term_start":"1977-12-25","term_end":{"date":"1981-12-25"},"education":"逢甲工商學院國貿系畢業。","experience":"瑞昶貿易公司常務理事、陽明山信用合作社理事、臺灣華嶠貿易公司董事長。","remark":"","image":"http://www.tcc.gov.tw/../upload/photo/%E9%99%B3%E5%8B%9D%E5%AE%8F11.jpg","links":[{"url":"http://www.tcc.gov.tw/Councilor_Content_All.aspx?s=1369&d=440605&n=%E9%99%B3%E5%8B%9D%E5%AE%8F","note":"議會個人官網"}],"social_media":null,"platform":"","param":null,"councilor":"fa5ba3b9a4f94f7abee5ee80ef6122f0"}],"uid":"fa5ba3b9a4f94f7abee5ee80ef6122f0","name":"陳勝宏","birth":"1944-06-05","former_names":"","identifiers":["陳勝宏"]},{"url":"http://councils.g0v.tw/api/councilors/271/","each_terms":[{"url":"http://councils.g0v.tw/api/councilors_terms/542/","election_year":"1977","name":"吳敦義","gender":"男","party":"中國國民黨","title":"議員","constituency":null,"county":"臺北市","district":"","in_office":true,"contact_details":null,"term_start":"1977-12-25","term_end":{"date":"1981-12-25"},"education":"省立臺中一中初、高中部畢業、國立臺灣大學歷史系畢業。","experience":"家教、工讀生、臺大「大學新聞社」社長、出席世界青年會議中華民國代表、陸軍軍官學校教官、中國時報記者、臺北市議會議員、古亭區警義中隊副中隊長、臺北市南投縣同鄉會常務理事、古亭區民俗改善實踐會委員、古亭區後備軍人輔導中心顧問、臺北市肉類公會及汽車修理公會顧問、臺北市兵役協會委員。","remark":"","image":"http://www.tcc.gov.tw/../upload/photo/%E5%90%B3%E6%95%A6%E7%BE%A911.jpg","links":[{"url":"http://www.tcc.gov.tw/Councilor_Content_All.aspx?s=1678&d=480130&n=%E5%90%B3%E6%95%A6%E7%BE%A9","note":"議會個人官網"}],"social_media":null,"platform":"","param":null,"councilor":"17d35d1ebe1543f99b704358e6964ec4"},{"url":"http://councils.g0v.tw/api/councilors_terms/590/","election_year":"1973","name":"吳敦義","gender":"男","party":"中國國民黨","title":"議員","constituency":null,"county":"臺北市","district":"","in_office":true,"contact_details":null,"term_start":"1973-12-25","term_end":{"date":"1977-12-25"},"education":"國立臺灣大學畢業。","experience":"家教、推銷員、課餘工讀生、臺灣大學「大學新聞社」社長、出席世界青年會議中華民國代表、陸軍軍官學校教官、中國時報記者。","remark":"","image":"http://www.tcc.gov.tw/../upload/photo/%E5%90%B3%E6%95%A6%E7%BE%A910.jpg","links":[{"url":"http://www.tcc.gov.tw/Councilor_Content_All.aspx?s=2206&d=480130&n=%E5%90%B3%E6%95%A6%E7%BE%A9","note":"議會個人官網"}],"social_media":null,"platform":"","param":null,"councilor":"17d35d1ebe1543f99b704358e6964ec4"}],"uid":"17d35d1ebe1543f99b704358e6964ec4","name":"吳敦義","birth":"1948-01-30","former_names":"","identifiers":["吳敦義"]},{"url":"http://councils.g0v.tw/api/councilors/277/","each_terms":[{"url":"http://councils.g0v.tw/api/councilors_terms/560/","election_year":"1973","name":"黃聯富","gender":"男","party":"中國國民黨","title":"議員","constituency":null,"county":"臺北市","district":"","in_office":true,"contact_details":null,"term_start":"1973-12-25","term_end":{"date":"1977-12-25"},"education":"臺北工業學校畢業、淡江英語專科學校畢業。","experience":"大同區區長、大同區民眾服務分社理事長、臺北市第一屆議會議員、臺北市政府財政局專員。","remark":"","image":"http://www.tcc.gov.tw/../upload/photo/%E9%BB%83%E8%81%AF%E5%AF%8C10.jpg","links":[{"url":"http://www.tcc.gov.tw/Councilor_Content_All.aspx?s=1349&d=300904&n=%E9%BB%83%E8%81%AF%E5%AF%8C","note":"議會個人官網"}],"social_media":null,"platform":"","param":null,"councilor":"b32c75d5557b4f06bbb0f586d640cc30"},{"url":"http://councils.g0v.tw/api/councilors_terms/609/","election_year":"1969","name":"黃聯富","gender":"男","party":"中國國民黨","title":"議員","constituency":null,"county":"臺北市","district":"","in_office":true,"contact_details":null,"term_start":"1969-12-25","term_end":{"date":"1973-12-25"},"education":"淡江英專。","experience":"理事長、秘書、專員、區長。","remark":"","image":"http://www.tcc.gov.tw/../upload/photo/%E9%BB%83%E8%81%AF%E5%AF%8C.jpg","links":[{"url":"http://www.tcc.gov.tw/Councilor_Content_All.aspx?s=2202&d=300904&n=%E9%BB%83%E8%81%AF%E5%AF%8C","note":"議會個人官網"}],"social_media":null,"platform":"","param":null,"councilor":"b32c75d5557b4f06bbb0f586d640cc30"}],"uid":"b32c75d5557b4f06bbb0f586d640cc30","name":"黃聯富","birth":"1930-09-04","former_names":"","identifiers":["黃聯富","黄聯富"]},{"url":"http://councils.g0v.tw/api/councilors/278/","each_terms":[{"url":"http://councils.g0v.tw/api/councilors_terms/562/","election_year":"1973","name":"陳鶴聲","gender":"男","party":"中國國民黨","title":"議員","constituency":null,"county":"臺北市","district":"","in_office":true,"contact_details":null,"term_start":"1973-12-25","term_end":{"date":"1977-12-25"},"education":"日本東京都日本大學畢業。","experience":"臺北市中山區教育會常務理事、中華民國國際獅子會三○○區理事兼副祕書長、臺北市民眾服務社中山分社常務理事。","remark":"","image":"http://www.tcc.gov.tw/../upload/photo/%E9%99%B3%E9%B6%B4%E8%81%B210.jpg","links":[{"url":"http://www.tcc.gov.tw/Councilor_Content_All.aspx?s=1966&d=330707&n=%E9%99%B3%E9%B6%B4%E8%81%B2","note":"議會個人官網"}],"social_media":null,"platform":"","param":null,"councilor":"68a41aff123a44eeaf3d348b69cac665"}],"uid":"68a41aff123a44eeaf3d348b69cac665","name":"陳鶴聲","birth":"1933-07-07","former_names":"","identifiers":["陳鶴聲"]},{"url":"http://councils.g0v.tw/api/councilors/1335/","each_terms":[{"url":"http://councils.g0v.tw/api/councilors_terms/2261/","election_year":"2009","name":"陳英樓","gender":"","party":"中國國民黨","title":"議員","constituency":5,"county":"新竹縣","district":"新埔鎮","in_office":true,"contact_details":[{"type":"email","value":"a16022@hcc.gov.tw","label":"E-mail"}],"term_start":"2009-12-25","term_end":{"date":"2014-12-25"},"education":"高中畢業","experience":"新埔鎮鹿鳴社區發展協會理事長\n客曲薪傳究研會理事長\n新埔鎮後備憲兵荷松協會理事長\n玄奘人文社會學院學分班","remark":null,"image":"http://www.hcc.gov.tw/03councilor/photo/IMG_0351s.jpg","links":[{"url":"http://www.hcc.gov.tw/03councilor/view.asp?id=66","note":"議會個人官網"},{"url":"http://www.hcc.gov.tw/blog/style03/04list.asp?ald_id=66","note":"個人網站"}],"social_media":null,"platform":"配合縣政計劃。促進縣市繁榮進步發展。\n爭取縣市鄉鎮公路拓寬計劃早日實施。解決交通之亂。\n提昇地方觀光、文化產業發展進步。\n提高縣農產品。推舊出新。\n爭取延續發放老人年金。\n積極推動淨化綠化美化運動。消除髒亂重視環保提高生活品質環境。","param":{"suggestions_years":{"count":15,"sum":954600,"years":[{"count":15,"sum":954600,"suggest_year":"2014","small_purchase":14}]},"diversity":{"":0.015041307898450759,"中國國民黨":0.6664145743563028,"民主進步黨":0.07276971243991066,"勞動黨":0.03389780692839475,"無黨籍":0.2118765983769401},"bills_role_statistics":{"total":78,"priproposer":33,"sponsor":40,"cosponsor":38},"suggestions_associations":[{"count":2,"sum":141600,"label":"社區發展協會"},{"count":0,"sum":0,"label":"學會"},{"count":0,"sum":0,"label":"商會"},{"count":0,"sum":0,"label":"公會"},{"count":0,"sum":0,"label":"協進會"},{"count":0,"sum":0,"label":"促進會"},{"count":0,"sum":0,"label":"研習會"},{"count":0,"sum":0,"label":"婦聯會"},{"count":0,"sum":0,"label":"婦女會"},{"count":0,"sum":0,"label":"體育會"},{"count":0,"sum":0,"label":"同心會"},{"count":0,"sum":0,"label":"農會"},{"count":0,"sum":0,"label":"早起會"},{"count":0,"sum":0,"label":"健身會"},{"count":0,"sum":0,"label":"宗親會"},{"count":0,"sum":0,"label":"功德會"},{"count":0,"sum":0,"label":"商業會"},{"count":0,"sum":0,"label":"長青會"},{"count":0,"sum":0,"label":"民眾服務社"},{"count":0,"sum":0,"label":"聯盟"}],"bills_party_diversity":[{"party":"中國國民黨","ratio":0.6608187134502924},{"party":"無黨籍","ratio":0.2134502923976608},{"party":"勞動黨","ratio":0.06432748538011696},{"party":"民主進步黨","ratio":0.05263157894736842},{"party":"","ratio":0.008771929824561403}],"suggestions_piles":[{"count":2,"tokens":"協會|學會|商會|公會|協進會|促進會|研習會|婦聯會|婦女會|體育會|同心會|農會|早起會|健身會|宗親會|功德會|商業會|長青會|民眾服務社|聯盟","sum":141600,"label":"協會"},{"count":1,"tokens":"辦公室|辦公處","sum":40000,"label":"辦公室"},{"count":1,"tokens":"警察局|分局","sum":40000,"label":"警察局"},{"count":0,"tokens":"廟|宮","sum":0,"label":"廟"},{"count":0,"tokens":"消防局|消防隊|分隊|中隊","sum":0,"label":"消防局"},{"count":0,"tokens":"國中|國小","sum":0,"label":"國中、國小"}]},"councilor":"6b1f3b28c5d94a0bb99be0cb490269bb"}],"uid":"6b1f3b28c5d94a0bb99be0cb490269bb","name":"陳英樓","birth":null,"former_names":"","identifiers":["陳英樓"]},{"url":"http://councils.g0v.tw/api/councilors/1339/","each_terms":[{"url":"http://councils.g0v.tw/api/councilors_terms/2265/","election_year":"2009","name":"官文樹","gender":"男","party":"","title":"","constituency":1,"county":"嘉義縣","district":"太保市、水上鄉、鹿草鄉","in_office":true,"contact_details":[{"type":"phone","value":"05-3714809 ","label":"電話"},{"type":"address","value":"嘉義縣太保市梅埔里梅子厝33之6號 ","label":"通訊處"},{"type":"email","value":"","label":"電子信箱"}],"term_start":"2009-12-25","term_end":{"date":"2014-12-25"},"education":" ","experience":"(一)  嘉義縣議會第十四、十五、十六屆議員。\n(二)  太保市第二屆市民代表。 ","remark":null,"image":"http://www.cyscc.gov.tw/template/DisplaySmallPicture.ashx?p=/Upload/Parliamentary/9/634535065477289217.bmp&w=145&h=170","links":[{"url":"http://www.cyscc.gov.tw/chinese/Parliamentary_Detail.aspx?s=9&n=29","note":"議會個人官網"}],"social_media":null,"platform":"(一)增進農民福利、盡心盡力、為農民打拼。\n(二)督促政府整治鄉間道路，便利交通。\n(三  )督促政府加強照顧獨居、單親、傷殘、老弱等弱勢族群。\n(四)加強基礎建設、增進社會福利。\n(五)重視教育品質、強化教學內涵。\n(六)加強補助幼兒教育、減輕家長負擔。\n(七)鼓舞運動風氣、增加相關設施。 ","param":{"suggestions_years":{"count":19,"sum":17420000,"years":[{"count":1,"sum":580000,"suggest_year":"2011","small_purchase":0},{"count":1,"sum":445000,"suggest_year":"2012","small_purchase":0},{"count":9,"sum":6234000,"suggest_year":"2013","small_purchase":1},{"count":8,"sum":10161000,"suggest_year":"2014","small_purchase":0}]},"diversity":{"":1.0},"bills_role_statistics":{"total":1,"priproposer":0,"sponsor":0,"cosponsor":1},"suggestions_associations":[{"count":0,"sum":0,"label":"社區發展協會"},{"count":0,"sum":0,"label":"學會"},{"count":0,"sum":0,"label":"商會"},{"count":0,"sum":0,"label":"公會"},{"count":0,"sum":0,"label":"協進會"},{"count":0,"sum":0,"label":"促進會"},{"count":0,"sum":0,"label":"研習會"},{"count":0,"sum":0,"label":"婦聯會"},{"count":0,"sum":0,"label":"婦女會"},{"count":0,"sum":0,"label":"體育會"},{"count":0,"sum":0,"label":"同心會"},{"count":0,"sum":0,"label":"農會"},{"count":0,"sum":0,"label":"早起會"},{"count":0,"sum":0,"label":"健身會"},{"count":0,"sum":0,"label":"宗親會"},{"count":0,"sum":0,"label":"功德會"},{"count":0,"sum":0,"label":"商業會"},{"count":0,"sum":0,"label":"長青會"},{"count":0,"sum":0,"label":"民眾服務社"},{"count":0,"sum":0,"label":"聯盟"}],"bills_party_diversity":[{"party":"","ratio":1.0}],"suggestions_piles":[{"count":0,"tokens":"協會|學會|商會|公會|協進會|促進會|研習會|婦聯會|婦女會|體育會|同心會|農會|早起會|健身會|宗親會|功德會|商業會|長青會|民眾服務社|聯盟","sum":0,"label":"協會"},{"count":0,"tokens":"辦公室|辦公處","sum":0,"label":"辦公室"},{"count":0,"tokens":"廟|宮","sum":0,"label":"廟"},{"count":0,"tokens":"警察局|分局","sum":0,"label":"警察局"},{"count":0,"tokens":"消防局|消防隊|分隊|中隊","sum":0,"label":"消防局"},{"count":0,"tokens":"國中|國小","sum":0,"label":"國中、國小"}]},"councilor":"abfb69bcbfb247e8b7278fc633fca5cf"}],"uid":"abfb69bcbfb247e8b7278fc633fca5cf","name":"官文樹","birth":null,"former_names":"","identifiers":["官文樹"]}]}