{"count":1904,"next":"http://councils.g0v.tw/api/councilors/?page=112","previous":"http://councils.g0v.tw/api/councilors/?page=110","results":[{"url":"http://councils.g0v.tw/api/councilors/1448/","each_terms":[{"url":"http://councils.g0v.tw/api/councilors_terms/2374/","election_year":"2009","name":"蘇財發","gender":"男","party":"中國國民黨","title":"","constituency":7,"county":"基隆市","district":"七堵區","in_office":true,"contact_details":[{"type":"email","value":"sing88@mail.klcg.gov.tw","label":"電子信箱"},{"type":"voice","value":"(02) 2452-7119","label":"電話"},{"type":"fax","value":"(02) 2456-2746","label":"傳真"},{"type":"address","value":"基隆市工建路1-12號","label":"通訊處"}],"term_start":"2009-12-25","term_end":{"date":"2014-12-25"},"education":"．基隆市培德高職補校畢業\n．基隆市社區規化師第一屆期滿合格","experience":"．基隆市六堵里里長連任六屆\n．基隆市七堵義消中隊長任義消32年\n．七堵國際獅子會創會會長\n．基隆市慈母功德會創會會長\n．六堵代天府建廟發起人暨第三屆管理委員會主任委員\n．瑞芳國立高職家長會長\n．基市華興國小家長會長八屆","remark":null,"image":"http://www.kmc.gov.tw/kmcii/images/councillor_028a.gif","links":[{"url":"http://www.kmc.gov.tw/KMCII/coun_info_28a.aspx","note":"議會個人官網"}],"social_media":null,"platform":"．確實督導市政辦好市政工做活躍基隆協助民眾各項要求。\n．田寮河拱橋上10公尺加蓋一層設不夜城屋頂做停車場。\n．督導七堵行政大樓加速發包光明路消防分隊加速興建。\n．正光七堵火車前站週邊配套七堵百福車站設接駁車。\n．七堵區各里辦里刊物，各項工程完工後編設維修金。\n．協助正明里明德一路空軍運輸廢站提撥供里民使用。\n．力增糧食局倉庫供富民里民做里民會堂及多功能活動。\n．永平里舊里民會堂改建多功能活動公園擴大地下停車場。\n．永富路接甘宅加速興建景觀橋。\n．吉隆電視公司對面空地興建森林公園地下室建停車場。\n．聯華公司變更廠辦商業大樓回饋土地建綜合大樓文化館。\n．自強產業道路加寬供早起活動舊煤礦重整文化特色。\n．八德里土地公廟前廣場擴建做為里民活動中心。\n．東新街商工前道路打通至長興公園美化建煤礦博物館。\n．山區各里道路拓寬各里增建景觀文化特色供觀光休憩。\n．加速督導華興國小興建泰安路邊美化增建景觀休憩特色。\n．六合橋至泰安里段設滑船區做觀光景點。\n．六堵科技加速配套使大家有工做物資局興建藝術中心。\n．六堵華納社區至百六街興建景觀藝術橋供民眾休憩。\n．百福公園改造現代化公園靠山邊建圖書館及媽祖廟。\n．明德二、三路百福火車站下凹底道路加蓋地下做停車場。\n．督導長安里民會堂加速發包長安街至百福站增建道路。\n．督導堵南里民會堂興建，八號公園加速規化施做。\n．新台五線至長安六堵泰安長興里瑞芳道路加速規化興建。\n","param":{"suggestions_years":{"count":7,"sum":1574000,"years":[{"count":7,"sum":1574000,"suggest_year":"2014","small_purchase":6}]},"suggestions_associations":[{"count":0,"sum":0,"label":"社區發展協會"},{"count":0,"sum":0,"label":"學會"},{"count":0,"sum":0,"label":"商會"},{"count":0,"sum":0,"label":"公會"},{"count":0,"sum":0,"label":"協進會"},{"count":0,"sum":0,"label":"促進會"},{"count":0,"sum":0,"label":"研習會"},{"count":0,"sum":0,"label":"婦聯會"},{"count":0,"sum":0,"label":"婦女會"},{"count":0,"sum":0,"label":"體育會"},{"count":0,"sum":0,"label":"同心會"},{"count":0,"sum":0,"label":"農會"},{"count":0,"sum":0,"label":"早起會"},{"count":0,"sum":0,"label":"健身會"},{"count":0,"sum":0,"label":"宗親會"},{"count":0,"sum":0,"label":"功德會"},{"count":0,"sum":0,"label":"商業會"},{"count":0,"sum":0,"label":"長青會"},{"count":0,"sum":0,"label":"民眾服務社"},{"count":0,"sum":0,"label":"聯盟"}],"suggestions_piles":[{"count":2,"tokens":"國中|國小","sum":1083000,"label":"國中、國小"},{"count":0,"tokens":"協會|學會|商會|公會|協進會|促進會|研習會|婦聯會|婦女會|體育會|同心會|農會|早起會|健身會|宗親會|功德會|商業會|長青會|民眾服務社|聯盟","sum":0,"label":"協會"},{"count":0,"tokens":"辦公室|辦公處","sum":0,"label":"辦公室"},{"count":0,"tokens":"廟|宮","sum":0,"label":"廟"},{"count":0,"tokens":"警察局|分局","sum":0,"label":"警察局"},{"count":0,"tokens":"消防局|消防隊|分隊|中隊","sum":0,"label":"消防局"}]},"councilor":"8abff6ed868f4216b1f12fca6b68b6c8"}],"uid":"8abff6ed868f4216b1f12fca6b68b6c8","name":"蘇財發","birth":"1949-03-01","former_names":"","identifiers":["蘇財發"]},{"url":"http://councils.g0v.tw/api/councilors/443/","each_terms":[{"url":"http://councils.g0v.tw/api/councilors_terms/787/","election_year":"1977","name":"王進財","gender":"","party":"","title":"議員","constituency":8,"county":"新北市","district":"居住各鄉鎮市之平地山胞","in_office":true,"contact_details":null,"term_start":"1977-12-30","term_end":{"date":"1982-02-28"},"education":"省立臺東農校","experience":"臺北縣議會第8、9屆議員\n臺東縣長濱鄉公所村幹事\n臺北市警局警員\n大同公司顧問\n臺北縣義警督導\n偉城建設公司專員","remark":null,"image":"http://www.ntp.gov.tw/UpFile/CouncilorFile/TTCC0859.jpg","links":[{"url":"http://www.ntp.gov.tw/content/history/history01-5-p.aspx?sid=324","note":"議會個人官網"}],"social_media":null,"platform":"","param":null,"councilor":"6c305a6f58ac44de9abb711a3df28739"},{"url":"http://councils.g0v.tw/api/councilors_terms/789/","election_year":"1973","name":"王進財","gender":"","party":"","title":"議員","constituency":9,"county":"新北市","district":"居住各鄉鎮市之平地山胞","in_office":true,"contact_details":null,"term_start":"1973-05-01","term_end":{"date":"1977-12-29"},"education":"省立臺東農校","experience":"臺北縣議會第8、9屆議員\n臺東縣長濱鄉公所村幹事\n臺北市警局警員\n大同公司顧問\n臺北縣義警督導\n偉城建設公司專員","remark":null,"image":"http://www.ntp.gov.tw/UpFile/CouncilorFile/TTCC0859.jpg","links":[{"url":"http://www.ntp.gov.tw/content/history/history01-5-p.aspx?sid=324","note":"議會個人官網"}],"social_media":null,"platform":"","param":null,"councilor":"6c305a6f58ac44de9abb711a3df28739"}],"uid":"6c305a6f58ac44de9abb711a3df28739","name":"王進財","birth":null,"former_names":"","identifiers":["王進財"]},{"url":"http://councils.g0v.tw/api/councilors/444/","each_terms":[{"url":"http://councils.g0v.tw/api/councilors_terms/790/","election_year":"1968","name":"林紅隆","gender":"","party":"","title":"議員","constituency":8,"county":"新北市","district":"新店鎮、深坑鄉、石碇鄉、坪林鄉、烏來鄉山地鄉","in_office":true,"contact_details":null,"term_start":"1968-02-21","term_end":{"date":"1973-04-30"},"education":"臺北縣烏來鄉烏來國民學校畢\n省立臺北師範學校保送山地補習班畢\n省立桃園農業職業學校初級部畢","experience":"烏來鄉公所農業指導員\n烏來鄉農會理事長\n救國團烏來團委會常委\n臺灣省山地建設促進會理事\n烏來鄉鄉長\n臺北縣議會第7、8屆議員","remark":null,"image":"http://www.ntp.gov.tw/UpFile/CouncilorFile/TTCC0757.jpg","links":[{"url":"http://www.ntp.gov.tw/content/history/history01-5-p.aspx?sid=297","note":"議會個人官網"}],"social_media":null,"platform":"","param":null,"councilor":"ef8535bc4b2c4995ae56fcfdd454359b"},{"url":"http://councils.g0v.tw/api/councilors_terms/788/","election_year":"1973","name":"林紅隆","gender":"","party":"","title":"議員","constituency":8,"county":"新北市","district":"新店鎮、深坑鄉、石碇鄉、坪林鄉、烏來鄉山地鄉","in_office":true,"contact_details":null,"term_start":"1973-05-01","term_end":{"date":"1977-12-29"},"education":"臺北縣烏來鄉烏來國民學校畢\n省立臺北師範學校保送山地補習班畢\n省立桃園農業職業學校初級部畢","experience":"烏來鄉公所農業指導員\n烏來鄉農會理事長\n救國團烏來團委會常委\n臺灣省山地建設促進會理事\n烏來鄉鄉長\n臺北縣議會第7、8屆議員","remark":null,"image":"http://www.ntp.gov.tw/UpFile/CouncilorFile/TTCC0757.jpg","links":[{"url":"http://www.ntp.gov.tw/content/history/history01-5-p.aspx?sid=297","note":"議會個人官網"}],"social_media":null,"platform":"","param":null,"councilor":"ef8535bc4b2c4995ae56fcfdd454359b"}],"uid":"ef8535bc4b2c4995ae56fcfdd454359b","name":"林紅隆","birth":null,"former_names":"","identifiers":["林紅隆","林紅隆"]},{"url":"http://councils.g0v.tw/api/councilors/446/","each_terms":[{"url":"http://councils.g0v.tw/api/councilors_terms/792/","election_year":"1973","name":"高金五","gender":"","party":"","title":"議員","constituency":8,"county":"新北市","district":"新店鎮、深坑鄉、石碇鄉、坪林鄉、烏來鄉山地鄉","in_office":true,"contact_details":null,"term_start":"1973-05-01","term_end":{"date":"1977-12-29"},"education":"臺北州立基隆高等女學校","experience":"臺北州立宜蘭農專\n臺北州深坑庄役場職員\n庄役場市府雇員、股長\n臺北縣漁光國校教職\n臺北縣乾溝國校教職\n臺北縣坪林國校教職\n臺北縣石碇國校教職\n臺北縣木柵國校教職\n臺北市西門國校教職\n臺北縣政府教育局國民教育課事務股長\n臺灣省體育會理事\n高姓宗親會常務理事\n文具廠負責人\n景美集應廟代管理人\n臺北縣議會第3、4、6、8屆議員\n民國94年6月28日歿","remark":null,"image":"http://www.ntp.gov.tw/UpFile/CouncilorFile/TTCC0362.jpg","links":[{"url":"http://www.ntp.gov.tw/content/history/history01-5-p.aspx?sid=182","note":"議會個人官網"}],"social_media":null,"platform":"","param":null,"councilor":"ab175fe99848473a87fbf916197ffc54"},{"url":"http://councils.g0v.tw/api/councilors_terms/1598/","election_year":"1955","name":"高金五","gender":"","party":"","title":"議員","constituency":9,"county":"新北市","district":"新店鎮、景美鎮、木柵鄉、深坑鄉、石碇鄉、坪林鄉","in_office":true,"contact_details":null,"term_start":"1955-01-16","term_end":{"date":"1958-02-20"},"education":"臺北州立基隆高等女學校","experience":"臺北州立宜蘭農專\n臺北州深坑庄役場職員\n庄役場市府雇員、股長\n臺北縣漁光國校教職\n臺北縣乾溝國校教職\n臺北縣坪林國校教職\n臺北縣石碇國校教職\n臺北縣木柵國校教職\n臺北市西門國校教職\n臺北縣政府教育局國民教育課事務股長\n臺灣省體育會理事\n高姓宗親會常務理事\n文具廠負責人\n景美集應廟代管理人\n臺北縣議會第3、4、6、8屆議員\n民國94年6月28日歿","remark":null,"image":"http://www.ntp.gov.tw/UpFile/CouncilorFile/TTCC0362.jpg","links":[{"url":"http://www.ntp.gov.tw/content/history/history01-5-p.aspx?sid=182","note":"議會個人官網"}],"social_media":null,"platform":"","param":null,"councilor":"ab175fe99848473a87fbf916197ffc54"},{"url":"http://councils.g0v.tw/api/councilors_terms/1665/","election_year":"1958","name":"高金五","gender":"","party":"","title":"議員","constituency":9,"county":"新北市","district":"新店鎮、景美鎮、木柵鄉、深坑鄉、石碇鄉、坪林鄉","in_office":true,"contact_details":null,"term_start":"1958-02-21","term_end":{"date":"1961-02-20"},"education":"臺北州立基隆高等女學校","experience":"臺北州立宜蘭農專\n臺北州深坑庄役場職員\n庄役場市府雇員、股長\n臺北縣漁光國校教職\n臺北縣乾溝國校教職\n臺北縣坪林國校教職\n臺北縣石碇國校教職\n臺北縣木柵國校教職\n臺北市西門國校教職\n臺北縣政府教育局國民教育課事務股長\n臺灣省體育會理事\n高姓宗親會常務理事\n文具廠負責人\n景美集應廟代管理人\n臺北縣議會第3、4、6、8屆議員\n民國94年6月28日歿","remark":null,"image":"http://www.ntp.gov.tw/UpFile/CouncilorFile/TTCC0362.jpg","links":[{"url":"http://www.ntp.gov.tw/content/history/history01-5-p.aspx?sid=182","note":"議會個人官網"}],"social_media":null,"platform":"","param":null,"councilor":"ab175fe99848473a87fbf916197ffc54"},{"url":"http://councils.g0v.tw/api/councilors_terms/1804/","election_year":"1964","name":"高金五","gender":"","party":"","title":"議員","constituency":9,"county":"新北市","district":"新店鎮、景美鎮、木柵鄉、深坑鄉、石碇鄉、坪林鄉、烏來鄉山地鄉","in_office":true,"contact_details":null,"term_start":"1964-02-21","term_end":{"date":"1968-02-20"},"education":"臺北州立基隆高等女學校","experience":"臺北州立宜蘭農專\n臺北州深坑庄役場職員\n庄役場市府雇員、股長\n臺北縣漁光國校教職\n臺北縣乾溝國校教職\n臺北縣坪林國校教職\n臺北縣石碇國校教職\n臺北縣木柵國校教職\n臺北市西門國校教職\n臺北縣政府教育局國民教育課事務股長\n臺灣省體育會理事\n高姓宗親會常務理事\n文具廠負責人\n景美集應廟代管理人\n臺北縣議會第3、4、6、8屆議員\n民國94年6月28日歿","remark":null,"image":"http://www.ntp.gov.tw/UpFile/CouncilorFile/TTCC0362.jpg","links":[{"url":"http://www.ntp.gov.tw/content/history/history01-5-p.aspx?sid=182","note":"議會個人官網"}],"social_media":null,"platform":"","param":null,"councilor":"ab175fe99848473a87fbf916197ffc54"}],"uid":"ab175fe99848473a87fbf916197ffc54","name":"高金五","birth":null,"former_names":"","identifiers":["高金五"]},{"url":"http://councils.g0v.tw/api/councilors/447/","each_terms":[{"url":"http://councils.g0v.tw/api/councilors_terms/793/","election_year":"1973","name":"廖金枝","gender":"","party":"","title":"議員","constituency":8,"county":"新北市","district":"新店鎮、深坑鄉、石碇鄉、坪林鄉、烏來鄉山地鄉","in_office":true,"contact_details":null,"term_start":"1973-05-01","term_end":{"date":"1977-12-29"},"education":"臺北市立工業職業學校\n革命實踐研究院黨政班62期結業","experience":"新店國際獅子會會長\n廟宇主任委員\n臺電服務所主任\n北縣體育會理事\n省立板中家長會會長\n臺北縣政府租佃委員會委員\n臺北縣議會第8、9、10、11屆議員","remark":null,"image":"http://www.ntp.gov.tw/UpFile/CouncilorFile/TTCC0854.jpg","links":[{"url":"http://www.ntp.gov.tw/content/history/history01-5-p.aspx?sid=322","note":"議會個人官網"}],"social_media":null,"platform":"","param":null,"councilor":"784cdda3b48b4f4bb00099d00502bf90"},{"url":"http://councils.g0v.tw/api/councilors_terms/902/","election_year":"1977","name":"廖金枝","gender":"","party":"","title":"議員","constituency":7,"county":"新北市","district":"新店鎮、深坑鄉、石碇鄉、坪林鄉、烏來鄉山地鄉","in_office":true,"contact_details":null,"term_start":"1977-12-30","term_end":{"date":"1982-02-28"},"education":"臺北市立工業職業學校\n革命實踐研究院黨政班62期結業","experience":"新店國際獅子會會長\n廟宇主任委員\n臺電服務所主任\n北縣體育會理事\n省立板中家長會會長\n臺北縣政府租佃委員會委員\n臺北縣議會第8、9、10、11屆議員","remark":null,"image":"http://www.ntp.gov.tw/UpFile/CouncilorFile/TTCC0854.jpg","links":[{"url":"http://www.ntp.gov.tw/content/history/history01-5-p.aspx?sid=322","note":"議會個人官網"}],"social_media":null,"platform":"","param":null,"councilor":"784cdda3b48b4f4bb00099d00502bf90"},{"url":"http://councils.g0v.tw/api/councilors_terms/976/","election_year":"1986","name":"廖金枝","gender":"","party":"","title":"議員","constituency":9,"county":"新北市","district":"新店市、深坑鄉、石碇鄉、坪林鄉、烏來鄉","in_office":true,"contact_details":null,"term_start":"1986-03-01","term_end":{"date":"1990-02-28"},"education":"臺北市立工業職業學校\n革命實踐研究院黨政班62期結業","experience":"新店國際獅子會會長\n廟宇主任委員\n臺電服務所主任\n北縣體育會理事\n省立板中家長會會長\n臺北縣政府租佃委員會委員\n臺北縣議會第8、9、10、11屆議員","remark":null,"image":"http://www.ntp.gov.tw/UpFile/CouncilorFile/TTCC0854.jpg","links":[{"url":"http://www.ntp.gov.tw/content/history/history01-5-p.aspx?sid=322","note":"議會個人官網"}],"social_media":null,"platform":"","param":null,"councilor":"784cdda3b48b4f4bb00099d00502bf90"},{"url":"http://councils.g0v.tw/api/councilors_terms/1011/","election_year":"1982","name":"廖金枝","gender":"","party":"","title":"議員","constituency":9,"county":"新北市","district":"新店市、深坑鄉、石碇鄉、坪林鄉、烏來鄉","in_office":true,"contact_details":null,"term_start":"1982-03-01","term_end":{"date":"1986-02-28"},"education":"臺北市立工業職業學校\n革命實踐研究院黨政班62期結業","experience":"新店國際獅子會會長\n廟宇主任委員\n臺電服務所主任\n北縣體育會理事\n省立板中家長會會長\n臺北縣政府租佃委員會委員\n臺北縣議會第8、9、10、11屆議員","remark":null,"image":"http://www.ntp.gov.tw/UpFile/CouncilorFile/TTCC0854.jpg","links":[{"url":"http://www.ntp.gov.tw/content/history/history01-5-p.aspx?sid=322","note":"議會個人官網"}],"social_media":null,"platform":"","param":null,"councilor":"784cdda3b48b4f4bb00099d00502bf90"}],"uid":"784cdda3b48b4f4bb00099d00502bf90","name":"廖金枝","birth":null,"former_names":"","identifiers":["廖金枝"]},{"url":"http://councils.g0v.tw/api/councilors/448/","each_terms":[{"url":"http://councils.g0v.tw/api/councilors_terms/794/","election_year":"1973","name":"吳滄富","gender":"","party":"","title":"議員","constituency":7,"county":"新北市","district":"瑞芳鎮、雙溪鄉、貢寮鄉、平溪鄉","in_office":true,"contact_details":null,"term_start":"1973-05-01","term_end":{"date":"1977-12-29"},"education":"國立藝專畢\n政治作戰學校預官班10期\n革命實踐研究院黨政班63期\n後備軍人幹部訓練班55期\n考試院詮定任用考試及格","experience":"臺北縣議會總務組主任\n臺北縣議會第8、9、10、11、12、13、14屆議員\n九份藝術家聯誼會會長","remark":null,"image":"http://www.ntp.gov.tw/UpFile/CouncilorFile/TTCC0850.jpg","links":[{"url":"http://www.ntp.gov.tw/content/history/history01-5-p.aspx?sid=319","note":"議會個人官網"}],"social_media":null,"platform":"","param":null,"councilor":"55ac5c12761c4d08a7aa1b005f2f8f25"},{"url":"http://councils.g0v.tw/api/councilors_terms/908/","election_year":"1977","name":"吳滄富","gender":"","party":"","title":"議員","constituency":6,"county":"新北市","district":"瑞芳鎮、雙溪鄉、貢寮鄉、平溪鄉","in_office":true,"contact_details":null,"term_start":"1977-12-30","term_end":{"date":"1982-02-28"},"education":"國立藝專畢\n政治作戰學校預官班10期\n革命實踐研究院黨政班63期\n後備軍人幹部訓練班55期\n考試院詮定任用考試及格","experience":"臺北縣議會總務組主任\n臺北縣議會第8、9、10、11、12、13、14屆議員\n九份藝術家聯誼會會長","remark":null,"image":"http://www.ntp.gov.tw/UpFile/CouncilorFile/TTCC0850.jpg","links":[{"url":"http://www.ntp.gov.tw/content/history/history01-5-p.aspx?sid=319","note":"議會個人官網"}],"social_media":null,"platform":"","param":null,"councilor":"55ac5c12761c4d08a7aa1b005f2f8f25"},{"url":"http://councils.g0v.tw/api/councilors_terms/1014/","election_year":"1982","name":"吳滄富","gender":"","party":"","title":"議員","constituency":8,"county":"新北市","district":"瑞芳鎮、雙溪鄉、貢寮鄉、平溪鄉","in_office":true,"contact_details":null,"term_start":"1982-03-01","term_end":{"date":"1986-02-28"},"education":"國立藝專畢\n政治作戰學校預官班10期\n革命實踐研究院黨政班63期\n後備軍人幹部訓練班55期\n考試院詮定任用考試及格","experience":"臺北縣議會總務組主任\n臺北縣議會第8、9、10、11、12、13、14屆議員\n九份藝術家聯誼會會長","remark":null,"image":"http://www.ntp.gov.tw/UpFile/CouncilorFile/TTCC0850.jpg","links":[{"url":"http://www.ntp.gov.tw/content/history/history01-5-p.aspx?sid=319","note":"議會個人官網"}],"social_media":null,"platform":"","param":null,"councilor":"55ac5c12761c4d08a7aa1b005f2f8f25"},{"url":"http://councils.g0v.tw/api/councilors_terms/967/","election_year":"1986","name":"吳滄富","gender":"","party":"","title":"議員","constituency":8,"county":"新北市","district":"瑞芳鎮、雙溪鄉、貢寮鄉、平溪鄉","in_office":true,"contact_details":null,"term_start":"1986-03-01","term_end":{"date":"1990-02-28"},"education":"國立藝專畢\n政治作戰學校預官班10期\n革命實踐研究院黨政班63期\n後備軍人幹部訓練班55期\n考試院詮定任用考試及格","experience":"臺北縣議會總務組主任\n臺北縣議會第8、9、10、11、12、13、14屆議員\n九份藝術家聯誼會會長","remark":null,"image":"http://www.ntp.gov.tw/UpFile/CouncilorFile/TTCC0850.jpg","links":[{"url":"http://www.ntp.gov.tw/content/history/history01-5-p.aspx?sid=319","note":"議會個人官網"}],"social_media":null,"platform":"","param":null,"councilor":"55ac5c12761c4d08a7aa1b005f2f8f25"},{"url":"http://councils.g0v.tw/api/councilors_terms/1093/","election_year":"1990","name":"吳滄富","gender":"","party":"","title":"議員","constituency":9,"county":"新北市","district":"瑞芳鎮、雙溪鄉、貢寮鄉、平溪鄉","in_office":true,"contact_details":null,"term_start":"1990-03-01","term_end":{"date":"1994-02-28"},"education":"國立藝專畢\n政治作戰學校預官班10期\n革命實踐研究院黨政班63期\n後備軍人幹部訓練班55期\n考試院詮定任用考試及格","experience":"臺北縣議會總務組主任\n臺北縣議會第8、9、10、11、12、13、14屆議員\n九份藝術家聯誼會會長","remark":null,"image":"http://www.ntp.gov.tw/UpFile/CouncilorFile/TTCC0850.jpg","links":[{"url":"http://www.ntp.gov.tw/content/history/history01-5-p.aspx?sid=319","note":"議會個人官網"}],"social_media":null,"platform":"","param":null,"councilor":"55ac5c12761c4d08a7aa1b005f2f8f25"},{"url":"http://councils.g0v.tw/api/councilors_terms/1157/","election_year":"1994","name":"吳滄富","gender":"","party":"","title":"議員","constituency":9,"county":"新北市","district":"瑞芳鎮、雙溪鄉、貢寮鄉、平溪鄉","in_office":true,"contact_details":null,"term_start":"1994-03-01","term_end":{"date":"1998-02-28"},"education":"國立藝專畢\n政治作戰學校預官班10期\n革命實踐研究院黨政班63期\n後備軍人幹部訓練班55期\n考試院詮定任用考試及格","experience":"臺北縣議會總務組主任\n臺北縣議會第8、9、10、11、12、13、14屆議員\n九份藝術家聯誼會會長","remark":null,"image":"http://www.ntp.gov.tw/UpFile/CouncilorFile/TTCC0850.jpg","links":[{"url":"http://www.ntp.gov.tw/content/history/history01-5-p.aspx?sid=319","note":"議會個人官網"}],"social_media":null,"platform":"","param":null,"councilor":"55ac5c12761c4d08a7aa1b005f2f8f25"},{"url":"http://councils.g0v.tw/api/councilors_terms/1220/","election_year":"1998","name":"吳滄富","gender":"","party":"","title":"議員","constituency":9,"county":"新北市","district":"瑞芳鎮、雙溪鄉、貢寮鄉、平溪鄉","in_office":true,"contact_details":null,"term_start":"1998-03-01","term_end":{"date":"2002-02-28"},"education":"國立藝專畢\n政治作戰學校預官班10期\n革命實踐研究院黨政班63期\n後備軍人幹部訓練班55期\n考試院詮定任用考試及格","experience":"臺北縣議會總務組主任\n臺北縣議會第8、9、10、11、12、13、14屆議員\n九份藝術家聯誼會會長","remark":null,"image":"http://www.ntp.gov.tw/UpFile/CouncilorFile/TTCC0850.jpg","links":[{"url":"http://www.ntp.gov.tw/content/history/history01-5-p.aspx?sid=319","note":"議會個人官網"}],"social_media":null,"platform":"","param":null,"councilor":"55ac5c12761c4d08a7aa1b005f2f8f25"}],"uid":"55ac5c12761c4d08a7aa1b005f2f8f25","name":"吳滄富","birth":null,"former_names":"","identifiers":["吳滄富"]},{"url":"http://councils.g0v.tw/api/councilors/449/","each_terms":[{"url":"http://councils.g0v.tw/api/councilors_terms/795/","election_year":"1973","name":"李儒將","gender":"","party":"","title":"議員","constituency":7,"county":"新北市","district":"瑞芳鎮、雙溪鄉、貢寮鄉、平溪鄉","in_office":true,"contact_details":null,"term_start":"1973-05-01","term_end":{"date":"1977-12-29"},"education":"淡水工商管理專科學校企管科畢業","experience":"臺北縣體育會常務理事\n縣議會黨團書記\n臺北縣義勇消防大隊副大隊長\n瑞芳鎮後備軍人輔導中心主任\n指南汽車客運公司常務董事\n龍川煤礦公司董事\n臺北縣議會第8、9屆議員","remark":null,"image":"http://www.ntp.gov.tw/UpFile/CouncilorFile/TTCC0848.jpg","links":[{"url":"http://www.ntp.gov.tw/content/history/history01-5-p.aspx?sid=317","note":"議會個人官網"}],"social_media":null,"platform":"","param":null,"councilor":"c5c3bc9ffdf6492ca45d5f178138320a"},{"url":"http://councils.g0v.tw/api/councilors_terms/910/","election_year":"1977","name":"李儒將","gender":"","party":"","title":"議員","constituency":6,"county":"新北市","district":"瑞芳鎮、雙溪鄉、貢寮鄉、平溪鄉","in_office":true,"contact_details":null,"term_start":"1977-12-30","term_end":{"date":"1982-02-28"},"education":"淡水工商管理專科學校企管科畢業","experience":"臺北縣體育會常務理事\n縣議會黨團書記\n臺北縣義勇消防大隊副大隊長\n瑞芳鎮後備軍人輔導中心主任\n指南汽車客運公司常務董事\n龍川煤礦公司董事\n臺北縣議會第8、9屆議員","remark":null,"image":"http://www.ntp.gov.tw/UpFile/CouncilorFile/TTCC0848.jpg","links":[{"url":"http://www.ntp.gov.tw/content/history/history01-5-p.aspx?sid=317","note":"議會個人官網"}],"social_media":null,"platform":"","param":null,"councilor":"c5c3bc9ffdf6492ca45d5f178138320a"}],"uid":"c5c3bc9ffdf6492ca45d5f178138320a","name":"李儒將","birth":null,"former_names":"","identifiers":["李儒將","李儒將"]},{"url":"http://councils.g0v.tw/api/councilors/450/","each_terms":[{"url":"http://councils.g0v.tw/api/councilors_terms/796/","election_year":"1973","name":"吳莊月娥","gender":"","party":"","title":"議員","constituency":7,"county":"新北市","district":"瑞芳鎮、雙溪鄉、貢寮鄉、平溪鄉","in_office":true,"contact_details":null,"term_start":"1973-05-01","term_end":{"date":"1977-12-29"},"education":"日本產業能率大學","experience":"臺北縣議會第3、4、5、6、7、8屆議員\n中國國民黨婦工會\n中華婦女反共抗俄聯合會臺北縣分會常務理事\n臺北縣黨部委員\n婦女工作會主任委員\n中國女童軍臺北縣分會常務理事","remark":null,"image":"http://www.ntp.gov.tw/UpFile/CouncilorFile/TTCC0355.jpg","links":[{"url":"http://www.ntp.gov.tw/content/history/history01-5-p.aspx?sid=178","note":"議會個人官網"}],"social_media":null,"platform":"","param":null,"councilor":"458322f880a94ea4b07d5333e9f3c9de"},{"url":"http://councils.g0v.tw/api/councilors_terms/856/","election_year":"1968","name":"吳莊月娥","gender":"","party":"","title":"議員","constituency":7,"county":"新北市","district":"瑞芳鎮、雙溪鄉、貢寮鄉、平溪鄉","in_office":true,"contact_details":null,"term_start":"1968-02-21","term_end":{"date":"1973-04-30"},"education":"日本產業能率大學","experience":"臺北縣議會第3、4、5、6、7、8屆議員\n中國國民黨婦工會\n中華婦女反共抗俄聯合會臺北縣分會常務理事\n臺北縣黨部委員\n婦女工作會主任委員\n中國女童軍臺北縣分會常務理事","remark":null,"image":"http://www.ntp.gov.tw/UpFile/CouncilorFile/TTCC0355.jpg","links":[{"url":"http://www.ntp.gov.tw/content/history/history01-5-p.aspx?sid=178","note":"議會個人官網"}],"social_media":null,"platform":"","param":null,"councilor":"458322f880a94ea4b07d5333e9f3c9de"},{"url":"http://councils.g0v.tw/api/councilors_terms/1605/","election_year":"1955","name":"吳莊月娥","gender":"","party":"","title":"議員","constituency":7,"county":"新北市","district":"瑞芳鎮、貢寮鄉、雙溪鄉、平溪鄉","in_office":true,"contact_details":null,"term_start":"1955-01-16","term_end":{"date":"1958-02-20"},"education":"日本產業能率大學","experience":"臺北縣議會第3、4、5、6、7、8屆議員\n中國國民黨婦工會\n中華婦女反共抗俄聯合會臺北縣分會常務理事\n臺北縣黨部委員\n婦女工作會主任委員\n中國女童軍臺北縣分會常務理事","remark":null,"image":"http://www.ntp.gov.tw/UpFile/CouncilorFile/TTCC0355.jpg","links":[{"url":"http://www.ntp.gov.tw/content/history/history01-5-p.aspx?sid=178","note":"議會個人官網"}],"social_media":null,"platform":"","param":null,"councilor":"458322f880a94ea4b07d5333e9f3c9de"},{"url":"http://councils.g0v.tw/api/councilors_terms/1678/","election_year":"1958","name":"吳莊月娥","gender":"","party":"","title":"議員","constituency":7,"county":"新北市","district":"瑞芳鎮、貢寮鄉、雙溪鄉、平溪鄉","in_office":true,"contact_details":null,"term_start":"1958-02-21","term_end":{"date":"1961-02-20"},"education":"日本產業能率大學","experience":"臺北縣議會第3、4、5、6、7、8屆議員\n中國國民黨婦工會\n中華婦女反共抗俄聯合會臺北縣分會常務理事\n臺北縣黨部委員\n婦女工作會主任委員\n中國女童軍臺北縣分會常務理事","remark":null,"image":"http://www.ntp.gov.tw/UpFile/CouncilorFile/TTCC0355.jpg","links":[{"url":"http://www.ntp.gov.tw/content/history/history01-5-p.aspx?sid=178","note":"議會個人官網"}],"social_media":null,"platform":"","param":null,"councilor":"458322f880a94ea4b07d5333e9f3c9de"},{"url":"http://councils.g0v.tw/api/councilors_terms/1752/","election_year":"1961","name":"吳莊月娥","gender":"","party":"","title":"議員","constituency":7,"county":"新北市","district":"瑞芳鎮、貢寮鄉、雙溪鄉、平溪鄉","in_office":true,"contact_details":null,"term_start":"1961-02-21","term_end":{"date":"1964-02-20"},"education":"日本產業能率大學","experience":"臺北縣議會第3、4、5、6、7、8屆議員\n中國國民黨婦工會\n中華婦女反共抗俄聯合會臺北縣分會常務理事\n臺北縣黨部委員\n婦女工作會主任委員\n中國女童軍臺北縣分會常務理事","remark":null,"image":"http://www.ntp.gov.tw/UpFile/CouncilorFile/TTCC0355.jpg","links":[{"url":"http://www.ntp.gov.tw/content/history/history01-5-p.aspx?sid=178","note":"議會個人官網"}],"social_media":null,"platform":"","param":null,"councilor":"458322f880a94ea4b07d5333e9f3c9de"},{"url":"http://councils.g0v.tw/api/councilors_terms/1811/","election_year":"1964","name":"吳莊月娥","gender":"","party":"","title":"議員","constituency":8,"county":"新北市","district":"瑞芳鎮、雙溪鄉、貢寮鄉、平溪鄉","in_office":true,"contact_details":null,"term_start":"1964-02-21","term_end":{"date":"1968-02-20"},"education":"日本產業能率大學","experience":"臺北縣議會第3、4、5、6、7、8屆議員\n中國國民黨婦工會\n中華婦女反共抗俄聯合會臺北縣分會常務理事\n臺北縣黨部委員\n婦女工作會主任委員\n中國女童軍臺北縣分會常務理事","remark":null,"image":"http://www.ntp.gov.tw/UpFile/CouncilorFile/TTCC0355.jpg","links":[{"url":"http://www.ntp.gov.tw/content/history/history01-5-p.aspx?sid=178","note":"議會個人官網"}],"social_media":null,"platform":"","param":null,"councilor":"458322f880a94ea4b07d5333e9f3c9de"}],"uid":"458322f880a94ea4b07d5333e9f3c9de","name":"吳莊月娥","birth":null,"former_names":"","identifiers":["吳莊月娥"]},{"url":"http://councils.g0v.tw/api/councilors/451/","each_terms":[{"url":"http://councils.g0v.tw/api/councilors_terms/797/","election_year":"1973","name":"林晉鵬","gender":"","party":"","title":"議員","constituency":6,"county":"新北市","district":"汐止鎮、萬里鄉、金山鄉","in_office":true,"contact_details":null,"term_start":"1973-05-01","term_end":{"date":"1977-12-29"},"education":"省立海洋學院航管系肄業\n淡江文理學院畢","experience":"宏益煤礦總務主任\n瑪鍊礦業股份有限公司坑內主任\n瑪鍊礦業股份有限公司常務董事\n臺北縣議會第7、8屆議員","remark":null,"image":"http://www.ntp.gov.tw/UpFile/CouncilorFile/TTCC0740.jpg","links":[{"url":"http://www.ntp.gov.tw/content/history/history01-5-p.aspx?sid=289","note":"議會個人官網"}],"social_media":null,"platform":"","param":null,"councilor":"66ca41aff3ea40688e2d9e5690d754ed"},{"url":"http://councils.g0v.tw/api/councilors_terms/858/","election_year":"1968","name":"林晉鵬","gender":"","party":"","title":"議員","constituency":6,"county":"新北市","district":"汐止鎮、萬里鄉、金山鄉","in_office":true,"contact_details":null,"term_start":"1968-02-21","term_end":{"date":"1973-04-30"},"education":"省立海洋學院航管系肄業\n淡江文理學院畢","experience":"宏益煤礦總務主任\n瑪鍊礦業股份有限公司坑內主任\n瑪鍊礦業股份有限公司常務董事\n臺北縣議會第7、8屆議員","remark":null,"image":"http://www.ntp.gov.tw/UpFile/CouncilorFile/TTCC0740.jpg","links":[{"url":"http://www.ntp.gov.tw/content/history/history01-5-p.aspx?sid=289","note":"議會個人官網"}],"social_media":null,"platform":"","param":null,"councilor":"66ca41aff3ea40688e2d9e5690d754ed"}],"uid":"66ca41aff3ea40688e2d9e5690d754ed","name":"林晉鵬","birth":null,"former_names":"","identifiers":["林晉鵬","林晉鵬"]},{"url":"http://councils.g0v.tw/api/councilors/452/","each_terms":[{"url":"http://councils.g0v.tw/api/councilors_terms/798/","election_year":"1973","name":"林慶麒","gender":"","party":"","title":"議員","constituency":7,"county":"新北市","district":"瑞芳鎮、雙溪鄉、貢寮鄉、平溪鄉","in_office":true,"contact_details":null,"term_start":"1973-05-01","term_end":{"date":"1977-12-29"},"education":"雙溪初中畢\n革命實踐研究院６３期結業","experience":"國民黨黨團幹事\n國民黨文宣小組召集人\n北縣義警大隊督導\n國民黨第12次全國大會初選代表\n三貂吟詩社顧問\n雙溪林氏宗親會名譽會長\n雙溪國中家長會長\n雙溪鄉第10、11屆鄉長\n臺北縣議會第8、9、10屆議員\n臺北縣議會第1及第6審查小組召集人\n民國103年2月16日歿","remark":null,"image":"http://www.ntp.gov.tw/UpFile/CouncilorFile/TTCC0851.jpg","links":[{"url":"http://www.ntp.gov.tw/content/history/history01-5-p.aspx?sid=320","note":"議會個人官網"}],"social_media":null,"platform":"","param":null,"councilor":"e490368404a44e54ba0d7ffecdd397c8"},{"url":"http://councils.g0v.tw/api/councilors_terms/907/","election_year":"1977","name":"林慶麒","gender":"","party":"","title":"議員","constituency":6,"county":"新北市","district":"瑞芳鎮、雙溪鄉、貢寮鄉、平溪鄉","in_office":true,"contact_details":null,"term_start":"1977-12-30","term_end":{"date":"1982-02-28"},"education":"雙溪初中畢\n革命實踐研究院６３期結業","experience":"國民黨黨團幹事\n國民黨文宣小組召集人\n北縣義警大隊督導\n國民黨第12次全國大會初選代表\n三貂吟詩社顧問\n雙溪林氏宗親會名譽會長\n雙溪國中家長會長\n雙溪鄉第10、11屆鄉長\n臺北縣議會第8、9、10屆議員\n臺北縣議會第1及第6審查小組召集人\n民國103年2月16日歿","remark":null,"image":"http://www.ntp.gov.tw/UpFile/CouncilorFile/TTCC0851.jpg","links":[{"url":"http://www.ntp.gov.tw/content/history/history01-5-p.aspx?sid=320","note":"議會個人官網"}],"social_media":null,"platform":"","param":null,"councilor":"e490368404a44e54ba0d7ffecdd397c8"},{"url":"http://councils.g0v.tw/api/councilors_terms/1015/","election_year":"1982","name":"林慶麒","gender":"","party":"","title":"議員","constituency":8,"county":"新北市","district":"瑞芳鎮、雙溪鄉、貢寮鄉、平溪鄉","in_office":true,"contact_details":null,"term_start":"1982-03-01","term_end":{"date":"1986-02-28"},"education":"雙溪初中畢\n革命實踐研究院６３期結業","experience":"國民黨黨團幹事\n國民黨文宣小組召集人\n北縣義警大隊督導\n國民黨第12次全國大會初選代表\n三貂吟詩社顧問\n雙溪林氏宗親會名譽會長\n雙溪國中家長會長\n雙溪鄉第10、11屆鄉長\n臺北縣議會第8、9、10屆議員\n臺北縣議會第1及第6審查小組召集人\n民國103年2月16日歿","remark":null,"image":"http://www.ntp.gov.tw/UpFile/CouncilorFile/TTCC0851.jpg","links":[{"url":"http://www.ntp.gov.tw/content/history/history01-5-p.aspx?sid=320","note":"議會個人官網"}],"social_media":null,"platform":"","param":null,"councilor":"e490368404a44e54ba0d7ffecdd397c8"}],"uid":"e490368404a44e54ba0d7ffecdd397c8","name":"林慶麒","birth":null,"former_names":"","identifiers":["林慶麒","林慶麒"]}]}