{"count":1904,"next":"http://councils.g0v.tw/api/councilors/?page=116","previous":"http://councils.g0v.tw/api/councilors/?page=114","results":[{"url":"http://councils.g0v.tw/api/councilors/524/","each_terms":[{"url":"http://councils.g0v.tw/api/councilors_terms/882/","election_year":"1968","name":"張長財","gender":"","party":"","title":"議員","constituency":3,"county":"新北市","district":"新莊鎮、蘆洲鄉、五股鄉、泰山鄉、林口鄉","in_office":true,"contact_details":null,"term_start":"1968-02-21","term_end":{"date":"1973-04-30"},"education":"臺北中學五年制畢業","experience":"臺北市延平國校高級級任１３年３個月\n臺北市永樂國校教導主任９年\n蘆洲鄉公所秘書\n臺北縣議會第7屆議員","remark":null,"image":"http://www.ntp.gov.tw/UpFile/CouncilorFile/TTCC0721.jpg","links":[{"url":"http://www.ntp.gov.tw/content/history/history01-5-p.aspx?sid=285","note":"議會個人官網"}],"social_media":null,"platform":"","param":null,"councilor":"22750b25293d4a82b45f1608e85d0c39"}],"uid":"22750b25293d4a82b45f1608e85d0c39","name":"張長財","birth":null,"former_names":"","identifiers":["張長財"]},{"url":"http://councils.g0v.tw/api/councilors/525/","each_terms":[{"url":"http://councils.g0v.tw/api/councilors_terms/886/","election_year":"1968","name":"林進賢","gender":"","party":"","title":"議員","constituency":2,"county":"新北市","district":"樹林鎮、鶯歌鎮、三峽鎮","in_office":true,"contact_details":null,"term_start":"1968-02-21","term_end":{"date":"1973-04-30"},"education":"成福國校畢業","experience":"三峽鎮調解委員\n三峽鎮第5屆鎮民代表\n三峽鎮兵役委員\n臺灣省建材公會聯合會監事\n臺北青果合作社顧問\n三峽鎮護林協會常務理事\n臺北縣議會第4、7、9屆議員\n*民國72年11月歿","remark":null,"image":"http://www.ntp.gov.tw/UpFile/CouncilorFile/TTCC0413.jpg","links":[{"url":"http://www.ntp.gov.tw/content/history/history01-5-p.aspx?sid=191","note":"議會個人官網"}],"social_media":null,"platform":"","param":null,"councilor":"1ea458c20b004a81a3b43c0adf44e04e"},{"url":"http://councils.g0v.tw/api/councilors_terms/938/","election_year":"1977","name":"林進賢","gender":"","party":"","title":"議員","constituency":2,"county":"新北市","district":"樹林鎮、鶯歌鎮、三峽鎮","in_office":true,"contact_details":null,"term_start":"1977-12-30","term_end":{"date":"1982-02-28"},"education":"成福國校畢業","experience":"三峽鎮調解委員\n三峽鎮第5屆鎮民代表\n三峽鎮兵役委員\n臺灣省建材公會聯合會監事\n臺北青果合作社顧問\n三峽鎮護林協會常務理事\n臺北縣議會第4、7、9屆議員\n*民國72年11月歿","remark":null,"image":"http://www.ntp.gov.tw/UpFile/CouncilorFile/TTCC0413.jpg","links":[{"url":"http://www.ntp.gov.tw/content/history/history01-5-p.aspx?sid=191","note":"議會個人官網"}],"social_media":null,"platform":"","param":null,"councilor":"1ea458c20b004a81a3b43c0adf44e04e"},{"url":"http://councils.g0v.tw/api/councilors_terms/1727/","election_year":"1958","name":"林進賢","gender":"","party":"","title":"議員","constituency":2,"county":"新北市","district":"三峽鎮、鶯歌鎮、樹林鎮","in_office":true,"contact_details":null,"term_start":"1958-02-21","term_end":{"date":"1961-02-20"},"education":"成福國校畢業","experience":"三峽鎮調解委員\n三峽鎮第5屆鎮民代表\n三峽鎮兵役委員\n臺灣省建材公會聯合會監事\n臺北青果合作社顧問\n三峽鎮護林協會常務理事\n臺北縣議會第4、7、9屆議員\n*民國72年11月歿","remark":null,"image":"http://www.ntp.gov.tw/UpFile/CouncilorFile/TTCC0413.jpg","links":[{"url":"http://www.ntp.gov.tw/content/history/history01-5-p.aspx?sid=191","note":"議會個人官網"}],"social_media":null,"platform":"","param":null,"councilor":"1ea458c20b004a81a3b43c0adf44e04e"}],"uid":"1ea458c20b004a81a3b43c0adf44e04e","name":"林進賢","birth":null,"former_names":"","identifiers":["林進賢","林進賢"]},{"url":"http://councils.g0v.tw/api/councilors/818/","each_terms":[{"url":"http://councils.g0v.tw/api/councilors_terms/1468/","election_year":"1946","name":"陳炳俊","gender":"","party":"","title":"議員","constituency":null,"county":"新北市","district":"","in_office":true,"contact_details":null,"term_start":"1946-04-15","term_end":{"date":"1950-12-31"},"education":"日人臺灣總督府日語學校師範科畢業\n*民國三十六年一月因任鎮長辭去參議員職。","experience":"","remark":null,"image":"http://www.ntp.gov.tw/UpFile/CouncilorFile/TTCC0006.jpg","links":[{"url":"http://www.ntp.gov.tw/content/history/history01-5-p.aspx?sid=6","note":"議會個人官網"}],"social_media":null,"platform":"","param":null,"councilor":"5dcfaef395c84e2195fee5dbf1fcaeb0"}],"uid":"5dcfaef395c84e2195fee5dbf1fcaeb0","name":"陳炳俊","birth":null,"former_names":"","identifiers":["陳炳俊"]},{"url":"http://councils.g0v.tw/api/councilors/819/","each_terms":[{"url":"http://councils.g0v.tw/api/councilors_terms/1469/","election_year":"1946","name":"黃智武","gender":"","party":"","title":"議員","constituency":null,"county":"新北市","district":"","in_office":true,"contact_details":null,"term_start":"1946-04-15","term_end":{"date":"1950-12-31"},"education":"私塾攻讀十年。","experience":"商業紡織貿易土地四單位會社社長\n板橋街產業組合長\n中國國民黨臺北縣黨部常務監委\n大同公司董事長\n農場理事長\n\n*民國三十七年六月六日當選為第三任副議長，補林世南氏缺","remark":null,"image":"http://www.ntp.gov.tw/UpFile/CouncilorFile/TTCC0005.jpg","links":[{"url":"http://www.ntp.gov.tw/content/history/history01-5-p.aspx?sid=5","note":"議會個人官網"}],"social_media":null,"platform":"","param":null,"councilor":"fd42446e48e34e4f9b5e78bc90b07fdb"}],"uid":"fd42446e48e34e4f9b5e78bc90b07fdb","name":"黃智武","birth":null,"former_names":"","identifiers":["黃智武","黄智武"]},{"url":"http://councils.g0v.tw/api/councilors/675/","each_terms":[{"url":"http://councils.g0v.tw/api/councilors_terms/1196/","election_year":"1994","name":"金介壽","gender":"","party":"","title":"議員","constituency":3,"county":"新北市","district":"永和市","in_office":true,"contact_details":null,"term_start":"1994-03-01","term_end":{"date":"1998-02-28"},"education":"臺中一中\n淡江大學畢業","experience":"暨南大學法學碩士\n臺北縣第13、14、15、16屆議員\n永和市民代表\n理化教師\n臺北縣議會教育審查委員會召集人\n臺北縣中小學家長會長協會顧問\n臺灣保釣行動小組召集人\n兩岸三通行動小組召集人\n中國國民黨永和市黨部委員\n永和市公德服務協會顧問\n安徽省桐城同鄉會理事長","remark":null,"image":"http://www.ntp.gov.tw/UpFile/CouncilorFile/TTCC1319.jpg","links":[{"url":"http://www.ntp.gov.tw/content/history/history01-5-p.aspx?sid=456","note":"議會個人官網"}],"social_media":null,"platform":"","param":null,"councilor":"c32458987af64cfdb0b95f3cea943ccd"},{"url":"http://councils.g0v.tw/api/councilors_terms/1257/","election_year":"1998","name":"金介壽","gender":"","party":"","title":"議員","constituency":3,"county":"新北市","district":"永和市","in_office":true,"contact_details":null,"term_start":"1998-03-01","term_end":{"date":"2002-02-28"},"education":"臺中一中\n淡江大學畢業","experience":"暨南大學法學碩士\n臺北縣第13、14、15、16屆議員\n永和市民代表\n理化教師\n臺北縣議會教育審查委員會召集人\n臺北縣中小學家長會長協會顧問\n臺灣保釣行動小組召集人\n兩岸三通行動小組召集人\n中國國民黨永和市黨部委員\n永和市公德服務協會顧問\n安徽省桐城同鄉會理事長","remark":null,"image":"http://www.ntp.gov.tw/UpFile/CouncilorFile/TTCC1319.jpg","links":[{"url":"http://www.ntp.gov.tw/content/history/history01-5-p.aspx?sid=456","note":"議會個人官網"}],"social_media":null,"platform":"","param":null,"councilor":"c32458987af64cfdb0b95f3cea943ccd"},{"url":"http://councils.g0v.tw/api/councilors_terms/1324/","election_year":"2002","name":"金介壽","gender":"","party":"","title":"議員","constituency":3,"county":"新北市","district":"永和市","in_office":true,"contact_details":null,"term_start":"2002-03-01","term_end":{"date":"2006-02-28"},"education":"臺中一中\n淡江大學畢業","experience":"暨南大學法學碩士\n臺北縣第13、14、15、16屆議員\n永和市民代表\n理化教師\n臺北縣議會教育審查委員會召集人\n臺北縣中小學家長會長協會顧問\n臺灣保釣行動小組召集人\n兩岸三通行動小組召集人\n中國國民黨永和市黨部委員\n永和市公德服務協會顧問\n安徽省桐城同鄉會理事長","remark":null,"image":"http://www.ntp.gov.tw/UpFile/CouncilorFile/TTCC1319.jpg","links":[{"url":"http://www.ntp.gov.tw/content/history/history01-5-p.aspx?sid=456","note":"議會個人官網"}],"social_media":null,"platform":"","param":null,"councilor":"c32458987af64cfdb0b95f3cea943ccd"},{"url":"http://councils.g0v.tw/api/councilors_terms/1382/","election_year":"2006","name":"金介壽","gender":"","party":"","title":"議員","constituency":3,"county":"新北市","district":"永和市","in_office":true,"contact_details":null,"term_start":"2006-03-01","term_end":{"date":"2010-12-24"},"education":"臺中一中\n淡江大學畢業","experience":"暨南大學法學碩士\n臺北縣第13、14、15、16屆議員\n永和市民代表\n理化教師\n臺北縣議會教育審查委員會召集人\n臺北縣中小學家長會長協會顧問\n臺灣保釣行動小組召集人\n兩岸三通行動小組召集人\n中國國民黨永和市黨部委員\n永和市公德服務協會顧問\n安徽省桐城同鄉會理事長","remark":null,"image":"http://www.ntp.gov.tw/UpFile/CouncilorFile/TTCC1319.jpg","links":[{"url":"http://www.ntp.gov.tw/content/history/history01-5-p.aspx?sid=456","note":"議會個人官網"}],"social_media":null,"platform":"","param":null,"councilor":"c32458987af64cfdb0b95f3cea943ccd"},{"url":"http://councils.g0v.tw/api/councilors_terms/1909/","election_year":"2010","name":"金介壽","gender":"","party":"中國國民黨","title":"議員","constituency":6,"county":"新北市","district":"永和區","in_office":true,"contact_details":[{"type":"voice","value":"02-22311791","label":"電話"},{"type":"fax","value":"02-22311792","label":"傳真"},{"type":"address","value":"23455新北市永和區得和路245號2樓","label":"通訊處"},{"type":"email","value":"","label":"E-mail"}],"term_start":"2010-12-25","term_end":{"date":"2014-12-24"},"education":"臺中一中\n淡江大學畢業","experience":"暨南大學法學碩士\n臺北縣第13、14、15、16屆議員\n永和市民代表\n理化教師\n臺北縣議會教育審查委員會召集人\n臺北縣中小學家長會長協會顧問\n臺灣保釣行動小組召集人\n兩岸三通行動小組召集人\n中國國民黨永和市黨部委員\n永和市公德服務協會顧問\n安徽省桐城同鄉會理事長","remark":null,"image":"http://www.ntp.gov.tw/UpFile/CouncilorFile/TTCC1319.jpg","links":[{"url":"http://www.ntp.gov.tw/content/list/list01-1-03-1.aspx?sid=456&cid=173","note":"議會個人官網"}],"social_media":null,"platform":"要求新北市府保證不停駛永和接駁公車。\n將小碧潭繁榮模式複製於永和中正橋、福和橋、永福橋下溪畔（已爭取到經費七億）。\n繼續推動降低拖吊費、保管費條例（原罰2100元，新法降為1600元）並追討蘇貞昌超收十三億還錢於民。\n繼續爭取經費，增加巷弄監視器並汰舊換新（四年來已為永和爭取6000萬經費）。\n繼續推動瓦?溝兩側土地徵收並綠化（如民族里、民治里公園）共爭取一億伍仟萬經費。\n繼續爭取打通本市交通瓶頸巷弄（如竹林路、文化路兩側巷弄）。\n爭取國小增設公立幼稚園，托兒所減輕負擔，增加流浪教師就業機會，方能配合馬英九鼓勵生第三胎。\n爭取興建公立老人安養和養護中心減輕負擔。\n全力督促網溪國小地下停車場興建完成（已爭取到全部經費七億）。\n成立婦女局、保障單親外籍新娘等弱勢。\n降低低收入及殘障認定標準並對腦性麻痺兒、唐氏症及獨居老人給予特別補助。\n推動大陳新生地都市更新，原住戶優先承購土地。\n爭取釣魚台主權，釣魚台蘊藏一兆桶石油約值新台幣三千多兆，每人可分得一仟萬元。","param":{"attendance_statistics":{"absent":9,"total":124},"bills_role_statistics":{"total":138,"priproposer":4,"sponsor":11,"cosponsor":127},"diversity":{"中國國民黨":0.807861884972251,"無黨團結聯盟":0.06733606499147156,"民主進步黨":0.12180791046860236,"無黨籍":0.002994139567675089},"bills_party_diversity":[{"party":"中國國民黨","ratio":0.63557010365521},{"party":"民主進步黨","ratio":0.28205128205128205},{"party":"無黨團結聯盟","ratio":0.058919803600654665},{"party":"無黨籍","ratio":0.02127659574468085},{"party":"臺灣團結聯盟","ratio":0.002182214948172395}]},"councilor":"c32458987af64cfdb0b95f3cea943ccd"}],"uid":"c32458987af64cfdb0b95f3cea943ccd","name":"金介壽","birth":null,"former_names":"","identifiers":["金介壽"]},{"url":"http://councils.g0v.tw/api/councilors/47275/","each_terms":[{"url":"http://councils.g0v.tw/api/councilors_terms/26475/","election_year":"2014","name":"王飛龍","gender":"男","party":"無黨籍","title":null,"constituency":1,"county":"臺東縣","district":null,"in_office":true,"contact_details":null,"term_start":"2015-03-04","term_end":null,"education":null,"experience":null,"remark":null,"image":null,"links":null,"social_media":null,"platform":null,"param":{"bills_party_diversity":null},"councilor":"221213ddda484534a7261a86d0cec125"}],"uid":"221213ddda484534a7261a86d0cec125","name":"王飛龍","birth":"1950-08-23","former_names":"","identifiers":["王飛龍"]},{"url":"http://councils.g0v.tw/api/councilors/47276/","each_terms":[{"url":"http://councils.g0v.tw/api/councilors_terms/26505/","election_year":"2014","name":"顏嘉弘","gender":null,"party":"中國國民黨","title":null,"constituency":1,"county":"澎湖縣","district":null,"in_office":false,"contact_details":null,"term_start":"2014-12-25","term_end":{"date":"2016-03-28","judicial_links":"","reason":"當選無效","ref":"http://www.cec.gov.tw/central/cms/bulletin/730","replacement":"黃春燕"},"education":null,"experience":null,"remark":null,"image":null,"links":null,"social_media":null,"platform":null,"param":{"bills_role_statistics":{"total":21,"priproposer":0,"sponsor":0,"cosponsor":21},"suggestions_years":{"count":53,"sum":2160245,"years":[{"count":53,"sum":2160245,"suggest_year":"2015","small_purchase":53}]},"suggestions_associations":[{"count":1,"sum":30000,"label":"協進會"},{"count":0,"sum":0,"label":"社區發展協會"},{"count":0,"sum":0,"label":"學會"},{"count":0,"sum":0,"label":"商會"},{"count":0,"sum":0,"label":"公會"},{"count":0,"sum":0,"label":"促進會"},{"count":0,"sum":0,"label":"研習會"},{"count":0,"sum":0,"label":"婦聯會"},{"count":0,"sum":0,"label":"婦女會"},{"count":0,"sum":0,"label":"體育會"},{"count":0,"sum":0,"label":"同心會"},{"count":0,"sum":0,"label":"農會"},{"count":0,"sum":0,"label":"早起會"},{"count":0,"sum":0,"label":"健身會"},{"count":0,"sum":0,"label":"宗親會"},{"count":0,"sum":0,"label":"功德會"},{"count":0,"sum":0,"label":"商業會"},{"count":0,"sum":0,"label":"長青會"},{"count":0,"sum":0,"label":"民眾服務社"},{"count":0,"sum":0,"label":"聯盟"}],"suggestions_piles":[{"count":12,"tokens":"辦公室|辦公處","sum":393065,"label":"辦公室"},{"count":7,"tokens":"國中|國小","sum":367880,"label":"國中、國小"},{"count":7,"tokens":"廟|宮","sum":320000,"label":"廟"},{"count":10,"tokens":"協會|學會|商會|公會|協進會|促進會|研習會|婦聯會|婦女會|體育會|同心會|農會|早起會|健身會|宗親會|功德會|商業會|長青會|民眾服務社|聯盟","sum":310000,"label":"協會"},{"count":0,"tokens":"警察局|分局","sum":0,"label":"警察局"},{"count":0,"tokens":"消防局|消防隊|分隊|中隊","sum":0,"label":"消防局"}],"bills_party_diversity":[{"party":"中國國民黨","ratio":0.5824175824175825},{"party":"無黨團結聯盟","ratio":0.16483516483516483},{"party":"無黨籍","ratio":0.15384615384615385},{"party":"民主進步黨","ratio":0.0989010989010989}]},"councilor":"83f5b46f17744f4e8f9b376614ed4a6f"}],"uid":"83f5b46f17744f4e8f9b376614ed4a6f","name":"顏嘉弘","birth":null,"former_names":"","identifiers":["顏嘉弘"]},{"url":"http://councils.g0v.tw/api/councilors/1504/","each_terms":[{"url":"http://councils.g0v.tw/api/councilors_terms/3443/","election_year":"2014","name":"周碧雲","gender":"女","party":"民主進步黨","title":"議員","constituency":5,"county":"屏東縣","district":"崁頂鄉、南州鄉、林邊鄉、佳冬鄉","in_office":true,"contact_details":[{"type":"voice","value":"08-8631813","label":"電話"},{"type":"address","value":"屏東縣崁頂鄉北勢村後廍路24之10號","label":"聯絡處"}],"term_start":"2014-12-25","term_end":{"date":"2018-12-25"},"education":null,"experience":null,"remark":null,"image":"http://www.ptcc.gov.tw/upload/upimage/c20edfd9-5198-57fc-b93e-32742c896bdf-S.jpg","links":[{"url":"http://www.ptcc.gov.tw/?Page=PersionalDetail&Guid=c20edfd9-5198-57fc-b93e-32742c896bdf","note":"議會個人官網"}],"social_media":null,"platform":"小檔案\n出生：1972年\n經歷：屏東縣議會第15、16、17屆議員\n崁頂鄉婦女教育推廣協會榮譽理事長\n連三屆的周議員，在每次質詢前都做足功課，因而問政火力強大，也因此讓縣政府針對問題有積極作為，選民關心的問題解決了，她的民意基礎也更加穩固了。\n周議員認為，六都之後，六都外的縣市都感受到排擠效應，六都吸走大部分中央統籌分配款，六都之外的縣市預算愈發貧乏。在高雄縣市合併後，屏東縣已有被邊緣化的危機，與屏東只有一溪之隔的大寮，林園，因有高雄市政府的照顧，各項公共建設大幅趕上，各項社會福利也都提升，與屏東相比，高下立見，成為屏東人口外流的致命危機。屏東縣政府不難從這些年人口外流的情況察覺問題的嚴重性。\n縣政府應正視可能再衍生的其他效應， 應思考與大高雄合作的策略，爭取屏東縣納入區域建設範圍，為屏東打開另一條生路。\n本屆周議員問政的目標：\n一、傾聽民意。\n二、優質問政。\n三、服務不打烊。\n四、爭取地方建設。","param":{"suggestions_years":{"count":259,"sum":10577000,"years":[{"count":133,"sum":5827000,"suggest_year":"2015","small_purchase":129},{"count":126,"sum":4750000,"suggest_year":"2016","small_purchase":124}]},"suggestions_associations":[{"count":60,"sum":1770000,"label":"社區發展協會"},{"count":16,"sum":1090000,"label":"農會"},{"count":14,"sum":410000,"label":"體育會"},{"count":18,"sum":350000,"label":"學會"},{"count":10,"sum":280000,"label":"協進會"},{"count":12,"sum":250000,"label":"促進會"},{"count":1,"sum":20000,"label":"婦女會"},{"count":0,"sum":0,"label":"商會"},{"count":0,"sum":0,"label":"公會"},{"count":0,"sum":0,"label":"研習會"},{"count":0,"sum":0,"label":"婦聯會"},{"count":0,"sum":0,"label":"同心會"},{"count":0,"sum":0,"label":"早起會"},{"count":0,"sum":0,"label":"健身會"},{"count":0,"sum":0,"label":"宗親會"},{"count":0,"sum":0,"label":"功德會"},{"count":0,"sum":0,"label":"商業會"},{"count":0,"sum":0,"label":"長青會"},{"count":0,"sum":0,"label":"民眾服務社"},{"count":0,"sum":0,"label":"聯盟"}],"suggestions_piles":[{"count":177,"tokens":"協會|學會|商會|公會|協進會|促進會|研習會|婦聯會|婦女會|體育會|同心會|農會|早起會|健身會|宗親會|功德會|商業會|長青會|民眾服務社|聯盟","sum":5431000,"label":"協會"},{"count":4,"tokens":"國中|國小","sum":830000,"label":"國中、國小"},{"count":15,"tokens":"廟|宮","sum":575000,"label":"廟"},{"count":14,"tokens":"消防局|消防隊|分隊|中隊","sum":370000,"label":"消防局"},{"count":5,"tokens":"警察局|分局","sum":105000,"label":"警察局"},{"count":1,"tokens":"辦公室|辦公處","sum":80000,"label":"辦公室"}],"bills_party_diversity":null},"councilor":"eed3be08eea045e49b5464467d44f339"},{"url":"http://councils.g0v.tw/api/councilors_terms/2430/","election_year":"2009","name":"周碧雲","gender":"女","party":"無黨籍","title":"","constituency":5,"county":"屏東縣","district":"崁頂鄉、南州鄉、林邊鄉、佳冬鄉","in_office":true,"contact_details":[{"type":"address","value":"屏東縣崁頂鄉92443北勢村後廍路24之10號","label":"通訊處"},{"type":"voice","value":"08-8631813","label":"電話"}],"term_start":"2009-12-25","term_end":{"date":"2014-12-25"},"education":null,"experience":null,"remark":null,"image":"http://www.ptcc.gov.tw/upload/upimage/d6faedcf-4d51-80df-b625-7dc8dd178364-S.jpg","links":[{"url":"http://www.ptcc.gov.tw/?Page=PersionalDetail&Guid=f9f74b59-540d-8f8a-028c-9132f919d477","note":"議會個人官網"}],"social_media":null,"platform":"一、監督政府做好河道整治疏濬工作，維護家園生命及財產安全。\n二、督促政府積極落實振興經濟各項方案，增加投資就業機會，穩定百姓基本生活收入。\n三、因應高雄縣市合併之資源排擠效應，加強本縣國土規劃與開發，爭取中央特別財源補助，發展地方各項特色，煥新美力南台灣。\n四、協助婦幼保護與養育工作、強化政府社會救濟，救助功能，與人文，精緻教育之提昇。\n五、協助地方各社團、宗教團體健全發展，充實社區生活品質內容，活化鄰里，人親土親愛鄉情懷。","param":{"suggestions_years":{"count":424,"sum":19309100,"years":[{"count":108,"sum":5412000,"suggest_year":"2011","small_purchase":106},{"count":111,"sum":4721000,"suggest_year":"2012","small_purchase":108},{"count":92,"sum":3326300,"suggest_year":"2013","small_purchase":90},{"count":113,"sum":5849800,"suggest_year":"2014","small_purchase":109}]},"suggestions_associations":[{"count":89,"sum":1823000,"label":"社區發展協會"},{"count":35,"sum":909000,"label":"體育會"},{"count":37,"sum":780000,"label":"協進會"},{"count":12,"sum":622000,"label":"農會"},{"count":6,"sum":140000,"label":"促進會"},{"count":9,"sum":130000,"label":"學會"},{"count":1,"sum":20000,"label":"研習會"},{"count":1,"sum":20000,"label":"婦女會"},{"count":0,"sum":0,"label":"商會"},{"count":0,"sum":0,"label":"公會"},{"count":0,"sum":0,"label":"婦聯會"},{"count":0,"sum":0,"label":"同心會"},{"count":0,"sum":0,"label":"早起會"},{"count":0,"sum":0,"label":"健身會"},{"count":0,"sum":0,"label":"宗親會"},{"count":0,"sum":0,"label":"功德會"},{"count":0,"sum":0,"label":"商業會"},{"count":0,"sum":0,"label":"長青會"},{"count":0,"sum":0,"label":"民眾服務社"},{"count":0,"sum":0,"label":"聯盟"}],"suggestions_piles":[{"count":260,"tokens":"協會|學會|商會|公會|協進會|促進會|研習會|婦聯會|婦女會|體育會|同心會|農會|早起會|健身會|宗親會|功德會|商業會|長青會|民眾服務社|聯盟","sum":6284500,"label":"協會"},{"count":38,"tokens":"國中|國小","sum":2682000,"label":"國中、國小"},{"count":22,"tokens":"廟|宮","sum":1062000,"label":"廟"},{"count":11,"tokens":"消防局|消防隊|分隊|中隊","sum":540000,"label":"消防局"},{"count":2,"tokens":"警察局|分局","sum":176000,"label":"警察局"},{"count":0,"tokens":"辦公室|辦公處","sum":0,"label":"辦公室"}]},"councilor":"eed3be08eea045e49b5464467d44f339"}],"uid":"eed3be08eea045e49b5464467d44f339","name":"周碧雲","birth":null,"former_names":"","identifiers":["周碧雲"]},{"url":"http://councils.g0v.tw/api/councilors/1248/","each_terms":[{"url":"http://councils.g0v.tw/api/councilors_terms/3282/","election_year":"2014","name":"陳長明","gender":"男","party":"中國國民黨","title":"議員","constituency":9,"county":"花蓮縣","district":"【萬榮鄉、鳳林鎮、光復鄉、豐濱鄉、瑞穗鄉】山地原住民","in_office":true,"contact_details":[{"type":"voice","value":"03-8771068","label":"聯絡電話"},{"type":"address","value":"花蓮縣萬榮鄉西林村西林3-1號","label":"服務處地址"}],"term_start":"2014-12-25","term_end":{"date":"2018-12-25"},"education":"省立體育專科學校畢業","experience":"曾擔任基隆市立銘傳國中代課教師\n國風國中代課教師\n花蓮縣立萬榮國中教師\n鳳林國中教師兼組長\n曾當選全國十大傑出青年獎\n曾參加1984奧運會\n曾參加世界盃田徑賽、越野賽、國際賽等馬拉松並獲得優異成績\n擔任萬榮鄉鄉長2任\n","remark":null,"image":"http://www.hlcc.gov.tw/upfile/20151124103113-143.jpg","links":[{"url":"http://www.hlcc.gov.tw/councillor-data.php?index_no=37","note":"議會個人官網"}],"social_media":null,"platform":"","param":{"suggestions_years":{"count":26,"sum":2755050,"years":[{"count":8,"sum":905706,"suggest_year":"2015","small_purchase":7},{"count":18,"sum":1849344,"suggest_year":"2016","small_purchase":17}]},"suggestions_associations":[{"count":0,"sum":0,"label":"社區發展協會"},{"count":0,"sum":0,"label":"學會"},{"count":0,"sum":0,"label":"商會"},{"count":0,"sum":0,"label":"公會"},{"count":0,"sum":0,"label":"協進會"},{"count":0,"sum":0,"label":"促進會"},{"count":0,"sum":0,"label":"研習會"},{"count":0,"sum":0,"label":"婦聯會"},{"count":0,"sum":0,"label":"婦女會"},{"count":0,"sum":0,"label":"體育會"},{"count":0,"sum":0,"label":"同心會"},{"count":0,"sum":0,"label":"農會"},{"count":0,"sum":0,"label":"早起會"},{"count":0,"sum":0,"label":"健身會"},{"count":0,"sum":0,"label":"宗親會"},{"count":0,"sum":0,"label":"功德會"},{"count":0,"sum":0,"label":"商業會"},{"count":0,"sum":0,"label":"長青會"},{"count":0,"sum":0,"label":"民眾服務社"},{"count":0,"sum":0,"label":"聯盟"}],"suggestions_piles":[{"count":18,"tokens":"國中|國小","sum":1981113,"label":"國中、國小"},{"count":2,"tokens":"警察局|分局","sum":193761,"label":"警察局"},{"count":0,"tokens":"協會|學會|商會|公會|協進會|促進會|研習會|婦聯會|婦女會|體育會|同心會|農會|早起會|健身會|宗親會|功德會|商業會|長青會|民眾服務社|聯盟","sum":0,"label":"協會"},{"count":0,"tokens":"辦公室|辦公處","sum":0,"label":"辦公室"},{"count":0,"tokens":"廟|宮","sum":0,"label":"廟"},{"count":0,"tokens":"消防局|消防隊|分隊|中隊","sum":0,"label":"消防局"}]},"councilor":"3d9d0429e78e4f14aab0294eec046df8"},{"url":"http://councils.g0v.tw/api/councilors_terms/2174/","election_year":"2009","name":"陳長明","gender":"男","party":"中國國民黨","title":"","constituency":9,"county":"花蓮縣","district":"居住萬榮鄉及鳳林鎮、光復鄉、豐濱鄉、瑞穗鄉之山地原住民","in_office":true,"contact_details":[{"type":"address","value":"花蓮縣萬榮鄉西林村西林3-1號","label":"通訊處"},{"type":"voice","value":"03-8771068．0921-170320","label":"電話"}],"term_start":"2009-12-25","term_end":{"date":"2014-12-25"},"education":"省立體育專科學校","experience":"曾服務於基隆銘傳國中、國風國中教師。萬榮國中、鳳林國中教師兼組長。\n曾代表參加15次國際馬拉松賽，並代表國家參加1984奧運會。\n曾當選全國青年獎章。全國原住民十大傑出獎。\n曾擔任14、15屆萬榮鄉長。\n花蓮縣議會第17屆議員。","remark":null,"image":"http://www.hlcc.gov.tw/upfile/20100226142253-195.jpg","links":[{"url":"http://www.hlcc.gov.tw/councillor-data.php?index_no=37","note":"議會個人官網"}],"social_media":null,"platform":"一、落實改善原鄉地區農產品運輸道路，水土保持設施及部落基礎設施，以改善原住民生活品質。\n二、正視並加強辦理原鄉地區河川疏濬堤防興建及野溪整治，以保障原住民生命財產安全。\n三、為原鄉地區公墓用地不足之問題提出解套方案。\n四、重視原鄉地區國中、小教育問題，提高補助經費拉近城鄉差距。\n五、協助整合原鄉地區農業、文化、及觀光資源，推動將原鄉地區特有文化產業化、觀光化，藉以延續及推廣原住民傳統文化並為原住民間創新機。\n六、落實對孤獨老幼、單親家庭、身心障礙勞工、低收入戶等弱勢族群福利與照顧。\n七、推動各級學校重點發展體育活動，鼓勵學生參與培養優良體育人才。\n八、爭取擴大補助農民肥料、苗木及生產設備，減輕農民負擔。\n九、爭取桂竹栽培，生產行銷等產業經費，改善農民生活。\n十、爭取擴大參與林務局獎勵造林計劃，全面提高造林獎勵金。\n十一、爭取放寬保留地變更為建地之規定，改善原住民生活條件。\n十二、爭取回復原住民傳統領域之土地，保障原住民基本權益。","param":{"suggestions_years":{"count":14,"sum":3243630,"years":[{"count":14,"sum":3243630,"suggest_year":"2014","small_purchase":10}]},"diversity":{"中國國民黨":0.8440202717389251,"民主進步黨":0.0748678416741497,"無黨籍":0.08111188658692528},"bills_role_statistics":{"total":198,"priproposer":13,"sponsor":14,"cosponsor":184},"suggestions_associations":[{"count":0,"sum":0,"label":"社區發展協會"},{"count":0,"sum":0,"label":"學會"},{"count":0,"sum":0,"label":"商會"},{"count":0,"sum":0,"label":"公會"},{"count":0,"sum":0,"label":"協進會"},{"count":0,"sum":0,"label":"促進會"},{"count":0,"sum":0,"label":"研習會"},{"count":0,"sum":0,"label":"婦聯會"},{"count":0,"sum":0,"label":"婦女會"},{"count":0,"sum":0,"label":"體育會"},{"count":0,"sum":0,"label":"同心會"},{"count":0,"sum":0,"label":"農會"},{"count":0,"sum":0,"label":"早起會"},{"count":0,"sum":0,"label":"健身會"},{"count":0,"sum":0,"label":"宗親會"},{"count":0,"sum":0,"label":"功德會"},{"count":0,"sum":0,"label":"商業會"},{"count":0,"sum":0,"label":"長青會"},{"count":0,"sum":0,"label":"民眾服務社"},{"count":0,"sum":0,"label":"聯盟"}],"bills_party_diversity":[{"party":"中國國民黨","ratio":0.8234817813765182},{"party":"民主進步黨","ratio":0.08987854251012145},{"party":"無黨籍","ratio":0.08663967611336032}],"suggestions_piles":[{"count":7,"tokens":"國中|國小","sum":1749515,"label":"國中、國小"},{"count":2,"tokens":"消防局|消防隊|分隊|中隊","sum":198899,"label":"消防局"},{"count":2,"tokens":"警察局|分局","sum":169144,"label":"警察局"},{"count":0,"tokens":"協會|學會|商會|公會|協進會|促進會|研習會|婦聯會|婦女會|體育會|同心會|農會|早起會|健身會|宗親會|功德會|商業會|長青會|民眾服務社|聯盟","sum":0,"label":"協會"},{"count":0,"tokens":"辦公室|辦公處","sum":0,"label":"辦公室"},{"count":0,"tokens":"廟|宮","sum":0,"label":"廟"}]},"councilor":"3d9d0429e78e4f14aab0294eec046df8"}],"uid":"3d9d0429e78e4f14aab0294eec046df8","name":"陳長明","birth":null,"former_names":"","identifiers":["陳長明"]},{"url":"http://councils.g0v.tw/api/councilors/1882/","each_terms":[{"url":"http://councils.g0v.tw/api/councilors_terms/3283/","election_year":"2014","name":"許淑銀","gender":"女","party":"中國國民黨","title":"議員","constituency":8,"county":"花蓮縣","district":"【秀林鄉、花蓮市、新城鄉、吉安鄉、壽豐鄉】山地原住民","in_office":true,"contact_details":[{"type":"voice","value":"03-8612116、03-610330","label":"聯絡電話"},{"type":"address","value":"花蓮縣秀林鄉秀林村民治路109號","label":"服務處地址"}],"term_start":"2014-12-25","term_end":{"date":"2018-12-25"},"education":"私立銘傳商專","experience":"花蓮縣議會第14屆、15屆縣議員。\n花蓮縣秀林鄉第15屆、16屆鄉長。\n花蓮縣秀林鄉婦女會理事長。","remark":null,"image":"http://www.hlcc.gov.tw/upfile/20151124103103-142.jpg","links":[{"url":"http://www.hlcc.gov.tw/councillor-data.php?index_no=46","note":"議會個人官網"}],"social_media":null,"platform":"","param":{"suggestions_years":{"count":67,"sum":7690836,"years":[{"count":29,"sum":2988247,"suggest_year":"2015","small_purchase":26},{"count":38,"sum":4702589,"suggest_year":"2016","small_purchase":32}]},"suggestions_associations":[{"count":0,"sum":0,"label":"社區發展協會"},{"count":0,"sum":0,"label":"學會"},{"count":0,"sum":0,"label":"商會"},{"count":0,"sum":0,"label":"公會"},{"count":0,"sum":0,"label":"協進會"},{"count":0,"sum":0,"label":"促進會"},{"count":0,"sum":0,"label":"研習會"},{"count":0,"sum":0,"label":"婦聯會"},{"count":0,"sum":0,"label":"婦女會"},{"count":0,"sum":0,"label":"體育會"},{"count":0,"sum":0,"label":"同心會"},{"count":0,"sum":0,"label":"農會"},{"count":0,"sum":0,"label":"早起會"},{"count":0,"sum":0,"label":"健身會"},{"count":0,"sum":0,"label":"宗親會"},{"count":0,"sum":0,"label":"功德會"},{"count":0,"sum":0,"label":"商業會"},{"count":0,"sum":0,"label":"長青會"},{"count":0,"sum":0,"label":"民眾服務社"},{"count":0,"sum":0,"label":"聯盟"}],"suggestions_piles":[{"count":38,"tokens":"國中|國小","sum":3954634,"label":"國中、國小"},{"count":5,"tokens":"警察局|分局","sum":446547,"label":"警察局"},{"count":2,"tokens":"辦公室|辦公處","sum":241950,"label":"辦公室"},{"count":1,"tokens":"消防局|消防隊|分隊|中隊","sum":98600,"label":"消防局"},{"count":0,"tokens":"協會|學會|商會|公會|協進會|促進會|研習會|婦聯會|婦女會|體育會|同心會|農會|早起會|健身會|宗親會|功德會|商業會|長青會|民眾服務社|聯盟","sum":0,"label":"協會"},{"count":0,"tokens":"廟|宮","sum":0,"label":"廟"}]},"councilor":"8b42b70242e44233958052cee946cfe8"}],"uid":"8b42b70242e44233958052cee946cfe8","name":"許淑銀","birth":null,"former_names":"","identifiers":["許淑銀"]}]}