{"count":1904,"next":"http://councils.g0v.tw/api/councilors/?page=117","previous":"http://councils.g0v.tw/api/councilors/?page=115","results":[{"url":"http://councils.g0v.tw/api/councilors/1251/","each_terms":[{"url":"http://councils.g0v.tw/api/councilors_terms/3284/","election_year":"2014","name":"陳英妹","gender":"女","party":"無黨籍","title":"議員","constituency":7,"county":"花蓮縣","district":"【瑞穗鄉、玉里鎮、富里鄉、卓溪鄉】平地原住民","in_office":true,"contact_details":[{"type":"voice","value":"03-8811367","label":"聯絡電話"},{"type":"address","value":"花蓮縣瑞穗鄉富興村新興路179號","label":"服務處地址"}],"term_start":"2014-12-25","term_end":{"date":"2018-12-25"},"education":"瑞穗國民中學畢業\n中華高級工商職業學校畢業\n","experience":"瑞穗鄉第15、16、17屆鄉民代表。\n花蓮縣議會第16、17屆議員。","remark":null,"image":"http://www.hlcc.gov.tw/upfile/20151124103053-171.jpg","links":[{"url":"http://www.hlcc.gov.tw/councillor-data.php?index_no=34","note":"議會個人官網"}],"social_media":null,"platform":"","param":{"suggestions_years":{"count":30,"sum":6723632,"years":[{"count":12,"sum":4043364,"suggest_year":"2015","small_purchase":8},{"count":18,"sum":2680268,"suggest_year":"2016","small_purchase":12}]},"suggestions_associations":[{"count":0,"sum":0,"label":"社區發展協會"},{"count":0,"sum":0,"label":"學會"},{"count":0,"sum":0,"label":"商會"},{"count":0,"sum":0,"label":"公會"},{"count":0,"sum":0,"label":"協進會"},{"count":0,"sum":0,"label":"促進會"},{"count":0,"sum":0,"label":"研習會"},{"count":0,"sum":0,"label":"婦聯會"},{"count":0,"sum":0,"label":"婦女會"},{"count":0,"sum":0,"label":"體育會"},{"count":0,"sum":0,"label":"同心會"},{"count":0,"sum":0,"label":"農會"},{"count":0,"sum":0,"label":"早起會"},{"count":0,"sum":0,"label":"健身會"},{"count":0,"sum":0,"label":"宗親會"},{"count":0,"sum":0,"label":"功德會"},{"count":0,"sum":0,"label":"商業會"},{"count":0,"sum":0,"label":"長青會"},{"count":0,"sum":0,"label":"民眾服務社"},{"count":0,"sum":0,"label":"聯盟"}],"suggestions_piles":[{"count":11,"tokens":"國中|國小","sum":1764762,"label":"國中、國小"},{"count":3,"tokens":"警察局|分局","sum":493502,"label":"警察局"},{"count":1,"tokens":"辦公室|辦公處","sum":95100,"label":"辦公室"},{"count":0,"tokens":"協會|學會|商會|公會|協進會|促進會|研習會|婦聯會|婦女會|體育會|同心會|農會|早起會|健身會|宗親會|功德會|商業會|長青會|民眾服務社|聯盟","sum":0,"label":"協會"},{"count":0,"tokens":"廟|宮","sum":0,"label":"廟"},{"count":0,"tokens":"消防局|消防隊|分隊|中隊","sum":0,"label":"消防局"}]},"councilor":"ffc0cfe1418a4584b3a8ea491e151238"},{"url":"http://councils.g0v.tw/api/councilors_terms/2177/","election_year":"2009","name":"陳英妹","gender":"女","party":"中國國民黨","title":"","constituency":7,"county":"花蓮縣","district":"居住瑞穗鄉、玉里鎮、富里鄉、卓溪鄉之平地原住民","in_office":true,"contact_details":[{"type":"address","value":"花蓮縣瑞穗鄉富興村15鄰新興路179號","label":"通訊處"},{"type":"voice","value":"03-8811367．0937-169557","label":"電話"}],"term_start":"2009-12-25","term_end":{"date":"2014-12-25"},"education":"中華高級工商職業學校畢業","experience":"瑞穗鄉第十五屆、十六屆、十七屆鄉民代表\n花蓮縣第十六屆、十七屆縣議員","remark":null,"image":"http://www.hlcc.gov.tw/upfile/20100226142215-129.jpg","links":[{"url":"http://www.hlcc.gov.tw/councillor-data.php?index_no=34","note":"議會個人官網"}],"social_media":null,"platform":"一、爭取原住民部落基礎建設，改善部落生活環境品質。\n二、爭取原住民就業機會，及工作保障，提升就業人口。\n三、爭取原住民婦女研習訓練經費，提升婦女生活技能。\n四、爭取建設原住民部落特色，促進部落觀光產業發展。\n五、爭取原住民農產品運銷輔導，以增加農業產品收益。\n六、爭取原住民老人照護福利，關懷獨居老人。\n七、加速原住民保留地取得及耕作權利設定。\n八、加強原住民急難救助，幫助急難家庭渡過難關。\n九、加強部落醫療服務及保健研習，提高部落居民健康。","param":{"suggestions_years":{"count":20,"sum":2429170,"years":[{"count":20,"sum":2429170,"suggest_year":"2014","small_purchase":15}]},"diversity":{"中國國民黨":0.8472757387813143,"民主進步黨":0.07541981909867475,"無黨籍":0.07730444212001071},"bills_role_statistics":{"total":372,"priproposer":119,"sponsor":120,"cosponsor":252},"suggestions_associations":[{"count":0,"sum":0,"label":"社區發展協會"},{"count":0,"sum":0,"label":"學會"},{"count":0,"sum":0,"label":"商會"},{"count":0,"sum":0,"label":"公會"},{"count":0,"sum":0,"label":"協進會"},{"count":0,"sum":0,"label":"促進會"},{"count":0,"sum":0,"label":"研習會"},{"count":0,"sum":0,"label":"婦聯會"},{"count":0,"sum":0,"label":"婦女會"},{"count":0,"sum":0,"label":"體育會"},{"count":0,"sum":0,"label":"同心會"},{"count":0,"sum":0,"label":"農會"},{"count":0,"sum":0,"label":"早起會"},{"count":0,"sum":0,"label":"健身會"},{"count":0,"sum":0,"label":"宗親會"},{"count":0,"sum":0,"label":"功德會"},{"count":0,"sum":0,"label":"商業會"},{"count":0,"sum":0,"label":"長青會"},{"count":0,"sum":0,"label":"民眾服務社"},{"count":0,"sum":0,"label":"聯盟"}],"bills_party_diversity":[{"party":"中國國民黨","ratio":0.8057944771389769},{"party":"無黨籍","ratio":0.11498415572657311},{"party":"民主進步黨","ratio":0.07922136713444998}],"suggestions_piles":[{"count":8,"tokens":"國中|國小","sum":1508479,"label":"國中、國小"},{"count":3,"tokens":"辦公室|辦公處","sum":135970,"label":"辦公室"},{"count":1,"tokens":"消防局|消防隊|分隊|中隊","sum":98000,"label":"消防局"},{"count":2,"tokens":"警察局|分局","sum":56240,"label":"警察局"},{"count":0,"tokens":"協會|學會|商會|公會|協進會|促進會|研習會|婦聯會|婦女會|體育會|同心會|農會|早起會|健身會|宗親會|功德會|商業會|長青會|民眾服務社|聯盟","sum":0,"label":"協會"},{"count":0,"tokens":"廟|宮","sum":0,"label":"廟"}]},"councilor":"ffc0cfe1418a4584b3a8ea491e151238"}],"uid":"ffc0cfe1418a4584b3a8ea491e151238","name":"陳英妹","birth":null,"former_names":"","identifiers":["陳英妹"]},{"url":"http://councils.g0v.tw/api/councilors/1255/","each_terms":[{"url":"http://councils.g0v.tw/api/councilors_terms/2181/","election_year":"2009","name":"余夏夫","gender":"男","party":"中國國民黨","title":"","constituency":5,"county":"花蓮縣","district":"居住花蓮市、新城鄉、秀林鄉、吉安鄉之平地原住民","in_office":true,"contact_details":[{"type":"address","value":"花蓮縣吉安鄉宜昌村25鄰吉祥四街47號","label":"通訊處"},{"type":"voice","value":"03-8522347．0921-840061","label":"電話"}],"term_start":"2009-12-25","term_end":{"date":"2014-12-25"},"education":"高中","experience":"陸軍經理學校。\n革命實踐研究結業。\n台灣省汽車客運公司花蓮產業工會理事。\n花蓮縣吉安鄉阿美族事務協會理事長。\n吉安鄉第十七屆代表。\n花蓮縣第十六屆、第十七屆縣議員。","remark":null,"image":"http://www.hlcc.gov.tw/upfile/20100226142124-181.jpg","links":[{"url":"http://www.hlcc.gov.tw/councillor-data.php?index_no=30","note":"議會個人官網"}],"social_media":null,"platform":"一積極建請政府辦理原住民（阿美族）社會福利事項與權益，規劃建立社會安全體系。\n二建請政府強化本縣公共衛生及醫療緊急救護體系。並建立完善長期照護機構。\n三積極建請政府落實原住民（阿美族）租用土地，完成增（劃）編保留地，保障原住民（阿美族）財產承租權益。\n四健全原住民（阿美族）就業服務網絡，以保障就業機會及工作權益，讓報酬與升遷公平化。\n五規劃辦理原住民（阿美族）地區使用族語之傳播媒介，以保障傳播與媒體近用權。\n六積極建請政府寬列預算改善原住民（阿美族）地區部落公共工程設施等急需經費。\n七積極建請政府建構原住民（阿美族）婦女權益，開創部落婦女就業機會，建立弱勢及單親婦女扶助自立之機制。\n八積極強化推動原住民（阿美族）重點發展產業及輔導部落傳統文化與觀光產業經濟發展。\n九積極輔導原住民（阿美族）部落農、漁、畜牧、家禽等產業與行銷發展，並建立飼料與生產加工設備。\n十督促規劃原住民（阿美族）傳統市場案。","param":{"suggestions_years":{"count":23,"sum":2637053,"years":[{"count":23,"sum":2637053,"suggest_year":"2014","small_purchase":19}]},"diversity":{"中國國民黨":0.852970442417092,"民主進步黨":0.08761206310062573,"無黨籍":0.059417494482282146},"bills_role_statistics":{"total":306,"priproposer":47,"sponsor":48,"cosponsor":258},"suggestions_associations":[{"count":0,"sum":0,"label":"社區發展協會"},{"count":0,"sum":0,"label":"學會"},{"count":0,"sum":0,"label":"商會"},{"count":0,"sum":0,"label":"公會"},{"count":0,"sum":0,"label":"協進會"},{"count":0,"sum":0,"label":"促進會"},{"count":0,"sum":0,"label":"研習會"},{"count":0,"sum":0,"label":"婦聯會"},{"count":0,"sum":0,"label":"婦女會"},{"count":0,"sum":0,"label":"體育會"},{"count":0,"sum":0,"label":"同心會"},{"count":0,"sum":0,"label":"農會"},{"count":0,"sum":0,"label":"早起會"},{"count":0,"sum":0,"label":"健身會"},{"count":0,"sum":0,"label":"宗親會"},{"count":0,"sum":0,"label":"功德會"},{"count":0,"sum":0,"label":"商業會"},{"count":0,"sum":0,"label":"長青會"},{"count":0,"sum":0,"label":"民眾服務社"},{"count":0,"sum":0,"label":"聯盟"}],"bills_party_diversity":[{"party":"中國國民黨","ratio":0.8322542672160094},{"party":"民主進步黨","ratio":0.08534432018834609},{"party":"無黨籍","ratio":0.0824014125956445}],"suggestions_piles":[{"count":3,"tokens":"警察局|分局","sum":537000,"label":"警察局"},{"count":5,"tokens":"國中|國小","sum":354410,"label":"國中、國小"},{"count":0,"tokens":"協會|學會|商會|公會|協進會|促進會|研習會|婦聯會|婦女會|體育會|同心會|農會|早起會|健身會|宗親會|功德會|商業會|長青會|民眾服務社|聯盟","sum":0,"label":"協會"},{"count":0,"tokens":"辦公室|辦公處","sum":0,"label":"辦公室"},{"count":0,"tokens":"廟|宮","sum":0,"label":"廟"},{"count":0,"tokens":"消防局|消防隊|分隊|中隊","sum":0,"label":"消防局"}]},"councilor":"1c34f7b5c80c495ba259fed86302d499"},{"url":"http://councils.g0v.tw/api/councilors_terms/3288/","election_year":"2014","name":"余夏夫","gender":"男","party":"中國國民黨","title":"議員","constituency":5,"county":"花蓮縣","district":"【花蓮市、新城鄉、秀林鄉、吉安鄉】平地原住民","in_office":true,"contact_details":[{"type":"voice","value":"03-8522347","label":"聯絡電話"},{"type":"address","value":"花蓮縣吉安鄉宜昌村吉祥四街47號","label":"服務處地址"}],"term_start":"2014-12-25","term_end":{"date":"2018-12-25"},"education":"高中","experience":"陸軍經理學校士官班。革命實踐研究結業。花蓮縣吉安鄉阿美族事務協會理事長。花蓮縣吉安鄉第17屆代表。\n花蓮縣第16、17屆縣議員。花蓮縣第17屆議會黨團副書記長。","remark":null,"image":"http://www.hlcc.gov.tw/upfile/20151124103022-145.jpg","links":[{"url":"http://www.hlcc.gov.tw/councillor-data.php?index_no=30","note":"議會個人官網"}],"social_media":null,"platform":"","param":{"suggestions_years":{"count":44,"sum":6705017,"years":[{"count":26,"sum":3681616,"suggest_year":"2015","small_purchase":20},{"count":18,"sum":3023401,"suggest_year":"2016","small_purchase":11}]},"suggestions_associations":[{"count":0,"sum":0,"label":"社區發展協會"},{"count":0,"sum":0,"label":"學會"},{"count":0,"sum":0,"label":"商會"},{"count":0,"sum":0,"label":"公會"},{"count":0,"sum":0,"label":"協進會"},{"count":0,"sum":0,"label":"促進會"},{"count":0,"sum":0,"label":"研習會"},{"count":0,"sum":0,"label":"婦聯會"},{"count":0,"sum":0,"label":"婦女會"},{"count":0,"sum":0,"label":"體育會"},{"count":0,"sum":0,"label":"同心會"},{"count":0,"sum":0,"label":"農會"},{"count":0,"sum":0,"label":"早起會"},{"count":0,"sum":0,"label":"健身會"},{"count":0,"sum":0,"label":"宗親會"},{"count":0,"sum":0,"label":"功德會"},{"count":0,"sum":0,"label":"商業會"},{"count":0,"sum":0,"label":"長青會"},{"count":0,"sum":0,"label":"民眾服務社"},{"count":0,"sum":0,"label":"聯盟"}],"suggestions_piles":[{"count":12,"tokens":"國中|國小","sum":2056039,"label":"國中、國小"},{"count":9,"tokens":"警察局|分局","sum":1713498,"label":"警察局"},{"count":10,"tokens":"消防局|消防隊|分隊|中隊","sum":791227,"label":"消防局"},{"count":1,"tokens":"辦公室|辦公處","sum":92000,"label":"辦公室"},{"count":0,"tokens":"協會|學會|商會|公會|協進會|促進會|研習會|婦聯會|婦女會|體育會|同心會|農會|早起會|健身會|宗親會|功德會|商業會|長青會|民眾服務社|聯盟","sum":0,"label":"協會"},{"count":0,"tokens":"廟|宮","sum":0,"label":"廟"}]},"councilor":"1c34f7b5c80c495ba259fed86302d499"}],"uid":"1c34f7b5c80c495ba259fed86302d499","name":"余夏夫","birth":null,"former_names":"","identifiers":["余夏夫"]},{"url":"http://councils.g0v.tw/api/councilors/1380/","each_terms":[{"url":"http://councils.g0v.tw/api/councilors_terms/2306/","election_year":"2009","name":"廖天隆","gender":"男","party":"無黨籍","title":"","constituency":2,"county":"嘉義市","district":"西區","in_office":true,"contact_details":[{"type":"address","value":"嘉義市友忠路328號","label":"通訊處"},{"type":"voice","value":"05-2855785　　","label":"電話"}],"term_start":"2009-12-25","term_end":{"date":"2014-12-25"},"education":"嘉義市大同國小畢業\n嘉義華商高級部畢業","experience":null,"remark":null,"image":"http://www.cycc.gov.tw/files/b/%E5%BB%96%E5%A4%A9%E9%9A%86%281%29.jpg","links":[{"url":"http://www.cycc.gov.tw/form1/index-2.asp?m=99&m1=4&m2=15&mode=2&id=18","note":"議會個人官網"}],"social_media":null,"platform":"1.清廉問政、以全市民之權益為宗旨\n2.專職為民服務，做好人民與政府間之橋樑，充分反映民情\n3.促請政府重視弱勢團體，極力爭取殘障、老人、兒童等福利措施\n4.促請重視基層員警福利，加強維護社會治安，保障市民生命及財產之安全\n5.督促市政府嚴格管制道路挖掘及回填品質，以利行車之安全\n6.促請政府充實文化建設，推展藝文活動\n7.促請政府推展體育活動，推行全民運動\n8.督促政府重視市容觀瞻，規劃道路綠美化工作，成為示範都市\n9.督促政府便民，簡化人民申請案件流程，提昇行政效率\n10.督促政府規劃停車場，解決市民路邊停車問題\n11.促請政府加強環保工作，解決垃圾問題，改善空氣及民生用水品質\n12.促請政府企業化經營市政，成為現代化之城市","param":{"bills_role_statistics":{"total":30,"priproposer":2,"sponsor":3,"cosponsor":27},"suggestions_piles":[{"count":0,"tokens":"協會|學會|商會|公會|協進會|促進會|研習會|婦聯會|婦女會|體育會|同心會|農會|早起會|健身會|宗親會|功德會|商業會|長青會|民眾服務社|聯盟","sum":0,"label":"協會"},{"count":0,"tokens":"辦公室|辦公處","sum":0,"label":"辦公室"},{"count":0,"tokens":"廟|宮","sum":0,"label":"廟"},{"count":0,"tokens":"警察局|分局","sum":0,"label":"警察局"},{"count":0,"tokens":"消防局|消防隊|分隊|中隊","sum":0,"label":"消防局"},{"count":0,"tokens":"國中|國小","sum":0,"label":"國中、國小"}],"suggestions_associations":[{"count":0,"sum":0,"label":"社區發展協會"},{"count":0,"sum":0,"label":"學會"},{"count":0,"sum":0,"label":"商會"},{"count":0,"sum":0,"label":"公會"},{"count":0,"sum":0,"label":"協進會"},{"count":0,"sum":0,"label":"促進會"},{"count":0,"sum":0,"label":"研習會"},{"count":0,"sum":0,"label":"婦聯會"},{"count":0,"sum":0,"label":"婦女會"},{"count":0,"sum":0,"label":"體育會"},{"count":0,"sum":0,"label":"同心會"},{"count":0,"sum":0,"label":"農會"},{"count":0,"sum":0,"label":"早起會"},{"count":0,"sum":0,"label":"健身會"},{"count":0,"sum":0,"label":"宗親會"},{"count":0,"sum":0,"label":"功德會"},{"count":0,"sum":0,"label":"商業會"},{"count":0,"sum":0,"label":"長青會"},{"count":0,"sum":0,"label":"民眾服務社"},{"count":0,"sum":0,"label":"聯盟"}],"diversity":{"中國國民黨":0.3314309056956117,"民主進步黨":0.05028011204481793,"臺灣團結聯盟":0.03655073140367258,"無黨籍":0.5817382508558979},"suggestions_years":{"count":1,"sum":298333,"years":[{"count":1,"sum":298333,"suggest_year":"2012","small_purchase":0}]}},"councilor":"44cacb7deb0d4a669eb1df59dc77df4f"},{"url":"http://councils.g0v.tw/api/councilors_terms/3095/","election_year":"2014","name":"廖天隆","gender":"男","party":"無黨籍","title":"議員","constituency":2,"county":"嘉義市","district":"西區","in_office":true,"contact_details":[{"type":"voice","value":"05-2855785","label":"電話"},{"type":"address","value":"嘉義市友忠路328號","label":"地址"}],"term_start":"2014-12-25","term_end":{"date":"2018-12-25"},"education":"","experience":"","remark":null,"image":"http://www.cycc.gov.tw/files/b/%B9%F9%A4%D1%B6%A9%281%29.jpg","links":[{"url":"http://www.cycc.gov.tw/form1/index-2.asp?m=99&m1=4&m2=15&mode=2&id=18","note":"議會個人官網"}],"social_media":null,"platform":"","param":{"bills_role_statistics":{"total":210,"priproposer":2,"sponsor":2,"cosponsor":208},"bills_party_diversity":[{"party":"無黨籍","ratio":0.43928959768031894},{"party":"中國國民黨","ratio":0.2696629213483146},{"party":"民主進步黨","ratio":0.2493657122145705},{"party":"臺灣團結聯盟","ratio":0.04168176875679594}]},"councilor":"44cacb7deb0d4a669eb1df59dc77df4f"}],"uid":"44cacb7deb0d4a669eb1df59dc77df4f","name":"廖天隆","birth":null,"former_names":"","identifiers":["廖天隆"]},{"url":"http://councils.g0v.tw/api/councilors/560/","each_terms":[{"url":"http://councils.g0v.tw/api/councilors_terms/968/","election_year":"1986","name":"詹裕仁","gender":"","party":"","title":"議員","constituency":7,"county":"新北市","district":"汐止鎮、金山鄉、萬里鄉","in_office":true,"contact_details":null,"term_start":"1986-03-01","term_end":{"date":"1990-02-28"},"education":"汐止國小\n汐止國中\n師大附中\n私立中國文化大學法律系","experience":"汐止鎮公所秘書\n中國青年反共救國團汐止鎮團委會總幹事\n軍管區後幹班第171期學員長\n第2屆立法委員\n臺北縣議會第11、12屆議員\n磐達企業股份有限公司董事長\n中國青年反共救國團汐止團委會常委\n汐止民防、義警、後備憲兵顧問","remark":null,"image":"http://www.ntp.gov.tw/UpFile/CouncilorFile/TTCC1156.jpg","links":[{"url":"http://www.ntp.gov.tw/content/history/history01-5-p.aspx?sid=409","note":"議會個人官網"}],"social_media":null,"platform":"","param":null,"councilor":"f9038ac6173c49ecadba44578d9a3868"},{"url":"http://councils.g0v.tw/api/councilors_terms/1095/","election_year":"1990","name":"詹裕仁","gender":"","party":"","title":"議員","constituency":8,"county":"新北市","district":"汐止鎮、金山鄉、萬里鄉","in_office":true,"contact_details":null,"term_start":"1990-03-01","term_end":{"date":"1994-02-28"},"education":"汐止國小\n汐止國中\n師大附中\n私立中國文化大學法律系","experience":"汐止鎮公所秘書\n中國青年反共救國團汐止鎮團委會總幹事\n軍管區後幹班第171期學員長\n第2屆立法委員\n臺北縣議會第11、12屆議員\n磐達企業股份有限公司董事長\n中國青年反共救國團汐止團委會常委\n汐止民防、義警、後備憲兵顧問","remark":null,"image":"http://www.ntp.gov.tw/UpFile/CouncilorFile/TTCC1156.jpg","links":[{"url":"http://www.ntp.gov.tw/content/history/history01-5-p.aspx?sid=409","note":"議會個人官網"}],"social_media":null,"platform":"","param":null,"councilor":"f9038ac6173c49ecadba44578d9a3868"}],"uid":"f9038ac6173c49ecadba44578d9a3868","name":"詹裕仁","birth":null,"former_names":"","identifiers":["詹裕仁"]},{"url":"http://councils.g0v.tw/api/councilors/592/","each_terms":[{"url":"http://councils.g0v.tw/api/councilors_terms/1006/","election_year":"1982","name":"林義長","gender":"","party":"","title":"議員","constituency":11,"county":"新北市","district":"居住烏來鄉及平地鄉鎮市之山地山胞","in_office":true,"contact_details":null,"term_start":"1982-03-01","term_end":{"date":"1986-02-28"},"education":"屏東師範學校\n師範大學公訓系","experience":"烏來國小教師\n臺北縣議會第10屆議員\n烏來鄉第10、11屆鄉長","remark":null,"image":"http://www.ntp.gov.tw/UpFile/CouncilorFile/TTCC1065.jpg","links":[{"url":"http://www.ntp.gov.tw/content/history/history01-5-p.aspx?sid=389","note":"議會個人官網"}],"social_media":null,"platform":"","param":null,"councilor":"8d1e17919a554cc1a9f13f64783b2131"}],"uid":"8d1e17919a554cc1a9f13f64783b2131","name":"林義長","birth":null,"former_names":"","identifiers":["林義長","林義長"]},{"url":"http://councils.g0v.tw/api/councilors/593/","each_terms":[{"url":"http://councils.g0v.tw/api/councilors_terms/1007/","election_year":"1986","name":"石筑翎","gender":"","party":"","title":"議員","constituency":2,"county":"新北市","district":"中和市、永和市","in_office":true,"contact_details":null,"term_start":"1986-03-01","term_end":{"date":"1990-02-28"},"education":"空軍子弟小學\n屏東長治中學\n屏東東大高中\n政治作戰學校肄\n中央大學公共行政夜間部選修三年級\n革命實踐研究院講習班332期結業","experience":"臺北縣議會第11、12屆議員\n永和市第2屆市民代表\n永和市女子義警分隊長\n永和市調解委員\n臺北縣國民旅遊協會理事\n永和市博愛社區理事長\n永和第3區黨部委員\n臺北縣黨部文宣委員\n永和市婦女會理事長(5年)\n臺北縣榮民服務處指導委員","remark":null,"image":"http://www.ntp.gov.tw/UpFile/CouncilorFile/TTCC1120.jpg","links":[{"url":"http://www.ntp.gov.tw/content/history/history01-5-p.aspx?sid=394","note":"議會個人官網"}],"social_media":null,"platform":"","param":null,"councilor":"4679b53d1e8b4fed95bca27024ec441a"},{"url":"http://councils.g0v.tw/api/councilors_terms/1127/","election_year":"1990","name":"石筑翎","gender":"","party":"","title":"議員","constituency":3,"county":"新北市","district":"永和市","in_office":true,"contact_details":null,"term_start":"1990-03-01","term_end":{"date":"1994-02-28"},"education":"空軍子弟小學\n屏東長治中學\n屏東東大高中\n政治作戰學校肄\n中央大學公共行政夜間部選修三年級\n革命實踐研究院講習班332期結業","experience":"臺北縣議會第11、12屆議員\n永和市第2屆市民代表\n永和市女子義警分隊長\n永和市調解委員\n臺北縣國民旅遊協會理事\n永和市博愛社區理事長\n永和第3區黨部委員\n臺北縣黨部文宣委員\n永和市婦女會理事長(5年)\n臺北縣榮民服務處指導委員","remark":null,"image":"http://www.ntp.gov.tw/UpFile/CouncilorFile/TTCC1120.jpg","links":[{"url":"http://www.ntp.gov.tw/content/history/history01-5-p.aspx?sid=394","note":"議會個人官網"}],"social_media":null,"platform":"","param":null,"councilor":"4679b53d1e8b4fed95bca27024ec441a"}],"uid":"4679b53d1e8b4fed95bca27024ec441a","name":"石筑翎","birth":null,"former_names":"","identifiers":["石筑翎"]},{"url":"http://councils.g0v.tw/api/councilors/594/","each_terms":[{"url":"http://councils.g0v.tw/api/councilors_terms/1008/","election_year":"1982","name":"連飛雄","gender":"","party":"","title":"議員","constituency":10,"county":"新北市","district":"居住各鄉鎮市之平地山胞","in_office":true,"contact_details":null,"term_start":"1982-03-01","term_end":{"date":"1986-02-28"},"education":"畢業於天主教聖若翰傳教學校\n中國互助運動協會儲蓄互助領袖人才班\n臺灣軍管區後幹班104期結業","experience":"中國互助運動協會第3屆理事\n儲蓄互助社推行委員會東部地區督導\n汐止後備軍人輔導中心督導\n民政廳北區山胞生活輔導中心主任\n汐止鎮樟樹里山光生活改進協進會主席\n臺北縣議會第10屆議員","remark":null,"image":"http://www.ntp.gov.tw/UpFile/CouncilorFile/TTCC1064.jpg","links":[{"url":"http://www.ntp.gov.tw/content/history/history01-5-p.aspx?sid=388","note":"議會個人官網"}],"social_media":null,"platform":"","param":null,"councilor":"80cf7b7a521349e8aedb46e0deda4855"}],"uid":"80cf7b7a521349e8aedb46e0deda4855","name":"連飛雄","birth":null,"former_names":"","identifiers":["連飛雄"]},{"url":"http://councils.g0v.tw/api/councilors/505/","each_terms":[{"url":"http://councils.g0v.tw/api/councilors_terms/852/","election_year":"1968","name":"王毓財","gender":"","party":"","title":"議員","constituency":8,"county":"新北市","district":"新店鎮、深坑鄉、石碇鄉、坪林鄉、烏來鄉山地鄉","in_office":true,"contact_details":null,"term_start":"1968-02-21","term_end":{"date":"1973-04-30"},"education":"老松國小高等科畢\n成淵中學高級部畢\n臺灣省農會總幹事訓練班結業\n中央實踐研究院黨政班結業","experience":"新店鎮民代表\n新店鎮鎮長\n臺北縣農會總幹事\n常務監事與理事長\n臺北青果運銷合作社常務監事\n臺北青果運銷合作社理事\n臺北縣議會第6、7屆議員\n民國86年5月1日歿","remark":null,"image":"http://www.ntp.gov.tw/UpFile/CouncilorFile/TTCC0657.jpg","links":[{"url":"http://www.ntp.gov.tw/content/history/history01-5-p.aspx?sid=275","note":"議會個人官網"}],"social_media":null,"platform":"","param":null,"councilor":"1215889756f84c47a764cdc838523cb0"},{"url":"http://councils.g0v.tw/api/councilors_terms/1808/","election_year":"1964","name":"王毓財","gender":"","party":"","title":"議員","constituency":9,"county":"新北市","district":"新店鎮、景美鎮、木柵鄉、深坑鄉、石碇鄉、坪林鄉、烏來鄉山地鄉","in_office":true,"contact_details":null,"term_start":"1964-02-21","term_end":{"date":"1968-02-20"},"education":"老松國小高等科畢\n成淵中學高級部畢\n臺灣省農會總幹事訓練班結業\n中央實踐研究院黨政班結業","experience":"新店鎮民代表\n新店鎮鎮長\n臺北縣農會總幹事\n常務監事與理事長\n臺北青果運銷合作社常務監事\n臺北青果運銷合作社理事\n臺北縣議會第6、7屆議員\n民國86年5月1日歿","remark":null,"image":"http://www.ntp.gov.tw/UpFile/CouncilorFile/TTCC0657.jpg","links":[{"url":"http://www.ntp.gov.tw/content/history/history01-5-p.aspx?sid=275","note":"議會個人官網"}],"social_media":null,"platform":"","param":null,"councilor":"1215889756f84c47a764cdc838523cb0"}],"uid":"1215889756f84c47a764cdc838523cb0","name":"王毓財","birth":null,"former_names":"","identifiers":["王毓財"]},{"url":"http://councils.g0v.tw/api/councilors/506/","each_terms":[{"url":"http://councils.g0v.tw/api/councilors_terms/853/","election_year":"1968","name":"吳總傑","gender":"","party":"","title":"議員","constituency":7,"county":"新北市","district":"瑞芳鎮、雙溪鄉、貢寮鄉、平溪鄉","in_office":true,"contact_details":null,"term_start":"1968-02-21","term_end":{"date":"1973-04-30"},"education":"省立宜蘭農職5年制畢業","experience":"貢寮鄉民代表\n貢寮鄉主席\n貢寮鄉鄉長\n臺北縣農會理事\n臺北縣議會第7屆議員\n民國95年11月14日歿","remark":null,"image":"http://www.ntp.gov.tw/UpFile/CouncilorFile/TTCC0750.jpg","links":[{"url":"http://www.ntp.gov.tw/content/history/history01-5-p.aspx?sid=293","note":"議會個人官網"}],"social_media":null,"platform":"","param":null,"councilor":"06dc77ce2b2d4104b9e57bae962f1992"}],"uid":"06dc77ce2b2d4104b9e57bae962f1992","name":"吳總傑","birth":null,"former_names":"","identifiers":["吳總傑"]},{"url":"http://councils.g0v.tw/api/councilors/849/","each_terms":[{"url":"http://councils.g0v.tw/api/councilors_terms/1509/","election_year":"1951","name":"張均田","gender":"","party":"","title":"議員","constituency":4,"county":"新北市","district":"淡水鎮、三芝鄉、石門鄉、八里鄉","in_office":true,"contact_details":null,"term_start":"1951-01-04","term_end":{"date":"1953-01-05"},"education":"臺北第二師範學校\n日本明治大學法科\n日本熊本醫科大學","experience":"乾華、大橋國校教師\n至善堂診所院長\n三芝鄉鄉長\n臺北縣農會常務監事\n三芝鄉農會理事長\n臺北縣議會第1、2、3屆議員","remark":null,"image":"http://www.ntp.gov.tw/UpFile/CouncilorFile/TTCC0124.jpg","links":[{"url":"http://www.ntp.gov.tw/content/history/history01-5-p.aspx?sid=90","note":"議會個人官網"}],"social_media":null,"platform":"","param":null,"councilor":"53fced296e27472082804c3f3aa4e46e"},{"url":"http://councils.g0v.tw/api/councilors_terms/1628/","election_year":"1955","name":"張均田","gender":"","party":"","title":"議員","constituency":4,"county":"新北市","district":"淡水鎮、三芝鄉、石門鄉、八里鄉","in_office":true,"contact_details":null,"term_start":"1955-01-16","term_end":{"date":"1958-02-20"},"education":"臺北第二師範學校\n日本明治大學法科\n日本熊本醫科大學","experience":"乾華、大橋國校教師\n至善堂診所院長\n三芝鄉鄉長\n臺北縣農會常務監事\n三芝鄉農會理事長\n臺北縣議會第1、2、3屆議員","remark":null,"image":"http://www.ntp.gov.tw/UpFile/CouncilorFile/TTCC0124.jpg","links":[{"url":"http://www.ntp.gov.tw/content/history/history01-5-p.aspx?sid=90","note":"議會個人官網"}],"social_media":null,"platform":"","param":null,"councilor":"53fced296e27472082804c3f3aa4e46e"},{"url":"http://councils.g0v.tw/api/councilors_terms/1568/","election_year":"1953","name":"張均田","gender":"","party":"","title":"議員","constituency":4,"county":"新北市","district":"淡水鎮、三芝鄉、石門鄉、八里鄉","in_office":true,"contact_details":null,"term_start":"1953-01-16","term_end":{"date":"1955-01-15"},"education":"臺北第二師範學校\n日本明治大學法科\n日本熊本醫科大學","experience":"乾華、大橋國校教師\n至善堂診所院長\n三芝鄉鄉長\n臺北縣農會常務監事\n三芝鄉農會理事長\n臺北縣議會第1、2、3屆議員","remark":null,"image":"http://www.ntp.gov.tw/UpFile/CouncilorFile/TTCC0124.jpg","links":[{"url":"http://www.ntp.gov.tw/content/history/history01-5-p.aspx?sid=90","note":"議會個人官網"}],"social_media":null,"platform":"","param":null,"councilor":"53fced296e27472082804c3f3aa4e46e"}],"uid":"53fced296e27472082804c3f3aa4e46e","name":"張均田","birth":null,"former_names":"","identifiers":["張均田"]}]}