{"count":1904,"next":"http://councils.g0v.tw/api/councilors/?page=118","previous":"http://councils.g0v.tw/api/councilors/?page=116","results":[{"url":"http://councils.g0v.tw/api/councilors/21194/","each_terms":[{"url":"http://councils.g0v.tw/api/councilors_terms/11549/","election_year":"2014","name":"林東成","gender":"男","party":"無黨籍","title":"","constituency":2,"county":"宜蘭縣","district":"頭城","in_office":false,"contact_details":null,"term_start":"2014-12-25","term_end":{"date":"2015-06-03","judicial_links":"","reason":"請辭後當選無效","ref":"","replacement":"蔡文益"},"education":null,"experience":null,"remark":null,"image":"","links":null,"social_media":null,"platform":"","param":{"attendance_statistics":{"absent":1,"total":95},"bills_role_statistics":{"total":47,"priproposer":33,"sponsor":33,"cosponsor":14},"bills_party_diversity":[{"party":"在野問政聯盟","ratio":0.37966101694915255},{"party":"無黨籍","ratio":0.2576271186440678},{"party":"中國國民黨","ratio":0.24745762711864408},{"party":"民主進步黨","ratio":0.1152542372881356}]},"councilor":"6e718d9f3e8a4e4584c40dabdcc541d1"}],"uid":"6e718d9f3e8a4e4584c40dabdcc541d1","name":"林東成","birth":"1963-01-01","former_names":"","identifiers":["林東成","林東成"]},{"url":"http://councils.g0v.tw/api/councilors/21195/","each_terms":[{"url":"http://councils.g0v.tw/api/councilors_terms/11578/","election_year":"2014","name":"歸曉惠","gender":"女","party":"無黨籍","title":"","constituency":9,"county":"屏東縣","district":"三地門鄉","in_office":false,"contact_details":null,"term_start":"2014-12-25","term_end":{"date":"2016-04-09","judicial_links":"","reason":"請辭，就任鄉長","ref":"","replacement":""},"education":null,"experience":null,"remark":null,"image":"","links":null,"social_media":null,"platform":"","param":{"suggestions_years":{"count":138,"sum":6967000,"years":[{"count":87,"sum":3752000,"suggest_year":"2015","small_purchase":85},{"count":51,"sum":3215000,"suggest_year":"2016","small_purchase":49}]},"suggestions_associations":[{"count":22,"sum":813000,"label":"社區發展協會"},{"count":4,"sum":80000,"label":"婦女會"},{"count":2,"sum":60000,"label":"體育會"},{"count":2,"sum":60000,"label":"農會"},{"count":1,"sum":20000,"label":"研習會"},{"count":1,"sum":20000,"label":"民眾服務社"},{"count":0,"sum":0,"label":"學會"},{"count":0,"sum":0,"label":"商會"},{"count":0,"sum":0,"label":"公會"},{"count":0,"sum":0,"label":"協進會"},{"count":0,"sum":0,"label":"促進會"},{"count":0,"sum":0,"label":"婦聯會"},{"count":0,"sum":0,"label":"同心會"},{"count":0,"sum":0,"label":"早起會"},{"count":0,"sum":0,"label":"健身會"},{"count":0,"sum":0,"label":"宗親會"},{"count":0,"sum":0,"label":"功德會"},{"count":0,"sum":0,"label":"商業會"},{"count":0,"sum":0,"label":"長青會"},{"count":0,"sum":0,"label":"聯盟"}],"suggestions_piles":[{"count":63,"tokens":"協會|學會|商會|公會|協進會|促進會|研習會|婦聯會|婦女會|體育會|同心會|農會|早起會|健身會|宗親會|功德會|商業會|長青會|民眾服務社|聯盟","sum":2281000,"label":"協會"},{"count":19,"tokens":"國中|國小","sum":715000,"label":"國中、國小"},{"count":2,"tokens":"廟|宮","sum":40000,"label":"廟"},{"count":1,"tokens":"警察局|分局","sum":20000,"label":"警察局"},{"count":1,"tokens":"消防局|消防隊|分隊|中隊","sum":20000,"label":"消防局"},{"count":0,"tokens":"辦公室|辦公處","sum":0,"label":"辦公室"}],"bills_party_diversity":null},"councilor":"6b4fdb99f42a4c83be14aebe36441c03"}],"uid":"6b4fdb99f42a4c83be14aebe36441c03","name":"歸曉惠","birth":"1971-01-01","former_names":"","identifiers":["歸曉惠"]},{"url":"http://councils.g0v.tw/api/councilors/669/","each_terms":[{"url":"http://councils.g0v.tw/api/councilors_terms/1187/","election_year":"1994","name":"何玉枝","gender":"","party":"","title":"議員","constituency":4,"county":"新北市","district":"樹林鎮、鶯歌鎮、三峽鎮、土城鄉","in_office":true,"contact_details":null,"term_start":"1994-03-01","term_end":{"date":"1998-02-28"},"education":"樹林國小畢業\n樹林國中畢業\n樹人高職畢業","experience":"臺北縣議會第13、14屆議員\n樹林鎮後備軍人輔導中心職員\n樹林鎮民代表會職員\n樹林鎮圳安社區童子軍副團長\n樹林鎮救國團義工\n樹林鎮志願服務團義工\n國民黨樹林鎮黨部文宣委員\n樹林鎮衛生促進委員會委員\n明境建設開發股份有限公司董事\n樹林鎮婦女會小組長\n樹林婦女會常務理事\n樹林工商婦女聯誼會副會長\n樹林市第14屆市長","remark":null,"image":"http://www.ntp.gov.tw/UpFile/CouncilorFile/TTCC1327.jpg","links":[{"url":"http://www.ntp.gov.tw/content/history/history01-5-p.aspx?sid=461","note":"議會個人官網"}],"social_media":null,"platform":"","param":null,"councilor":"fbed246f1d434debaed7432817915b96"},{"url":"http://councils.g0v.tw/api/councilors_terms/1250/","election_year":"1998","name":"何玉枝","gender":"","party":"","title":"議員","constituency":4,"county":"新北市","district":"土城市、樹林市、鶯歌鎮、三峽鎮","in_office":true,"contact_details":null,"term_start":"1998-03-01","term_end":{"date":"2002-02-28"},"education":"樹林國小畢業\n樹林國中畢業\n樹人高職畢業","experience":"臺北縣議會第13、14屆議員\n樹林鎮後備軍人輔導中心職員\n樹林鎮民代表會職員\n樹林鎮圳安社區童子軍副團長\n樹林鎮救國團義工\n樹林鎮志願服務團義工\n國民黨樹林鎮黨部文宣委員\n樹林鎮衛生促進委員會委員\n明境建設開發股份有限公司董事\n樹林鎮婦女會小組長\n樹林婦女會常務理事\n樹林工商婦女聯誼會副會長\n樹林市第14屆市長","remark":null,"image":"http://www.ntp.gov.tw/UpFile/CouncilorFile/TTCC1327.jpg","links":[{"url":"http://www.ntp.gov.tw/content/history/history01-5-p.aspx?sid=461","note":"議會個人官網"}],"social_media":null,"platform":"","param":null,"councilor":"fbed246f1d434debaed7432817915b96"}],"uid":"fbed246f1d434debaed7432817915b96","name":"何玉枝","birth":null,"former_names":"","identifiers":["何玉枝"]},{"url":"http://councils.g0v.tw/api/councilors/670/","each_terms":[{"url":"http://councils.g0v.tw/api/councilors_terms/1188/","election_year":"1994","name":"石進隆","gender":"","party":"","title":"議員","constituency":4,"county":"新北市","district":"樹林鎮、鶯歌鎮、三峽鎮、土城鄉","in_office":true,"contact_details":null,"term_start":"1994-03-01","term_end":{"date":"1998-02-28"},"education":"文林國小畢\n樹林國中畢\n健行工專畢\n後備幹部訓練班第224期\n革命實踐研究地方黨務研習班第14期","experience":"臺北縣議會第13屆議員\n樹林鎮民代表\n樹林鎮調解委員會委員\n三多國際獅子會理事\n樹林國際青年商會\n樹林鎮黨部\n文宣委員會召集人\n圳安社區發展協會總幹事\n後備軍人輔導組長\n文林國小家長委員會常務委員","remark":null,"image":"http://www.ntp.gov.tw/UpFile/CouncilorFile/TTCC1326.jpg","links":[{"url":"http://www.ntp.gov.tw/content/history/history01-5-p.aspx?sid=460","note":"議會個人官網"}],"social_media":null,"platform":"","param":null,"councilor":"36429318d1b0494b9587146e8e6319eb"}],"uid":"36429318d1b0494b9587146e8e6319eb","name":"石進隆","birth":null,"former_names":"","identifiers":["石進隆"]},{"url":"http://councils.g0v.tw/api/councilors/671/","each_terms":[{"url":"http://councils.g0v.tw/api/councilors_terms/1191/","election_year":"1994","name":"林雪琴","gender":"","party":"","title":"議員","constituency":3,"county":"新北市","district":"永和市","in_office":true,"contact_details":null,"term_start":"1994-03-01","term_end":{"date":"1998-02-28"},"education":"頂溪國小\n永和國中\n世界新聞學院（前世界新聞專科學校）\n公民投票促進會師資班結業","experience":"臺北縣議會第13、14屆議員\n永和林姓宗親會理事\n永和國際青商會會員\n縣長尤清永和後援會執行長\n民眾日報記者\n南山人壽壽險顧問\n立法委員陳婉真助理\n民主運動街頭女將\n歷屆公職選舉民進黨候選人助選員\n民國98年5月12日歿","remark":null,"image":"http://www.ntp.gov.tw/UpFile/CouncilorFile/TTCC1323.jpg","links":[{"url":"http://www.ntp.gov.tw/content/history/history01-5-p.aspx?sid=459","note":"議會個人官網"}],"social_media":null,"platform":"","param":null,"councilor":"912250e47fe84ada80ff778e136452ff"},{"url":"http://councils.g0v.tw/api/councilors_terms/1258/","election_year":"1998","name":"林雪琴","gender":"","party":"","title":"議員","constituency":2,"county":"新北市","district":"中和市","in_office":true,"contact_details":null,"term_start":"1998-03-01","term_end":{"date":"2002-02-28"},"education":"頂溪國小\n永和國中\n世界新聞學院（前世界新聞專科學校）\n公民投票促進會師資班結業","experience":"臺北縣議會第13、14屆議員\n永和林姓宗親會理事\n永和國際青商會會員\n縣長尤清永和後援會執行長\n民眾日報記者\n南山人壽壽險顧問\n立法委員陳婉真助理\n民主運動街頭女將\n歷屆公職選舉民進黨候選人助選員\n民國98年5月12日歿","remark":null,"image":"http://www.ntp.gov.tw/UpFile/CouncilorFile/TTCC1323.jpg","links":[{"url":"http://www.ntp.gov.tw/content/history/history01-5-p.aspx?sid=459","note":"議會個人官網"}],"social_media":null,"platform":"","param":null,"councilor":"912250e47fe84ada80ff778e136452ff"}],"uid":"912250e47fe84ada80ff778e136452ff","name":"林雪琴","birth":null,"former_names":"","identifiers":["林雪琴","林雪琴"]},{"url":"http://councils.g0v.tw/api/councilors/1564/","each_terms":[{"url":"http://councils.g0v.tw/api/councilors_terms/2490/","election_year":"2009","name":"張國洲","gender":"男","party":"中國國民黨 ","title":"","constituency":1,"county":"臺東縣","district":"台東市、綠島鄉、蘭嶼鄉","in_office":true,"contact_details":[{"type":"voice","value":"089-333101","label":"電話"},{"type":"email","value":"s02@taitungcc.gov.tw","label":"E-mail"},{"type":"address","value":"台東市漢陽南路51號","label":"地址"}],"term_start":"2009-12-25","term_end":{"date":"2014-12-25"},"education":"高中畢業。","experience":"一、台東市市民代表會副主席。\n二、台東縣議會議員。","remark":null,"image":"http://www.taitungcc.gov.tw/ourteam/images/01_name01_pic001.jpg","links":[{"url":"http://www.taitungcc.gov.tw/ourteam/02ourteam_detail01.html","note":"議會個人官網"}],"social_media":null,"platform":"一、理性問政：反映頻意，為民喉舌，以『好央甲』為職志，服務桑梓、造福鄉里。\n二、督促政府：解決焚化爐問題及核廢料儲存場遷離台東。\n三、督促政府：積極與中央相關機構，如：河川局、水土保持局、林務局，加速建造卑南溪\n防風林、防沙工程、防治市區沙塵汙染，解決台東市民深受其害的風吹沙問題。\n四、督促政府：重視風災土石流之預防工作及農業災害補助問題。\n五、督促政府：爭取改善東部交通，推動休閒農業，落實觀光立縣。\n六、督促政府：重視教育資源總體開發積極培養本地教育人才，提升本府教育、文化水準。\n七、督促政府：加強改善醫療資源差距，落實濟助急難救助等措施。\n八、督促政府：加強榮民、榮眷、殘障、婦幼、弱勢族群的照顧與服務。","param":{"suggestions_years":{"count":84,"sum":6488000,"years":[{"count":27,"sum":2390000,"suggest_year":"2012","small_purchase":24},{"count":19,"sum":1775000,"suggest_year":"2013","small_purchase":17},{"count":38,"sum":2323000,"suggest_year":"2014","small_purchase":38}]},"suggestions_associations":[{"count":4,"sum":314000,"label":"農會"},{"count":2,"sum":150000,"label":"公會"},{"count":2,"sum":107000,"label":"社區發展協會"},{"count":1,"sum":99000,"label":"商業會"},{"count":3,"sum":79000,"label":"促進會"},{"count":1,"sum":40000,"label":"協進會"},{"count":1,"sum":39000,"label":"宗親會"},{"count":0,"sum":0,"label":"學會"},{"count":0,"sum":0,"label":"商會"},{"count":0,"sum":0,"label":"研習會"},{"count":0,"sum":0,"label":"婦聯會"},{"count":0,"sum":0,"label":"婦女會"},{"count":0,"sum":0,"label":"體育會"},{"count":0,"sum":0,"label":"同心會"},{"count":0,"sum":0,"label":"早起會"},{"count":0,"sum":0,"label":"健身會"},{"count":0,"sum":0,"label":"功德會"},{"count":0,"sum":0,"label":"長青會"},{"count":0,"sum":0,"label":"民眾服務社"},{"count":0,"sum":0,"label":"聯盟"}],"suggestions_piles":[{"count":25,"tokens":"協會|學會|商會|公會|協進會|促進會|研習會|婦聯會|婦女會|體育會|同心會|農會|早起會|健身會|宗親會|功德會|商業會|長青會|民眾服務社|聯盟","sum":1668000,"label":"協會"},{"count":14,"tokens":"辦公室|辦公處","sum":831000,"label":"辦公室"},{"count":8,"tokens":"國中|國小","sum":785000,"label":"國中、國小"},{"count":7,"tokens":"警察局|分局","sum":549000,"label":"警察局"},{"count":5,"tokens":"消防局|消防隊|分隊|中隊","sum":319000,"label":"消防局"},{"count":1,"tokens":"廟|宮","sum":94000,"label":"廟"}],"bills_party_diversity":null},"councilor":"8efaef6b0c3740afb04bb34c0438432f"}],"uid":"8efaef6b0c3740afb04bb34c0438432f","name":"張國洲","birth":null,"former_names":"","identifiers":["張國洲"]},{"url":"http://councils.g0v.tw/api/councilors/1565/","each_terms":[],"uid":"a97d51b792504c7c916fd987d7528429","name":"黃月娥","birth":null,"former_names":"","identifiers":["黄月娥","黃月娥"]},{"url":"http://councils.g0v.tw/api/councilors/1566/","each_terms":[],"uid":"10a388514f494db7ad29ca18dec2a4f3","name":"潘秋榮","birth":null,"former_names":"","identifiers":["潘秋榮"]},{"url":"http://councils.g0v.tw/api/councilors/1567/","each_terms":[],"uid":"1c8eba86b08848d58312930a757b6e61","name":"楊慶汶","birth":null,"former_names":"","identifiers":["楊慶汶"]},{"url":"http://councils.g0v.tw/api/councilors/1568/","each_terms":[],"uid":"ce5513abc2894cd481a12930e68ad3bb","name":"楊恭林","birth":null,"former_names":"","identifiers":["楊恭林","楊恭林"]}]}