{"count":1904,"next":"http://councils.g0v.tw/api/councilors/?page=119","previous":"http://councils.g0v.tw/api/councilors/?page=117","results":[{"url":"http://councils.g0v.tw/api/councilors/1569/","each_terms":[],"uid":"6661c6fbfa254516af3472080e9551c2","name":"徐欽鴻","birth":null,"former_names":"","identifiers":["徐欽鴻"]},{"url":"http://councils.g0v.tw/api/councilors/678/","each_terms":[{"url":"http://councils.g0v.tw/api/councilors_terms/1209/","election_year":"1994","name":"林嘉全","gender":"","party":"","title":"議員","constituency":1,"county":"新北市","district":"板橋市","in_office":true,"contact_details":null,"term_start":"1994-03-01","term_end":{"date":"1998-02-28"},"education":"初中畢業","experience":"板橋市海山里里長\n海山分局義警分隊長\n板橋市嘉義同鄉聯誼會副會長\n板橋市區運保齡球館董事\n小牛頓教室的負責人\n凱智才藝中心的主持人\n臺北縣議會第13屆議員\n中華民國88年歿","remark":null,"image":"http://www.ntp.gov.tw/UpFile/CouncilorFile/TTCC1305.jpg","links":[{"url":"http://www.ntp.gov.tw/content/history/history01-5-p.aspx?sid=451","note":"議會個人官網"}],"social_media":null,"platform":"","param":null,"councilor":"9fb0288ff62e4c4695131cd30eea28ea"}],"uid":"9fb0288ff62e4c4695131cd30eea28ea","name":"林嘉全","birth":null,"former_names":"","identifiers":["林嘉全","林嘉全"]},{"url":"http://councils.g0v.tw/api/councilors/679/","each_terms":[{"url":"http://councils.g0v.tw/api/councilors_terms/1211/","election_year":"1994","name":"黃忠信","gender":"","party":"","title":"議員","constituency":1,"county":"新北市","district":"板橋市","in_office":true,"contact_details":null,"term_start":"1994-03-01","term_end":{"date":"1998-02-28"},"education":"六腳國小\n朴子國中\n東石中學","experience":"臺北縣議會第13、14屆議員\n總維建設股份有限公司負責人\n臺北縣牙醫師公會顧問\n臺北縣嘉義同鄉會顧問\n臺灣省都市研究會顧問\n臺北縣警察局板橋義警中隊部顧問\n臺北縣板橋市新海民防中隊顧問\n中華民國傷殘育樂協會顧問\n愛樂殘障才藝服務團顧問","remark":null,"image":"http://www.ntp.gov.tw/UpFile/CouncilorFile/TTCC1303.jpg","links":[{"url":"http://www.ntp.gov.tw/content/history/history01-5-p.aspx?sid=450","note":"議會個人官網"}],"social_media":null,"platform":"","param":null,"councilor":"a9d088998bbf4bb9a376b5072ef365ae"},{"url":"http://councils.g0v.tw/api/councilors_terms/1274/","election_year":"1998","name":"黃忠信","gender":"","party":"","title":"議員","constituency":1,"county":"新北市","district":"板橋市","in_office":true,"contact_details":null,"term_start":"1998-03-01","term_end":{"date":"2002-02-28"},"education":"六腳國小\n朴子國中\n東石中學","experience":"臺北縣議會第13、14屆議員\n總維建設股份有限公司負責人\n臺北縣牙醫師公會顧問\n臺北縣嘉義同鄉會顧問\n臺灣省都市研究會顧問\n臺北縣警察局板橋義警中隊部顧問\n臺北縣板橋市新海民防中隊顧問\n中華民國傷殘育樂協會顧問\n愛樂殘障才藝服務團顧問","remark":null,"image":"http://www.ntp.gov.tw/UpFile/CouncilorFile/TTCC1303.jpg","links":[{"url":"http://www.ntp.gov.tw/content/history/history01-5-p.aspx?sid=450","note":"議會個人官網"}],"social_media":null,"platform":"","param":null,"councilor":"a9d088998bbf4bb9a376b5072ef365ae"}],"uid":"a9d088998bbf4bb9a376b5072ef365ae","name":"黃忠信","birth":null,"former_names":"","identifiers":["黃忠信","黄忠信"]},{"url":"http://councils.g0v.tw/api/councilors/680/","each_terms":[{"url":"http://councils.g0v.tw/api/councilors_terms/1212/","election_year":"1994","name":"湯明達","gender":"","party":"","title":"議員","constituency":1,"county":"新北市","district":"板橋市","in_office":true,"contact_details":null,"term_start":"1994-03-01","term_end":{"date":"1998-02-28"},"education":"國立中興大學經濟學研究所碩士畢業\n輔仁大學學士","experience":"新黨發起人之一\n臺北縣議會13屆議員(第1選區第一高票當選)\n83年度中華民國十大傑出財務主持人\n臺北縣板橋市政顧問\n立法院國會助理\n國院部三民主義巡迴教官\n輔仁大學教育發展委員會委員\n股票上市公司董事\n銳贊投資股份有限公司總經理\n慈濟功德會會員","remark":null,"image":"http://www.ntp.gov.tw/UpFile/CouncilorFile/TTCC1301.jpg","links":[{"url":"http://www.ntp.gov.tw/content/history/history01-5-p.aspx?sid=449","note":"議會個人官網"}],"social_media":null,"platform":"","param":null,"councilor":"7a1961acf7b64e71b46c4a841fcc7b84"}],"uid":"7a1961acf7b64e71b46c4a841fcc7b84","name":"湯明達","birth":null,"former_names":"","identifiers":["湯明達"]},{"url":"http://councils.g0v.tw/api/councilors/893/","each_terms":[{"url":"http://councils.g0v.tw/api/councilors_terms/1575/","election_year":"1953","name":"簡家珍","gender":"","party":"","title":"議員","constituency":3,"county":"新北市","district":"新莊鎮、泰山鄉、三重鎮、五股鄉、蘆洲鄉、林口鄉","in_office":true,"contact_details":null,"term_start":"1953-01-16","term_end":{"date":"1955-01-15"},"education":"南方學院貿易科","experience":"第2、3屆三重鎮民代表\n縣商會監事\n公賣局新莊配銷會常務理事\n臺北縣議會第2屆議員","remark":null,"image":"http://www.ntp.gov.tw/UpFile/CouncilorFile/TTCC0219.jpg","links":[{"url":"http://www.ntp.gov.tw/content/history/history01-5-p.aspx?sid=127","note":"議會個人官網"}],"social_media":null,"platform":"","param":null,"councilor":"b99e0e620d374b59bcc6de091c112ad8"}],"uid":"b99e0e620d374b59bcc6de091c112ad8","name":"簡家珍","birth":null,"former_names":"","identifiers":["簡家珍"]},{"url":"http://councils.g0v.tw/api/councilors/894/","each_terms":[{"url":"http://councils.g0v.tw/api/councilors_terms/1578/","election_year":"1953","name":"陳國治","gender":"","party":"","title":"議員","constituency":3,"county":"新北市","district":"新莊鎮、泰山鄉、三重鎮、五股鄉、蘆洲鄉、林口鄉","in_office":true,"contact_details":null,"term_start":"1953-01-16","term_end":{"date":"1955-01-15"},"education":"私從宿儒修習滿學\n省訓團民政班鄉鎮組第二期畢業","experience":"新莊街商工委員\n信用評定委員\n新莊鎮鎮長\n新莊市地藏庵管理委員會理事長\n私立恆毅中學董事\n縣農會常務理事\n省青果運銷合作社聯合社理事\n臺北縣議會第2、3、4、5屆議員\n*民國76年7月11日歿","remark":null,"image":"http://www.ntp.gov.tw/UpFile/CouncilorFile/TTCC0217.jpg","links":[{"url":"http://www.ntp.gov.tw/content/history/history01-5-p.aspx?sid=126","note":"議會個人官網"}],"social_media":null,"platform":"","param":null,"councilor":"f22015cf9d5c4db0baa6ce8053a58682"},{"url":"http://councils.g0v.tw/api/councilors_terms/1636/","election_year":"1955","name":"陳國治","gender":"","party":"","title":"議員","constituency":3,"county":"新北市","district":"新莊鎮、泰山鄉、三重鎮、五股鄉、蘆洲鄉、林口鄉","in_office":true,"contact_details":null,"term_start":"1955-01-16","term_end":{"date":"1958-02-20"},"education":"私從宿儒修習滿學\n省訓團民政班鄉鎮組第二期畢業","experience":"新莊街商工委員\n信用評定委員\n新莊鎮鎮長\n新莊市地藏庵管理委員會理事長\n私立恆毅中學董事\n縣農會常務理事\n省青果運銷合作社聯合社理事\n臺北縣議會第2、3、4、5屆議員\n*民國76年7月11日歿","remark":null,"image":"http://www.ntp.gov.tw/UpFile/CouncilorFile/TTCC0217.jpg","links":[{"url":"http://www.ntp.gov.tw/content/history/history01-5-p.aspx?sid=126","note":"議會個人官網"}],"social_media":null,"platform":"","param":null,"councilor":"f22015cf9d5c4db0baa6ce8053a58682"},{"url":"http://councils.g0v.tw/api/councilors_terms/1720/","election_year":"1958","name":"陳國治","gender":"","party":"","title":"議員","constituency":3,"county":"新北市","district":"新莊鎮、泰山鄉、三重鎮、五股鄉、林口鄉、蘆洲鄉","in_office":true,"contact_details":null,"term_start":"1958-02-21","term_end":{"date":"1961-02-20"},"education":"私從宿儒修習滿學\n省訓團民政班鄉鎮組第二期畢業","experience":"新莊街商工委員\n信用評定委員\n新莊鎮鎮長\n新莊市地藏庵管理委員會理事長\n私立恆毅中學董事\n縣農會常務理事\n省青果運銷合作社聯合社理事\n臺北縣議會第2、3、4、5屆議員\n*民國76年7月11日歿","remark":null,"image":"http://www.ntp.gov.tw/UpFile/CouncilorFile/TTCC0217.jpg","links":[{"url":"http://www.ntp.gov.tw/content/history/history01-5-p.aspx?sid=126","note":"議會個人官網"}],"social_media":null,"platform":"","param":null,"councilor":"f22015cf9d5c4db0baa6ce8053a58682"},{"url":"http://councils.g0v.tw/api/councilors_terms/1779/","election_year":"1961","name":"陳國治","gender":"","party":"","title":"議員","constituency":3,"county":"新北市","district":"新莊鎮、泰山鄉、三重鎮、五股鄉、蘆洲鄉、林口鄉","in_office":true,"contact_details":null,"term_start":"1961-02-21","term_end":{"date":"1964-02-20"},"education":"私從宿儒修習滿學\n省訓團民政班鄉鎮組第二期畢業","experience":"新莊街商工委員\n信用評定委員\n新莊鎮鎮長\n新莊市地藏庵管理委員會理事長\n私立恆毅中學董事\n縣農會常務理事\n省青果運銷合作社聯合社理事\n臺北縣議會第2、3、4、5屆議員\n*民國76年7月11日歿","remark":null,"image":"http://www.ntp.gov.tw/UpFile/CouncilorFile/TTCC0217.jpg","links":[{"url":"http://www.ntp.gov.tw/content/history/history01-5-p.aspx?sid=126","note":"議會個人官網"}],"social_media":null,"platform":"","param":null,"councilor":"f22015cf9d5c4db0baa6ce8053a58682"}],"uid":"f22015cf9d5c4db0baa6ce8053a58682","name":"陳國治","birth":null,"former_names":"","identifiers":["陳國治"]},{"url":"http://councils.g0v.tw/api/councilors/895/","each_terms":[{"url":"http://councils.g0v.tw/api/councilors_terms/1580/","election_year":"1953","name":"陳根旺","gender":"","party":"","title":"議員","constituency":2,"county":"新北市","district":"三峽鎮、鶯歌鎮、樹林鎮","in_office":true,"contact_details":null,"term_start":"1953-01-16","term_end":{"date":"1955-01-15"},"education":"日據時代國校畢業","experience":"臺陽礦業公司秘書課長\n臺北汽車貨運公司董事兼經理\n臺北縣議會第2屆議員","remark":null,"image":"http://www.ntp.gov.tw/UpFile/CouncilorFile/TTCC0214.jpg","links":[{"url":"http://www.ntp.gov.tw/content/history/history01-5-p.aspx?sid=125","note":"議會個人官網"}],"social_media":null,"platform":"","param":null,"councilor":"f230adf834e2425dbdfe53b67c78a4e1"}],"uid":"f230adf834e2425dbdfe53b67c78a4e1","name":"陳根旺","birth":null,"former_names":"","identifiers":["陳根旺"]},{"url":"http://councils.g0v.tw/api/councilors/896/","each_terms":[{"url":"http://councils.g0v.tw/api/councilors_terms/1582/","election_year":"1953","name":"劉秉義","gender":"","party":"","title":"議員","constituency":2,"county":"新北市","district":"三峽鎮、鶯歌鎮、樹林鎮","in_office":true,"contact_details":null,"term_start":"1953-01-16","term_end":{"date":"1955-01-15"},"education":"成功中學畢業","experience":"福東公司經理\n成福茶葉工廠經理\n臺北縣議會第2、3屆議員","remark":null,"image":"http://www.ntp.gov.tw/UpFile/CouncilorFile/TTCC0211.jpg","links":[{"url":"http://www.ntp.gov.tw/content/history/history01-5-p.aspx?sid=123","note":"議會個人官網"}],"social_media":null,"platform":"","param":null,"councilor":"fe06f3d218d64e18b0ac7fbc4a78adf3"},{"url":"http://councils.g0v.tw/api/councilors_terms/1646/","election_year":"1955","name":"劉秉義","gender":"","party":"","title":"議員","constituency":2,"county":"新北市","district":"三峽鎮、鶯歌鎮、樹林鎮","in_office":true,"contact_details":null,"term_start":"1955-01-16","term_end":{"date":"1958-02-20"},"education":"成功中學畢業","experience":"福東公司經理\n成福茶葉工廠經理\n臺北縣議會第2、3屆議員","remark":null,"image":"http://www.ntp.gov.tw/UpFile/CouncilorFile/TTCC0211.jpg","links":[{"url":"http://www.ntp.gov.tw/content/history/history01-5-p.aspx?sid=123","note":"議會個人官網"}],"social_media":null,"platform":"","param":null,"councilor":"fe06f3d218d64e18b0ac7fbc4a78adf3"}],"uid":"fe06f3d218d64e18b0ac7fbc4a78adf3","name":"劉秉義","birth":null,"former_names":"","identifiers":["劉秉義","劉秉義"]},{"url":"http://councils.g0v.tw/api/councilors/1915/","each_terms":[{"url":"http://councils.g0v.tw/api/councilors_terms/3377/","election_year":"2014","name":"陳慧玲","gender":"女","party":"民主進步黨","title":"議員","constituency":1,"county":"澎湖縣","district":"馬公市","in_office":true,"contact_details":[{"type":"address","value":"880澎湖縣馬公市中興里中正路76號","label":"服務處"},{"type":"voice","value":"06-9263521","label":"連絡電話"}],"term_start":"2014-12-25","term_end":{"date":"2018-12-25"},"education":"私立國際商業專科學校銀行保險科畢業\n國立中山大學公共事務管理研究所碩士在職專班","experience":"第18屆議員\n民進黨澎湖縣黨部第7、8屆主任委員\n民進黨第7屆不分區立法委員候選人\n澎湖縣水噹噹婦女會理事長\n澎廣FM96.7海角大島嶼節目主持人\n馬公市第9屆市民代表\n澎湖縣婦女權益促進委員會委員","remark":null,"image":"http://www.phcouncil.gov.tw/attachments/mop/M06030008.jpg","links":null,"social_media":null,"platform":"","param":{"bills_role_statistics":{"total":18,"priproposer":0,"sponsor":0,"cosponsor":18},"suggestions_years":{"count":56,"sum":1948300,"years":[{"count":56,"sum":1948300,"suggest_year":"2015","small_purchase":56}]},"suggestions_associations":[{"count":1,"sum":50000,"label":"社區發展協會"},{"count":1,"sum":50000,"label":"婦女會"},{"count":2,"sum":50000,"label":"宗親會"},{"count":0,"sum":0,"label":"學會"},{"count":0,"sum":0,"label":"商會"},{"count":0,"sum":0,"label":"公會"},{"count":0,"sum":0,"label":"協進會"},{"count":0,"sum":0,"label":"促進會"},{"count":0,"sum":0,"label":"研習會"},{"count":0,"sum":0,"label":"婦聯會"},{"count":0,"sum":0,"label":"體育會"},{"count":0,"sum":0,"label":"同心會"},{"count":0,"sum":0,"label":"農會"},{"count":0,"sum":0,"label":"早起會"},{"count":0,"sum":0,"label":"健身會"},{"count":0,"sum":0,"label":"功德會"},{"count":0,"sum":0,"label":"商業會"},{"count":0,"sum":0,"label":"長青會"},{"count":0,"sum":0,"label":"民眾服務社"},{"count":0,"sum":0,"label":"聯盟"}],"suggestions_piles":[{"count":20,"tokens":"協會|學會|商會|公會|協進會|促進會|研習會|婦聯會|婦女會|體育會|同心會|農會|早起會|健身會|宗親會|功德會|商業會|長青會|民眾服務社|聯盟","sum":574470,"label":"協會"},{"count":6,"tokens":"廟|宮","sum":300000,"label":"廟"},{"count":5,"tokens":"辦公室|辦公處","sum":188850,"label":"辦公室"},{"count":0,"tokens":"警察局|分局","sum":0,"label":"警察局"},{"count":0,"tokens":"消防局|消防隊|分隊|中隊","sum":0,"label":"消防局"},{"count":0,"tokens":"國中|國小","sum":0,"label":"國中、國小"}],"bills_party_diversity":[{"party":"民主進步黨","ratio":0.44594594594594594},{"party":"無黨籍","ratio":0.28378378378378377},{"party":"無黨團結聯盟","ratio":0.17567567567567569},{"party":"中國國民黨","ratio":0.0945945945945946}]},"councilor":"f52760c9aade4e51bb96851040cf09bb"}],"uid":"f52760c9aade4e51bb96851040cf09bb","name":"陳慧玲","birth":"1962-06-16","former_names":"","identifiers":["陳慧玲","陳慧玲"]},{"url":"http://councils.g0v.tw/api/councilors/1929/","each_terms":[{"url":"http://councils.g0v.tw/api/councilors_terms/3410/","election_year":"2014","name":"陳書建","gender":"男","party":"中國國民黨","title":"副議長","constituency":1,"county":"連江縣","district":"南竿鄉","in_office":true,"contact_details":[{"type":"address","value":"連江縣南竿鄉介壽村214號","label":"服務處地址"},{"type":"voice","value":"0836-22510、0932-076448","label":"服務處電話"}],"term_start":"2014-12-25","term_end":{"date":"2018-12-25"},"education":"景文高中","experience":"1. 介壽村村長二任\n2. 連江縣會議員1─4屆\n3. 連江縣商業會理事長","remark":null,"image":"http://www.mtcc.gov.tw/images/legislator-chenshujen.jpg","links":[{"url":"http://www.mtcc.gov.tw/cu_legislator_chenshujen.html","note":"議會個人官網"}],"social_media":null,"platform":"1.爭取第二家航空公司進駐飛航，增加運量繁榮經濟。\n2.開闢南竿至東引間固定客輪航班，活絡兩鄉旅遊事業。\n3.督促政府加速推動還地與民政策，以解民怨。\n4.設立駐榕辦事處服務鄉親。\n5.促請政府加速博弈立法通過，激勵企業投資機會。\n6.推動南、北竿至大陸黃歧間客輪開航，縮短航距、降低票價、活絡兩岸商業。\n7.活絡休閒農業。\n8.發展金融商圈。\n9.創造就業機會。","param":{"bills_role_statistics":{"total":14,"priproposer":7,"sponsor":7,"cosponsor":7},"suggestions_years":{"count":4,"sum":4857000,"years":[{"count":2,"sum":3397000,"suggest_year":"2015","small_purchase":1},{"count":2,"sum":1460000,"suggest_year":"2016","small_purchase":1}]},"suggestions_associations":[{"count":0,"sum":0,"label":"社區發展協會"},{"count":0,"sum":0,"label":"學會"},{"count":0,"sum":0,"label":"商會"},{"count":0,"sum":0,"label":"公會"},{"count":0,"sum":0,"label":"協進會"},{"count":0,"sum":0,"label":"促進會"},{"count":0,"sum":0,"label":"研習會"},{"count":0,"sum":0,"label":"婦聯會"},{"count":0,"sum":0,"label":"婦女會"},{"count":0,"sum":0,"label":"體育會"},{"count":0,"sum":0,"label":"同心會"},{"count":0,"sum":0,"label":"農會"},{"count":0,"sum":0,"label":"早起會"},{"count":0,"sum":0,"label":"健身會"},{"count":0,"sum":0,"label":"宗親會"},{"count":0,"sum":0,"label":"功德會"},{"count":0,"sum":0,"label":"商業會"},{"count":0,"sum":0,"label":"長青會"},{"count":0,"sum":0,"label":"民眾服務社"},{"count":0,"sum":0,"label":"聯盟"}],"suggestions_piles":[{"count":0,"tokens":"協會|學會|商會|公會|協進會|促進會|研習會|婦聯會|婦女會|體育會|同心會|農會|早起會|健身會|宗親會|功德會|商業會|長青會|民眾服務社|聯盟","sum":0,"label":"協會"},{"count":0,"tokens":"辦公室|辦公處","sum":0,"label":"辦公室"},{"count":0,"tokens":"廟|宮","sum":0,"label":"廟"},{"count":0,"tokens":"警察局|分局","sum":0,"label":"警察局"},{"count":0,"tokens":"消防局|消防隊|分隊|中隊","sum":0,"label":"消防局"},{"count":0,"tokens":"國中|國小","sum":0,"label":"國中、國小"}],"bills_party_diversity":[{"party":"中國國民黨","ratio":0.6111111111111112},{"party":"無黨籍","ratio":0.3888888888888889}]},"councilor":"e532d49e659c42ddbeb32c7eb0293539"}],"uid":"e532d49e659c42ddbeb32c7eb0293539","name":"陳書建","birth":null,"former_names":"","identifiers":["陳書建"]}]}