{"count":1904,"next":"http://councils.g0v.tw/api/councilors/?page=13","previous":"http://councils.g0v.tw/api/councilors/?page=11","results":[{"url":"http://councils.g0v.tw/api/councilors/1340/","each_terms":[{"url":"http://councils.g0v.tw/api/councilors_terms/2266/","election_year":"2009","name":"陳永法","gender":"男","party":"","title":"","constituency":4,"county":"嘉義縣","district":"朴子市、東石鄉、六腳鄉","in_office":true,"contact_details":[{"type":"phone","value":"0978065777、0917663947 ","label":"電話"},{"type":"address","value":"嘉義縣六腳鄉灣北村197號 ","label":"通訊處"},{"type":"email","value":"","label":"電子信箱"}],"term_start":"2009-12-25","term_end":{"date":"2014-12-25"},"education":"國立嘉義農專畢業 ","experience":"六腳鄉農會退休 ","remark":null,"image":"http://www.cyscc.gov.tw/template/DisplaySmallPicture.ashx?p=/Upload/Parliamentary/81/635385236385796844.jpg&w=145&h=170","links":[{"url":"http://www.cyscc.gov.tw/chinese/Parliamentary_Detail.aspx?s=81&n=29","note":"議會個人官網"}],"social_media":null,"platform":" ","param":{"bills_role_statistics":{"total":4,"priproposer":3,"sponsor":3,"cosponsor":1},"diversity":{"":1.0},"bills_party_diversity":[{"party":"","ratio":1.0}]},"councilor":"76b0a77f31bf4fe18f101763364811ab"}],"uid":"76b0a77f31bf4fe18f101763364811ab","name":"陳永法","birth":null,"former_names":"","identifiers":["陳永法"]},{"url":"http://councils.g0v.tw/api/councilors/275/","each_terms":[{"url":"http://councils.g0v.tw/api/councilors_terms/556/","election_year":"1973","name":"葉潛昭","gender":"男","party":"中國國民黨","title":"議員","constituency":null,"county":"臺北市","district":"","in_office":true,"contact_details":null,"term_start":"1973-12-25","term_end":{"date":"1977-12-25"},"education":"軍法學校二期畢業、日本明治大學法學博士。","experience":"國防部軍事檢察官、軍法官、行政院法規委員會參議兼科長。","remark":"","image":"http://www.tcc.gov.tw/../upload/photo/%E8%91%89%E6%BD%9B%E6%98%AD10.jpg","links":[{"url":"http://www.tcc.gov.tw/Councilor_Content_All.aspx?s=2227&d=390123&n=%E8%91%89%E6%BD%9B%E6%98%AD","note":"議會個人官網"}],"social_media":null,"platform":"","param":null,"councilor":"82a2829e615e4758869d4ccc9a8b3c89"}],"uid":"82a2829e615e4758869d4ccc9a8b3c89","name":"葉潛昭","birth":"1939-01-23","former_names":"","identifiers":["葉潛昭"]},{"url":"http://councils.g0v.tw/api/councilors/276/","each_terms":[{"url":"http://councils.g0v.tw/api/councilors_terms/559/","election_year":"1973","name":"黃馨葆","gender":"男","party":"中國國民黨","title":"議員","constituency":null,"county":"臺北市","district":"","in_office":true,"contact_details":null,"term_start":"1973-12-25","term_end":{"date":"1977-12-25"},"education":"軍事委員會中美特種技術合作所訓練班第三期畢業(專科)。","experience":"臺北市第一屆議會議員，臺灣鐵路局管理員、主任課員，臺灣鐵路局民防指揮部教官、組長、主任。","remark":"","image":"http://www.tcc.gov.tw/../upload/photo/%E9%BB%83%E9%A6%A8%E8%91%8610.jpg","links":[{"url":"http://www.tcc.gov.tw/Councilor_Content_All.aspx?s=1947&d=210707&n=%E9%BB%83%E9%A6%A8%E8%91%86","note":"議會個人官網"}],"social_media":null,"platform":"","param":null,"councilor":"e25aa91878674d9190bf186dc6c556e4"},{"url":"http://councils.g0v.tw/api/councilors_terms/608/","election_year":"1969","name":"黃馨葆","gender":"男","party":"中國國民黨","title":"議員","constituency":null,"county":"臺北市","district":"","in_office":true,"contact_details":null,"term_start":"1969-12-25","term_end":{"date":"1973-12-25"},"education":"軍委會中美合作訓練班畢業、中央訓練團社工訓練班畢業。","experience":"管理員、課員、教官、副組長、組長、主任。","remark":"","image":"http://www.tcc.gov.tw/../upload/photo/%E9%BB%83%E9%A6%A8%E8%91%8609.jpg","links":[{"url":"http://www.tcc.gov.tw/Councilor_Content_All.aspx?s=2203&d=210707&n=%E9%BB%83%E9%A6%A8%E8%91%86","note":"議會個人官網"}],"social_media":null,"platform":"","param":null,"councilor":"e25aa91878674d9190bf186dc6c556e4"}],"uid":"e25aa91878674d9190bf186dc6c556e4","name":"黃馨葆","birth":"1921-07-07","former_names":"","identifiers":["黄馨葆","黃馨葆"]},{"url":"http://councils.g0v.tw/api/councilors/1414/","each_terms":[{"url":"http://councils.g0v.tw/api/councilors_terms/2340/","election_year":"2009","name":"黃耀煌","gender":"","party":"民主進步黨","title":"","constituency":1,"county":"雲林縣","district":"斗六市、莿桐鄉、林內鄉","in_office":true,"contact_details":[{"type":"voice","lines[i]":"電話","value":"05-5841900"},{"type":"fax","lines[i]":"傳真","value":"05-5849500, 05-5351634"},{"type":"address","lines[i]":"通訊處","value":"莿桐鄉延平路191號"}],"term_start":"2009-12-25","term_end":{"date":"2014-12-25"},"education":"吳鳳工專畢。","experience":"務農、模板工、水電工、貨運捆工、砂石車司機、聯結車司機、旅館業經理人、第十六屆縣議員。","remark":null,"image":"http://www.ylcc.gov.tw/images/1-5.jpg","links":[{"url":"http://www.ylcc.gov.tw/index.php?inner=member_precinct1","note":"議會個人官網"}],"social_media":null,"platform":"","param":{"suggestions_piles":[{"count":56,"tokens":"國中|國小","sum":9636137,"label":"國中、國小"},{"count":0,"tokens":"協會|學會|商會|公會|協進會|促進會|研習會|婦聯會|婦女會|體育會|同心會|農會|早起會|健身會|宗親會|功德會|商業會|長青會|民眾服務社|聯盟","sum":0,"label":"協會"},{"count":0,"tokens":"辦公室|辦公處","sum":0,"label":"辦公室"},{"count":0,"tokens":"廟|宮","sum":0,"label":"廟"},{"count":0,"tokens":"警察局|分局","sum":0,"label":"警察局"},{"count":0,"tokens":"消防局|消防隊|分隊|中隊","sum":0,"label":"消防局"}],"suggestions_associations":[{"count":0,"sum":0,"label":"社區發展協會"},{"count":0,"sum":0,"label":"學會"},{"count":0,"sum":0,"label":"商會"},{"count":0,"sum":0,"label":"公會"},{"count":0,"sum":0,"label":"協進會"},{"count":0,"sum":0,"label":"促進會"},{"count":0,"sum":0,"label":"研習會"},{"count":0,"sum":0,"label":"婦聯會"},{"count":0,"sum":0,"label":"婦女會"},{"count":0,"sum":0,"label":"體育會"},{"count":0,"sum":0,"label":"同心會"},{"count":0,"sum":0,"label":"農會"},{"count":0,"sum":0,"label":"早起會"},{"count":0,"sum":0,"label":"健身會"},{"count":0,"sum":0,"label":"宗親會"},{"count":0,"sum":0,"label":"功德會"},{"count":0,"sum":0,"label":"商業會"},{"count":0,"sum":0,"label":"長青會"},{"count":0,"sum":0,"label":"民眾服務社"},{"count":0,"sum":0,"label":"聯盟"}],"diversity":{},"suggestions_years":{"count":57,"sum":11536137,"years":[{"count":6,"sum":1194000,"suggest_year":"2011","small_purchase":0},{"count":19,"sum":5125000,"suggest_year":"2012","small_purchase":2},{"count":13,"sum":2064000,"suggest_year":"2013","small_purchase":5},{"count":19,"sum":3153137,"suggest_year":"2014","small_purchase":6}]}},"councilor":"93e6feb89b87454b821efd146b2556a9"}],"uid":"93e6feb89b87454b821efd146b2556a9","name":"黃耀煌","birth":null,"former_names":"","identifiers":["黄耀煌","黃耀煌"]},{"url":"http://councils.g0v.tw/api/councilors/590/","each_terms":[{"url":"http://councils.g0v.tw/api/councilors_terms/1003/","election_year":"1986","name":"游文貴","gender":"","party":"","title":"議員","constituency":2,"county":"新北市","district":"中和市、永和市","in_office":true,"contact_details":null,"term_start":"1986-03-01","term_end":{"date":"1990-02-28"},"education":"新莊農業職業學校高級部\n國家訓練營木章訓練結訓","experience":"中和市後備軍人輔導中心組長\n北縣童子軍理事會理事\n中和國際青商會創會首屆財務長\n救國團執行秘書\n消防隊副中隊長\n唐榮機械公司秘書\n臺北縣議會第10、11屆議員","remark":null,"image":"http://www.ntp.gov.tw/UpFile/CouncilorFile/TTCC1023.jpg","links":[{"url":"http://www.ntp.gov.tw/content/history/history01-5-p.aspx?sid=367","note":"議會個人官網"}],"social_media":null,"platform":"","param":null,"councilor":"b716d7829a46423b95d908a650c95df2"},{"url":"http://councils.g0v.tw/api/councilors_terms/1062/","election_year":"1982","name":"游文貴","gender":"","party":"","title":"議員","constituency":2,"county":"新北市","district":"中和市、永和市","in_office":true,"contact_details":null,"term_start":"1982-03-01","term_end":{"date":"1986-02-28"},"education":"新莊農業職業學校高級部\n國家訓練營木章訓練結訓","experience":"中和市後備軍人輔導中心組長\n北縣童子軍理事會理事\n中和國際青商會創會首屆財務長\n救國團執行秘書\n消防隊副中隊長\n唐榮機械公司秘書\n臺北縣議會第10、11屆議員","remark":null,"image":"http://www.ntp.gov.tw/UpFile/CouncilorFile/TTCC1023.jpg","links":[{"url":"http://www.ntp.gov.tw/content/history/history01-5-p.aspx?sid=367","note":"議會個人官網"}],"social_media":null,"platform":"","param":null,"councilor":"b716d7829a46423b95d908a650c95df2"}],"uid":"b716d7829a46423b95d908a650c95df2","name":"游文貴","birth":null,"former_names":"","identifiers":["游文貴"]},{"url":"http://councils.g0v.tw/api/councilors/591/","each_terms":[{"url":"http://councils.g0v.tw/api/councilors_terms/1005/","election_year":"1986","name":"許丁木","gender":"","party":"","title":"議員","constituency":2,"county":"新北市","district":"中和市、永和市","in_office":true,"contact_details":null,"term_start":"1986-03-01","term_end":{"date":"1990-02-28"},"education":"永和國小\n文山中學\n竹林高中\n政治大學企經班","experience":"義警便衣分隊副分隊長\n永和義警秀朗分隊長\n後備軍人輔導中心督導員\n永和市義警中隊指導員\n永和市第2屆市民代表\n代表會副主席\n臺北縣議會第11、12屆議員\n秀朗國小家長會長\n育才小學家長會長","remark":null,"image":"http://www.ntp.gov.tw/UpFile/CouncilorFile/TTCC1121.jpg","links":[{"url":"http://www.ntp.gov.tw/content/history/history01-5-p.aspx?sid=395","note":"議會個人官網"}],"social_media":null,"platform":"","param":null,"councilor":"095863ca04ae43babc55db0746e5a449"},{"url":"http://councils.g0v.tw/api/councilors_terms/1129/","election_year":"1990","name":"許丁木","gender":"","party":"","title":"議員","constituency":3,"county":"新北市","district":"永和市","in_office":true,"contact_details":null,"term_start":"1990-03-01","term_end":{"date":"1994-02-28"},"education":"永和國小\n文山中學\n竹林高中\n政治大學企經班","experience":"義警便衣分隊副分隊長\n永和義警秀朗分隊長\n後備軍人輔導中心督導員\n永和市義警中隊指導員\n永和市第2屆市民代表\n代表會副主席\n臺北縣議會第11、12屆議員\n秀朗國小家長會長\n育才小學家長會長","remark":null,"image":"http://www.ntp.gov.tw/UpFile/CouncilorFile/TTCC1121.jpg","links":[{"url":"http://www.ntp.gov.tw/content/history/history01-5-p.aspx?sid=395","note":"議會個人官網"}],"social_media":null,"platform":"","param":null,"councilor":"095863ca04ae43babc55db0746e5a449"}],"uid":"095863ca04ae43babc55db0746e5a449","name":"許丁木","birth":null,"former_names":"","identifiers":["許丁木"]},{"url":"http://councils.g0v.tw/api/councilors/488/","each_terms":[{"url":"http://councils.g0v.tw/api/councilors_terms/834/","election_year":"1973","name":"張文藤","gender":"","party":"","title":"議員","constituency":1,"county":"新北市","district":"板橋市、中和鄉、永和鎮、土城鄉","in_office":true,"contact_details":null,"term_start":"1973-05-01","term_end":{"date":"1977-12-29"},"education":"板橋中學","experience":"土城鄉第6屆鄉民代表\n調解委員會委員\n臺灣省地方自治協會理事\n臺北縣議會第6、7、8屆議員\n民國96年11月25日歿","remark":null,"image":"http://www.ntp.gov.tw/UpFile/CouncilorFile/TTCC0604.jpg","links":[{"url":"http://www.ntp.gov.tw/content/history/history01-5-p.aspx?sid=249","note":"議會個人官網"}],"social_media":null,"platform":"","param":null,"councilor":"49ea6349f172483ab309ab49084a5cbb"},{"url":"http://councils.g0v.tw/api/councilors_terms/894/","election_year":"1968","name":"張文藤","gender":"","party":"","title":"議員","constituency":1,"county":"新北市","district":"板橋鎮、中和鄉、永和鎮、土城鄉","in_office":true,"contact_details":null,"term_start":"1968-02-21","term_end":{"date":"1973-04-30"},"education":"板橋中學","experience":"土城鄉第6屆鄉民代表\n調解委員會委員\n臺灣省地方自治協會理事\n臺北縣議會第6、7、8屆議員\n民國96年11月25日歿","remark":null,"image":"http://www.ntp.gov.tw/UpFile/CouncilorFile/TTCC0604.jpg","links":[{"url":"http://www.ntp.gov.tw/content/history/history01-5-p.aspx?sid=249","note":"議會個人官網"}],"social_media":null,"platform":"","param":null,"councilor":"49ea6349f172483ab309ab49084a5cbb"},{"url":"http://councils.g0v.tw/api/councilors_terms/1860/","election_year":"1964","name":"張文藤","gender":"","party":"","title":"議員","constituency":1,"county":"新北市","district":"板橋鎮、中和鄉、永和鎮、土城鄉","in_office":true,"contact_details":null,"term_start":"1964-02-21","term_end":{"date":"1968-02-20"},"education":"板橋中學","experience":"土城鄉第6屆鄉民代表\n調解委員會委員\n臺灣省地方自治協會理事\n臺北縣議會第6、7、8屆議員\n民國96年11月25日歿","remark":null,"image":"http://www.ntp.gov.tw/UpFile/CouncilorFile/TTCC0604.jpg","links":[{"url":"http://www.ntp.gov.tw/content/history/history01-5-p.aspx?sid=249","note":"議會個人官網"}],"social_media":null,"platform":"","param":null,"councilor":"49ea6349f172483ab309ab49084a5cbb"}],"uid":"49ea6349f172483ab309ab49084a5cbb","name":"張文藤","birth":null,"former_names":"","identifiers":["張文藤"]},{"url":"http://councils.g0v.tw/api/councilors/489/","each_terms":[{"url":"http://councils.g0v.tw/api/councilors_terms/835/","election_year":"1973","name":"郭伯達","gender":"","party":"","title":"議員","constituency":1,"county":"新北市","district":"板橋市、中和鄉、永和鎮、土城鄉","in_office":true,"contact_details":null,"term_start":"1973-05-01","term_end":{"date":"1977-12-29"},"education":"陸軍指揮參謀大學正１１期畢業\n政工幹部學校高級班五期畢業","experience":"金門防衛部守備砲兵團政治處主任\n傘兵司令部政治部科長\n基隆要塞司令部政治部上校主任\n陸軍補給管理學校政治部上校主任\n臺北縣議會第6、7、8屆議員\n民國102年2月17日歿","remark":null,"image":"http://www.ntp.gov.tw/UpFile/CouncilorFile/TTCC0603.jpg","links":[{"url":"http://www.ntp.gov.tw/content/history/history01-5-p.aspx?sid=248","note":"議會個人官網"}],"social_media":null,"platform":"","param":null,"councilor":"67af10628151479092ff5c58b886b504"},{"url":"http://councils.g0v.tw/api/councilors_terms/899/","election_year":"1968","name":"郭伯達","gender":"","party":"","title":"議員","constituency":1,"county":"新北市","district":"板橋鎮、中和鄉、永和鎮、土城鄉","in_office":true,"contact_details":null,"term_start":"1968-02-21","term_end":{"date":"1973-04-30"},"education":"陸軍指揮參謀大學正１１期畢業\n政工幹部學校高級班五期畢業","experience":"金門防衛部守備砲兵團政治處主任\n傘兵司令部政治部科長\n基隆要塞司令部政治部上校主任\n陸軍補給管理學校政治部上校主任\n臺北縣議會第6、7、8屆議員\n民國102年2月17日歿","remark":null,"image":"http://www.ntp.gov.tw/UpFile/CouncilorFile/TTCC0603.jpg","links":[{"url":"http://www.ntp.gov.tw/content/history/history01-5-p.aspx?sid=248","note":"議會個人官網"}],"social_media":null,"platform":"","param":null,"councilor":"67af10628151479092ff5c58b886b504"},{"url":"http://councils.g0v.tw/api/councilors_terms/1862/","election_year":"1964","name":"郭伯達","gender":"","party":"","title":"議員","constituency":1,"county":"新北市","district":"板橋鎮、中和鄉、永和鎮、土城鄉","in_office":true,"contact_details":null,"term_start":"1964-02-21","term_end":{"date":"1968-02-20"},"education":"陸軍指揮參謀大學正１１期畢業\n政工幹部學校高級班五期畢業","experience":"金門防衛部守備砲兵團政治處主任\n傘兵司令部政治部科長\n基隆要塞司令部政治部上校主任\n陸軍補給管理學校政治部上校主任\n臺北縣議會第6、7、8屆議員\n民國102年2月17日歿","remark":null,"image":"http://www.ntp.gov.tw/UpFile/CouncilorFile/TTCC0603.jpg","links":[{"url":"http://www.ntp.gov.tw/content/history/history01-5-p.aspx?sid=248","note":"議會個人官網"}],"social_media":null,"platform":"","param":null,"councilor":"67af10628151479092ff5c58b886b504"}],"uid":"67af10628151479092ff5c58b886b504","name":"郭伯達","birth":null,"former_names":"","identifiers":["郭伯達"]},{"url":"http://councils.g0v.tw/api/councilors/1326/","each_terms":[{"url":"http://councils.g0v.tw/api/councilors_terms/2252/","election_year":"2009","name":"上官秋燕","gender":"","party":"","title":"議員","constituency":8,"county":"新竹縣","district":"竹東鎮、五峰鄉","in_office":true,"contact_details":[{"type":"email","value":"a17033@hcc.gov.tw","label":"E-mail"}],"term_start":"2009-12-25","term_end":{"date":"2014-12-25"},"education":"竹東國小\n竹東國中\n竹東高中","experience":"竹東第十一屆鎮民代表\n中國國民黨第十七、\n十八全黨代表\n竹東鎮香功研究社理事\n長\n新竹縣工商婦女協會\n奇美鮮花店\n龍園生命事業","remark":null,"image":"http://www.hcc.gov.tw/03councilor/photo/%E4%B8%8A%E5%AE%98%E7%A7%8B%E7%87%95%281%29.jpg","links":[{"url":"http://www.hcc.gov.tw/03councilor/view.asp?id=91","note":"議會個人官網"},{"url":"http://www.hcc.gov.tw/blog/style03/04list.asp?ald_id=91","note":"個人網站"}],"social_media":null,"platform":"","param":{"suggestions_years":{"count":4,"sum":248000,"years":[{"count":4,"sum":248000,"suggest_year":"2014","small_purchase":4}]},"diversity":{"":0.23173281012616165,"中國國民黨":0.48071029023739775,"民主進步黨":0.05215562039859626,"勞動黨":0.04240234109644478,"無黨籍":0.19299893814139943},"bills_role_statistics":{"total":63,"priproposer":7,"sponsor":7,"cosponsor":56},"suggestions_associations":[{"count":0,"sum":0,"label":"社區發展協會"},{"count":0,"sum":0,"label":"學會"},{"count":0,"sum":0,"label":"商會"},{"count":0,"sum":0,"label":"公會"},{"count":0,"sum":0,"label":"協進會"},{"count":0,"sum":0,"label":"促進會"},{"count":0,"sum":0,"label":"研習會"},{"count":0,"sum":0,"label":"婦聯會"},{"count":0,"sum":0,"label":"婦女會"},{"count":0,"sum":0,"label":"體育會"},{"count":0,"sum":0,"label":"同心會"},{"count":0,"sum":0,"label":"農會"},{"count":0,"sum":0,"label":"早起會"},{"count":0,"sum":0,"label":"健身會"},{"count":0,"sum":0,"label":"宗親會"},{"count":0,"sum":0,"label":"功德會"},{"count":0,"sum":0,"label":"商業會"},{"count":0,"sum":0,"label":"長青會"},{"count":0,"sum":0,"label":"民眾服務社"},{"count":0,"sum":0,"label":"聯盟"}],"bills_party_diversity":[{"party":"中國國民黨","ratio":0.5066666666666667},{"party":"","ratio":0.21},{"party":"無黨籍","ratio":0.2},{"party":"勞動黨","ratio":0.06},{"party":"民主進步黨","ratio":0.023333333333333334}],"suggestions_piles":[{"count":0,"tokens":"協會|學會|商會|公會|協進會|促進會|研習會|婦聯會|婦女會|體育會|同心會|農會|早起會|健身會|宗親會|功德會|商業會|長青會|民眾服務社|聯盟","sum":0,"label":"協會"},{"count":0,"tokens":"辦公室|辦公處","sum":0,"label":"辦公室"},{"count":0,"tokens":"廟|宮","sum":0,"label":"廟"},{"count":0,"tokens":"警察局|分局","sum":0,"label":"警察局"},{"count":0,"tokens":"消防局|消防隊|分隊|中隊","sum":0,"label":"消防局"},{"count":0,"tokens":"國中|國小","sum":0,"label":"國中、國小"}]},"councilor":"4724674bce1e4260aa9740c9298e50f4"}],"uid":"4724674bce1e4260aa9740c9298e50f4","name":"上官秋燕","birth":null,"former_names":"","identifiers":["上官秋燕"]},{"url":"http://councils.g0v.tw/api/councilors/454/","each_terms":[{"url":"http://councils.g0v.tw/api/councilors_terms/800/","election_year":"1973","name":"許再恩","gender":"","party":"","title":"議員","constituency":8,"county":"新北市","district":"新店鎮、深坑鄉、石碇鄉、坪林鄉、烏來鄉山地鄉","in_office":true,"contact_details":null,"term_start":"1973-05-01","term_end":{"date":"1977-12-29"},"education":"省立臺北商職畢業","experience":"綠野文藝雜誌月刊社副社長\n台灣日報新店辦事處主任兼記者\n長豐工程股份有限公司董事兼經理\n財團法人臺北縣文化基金會董事\n財團法人青潭坑文教公益基金會董事長\n臺北縣公教退休人員協會名譽理事長\n臺北縣後備憲兵、義警、義交協會顧問\n臺北縣議會第8、10、11屆議員\n臺北縣議會第12、13、14、15屆議長\n民國102年2月8日歿","remark":null,"image":"http://www.ntp.gov.tw/UpFile/CouncilorFile/TTCC0855.jpg","links":[{"url":"http://www.ntp.gov.tw/content/history/history01-5-p.aspx?sid=323","note":"議會個人官網"}],"social_media":null,"platform":"","param":null,"councilor":"f4ad9883429a4968b3a04e0f4b824c6b"},{"url":"http://councils.g0v.tw/api/councilors_terms/965/","election_year":"1986","name":"許再恩","gender":"","party":"","title":"議員","constituency":9,"county":"新北市","district":"新店市、深坑鄉、石碇鄉、坪林鄉、烏來鄉","in_office":true,"contact_details":null,"term_start":"1986-03-01","term_end":{"date":"1990-02-28"},"education":"省立臺北商職畢業","experience":"綠野文藝雜誌月刊社副社長\n台灣日報新店辦事處主任兼記者\n長豐工程股份有限公司董事兼經理\n財團法人臺北縣文化基金會董事\n財團法人青潭坑文教公益基金會董事長\n臺北縣公教退休人員協會名譽理事長\n臺北縣後備憲兵、義警、義交協會顧問\n臺北縣議會第8、10、11屆議員\n臺北縣議會第12、13、14、15屆議長\n民國102年2月8日歿","remark":null,"image":"http://www.ntp.gov.tw/UpFile/CouncilorFile/TTCC0855.jpg","links":[{"url":"http://www.ntp.gov.tw/content/history/history01-5-p.aspx?sid=323","note":"議會個人官網"}],"social_media":null,"platform":"","param":null,"councilor":"f4ad9883429a4968b3a04e0f4b824c6b"},{"url":"http://councils.g0v.tw/api/councilors_terms/1013/","election_year":"1982","name":"許再恩","gender":"","party":"","title":"議員","constituency":9,"county":"新北市","district":"新店市、深坑鄉、石碇鄉、坪林鄉、烏來鄉","in_office":true,"contact_details":null,"term_start":"1982-03-01","term_end":{"date":"1986-02-28"},"education":"省立臺北商職畢業","experience":"綠野文藝雜誌月刊社副社長\n台灣日報新店辦事處主任兼記者\n長豐工程股份有限公司董事兼經理\n財團法人臺北縣文化基金會董事\n財團法人青潭坑文教公益基金會董事長\n臺北縣公教退休人員協會名譽理事長\n臺北縣後備憲兵、義警、義交協會顧問\n臺北縣議會第8、10、11屆議員\n臺北縣議會第12、13、14、15屆議長\n民國102年2月8日歿","remark":null,"image":"http://www.ntp.gov.tw/UpFile/CouncilorFile/TTCC0855.jpg","links":[{"url":"http://www.ntp.gov.tw/content/history/history01-5-p.aspx?sid=323","note":"議會個人官網"}],"social_media":null,"platform":"","param":null,"councilor":"f4ad9883429a4968b3a04e0f4b824c6b"},{"url":"http://councils.g0v.tw/api/councilors_terms/1089/","election_year":"1990","name":"許再恩","gender":"","party":"","title":"議長","constituency":10,"county":"新北市","district":"新店市、深坑鄉、石碇鄉、坪林鄉、烏來鄉","in_office":true,"contact_details":null,"term_start":"1990-03-01","term_end":{"date":"1994-02-28"},"education":"省立臺北商職畢業","experience":"綠野文藝雜誌月刊社副社長\n台灣日報新店辦事處主任兼記者\n長豐工程股份有限公司董事兼經理\n財團法人臺北縣文化基金會董事\n財團法人青潭坑文教公益基金會董事長\n臺北縣公教退休人員協會名譽理事長\n臺北縣後備憲兵、義警、義交協會顧問\n臺北縣議會第8、10、11屆議員\n臺北縣議會第12、13、14、15屆議長\n民國102年2月8日歿","remark":null,"image":"http://www.ntp.gov.tw/UpFile/CouncilorFile/TTCC0855.jpg","links":[{"url":"http://www.ntp.gov.tw/content/history/history01-5-p.aspx?sid=323","note":"議會個人官網"}],"social_media":null,"platform":"","param":null,"councilor":"f4ad9883429a4968b3a04e0f4b824c6b"},{"url":"http://councils.g0v.tw/api/councilors_terms/1154/","election_year":"1994","name":"許再恩","gender":"","party":"","title":"議長","constituency":10,"county":"新北市","district":"新店鎮、深坑鄉、石碇鄉、坪林鄉、烏來鄉","in_office":true,"contact_details":null,"term_start":"1994-03-01","term_end":{"date":"1998-02-28"},"education":"省立臺北商職畢業","experience":"綠野文藝雜誌月刊社副社長\n台灣日報新店辦事處主任兼記者\n長豐工程股份有限公司董事兼經理\n財團法人臺北縣文化基金會董事\n財團法人青潭坑文教公益基金會董事長\n臺北縣公教退休人員協會名譽理事長\n臺北縣後備憲兵、義警、義交協會顧問\n臺北縣議會第8、10、11屆議員\n臺北縣議會第12、13、14、15屆議長\n民國102年2月8日歿","remark":null,"image":"http://www.ntp.gov.tw/UpFile/CouncilorFile/TTCC0855.jpg","links":[{"url":"http://www.ntp.gov.tw/content/history/history01-5-p.aspx?sid=323","note":"議會個人官網"}],"social_media":null,"platform":"","param":null,"councilor":"f4ad9883429a4968b3a04e0f4b824c6b"},{"url":"http://councils.g0v.tw/api/councilors_terms/1219/","election_year":"1998","name":"許再恩","gender":"","party":"","title":"議長","constituency":10,"county":"新北市","district":"新店市、深坑鄉、石碇鄉、坪林鄉、烏來鄉","in_office":true,"contact_details":null,"term_start":"1998-03-01","term_end":{"date":"2002-02-28"},"education":"省立臺北商職畢業","experience":"綠野文藝雜誌月刊社副社長\n台灣日報新店辦事處主任兼記者\n長豐工程股份有限公司董事兼經理\n財團法人臺北縣文化基金會董事\n財團法人青潭坑文教公益基金會董事長\n臺北縣公教退休人員協會名譽理事長\n臺北縣後備憲兵、義警、義交協會顧問\n臺北縣議會第8、10、11屆議員\n臺北縣議會第12、13、14、15屆議長\n民國102年2月8日歿","remark":null,"image":"http://www.ntp.gov.tw/UpFile/CouncilorFile/TTCC0855.jpg","links":[{"url":"http://www.ntp.gov.tw/content/history/history01-5-p.aspx?sid=323","note":"議會個人官網"}],"social_media":null,"platform":"","param":null,"councilor":"f4ad9883429a4968b3a04e0f4b824c6b"},{"url":"http://councils.g0v.tw/api/councilors_terms/1285/","election_year":"2002","name":"許再恩","gender":"","party":"","title":"議長","constituency":10,"county":"新北市","district":"新店市、深坑鄉、石碇鄉、坪林鄉、烏來鄉","in_office":true,"contact_details":null,"term_start":"2002-03-01","term_end":{"date":"2006-02-28"},"education":"省立臺北商職畢業","experience":"綠野文藝雜誌月刊社副社長\n台灣日報新店辦事處主任兼記者\n長豐工程股份有限公司董事兼經理\n財團法人臺北縣文化基金會董事\n財團法人青潭坑文教公益基金會董事長\n臺北縣公教退休人員協會名譽理事長\n臺北縣後備憲兵、義警、義交協會顧問\n臺北縣議會第8、10、11屆議員\n臺北縣議會第12、13、14、15屆議長\n民國102年2月8日歿","remark":null,"image":"http://www.ntp.gov.tw/UpFile/CouncilorFile/TTCC0855.jpg","links":[{"url":"http://www.ntp.gov.tw/content/history/history01-5-p.aspx?sid=323","note":"議會個人官網"}],"social_media":null,"platform":"","param":null,"councilor":"f4ad9883429a4968b3a04e0f4b824c6b"}],"uid":"f4ad9883429a4968b3a04e0f4b824c6b","name":"許再恩","birth":null,"former_names":"","identifiers":["許再恩"]}]}