{"count":1904,"next":"http://councils.g0v.tw/api/councilors/?page=123","previous":"http://councils.g0v.tw/api/councilors/?page=121","results":[{"url":"http://councils.g0v.tw/api/councilors/713/","each_terms":[{"url":"http://councils.g0v.tw/api/councilors_terms/1299/","election_year":"2002","name":"吳天麟","gender":"","party":"","title":"議員","constituency":6,"county":"新北市","district":"新莊市、泰山鄉、五股鄉、林口鄉","in_office":true,"contact_details":null,"term_start":"2002-03-01","term_end":{"date":"2006-02-28"},"education":"國立台灣師範大學（社區領導人才培訓班結業）","experience":"臺北縣議會第十五屆議員\n臺北縣政府顧問\n泰山鄉鄉民代表\n新莊社區大學班聯會會長\n新莊高中家長會副會長\n雲林同鄉會泰山區會長\n民進黨臺北縣黨代表","remark":null,"image":"http://www.ntp.gov.tw/UpFile/CouncilorFile/TTCC1542.jpg","links":[{"url":"http://www.ntp.gov.tw/content/history/history01-5-p.aspx?sid=517","note":"議會個人官網"}],"social_media":null,"platform":"","param":null,"councilor":"57ee5574785a40c6be69acea82eb628c"}],"uid":"57ee5574785a40c6be69acea82eb628c","name":"吳天麟","birth":null,"former_names":"","identifiers":["吳天麟"]},{"url":"http://councils.g0v.tw/api/councilors/715/","each_terms":[{"url":"http://councils.g0v.tw/api/councilors_terms/1302/","election_year":"2002","name":"呂柱","gender":"","party":"","title":"議員","constituency":6,"county":"新北市","district":"新莊市、泰山鄉、五股鄉、林口鄉","in_office":true,"contact_details":null,"term_start":"2002-03-01","term_end":{"date":"2006-02-28"},"education":"嘉義縣大湖國民小學畢業\n新莊市丹鳳國民中學補校畢業\n臺北縣私立光華高級商業職業進修學校畢業","experience":"臺北縣議會第16屆議員\n臺北縣議會第15屆議員\n新莊市光榮里里長二屆\n新莊市市民代表\n西盛社區發展協會理事\n光華民防中隊顧問團團長、義警分隊顧問\n新莊市西盛庄福德宮鶴齡交誼中心、豐年、西盛老人會顧問\n新莊市殘障、博愛、福利協會顧問\n金陵女中、丹鳳、福營國中、光華、民安、裕民國小顧問\n金龍會2002年會長\n臺北縣嘉義同鄉會新泰分會會長\n國立泰山高級中學第93年度家長會長\n新莊民防中隊顧問","remark":null,"image":"http://www.ntp.gov.tw/UpFile/CouncilorFile/TTCC1539.jpg","links":[{"url":"http://www.ntp.gov.tw/content/history/history01-5-p.aspx?sid=515","note":"議會個人官網"}],"social_media":null,"platform":"","param":null,"councilor":"54f2fcd9140a47549440322a784f3b9c"},{"url":"http://councils.g0v.tw/api/councilors_terms/1361/","election_year":"2006","name":"呂柱","gender":"","party":"","title":"議員","constituency":6,"county":"新北市","district":"新莊市、泰山鄉、五股鄉、林口鄉","in_office":true,"contact_details":null,"term_start":"2006-03-01","term_end":{"date":"2010-12-24"},"education":"嘉義縣大湖國民小學畢業\n新莊市丹鳳國民中學補校畢業\n臺北縣私立光華高級商業職業進修學校畢業","experience":"臺北縣議會第16屆議員\n臺北縣議會第15屆議員\n新莊市光榮里里長二屆\n新莊市市民代表\n西盛社區發展協會理事\n光華民防中隊顧問團團長、義警分隊顧問\n新莊市西盛庄福德宮鶴齡交誼中心、豐年、西盛老人會顧問\n新莊市殘障、博愛、福利協會顧問\n金陵女中、丹鳳、福營國中、光華、民安、裕民國小顧問\n金龍會2002年會長\n臺北縣嘉義同鄉會新泰分會會長\n國立泰山高級中學第93年度家長會長\n新莊民防中隊顧問","remark":null,"image":"http://www.ntp.gov.tw/UpFile/CouncilorFile/TTCC1539.jpg","links":[{"url":"http://www.ntp.gov.tw/content/history/history01-5-p.aspx?sid=515","note":"議會個人官網"}],"social_media":null,"platform":"","param":null,"councilor":"54f2fcd9140a47549440322a784f3b9c"}],"uid":"54f2fcd9140a47549440322a784f3b9c","name":"呂柱","birth":null,"former_names":"","identifiers":["呂柱"]},{"url":"http://councils.g0v.tw/api/councilors/716/","each_terms":[{"url":"http://councils.g0v.tw/api/councilors_terms/1372/","election_year":"2006","name":"黃桂蘭","gender":"","party":"","title":"議員","constituency":5,"county":"新北市","district":"三重市、蘆洲市","in_office":true,"contact_details":null,"term_start":"2006-03-01","term_end":{"date":"2010-12-24"},"education":"臺北城市科技大學商學碩士","experience":"蘆洲成功國小義工媽媽\n台北縣政府警察局志工中隊中隊長\n蘆洲市工商婦女聯誼會會長\n中華民國婦女之家台北縣辦事處主任\n台北縣民俗體育委員會主委\n中國國民黨16、17、18全代表\n台北縣第15、16屆議員","remark":null,"image":"http://www.ntp.gov.tw/UpFile/CouncilorFile/TTCC1537.jpg","links":[{"url":"http://www.ntp.gov.tw/content/history/history01-5-p.aspx?sid=514","note":"議會個人官網"}],"social_media":null,"platform":"","param":null,"councilor":"b50c7cfe957b4b59a363bad3207d4a8a"},{"url":"http://councils.g0v.tw/api/councilors_terms/1304/","election_year":"2002","name":"黃桂蘭","gender":"","party":"","title":"議員","constituency":5,"county":"新北市","district":"三重市、蘆洲市","in_office":true,"contact_details":null,"term_start":"2002-03-01","term_end":{"date":"2006-02-28"},"education":"臺北城市科技大學商學碩士","experience":"蘆洲成功國小義工媽媽\n台北縣政府警察局志工中隊中隊長\n蘆洲市工商婦女聯誼會會長\n中華民國婦女之家台北縣辦事處主任\n台北縣民俗體育委員會主委\n中國國民黨16、17、18全代表\n台北縣第15、16屆議員","remark":null,"image":"http://www.ntp.gov.tw/UpFile/CouncilorFile/TTCC1537.jpg","links":[{"url":"http://www.ntp.gov.tw/content/history/history01-5-p.aspx?sid=514","note":"議會個人官網"}],"social_media":null,"platform":"","param":null,"councilor":"b50c7cfe957b4b59a363bad3207d4a8a"},{"url":"http://councils.g0v.tw/api/councilors_terms/1876/","election_year":"2010","name":"黃桂蘭","gender":"","party":"中國國民黨","title":"議員","constituency":3,"county":"新北市","district":"蘆洲區、三重區","in_office":true,"contact_details":[{"type":"voice","value":"02-22837226","label":"電話"},{"type":"fax","value":"02-22824189","label":"傳真"},{"type":"address","value":"24762新北市蘆洲區中原路83號","label":"通訊處"},{"type":"email","value":"c22824189@yahoo.com.tw","label":"E-mail"}],"term_start":"2010-12-25","term_end":{"date":"2014-12-24"},"education":"臺北城市科技大學商學碩士","experience":"蘆洲成功國小義工媽媽\n台北縣政府警察局志工中隊中隊長\n蘆洲市工商婦女聯誼會會長\n中華民國婦女之家台北縣辦事處主任\n台北縣民俗體育委員會主委\n中國國民黨16、17、18全代表\n台北縣第15、16屆議員","remark":null,"image":"http://www.ntp.gov.tw/UpFile/CouncilorFile/TTCC1537.jpg","links":[{"url":"http://www.ntp.gov.tw/content/list/list01-1-03-1.aspx?sid=514&cid=170","note":"議會個人官網"}],"social_media":null,"platform":"關懷婦幼安全，增加托育補助，重視學童校園安全。\n全力保障殘障同胞就學就業權利（益）。\n督促警察同仁打擊犯罪降低犯罪率，保障民眾生活。\n督促新北市正視傳統民俗、藝術、體育活動。\n督促新北市政府提升道路施工品質。\n規劃捷運公車接駁系統，完善規劃地方商圈，帶動地方繁榮。\n廣設公園運動休閒用地，綠化三重、蘆洲地區，提升社區生活品質。\n推動全民社區終身學習教育，昇華全民人文素養。\n為婦女、幼兒、老人、殘障、勞工等弱勢團體代言，保障弱勢族群的權益。\n專案編列本土語言教育經費，有效實施本土語言教育，不讓本土語言流失。\n打造二重疏洪道的中央公園計劃，建立三重、蘆洲後花園。\n重新檢討三蘆地區都市更新計畫，增建機場捷運線博愛站、廢止蘆洲垃圾轉運站、停止三重垃圾轉運站的設立。","param":{"attendance_statistics":{"absent":23,"total":124},"bills_role_statistics":{"total":143,"priproposer":60,"sponsor":66,"cosponsor":77},"diversity":{"中國國民黨":0.8925097947071744,"無黨團結聯盟":0.022022315518178927,"民主進步黨":0.08260657745948974,"無黨籍":0.002861312315156822},"bills_party_diversity":[{"party":"中國國民黨","ratio":0.6891246684350133},{"party":"民主進步黨","ratio":0.24774535809018566},{"party":"無黨團結聯盟","ratio":0.03819628647214854},{"party":"無黨籍","ratio":0.023342175066312996},{"party":"臺灣團結聯盟","ratio":0.0015915119363395225}]},"councilor":"b50c7cfe957b4b59a363bad3207d4a8a"}],"uid":"b50c7cfe957b4b59a363bad3207d4a8a","name":"黃桂蘭","birth":null,"former_names":"","identifiers":["黄桂蘭","黃桂蘭"]},{"url":"http://councils.g0v.tw/api/councilors/717/","each_terms":[{"url":"http://councils.g0v.tw/api/councilors_terms/1312/","election_year":"2002","name":"李友親","gender":"","party":"","title":"議員","constituency":5,"county":"新北市","district":"三重市、蘆洲市","in_office":true,"contact_details":null,"term_start":"2002-03-01","term_end":{"date":"2006-02-28"},"education":"蘆洲國小、國中\n穀保高職\n文化大學","experience":"臺北縣議會第16屆議員\n臺北縣議會第15屆議員\n蘆洲鄉樓厝村第14、15屆村長\n蘆洲市樓厝里第1屆里長\n樓厝社區發展協會第1、2屆理事長\n蘆洲義消二分隊員、顧問\n蘇貞昌競選縣長蘆洲後援會會長\n立法委員李應元競選總部主任\n蘆洲市民代表\n民進黨蘆洲黨部評委召集人\n蘆洲市湧蓮寺常務委員\n湧蓮基金會董事","remark":null,"image":"http://www.ntp.gov.tw/UpFile/CouncilorFile/TTCC1532.jpg","links":[{"url":"http://www.ntp.gov.tw/content/history/history01-5-p.aspx?sid=513","note":"議會個人官網"}],"social_media":null,"platform":"","param":null,"councilor":"ba058257b5144fbe9ef9d4b6c8a87b26"},{"url":"http://councils.g0v.tw/api/councilors_terms/1366/","election_year":"2006","name":"李友親","gender":"","party":"","title":"議員","constituency":5,"county":"新北市","district":"三重市、蘆洲市","in_office":true,"contact_details":null,"term_start":"2006-03-01","term_end":{"date":"2010-12-24"},"education":"蘆洲國小、國中\n穀保高職\n文化大學","experience":"臺北縣議會第16屆議員\n臺北縣議會第15屆議員\n蘆洲鄉樓厝村第14、15屆村長\n蘆洲市樓厝里第1屆里長\n樓厝社區發展協會第1、2屆理事長\n蘆洲義消二分隊員、顧問\n蘇貞昌競選縣長蘆洲後援會會長\n立法委員李應元競選總部主任\n蘆洲市民代表\n民進黨蘆洲黨部評委召集人\n蘆洲市湧蓮寺常務委員\n湧蓮基金會董事","remark":null,"image":"http://www.ntp.gov.tw/UpFile/CouncilorFile/TTCC1532.jpg","links":[{"url":"http://www.ntp.gov.tw/content/history/history01-5-p.aspx?sid=513","note":"議會個人官網"}],"social_media":null,"platform":"","param":null,"councilor":"ba058257b5144fbe9ef9d4b6c8a87b26"}],"uid":"ba058257b5144fbe9ef9d4b6c8a87b26","name":"李友親","birth":null,"former_names":"","identifiers":["李友親","李友親"]},{"url":"http://councils.g0v.tw/api/councilors/718/","each_terms":[{"url":"http://councils.g0v.tw/api/councilors_terms/1313/","election_year":"2002","name":"楊寶猜","gender":"","party":"","title":"議員","constituency":4,"county":"新北市","district":"土城市、樹林市、鶯歌鎮、三峽鎮","in_office":true,"contact_details":null,"term_start":"2002-03-01","term_end":{"date":"2006-02-28"},"education":"光華商職高中\n光華商職國中\n十分國小","experience":"臺北縣議會第15屆議員\n臺北縣政府縣政顧問\n土城市婦女成長協會創會長\n第3屆土城市民代表\n保齡球委員會名譽會長\n一貫道活動組組長\n樂利國小家長會顧間\n現任清水中學家長會副會長\n現任清水國小家長會副會長\n陳水扁總統大選任大三鶯婦女隊大隊長\n土城市市民代表","remark":null,"image":"http://www.ntp.gov.tw/UpFile/CouncilorFile/TTCC1529.jpg","links":[{"url":"http://www.ntp.gov.tw/content/history/history01-5-p.aspx?sid=512","note":"議會個人官網"}],"social_media":null,"platform":"","param":null,"councilor":"b02ca22e3e684816b7fa5d7e69285c86"}],"uid":"b02ca22e3e684816b7fa5d7e69285c86","name":"楊寶猜","birth":null,"former_names":"","identifiers":["楊寳猜","楊寶猜"]},{"url":"http://councils.g0v.tw/api/councilors/850/","each_terms":[{"url":"http://councils.g0v.tw/api/councilors_terms/1510/","election_year":"1951","name":"黃陳幼良","gender":"","party":"","title":"議員","constituency":3,"county":"新北市","district":"新莊鎮、泰山鄉、三重鎮、五股鄉、蘆洲鄉、林口鄉","in_office":true,"contact_details":null,"term_start":"1951-01-04","term_end":{"date":"1953-01-05"},"education":"靜修女子中學畢業。","experience":"任省婦女會理事\n婦女會常務理事\n縣助產士公會常務理事\n臺北縣議會第1屆議員","remark":null,"image":"http://www.ntp.gov.tw/UpFile/CouncilorFile/TTCC0123.jpg","links":[{"url":"http://www.ntp.gov.tw/content/history/history01-5-p.aspx?sid=89","note":"議會個人官網"}],"social_media":null,"platform":"","param":null,"councilor":"b154f15c146b486eab6ad4f0c07ff0d9"}],"uid":"b154f15c146b486eab6ad4f0c07ff0d9","name":"黃陳幼良","birth":null,"former_names":"","identifiers":["黄陳幼良","黃陳幼良"]},{"url":"http://councils.g0v.tw/api/councilors/955/","each_terms":[{"url":"http://councils.g0v.tw/api/councilors_terms/1732/","election_year":"1958","name":"江輝元","gender":"","party":"","title":"議員","constituency":1,"county":"新北市","district":"板橋鎮、中和鄉、土城鄉","in_office":true,"contact_details":null,"term_start":"1958-02-21","term_end":{"date":"1961-02-20"},"education":"日本東京鐵路中學畢業","experience":"村長\n中和鄉第3、4屆鄉民代表\n臺北縣議會第4屆議員","remark":null,"image":"http://www.ntp.gov.tw/UpFile/CouncilorFile/TTCC0409.jpg","links":[{"url":"http://www.ntp.gov.tw/content/history/history01-5-p.aspx?sid=189","note":"議會個人官網"}],"social_media":null,"platform":"","param":null,"councilor":"3b3e80c1a7d048cda24852b18bb4f177"}],"uid":"3b3e80c1a7d048cda24852b18bb4f177","name":"江輝元","birth":null,"former_names":"","identifiers":["江輝元"]},{"url":"http://councils.g0v.tw/api/councilors/956/","each_terms":[{"url":"http://councils.g0v.tw/api/councilors_terms/1733/","election_year":"1958","name":"黃火候","gender":"","party":"","title":"議員","constituency":1,"county":"新北市","district":"板橋鎮、中和鄉、土城鄉","in_office":true,"contact_details":null,"term_start":"1958-02-21","term_end":{"date":"1961-02-20"},"education":"成淵中學畢業","experience":"派出所役常\n板橋農會總幹事\n第3、4、5屆板橋鎮民代表\n板橋鎮公所副主任\n臺北縣議會第4屆議員","remark":null,"image":"http://www.ntp.gov.tw/UpFile/CouncilorFile/TTCC0407.jpg","links":[{"url":"http://www.ntp.gov.tw/content/history/history01-5-p.aspx?sid=188","note":"議會個人官網"}],"social_media":null,"platform":"","param":null,"councilor":"cfaf7615fa6b4c78aa484b548a0897b3"}],"uid":"cfaf7615fa6b4c78aa484b548a0897b3","name":"黃火候","birth":null,"former_names":"","identifiers":["黃火候","黄火候"]},{"url":"http://councils.g0v.tw/api/councilors/958/","each_terms":[{"url":"http://councils.g0v.tw/api/councilors_terms/1739/","election_year":"1958","name":"陳根塗","gender":"","party":"","title":"議員","constituency":1,"county":"新北市","district":"板橋鎮、中和鄉、土城鄉","in_office":true,"contact_details":null,"term_start":"1958-02-21","term_end":{"date":"1961-02-20"},"education":"日本產業能率短期大學\n革命實踐研究院議員班第2期結業","experience":"國校教師\n臺灣省合作金庫研究員\n中和鄉民代表\n臺灣省議會議員\n茶葉同業公會理事長\n臺北縣議會第4、5、6屆議員\n臺灣省政府顧問\n中華民國表揚好人好事運動協會常務理事\n慈音社會福利慈善基金會董事長","remark":null,"image":"http://www.ntp.gov.tw/UpFile/CouncilorFile/TTCC0401.jpg","links":[{"url":"http://www.ntp.gov.tw/content/history/history01-5-p.aspx?sid=185","note":"議會個人官網"}],"social_media":null,"platform":"","param":null,"councilor":"f2c8f88bf4d54c4b8fe68e3f6249ee2d"},{"url":"http://councils.g0v.tw/api/councilors_terms/1797/","election_year":"1961","name":"陳根塗","gender":"","party":"","title":"議員","constituency":1,"county":"新北市","district":"板橋鎮、中和鄉、永和鎮、土城鄉","in_office":true,"contact_details":null,"term_start":"1961-02-21","term_end":{"date":"1964-02-20"},"education":"日本產業能率短期大學\n革命實踐研究院議員班第2期結業","experience":"國校教師\n臺灣省合作金庫研究員\n中和鄉民代表\n臺灣省議會議員\n茶葉同業公會理事長\n臺北縣議會第4、5、6屆議員\n臺灣省政府顧問\n中華民國表揚好人好事運動協會常務理事\n慈音社會福利慈善基金會董事長","remark":null,"image":"http://www.ntp.gov.tw/UpFile/CouncilorFile/TTCC0401.jpg","links":[{"url":"http://www.ntp.gov.tw/content/history/history01-5-p.aspx?sid=185","note":"議會個人官網"}],"social_media":null,"platform":"","param":null,"councilor":"f2c8f88bf4d54c4b8fe68e3f6249ee2d"},{"url":"http://councils.g0v.tw/api/councilors_terms/1863/","election_year":"1964","name":"陳根塗","gender":"","party":"","title":"議員","constituency":1,"county":"新北市","district":"板橋鎮、中和鄉、永和鎮、土城鄉","in_office":true,"contact_details":null,"term_start":"1964-02-21","term_end":{"date":"1968-02-20"},"education":"日本產業能率短期大學\n革命實踐研究院議員班第2期結業","experience":"國校教師\n臺灣省合作金庫研究員\n中和鄉民代表\n臺灣省議會議員\n茶葉同業公會理事長\n臺北縣議會第4、5、6屆議員\n臺灣省政府顧問\n中華民國表揚好人好事運動協會常務理事\n慈音社會福利慈善基金會董事長","remark":null,"image":"http://www.ntp.gov.tw/UpFile/CouncilorFile/TTCC0401.jpg","links":[{"url":"http://www.ntp.gov.tw/content/history/history01-5-p.aspx?sid=185","note":"議會個人官網"}],"social_media":null,"platform":"","param":null,"councilor":"f2c8f88bf4d54c4b8fe68e3f6249ee2d"}],"uid":"f2c8f88bf4d54c4b8fe68e3f6249ee2d","name":"陳根塗","birth":null,"former_names":"","identifiers":["陳根塗"]},{"url":"http://councils.g0v.tw/api/councilors/959/","each_terms":[{"url":"http://councils.g0v.tw/api/councilors_terms/1743/","election_year":"1961","name":"莊騰輝","gender":"","party":"","title":"議員","constituency":9,"county":"新北市","district":"新店鎮、景美鎮、木柵鄉、深坑鄉、石碇鄉、坪林鄉","in_office":true,"contact_details":null,"term_start":"1961-02-21","term_end":{"date":"1964-02-20"},"education":"日本國民中學畢業","experience":"新生報記者\n深坑庄役場雇員\n第1、2屆景美鎮鎮長\n景美鎮民代表\n臺北縣議會第5、6屆議員\n臨時市議員\n*民國61年歿","remark":null,"image":"http://www.ntp.gov.tw/UpFile/CouncilorFile/TTCC0560.jpg","links":[{"url":"http://www.ntp.gov.tw/content/history/history01-5-p.aspx?sid=247","note":"議會個人官網"}],"social_media":null,"platform":"","param":null,"councilor":"e08c4e78a3e640f5bded6ba12e2139bb"},{"url":"http://councils.g0v.tw/api/councilors_terms/1805/","election_year":"1964","name":"莊騰輝","gender":"","party":"","title":"議員","constituency":9,"county":"新北市","district":"新店鎮、景美鎮、木柵鄉、深坑鄉、石碇鄉、坪林鄉、烏來鄉山地鄉","in_office":true,"contact_details":null,"term_start":"1964-02-21","term_end":{"date":"1968-02-20"},"education":"日本國民中學畢業","experience":"新生報記者\n深坑庄役場雇員\n第1、2屆景美鎮鎮長\n景美鎮民代表\n臺北縣議會第5、6屆議員\n臨時市議員\n*民國61年歿","remark":null,"image":"http://www.ntp.gov.tw/UpFile/CouncilorFile/TTCC0560.jpg","links":[{"url":"http://www.ntp.gov.tw/content/history/history01-5-p.aspx?sid=247","note":"議會個人官網"}],"social_media":null,"platform":"","param":null,"councilor":"e08c4e78a3e640f5bded6ba12e2139bb"}],"uid":"e08c4e78a3e640f5bded6ba12e2139bb","name":"莊騰輝","birth":null,"former_names":"","identifiers":["莊騰輝"]}]}