{"count":1904,"next":"http://councils.g0v.tw/api/councilors/?page=125","previous":"http://councils.g0v.tw/api/councilors/?page=123","results":[{"url":"http://councils.g0v.tw/api/councilors/1062/","each_terms":[{"url":"http://councils.g0v.tw/api/councilors_terms/1987/","election_year":"2010","name":"曾王雅雲","gender":"女","party":"民主進步黨","title":"議員","constituency":16,"county":"臺南市","district":"仁德、歸仁、關廟、龍崎區","in_office":true,"contact_details":[{"type":"email","value":"yytw555@gmail.com","label":"電子信箱"},{"type":"voice","value":"5957555","label":"電話"},{"type":"fax","value":"5967555","label":"傳真"},{"type":"address","value":"71846台南市關廟區南雄路2段68號","label":"通訊處"}],"term_start":"2010-12-25","term_end":{"date":"2014-12-25"},"education":"國立台南師範學院教育學士。\n美國貝澤爾大學教育碩士。","experience":"現任大台南市議會第1屆議員\n議會民進黨團第一任總召集人。\n教育經歷：\n嘉南藥理大學講師。\n中華醫事科技大學講師。\n幼兒教育券運動發起人。\n政治經歷：\n台南縣議會第15、16屆議員。\n議會民進黨團幹事長。\n台灣教師聯盟盟員。\n台灣獨立建國聯盟盟員。","remark":"","image":"http://www.tncc.gov.tw/warehouse/200000/%E6%9B%BE%E7%8E%8B%E9%9B%85%E9%9B%B2.bmp","links":[{"url":"http://www.tncc.gov.tw/tnccp/ccp_01a.asp?CName=%B4%BF%A4%FD%B6%AE%B6%B3","note":"議會個人官網"},{"url":"http://www.facebook.com/profile.php?id=100000623863475","note":"個人網站"}],"social_media":null,"platform":"敬\n愛\n的\n鄉\n親\n父\n老\n兄\n弟\n姊\n妹\n：\n大\n家\n平\n安\n，\n大\n家\n好\n。\n感\n謝\n您\n九\n年\n前\n對\n雅\n雲\n的\n疼\n惜\n與\n支\n持\n，\n讓\n雅\n雲\n從\n教\n育\n界\n步\n入\n議\n壇\n。\n這\n九\n年\n來\n雅\n雲\n竭\n盡\n心\n力\n，\n不\n敢\n稍\n有\n懈\n怠\n，\n深\n怕\n辜\n負\n您\n的\n期\n待\n與\n厚\n愛\n。\n這\n次\n是\n台\n南\n縣\n市\n合\n併\n後\n首\n次\n議\n員\n選\n舉\n，\n雅\n雲\n仍\n將\n本\n著\n「\n教\n育\n是\n我\n心\n愛\n的\n職\n業\n；\n政\n治\n是\n我\n關\n心\n的\n事\n務\n；\n改\n善\n社\n會\n是\n我\n的\n理\n想\n」\n的\n信\n念\n加\n倍\n努\n力\n。\n更\n將\n以\n林\n義\n雄\n先\n生\n所\n著\n台\n灣\n共\n和\n國\n基\n本\n法\n草\n案\n前\n言\n所\n敘\n「\n我\n們\n，\n居\n住\n在\n台\n灣\n島\n和\n它\n的\n附\n屬\n島\n嶼\n的\n人\n，\n為\n了\n追\n求\n自\n己\n和\n後\n代\n子\n孫\n的\n生\n存\n，\n繁\n榮\n和\n發\n展\n。\n人\n類\n的\n平\n等\n，\n自\n由\n和\n幸\n福\n。\n公\n平\n、\n正\n義\n、\n互\n助\n和\n安\n全\n的\n文\n明\n社\n會\n。\n建\n立\n了\n台\n灣\n共\n和\n國\n。\n我\n們\n確\n信\n尊\n重\n和\n維\n護\n人\n的\n自\n由\n和\n權\n利\n，\n是\n建\n立\n文\n明\n社\n會\n的\n先\n決\n條\n件\n。\n政\n府\n的\n組\n成\n，\n公\n務\n人\n員\n的\n產\n生\n和\n政\n策\n的\n制\n定\n實\n施\n都\n必\n須\n經\n過\n民\n主\n程\n序\n取\n得\n國\n民\n直\n接\n或\n間\n接\n同\n意\n。\n人\n類\n的\n衝\n突\n和\n糾\n紛\n，\n應\n該\n依\n靠\n和\n平\n方\n式\n來\n解\n決\n。\n根\n據\n以\n上\n的\n目\n標\n和\n信\n念\n，\n我\n們\n制\n定\n了\n台\n灣\n共\n和\n國\n基\n本\n法\n，\n作\n為\n全\n國\n國\n民\n共\n同\n生\n活\n的\n最\n高\n準\n則\n，\n並\n且\n特\n別\n聲\n明\n，\n我\n們\n願\n意\n盡\n所\n有\n力\n量\n，\n尊\n重\n、\n維\n護\n自\n己\n和\n他\n人\n的\n自\n由\n和\n權\n利\n。\n廢\n棄\n沒\n有\n經\n過\n民\n主\n程\n序\n同\n意\n的\n政\n府\n和\n政\n策\n。\n\t\n用\n互\n尊\n、\n互\n愛\n、\n互\n惠\n的\n方\n式\n，\n來\n求\n得\n國\n內\n各\n種\n利\n益\n的\n均\n衡\n發\n展\n和\n滿\n足\n。\n革\n除\n一\n切\n以\n武\n力\n奪\n取\n公\n權\n私\n利\n，\n解\n決\n衝\n突\n糾\n紛\n的\n行\n為\n。\n棄\n絕\n一\n切\n攻\n擊\n性\n的\n戰\n爭\n。\n依\n據\n平\n等\n，\n合\n作\n、\n互\n惠\n的\n原\n則\n和\n世\n界\n各\n國\n和\n平\n交\n往\n。\n」\n的\n政\n治\n理\n想\n邁\n進\n。\n雅\n雲\n誠\n懇\n的\n籲\n請\n各\n位\n熱\n愛\n台\n灣\n，\n心\n存\n公\n義\n，\n疼\n惜\n子\n孫\n的\n父\n老\n兄\n弟\n姊\n妹\n們\n用\n您\n一\n流\n的\n選\n票\n，\n做\n出\n一\n流\n的\n選\n擇\n。\n讓\n我\n們\n共\n同\n為\n建\n造\n一\n個\n健\n康\n的\n社\n會\n，\n美\n麗\n的\n國\n家\n而\n努\n力\n。\n再\n次\n感\n謝\n您\n的\n支\n持\n，\n敬\n祝\n閤\n家\n平\n安\n、\n健\n康\n、\n快\n樂\n。","param":{"suggestions_years":{"count":17,"sum":10298000,"years":[{"count":17,"sum":10298000,"suggest_year":"2014","small_purchase":2}]},"diversity":{"中國國民黨":0.17105195644173773,"民主進步黨":0.7358713922395583,"無黨籍":0.09307665131870368},"bills_role_statistics":{"total":101,"priproposer":4,"sponsor":5,"cosponsor":96},"suggestions_associations":[{"count":0,"sum":0,"label":"社區發展協會"},{"count":0,"sum":0,"label":"學會"},{"count":0,"sum":0,"label":"商會"},{"count":0,"sum":0,"label":"公會"},{"count":0,"sum":0,"label":"協進會"},{"count":0,"sum":0,"label":"促進會"},{"count":0,"sum":0,"label":"研習會"},{"count":0,"sum":0,"label":"婦聯會"},{"count":0,"sum":0,"label":"婦女會"},{"count":0,"sum":0,"label":"體育會"},{"count":0,"sum":0,"label":"同心會"},{"count":0,"sum":0,"label":"農會"},{"count":0,"sum":0,"label":"早起會"},{"count":0,"sum":0,"label":"健身會"},{"count":0,"sum":0,"label":"宗親會"},{"count":0,"sum":0,"label":"功德會"},{"count":0,"sum":0,"label":"商業會"},{"count":0,"sum":0,"label":"長青會"},{"count":0,"sum":0,"label":"民眾服務社"},{"count":0,"sum":0,"label":"聯盟"}],"bills_party_diversity":[{"party":"民主進步黨","ratio":0.6475225225225225},{"party":"中國國民黨","ratio":0.22409909909909909},{"party":"無黨籍","ratio":0.12837837837837837}],"suggestions_piles":[{"count":2,"tokens":"廟|宮","sum":1265000,"label":"廟"},{"count":0,"tokens":"協會|學會|商會|公會|協進會|促進會|研習會|婦聯會|婦女會|體育會|同心會|農會|早起會|健身會|宗親會|功德會|商業會|長青會|民眾服務社|聯盟","sum":0,"label":"協會"},{"count":0,"tokens":"辦公室|辦公處","sum":0,"label":"辦公室"},{"count":0,"tokens":"警察局|分局","sum":0,"label":"警察局"},{"count":0,"tokens":"消防局|消防隊|分隊|中隊","sum":0,"label":"消防局"},{"count":0,"tokens":"國中|國小","sum":0,"label":"國中、國小"}]},"councilor":"ca5a0e3204f84bdc9e398ffdcacf5a72"},{"url":"http://councils.g0v.tw/api/councilors_terms/3200/","election_year":"2014","name":"曾王雅雲","gender":"女","party":"無黨籍","title":"議員","constituency":16,"county":"臺南市","district":"仁德、歸仁、關廟、龍崎區","in_office":true,"contact_details":[{"type":"voice","value":"5957555","label":"電話"},{"type":"address","value":"台南市關廟區南雄路2段68號","label":"通訊處"},{"type":"email","value":"yytw555@gmail.com","label":"電子信箱"}],"term_start":"2014-12-25","term_end":{"date":"2018-12-25"},"education":"國立台南師範學院教育學士。\n美國貝澤爾大學教育碩士。","experience":"教育經歷：\n嘉南藥理大學講師。中華醫事科技大學講師。幼兒教育卷運動發起人。\n政治經歷：\n台南市議會第一屆議員。市議會民進黨團第一任總召集人。台南縣議\n會第15、16屆議員。台灣教師聯盟盟員。台灣獨立建國聯盟盟員。","remark":null,"image":"http://www.tncc.gov.tw/warehouse/200000/%E6%9B%BE%E7%8E%8B%E9%9B%85%E9%9B%B2.bmp","links":[{"url":"http://www.tncc.gov.tw/tnccp2/ccp_01a.asp?CName=%E6%9B%BE%E7%8E%8B%E9%9B%85%E9%9B%B2","note":"議會個人官網"},{"url":"webmap.asp","note":"FaceBook"}],"social_media":null,"platform":"敬愛的鄉親、父老、兄弟、姊妹們：大家平安，大家好！感謝您13年前\n對雅雲的鼓勵和疼惜，讓雅雲從大學老師步入議壇。這13年來無論是公\n共事務的參與、或地方建設的爭取雅雲總是盡心盡力，深怕辜負您的厚\n愛。這13年來雅雲一直抱著感恩的心，每天不敢稍有懈怠，親自跑遍每\n一個需要雅雲關心與祝福的地方。希望藉此報答投票給我的您。相信這\n些年來雅雲的努力沒辜負您對我的期待與寄望。這次雅雲秉持（1）清白\n參選，提升選舉文化。（2）清廉，勤政，愛民。（3）保護婦幼，守護\n台灣。的理念與態度，代表民進黨來參與台南市議員的選舉，請您再度\n用選票來肯定，來支持雅雲的信念。年底選戰已經開打，雅雲的競選團\n隊也已經開始運作。因為馬政府執政六年多來經濟持續不景氣，所以請\n不要贊助競選經費，也不要破費贈送花圈、花籃及任何競選物資。我們\n將以最簡單節約與樸實的方式來打贏這場聖戰。因為油電及民生用品齊\n漲，國人薪資所得不增反降，加上這次選舉候選人實力都很接近競爭非\n常激烈，金錢賄選將更加嚴重，對於清白參選的雅雲，選情必將遭到極\n大的衝擊。期盼一流的選民做一流的選擇，雅雲也會更加努力，絕不讓\n您失望。教育是我心愛的職業，政治是我關心的事務，改善社會是我的\n理想。這是雅雲不變的信念，為後代子孫建立一個充滿幸福有尊嚴的國\n家，是雅雲持續不斷的努力目標。也惟有做一個讓支持者引以為榮的議\n員，才能報答您多年來對雅雲的支持與愛護，對雅雲的鼓勵與疼惜，謝\n謝您。敬祝您闔家平安，健康，快樂。","param":{"suggestions_years":{"count":4,"sum":3367000,"years":[{"count":3,"sum":2960000,"suggest_year":"2015","small_purchase":0},{"count":1,"sum":407000,"suggest_year":"2016","small_purchase":0}]},"bills_role_statistics":{"total":50,"priproposer":18,"sponsor":20,"cosponsor":30},"attendance_statistics":{"absent":18,"total":231},"suggestions_associations":[{"count":0,"sum":0,"label":"社區發展協會"},{"count":0,"sum":0,"label":"學會"},{"count":0,"sum":0,"label":"商會"},{"count":0,"sum":0,"label":"公會"},{"count":0,"sum":0,"label":"協進會"},{"count":0,"sum":0,"label":"促進會"},{"count":0,"sum":0,"label":"研習會"},{"count":0,"sum":0,"label":"婦聯會"},{"count":0,"sum":0,"label":"婦女會"},{"count":0,"sum":0,"label":"體育會"},{"count":0,"sum":0,"label":"同心會"},{"count":0,"sum":0,"label":"農會"},{"count":0,"sum":0,"label":"早起會"},{"count":0,"sum":0,"label":"健身會"},{"count":0,"sum":0,"label":"宗親會"},{"count":0,"sum":0,"label":"功德會"},{"count":0,"sum":0,"label":"商業會"},{"count":0,"sum":0,"label":"長青會"},{"count":0,"sum":0,"label":"民眾服務社"},{"count":0,"sum":0,"label":"聯盟"}],"bills_party_diversity":[{"party":"民主進步黨","ratio":0.4103852596314908},{"party":"無黨籍","ratio":0.3065326633165829},{"party":"中國國民黨","ratio":0.2629815745393635},{"party":"臺灣團結聯盟","ratio":0.020100502512562814}],"suggestions_piles":[{"count":1,"tokens":"廟|宮","sum":407000,"label":"廟"},{"count":0,"tokens":"協會|學會|商會|公會|協進會|促進會|研習會|婦聯會|婦女會|體育會|同心會|農會|早起會|健身會|宗親會|功德會|商業會|長青會|民眾服務社|聯盟","sum":0,"label":"協會"},{"count":0,"tokens":"辦公室|辦公處","sum":0,"label":"辦公室"},{"count":0,"tokens":"警察局|分局","sum":0,"label":"警察局"},{"count":0,"tokens":"消防局|消防隊|分隊|中隊","sum":0,"label":"消防局"},{"count":0,"tokens":"國中|國小","sum":0,"label":"國中、國小"}]},"councilor":"ca5a0e3204f84bdc9e398ffdcacf5a72"}],"uid":"ca5a0e3204f84bdc9e398ffdcacf5a72","name":"曾王雅雲","birth":"1962-06-26","former_names":"","identifiers":["曾王雅雲","曽王雅雲"]},{"url":"http://councils.g0v.tw/api/councilors/1855/","each_terms":[{"url":"http://councils.g0v.tw/api/councilors_terms/3201/","election_year":"2014","name":"劉正昌","gender":"男","party":"民主進步黨","title":"議員","constituency":16,"county":"臺南市","district":"仁德、歸仁、關廟、龍崎區","in_office":true,"contact_details":[{"type":"voice","value":"2791625","label":"電話"},{"type":"address","value":"71745台南市仁德區德洋路12號1樓","label":"通訊處"},{"type":"email","value":"tainanliuchengchang@gmail.com","label":"電子信箱"}],"term_start":"2014-12-25","term_end":{"date":"2018-12-25"},"education":"仁德國小\n德南國小\n仁德國中\n崑山高中\n崑山科大二專部電機系","experience":"台南縣議員\n仁德鄉民代表二任\n後壁村村長\n蔡英文後援會顧問團長\n陳唐山縣長仁德鄉總幹事\n蘇煥智縣長仁德後援會總幹事\n陳水扁總統仁德後援會總幹事\n正友電機公司負責人\n正昌空調公司負責人\n仁德國中家長會會長\n甲種電匠、仁德國中、德南國小義工團創團團長","remark":null,"image":"http://www.tncc.gov.tw/warehouse/200000/%E5%8A%89%E6%AD%A3%E6%98%8C.bmp","links":[{"url":"http://www.tncc.gov.tw/tnccp2/ccp_01a.asp?CName=%E5%8A%89%E6%AD%A3%E6%98%8C","note":"議會個人官網"},{"url":"webmap.asp","note":"FaceBook"}],"social_media":null,"platform":"我是公僕　在您左右\n一、 專業便民服務：每週定時定點於各服務據點提供民眾諮詢，協助解決問題。\n二、打造安居城鄉：\n（一）監督三爺溪工程，使民眾、廠商免受淹水之苦。\n（二）結合長榮、嘉藥等大專院校推動二仁溪水岸綠廊，打造綠色生態優質環境。\n（三）關注學童學習環境，改善學校軟硬體設備，進而推動教育。\n三、營造育兒環境：\n（一）監督市府發展『多元托育支持服務』，推動托育資源中心、照顧者支持服務與各項親職教育、喘息服務，讓新手媽媽、阿嬤輕鬆育兒、育孫不孤單。\n（二）推廣親子友善餐廳、親子休閒活動與弱勢兒童社區關懷服務。\n（三）爭取各社區空間廣設親子育樂空間設備。\n四、老人安心生活：\n（一）增加老人日間照顧中心。\n（二）建構社區獨居長者關懷系統。\n（三）促成偏鄉行動醫院、長者就醫交通接送服務。\n五、推動創新服務：\n（一）健全南關線交通運輸，整合高鐵、台鐵、公車路線與DRT（偏鄉小型巴士）。\n（二）發展南關縣文化、觀光特色，整合奇美博物館、都會公園、二空樹屋、十鼓文化村、關廟彩繪社區、龍崎牛埔園區、打造旅遊新路線，行銷南關線。\n（三）推動地區型醫院，讓民眾就近就診。","param":{"suggestions_years":{"count":19,"sum":8768000,"years":[{"count":9,"sum":2261000,"suggest_year":"2015","small_purchase":6},{"count":10,"sum":6507000,"suggest_year":"2016","small_purchase":0}]},"bills_role_statistics":{"total":76,"priproposer":0,"sponsor":2,"cosponsor":74},"attendance_statistics":{"absent":38,"total":231},"suggestions_associations":[{"count":0,"sum":0,"label":"社區發展協會"},{"count":0,"sum":0,"label":"學會"},{"count":0,"sum":0,"label":"商會"},{"count":0,"sum":0,"label":"公會"},{"count":0,"sum":0,"label":"協進會"},{"count":0,"sum":0,"label":"促進會"},{"count":0,"sum":0,"label":"研習會"},{"count":0,"sum":0,"label":"婦聯會"},{"count":0,"sum":0,"label":"婦女會"},{"count":0,"sum":0,"label":"體育會"},{"count":0,"sum":0,"label":"同心會"},{"count":0,"sum":0,"label":"農會"},{"count":0,"sum":0,"label":"早起會"},{"count":0,"sum":0,"label":"健身會"},{"count":0,"sum":0,"label":"宗親會"},{"count":0,"sum":0,"label":"功德會"},{"count":0,"sum":0,"label":"商業會"},{"count":0,"sum":0,"label":"長青會"},{"count":0,"sum":0,"label":"民眾服務社"},{"count":0,"sum":0,"label":"聯盟"}],"bills_party_diversity":[{"party":"民主進步黨","ratio":0.719626168224299},{"party":"中國國民黨","ratio":0.13885180240320427},{"party":"無黨籍","ratio":0.12817089452603472},{"party":"臺灣團結聯盟","ratio":0.01335113484646195}],"suggestions_piles":[{"count":3,"tokens":"廟|宮","sum":1583000,"label":"廟"},{"count":0,"tokens":"協會|學會|商會|公會|協進會|促進會|研習會|婦聯會|婦女會|體育會|同心會|農會|早起會|健身會|宗親會|功德會|商業會|長青會|民眾服務社|聯盟","sum":0,"label":"協會"},{"count":0,"tokens":"辦公室|辦公處","sum":0,"label":"辦公室"},{"count":0,"tokens":"警察局|分局","sum":0,"label":"警察局"},{"count":0,"tokens":"消防局|消防隊|分隊|中隊","sum":0,"label":"消防局"},{"count":0,"tokens":"國中|國小","sum":0,"label":"國中、國小"}]},"councilor":"289cfd501dbd4abfa7318da068b42d5c"}],"uid":"289cfd501dbd4abfa7318da068b42d5c","name":"劉正昌","birth":"1955-12-20","former_names":"","identifiers":["劉正昌","劉正昌"]},{"url":"http://councils.g0v.tw/api/councilors/1814/","each_terms":[{"url":"http://councils.g0v.tw/api/councilors_terms/3083/","election_year":"2014","name":"洪有仁","gender":"男","party":"無黨籍","title":"議員","constituency":1,"county":"嘉義市","district":"東區","in_office":true,"contact_details":[{"type":"address","value":"嘉義市東區義教里義教街794號","label":"地址"}],"term_start":"2014-12-25","term_end":{"date":"2018-12-25"},"education":"高雄市私立復華高中","experience":"嘉義市議會第四、五、七屆市議員","remark":null,"image":"http://www.cycc.gov.tw/files/b/%ACx%A6%B3%A4%AF%281%29.jpg","links":[{"url":"http://www.cycc.gov.tw/form1/index-2.asp?m=99&m1=4&m2=15&mode=1&id=31","note":"議會個人官網"}],"social_media":null,"platform":"","param":{"bills_role_statistics":{"total":32,"priproposer":2,"sponsor":2,"cosponsor":30},"bills_party_diversity":[{"party":"無黨籍","ratio":0.48372093023255813},{"party":"中國國民黨","ratio":0.26976744186046514},{"party":"民主進步黨","ratio":0.19534883720930232},{"party":"臺灣團結聯盟","ratio":0.05116279069767442}]},"councilor":"057a06ca8385473195268543eead3c37"}],"uid":"057a06ca8385473195268543eead3c37","name":"洪有仁","birth":null,"former_names":"","identifiers":["洪有仁"]},{"url":"http://councils.g0v.tw/api/councilors/1393/","each_terms":[{"url":"http://councils.g0v.tw/api/councilors_terms/3097/","election_year":"2014","name":"張敏琪","gender":"女","party":"中國國民黨","title":"議員","constituency":1,"county":"嘉義市","district":"東區","in_office":true,"contact_details":[{"type":"voice","value":"05-2256960","label":"電話"},{"type":"fax","value":"05-2256101","label":"傳真"},{"type":"address","value":"嘉義市世賢路4段446-10號","label":"地址"}],"term_start":"2014-12-25","term_end":{"date":"2018-12-25"},"education":"國中畢","experience":"","remark":null,"image":"http://www.cycc.gov.tw/files/b/%B1i%B1%D3%B5X.jpg","links":[{"url":"http://www.cycc.gov.tw/form1/index-2.asp?m=99&m1=4&m2=15&mode=1&id=11","note":"議會個人官網"}],"social_media":null,"platform":"","param":{"bills_role_statistics":{"total":75,"priproposer":0,"sponsor":0,"cosponsor":75},"bills_party_diversity":[{"party":"無黨籍","ratio":0.40913081650570676},{"party":"中國國民黨","ratio":0.30816505706760317},{"party":"民主進步黨","ratio":0.237928007023705},{"party":"臺灣團結聯盟","ratio":0.04477611940298507}]},"councilor":"7985ad40757c4485ba3100be7cc60811"},{"url":"http://councils.g0v.tw/api/councilors_terms/2319/","election_year":"2009","name":"張敏琪","gender":"女","party":"中國國民黨","title":"","constituency":1,"county":"嘉義市","district":"東區","in_office":true,"contact_details":[{"type":"address","value":"嘉義市立人路333號","label":"通訊處"},{"type":"voice","value":"05-2256960　　","label":"電話"},{"type":"fax","value":"05-2256101　　","label":"傳真"}],"term_start":"2009-12-25","term_end":{"date":"2014-12-25"},"education":"國中畢\n","experience":"一、嘉義市議會第六屆副議長侯金良，執行秘書\n二、嘉義市議會第四屆議員廖麗珠，特別助理\n三、輔仁中學第43屆家長會常務委員\n四、嘉義市阿九後援會召集人\n五、馬蕭競選總部，副主任委員","remark":null,"image":"http://www.cycc.gov.tw/files/b/%E5%BC%B5%E6%95%8F%E7%90%AA.jpg","links":[{"url":"http://www.cycc.gov.tw/form1/index-2.asp?m=99&m1=4&m2=15&mode=1&id=11","note":"議會個人官網"}],"social_media":null,"platform":"一、督促市府加強提昇各處局的執行率要確實落實\n二、督促市府加強照顧勞工、弱勢團體、婦幼、殘障等，提昇社會福利\n三、協助市府，向中央爭取各基層建設的補助經費，建設發展嘉義市\n四、協助市府，全力打造發展觀光事業，提昇商機，活絡市場\n五、督促市府，全面做好公共衛生，保障百姓的生命安全\n六、協助市府舉辦2010台灣燈會在嘉義市\n七、協助政府舉辦2011世界管樂年會在嘉義市，以利促進商機\n八、協助市府盡速加強開發建國二村，嘉義酒廠，舊監獄等地的再利用，促進繁榮嘉義市","param":{"bills_role_statistics":{"total":12,"priproposer":0,"sponsor":0,"cosponsor":12},"diversity":{"中國國民黨":0.3511904761904761,"民主進步黨":0.31679894179894175,"臺灣團結聯盟":0.09126984126984124,"無黨籍":0.2407407407407407}},"councilor":"7985ad40757c4485ba3100be7cc60811"}],"uid":"7985ad40757c4485ba3100be7cc60811","name":"張敏琪","birth":null,"former_names":"","identifiers":["張敏琪"]},{"url":"http://councils.g0v.tw/api/councilors/1101/","each_terms":[{"url":"http://councils.g0v.tw/api/councilors_terms/2026/","election_year":"2009","name":"吳福田","gender":"","party":"民主進步黨","title":"議員","constituency":1,"county":"宜蘭縣","district":"宜蘭","in_office":true,"contact_details":[{"type":"address","value":"宜蘭市軍民路11巷13號","label":"服務處所"},{"type":"voice","value":"9324591","label":"服務處所電話"},{"type":"voice","value":"9351868","label":"服務處所電話"}],"term_start":"2009-12-25","term_end":{"date":"2014-12-25"},"education":"頭城高中畢業","experience":"宜蘭縣議會第十七屆議員。\n台灣勞工運動支援會宜蘭分會第一、二屆會長。\n反六輕組織請願行動副總指揮。\n宜蘭縣百貨公會常務監事、常務理事、理事長。\n台汽工會常務理事。\n台汽五運員工聯誼會長。\n宜蘭市金六結福德廟委員。\n宜蘭市西關廟顧問。\n第十三、十四、十五、十六屆宜蘭縣議會議員。","remark":null,"image":"http://www.ilcc.gov.tw/pictures/people/A1706.JPG","links":[{"url":"http://www.ilcc.gov.tw/Html/H_05/H_0501.asp?GoOut=&pic=1&clique=DDP&User_id=A1706","note":"議會個人官網"}],"social_media":null,"platform":"一、秉持初衷理念，參政的理想努力。\n二、永續蘭陽精神核心的價值。\n三、爭取地方建設，健全社區生活品質。\n四、積極爭取知識產業園區設置，以利科技人才返鄉服務。\n五、推動擴大都市計劃，以利發展。\n六、要求政府重視勞工、婦女、殘障、同胞等弱勢團體福利建構公平合理社會。","param":{"bills_role_statistics":{"total":242,"priproposer":20,"sponsor":21,"cosponsor":221},"diversity":{"中國國民黨":0.49274071765524696,"民主進步黨":0.37554029876051026,"無黨籍":0.13171898358424247},"bills_party_diversity":[{"party":"中國國民黨","ratio":0.47234906139015725},{"party":"民主進步黨","ratio":0.389142567224759},{"party":"無黨籍","ratio":0.1385083713850837}]},"councilor":"3fa242730fd64dd8b67f0219d0e98c3b"}],"uid":"3fa242730fd64dd8b67f0219d0e98c3b","name":"吳福田","birth":null,"former_names":"","identifiers":["吳福田","吳褔田"]},{"url":"http://councils.g0v.tw/api/councilors/641/","each_terms":[{"url":"http://councils.g0v.tw/api/councilors_terms/1120/","election_year":"1990","name":"林木欉","gender":"","party":"","title":"議員","constituency":4,"county":"新北市","district":"樹林鎮、鶯歌鎮、三峽鎮、土城鄉","in_office":true,"contact_details":null,"term_start":"1990-03-01","term_end":{"date":"1994-02-28"},"education":"成福國小畢","experience":"臺北縣議會第12屆議員\n三峽鎮鎮民代表會第10、13屆代表\n三峽鎮鎮民代表會第11、12屆副主席\n三峽鎮調解委員會委員\n三峽民防分隊顧問\n三峽鎮中興社區1、2、3屆理事長\n三峽鎮警察局三峽義警中隊指導員、中隊顧問\n民國101年2月4日歿","remark":null,"image":"http://www.ntp.gov.tw/UpFile/CouncilorFile/TTCC1230.jpg","links":[{"url":"http://www.ntp.gov.tw/content/history/history01-5-p.aspx?sid=428","note":"議會個人官網"}],"social_media":null,"platform":"","param":null,"councilor":"923cdb84644142778da913aee9d2a3ea"}],"uid":"923cdb84644142778da913aee9d2a3ea","name":"林木欉","birth":null,"former_names":"","identifiers":["林木欉","林木欉"]},{"url":"http://councils.g0v.tw/api/councilors/1383/","each_terms":[{"url":"http://councils.g0v.tw/api/councilors_terms/2309/","election_year":"2009","name":"陳文齡","gender":"男","party":"中國國民黨","title":"","constituency":2,"county":"嘉義市","district":"西區","in_office":true,"contact_details":[{"type":"address","value":"嘉義市新榮路35巷15號","label":"通訊處"},{"type":"voice","value":"05-2232816　　","label":"電話"},{"type":"fax","value":"05-2232873　　","label":"傳真"}],"term_start":"2009-12-25","term_end":{"date":"2014-12-25"},"education":"三軍大學空軍指參學院正規班\n","experience":"現任：嘉義市第八屆議員、中國國民黨嘉義市議會黨團書記長、空軍四五五聯隊政戰部上校副主任\r\n曾任：嘉義市第五、六、七屆市議員、嘉義高中軍訓教官\n","remark":null,"image":"http://www.cycc.gov.tw/files/b/%E9%99%B3%E6%96%87%E9%BD%A1%281%29.jpg","links":[{"url":"http://www.cycc.gov.tw/form1/index-2.asp?m=99&m1=4&m2=15&mode=2&id=16","note":"議會個人官網"}],"social_media":null,"platform":"一、督促市政府儘速完成「都市更新」計畫，積極建設繁榮地方\n二、督促市政府加速完成北港路兩側開發案，帶動嘉義發展\n三、增加綠地開發，期能公園加速擴展，俾活化綠肺，供民眾休閒健身使用\n四、督促政府從寬修訂不適社福法規，有效做好社福工作，造福貧困家庭\n五、對中低收入貧困民眾，要求政府積極輔導就業，期能自立更生，俾能解決家困\n六、提昇教育環境，寬列預算，創造教育特色，儘速完成老舊教室整建\n七、要求市府做好治安防治，增加警察局預算，期能減少犯罪發生，保障民眾健康安全\n八、要求市府寬列體育經費，積極推展體育，提高運動水準及人口\n九、要求市府有效利用優質醫療資源，確保民眾健康安全\n十、要求市府推動「經國新城」商圈，帶動地方經濟發展，繁榮地方\n十一、督促市府辦好2010年元宵燈會及2011年世界管樂節，提昇市民藝術水準，帶動經濟發展，繁榮地方\n十二、有效監督市政，為民眾代言，做好服務工作","param":{"bills_role_statistics":{"total":37,"priproposer":3,"sponsor":3,"cosponsor":34},"diversity":{"中國國民黨":0.3760587937058527,"民主進步黨":0.2327619254089842,"臺灣團結聯盟":0.0460147695441813,"無黨籍":0.34516451134098197}},"councilor":"6e7790b2cca54b648b6842b22845608f"}],"uid":"6e7790b2cca54b648b6842b22845608f","name":"陳文齡","birth":null,"former_names":"","identifiers":["陳文齡"]},{"url":"http://councils.g0v.tw/api/councilors/1386/","each_terms":[{"url":"http://councils.g0v.tw/api/councilors_terms/2312/","election_year":"2009","name":"蔡貴絲","gender":"女","party":"中國國民黨","title":"","constituency":2,"county":"嘉義市","district":"西區","in_office":true,"contact_details":[{"type":"address","value":"嘉義市竹圍路167號","label":"通訊處"},{"type":"voice","value":"05-2342529　　","label":"電話"}],"term_start":"2009-12-25","term_end":{"date":"2014-12-25"},"education":"國立台灣體育大學運動碩士\n","experience":"歷任南洋建設股份有限公司總經理、嘉義桃城獅子會創會會長、嘉義桃城少獅會輔導會長、財團法人嘉義市天后宮名譽董事長、嘉義市保德宮名譽顧問、嘉邑南興宮名譽顧問、嘉義市議會第六、七屆議長，現任嘉義市議會第八屆議員。\n","remark":null,"image":"http://www.cycc.gov.tw/files/b/%E8%94%A1%E8%B2%B4%E7%B5%B2%281%29.jpg","links":[{"url":"http://www.cycc.gov.tw/form1/index-2.asp?m=99&m1=4&m2=15&mode=2&id=14","note":"議會個人官網"}],"social_media":null,"platform":"(1)持續推動北港路兩側區段徵收案，打造嘉義市新門面，活絡嘉義市商機\n(2)督促市府加速完成湖子內區段徵收案，以改善湖子內地區環境及民眾生活\n(3)持續監督市府，加速嘉義市都市更新計畫案進行，打造嘉義市市中心新面貌，帶動嘉義市觀光發展\n(4)配合市府全力向中央爭取儘速完成台鐵高架化，以利火車站兩側土地利用，改善居民生活環境\n(5)督促市府加強公共工程品質，注重開源節流，改善嘉義市財政\n(6)持續督促市府，加速3公園闢建，帶動當地觀光休憩產業，結合忠孝路商圈，形成商業軸帶\n(7)加速推動建國二村與復興新村土地變更計畫，結合大雅商圈、嘉義公園、棒球場，成為新的住、商區\n(8)督促市府加速開闢本市八米道路，解決市民交通及居住安全等問題\n(9)要求市府重視校園安全及教育品質，達到五育均衡教育，讓下一代快樂的學習\n(10)重視各項社會福利工作，讓老有所養、壯有所用、幼有所長，成為真正快樂的健康城市","param":{"bills_role_statistics":{"total":22,"priproposer":2,"sponsor":2,"cosponsor":20},"diversity":{"中國國民黨":0.3740259740259741,"民主進步黨":0.02489177489177489,"臺灣團結聯盟":0.013528138528138528,"無黨籍":0.5875541125541126}},"councilor":"f227bad211c445268139fad9fed042d5"}],"uid":"f227bad211c445268139fad9fed042d5","name":"蔡貴絲","birth":null,"former_names":"","identifiers":["蔡貴絲"]},{"url":"http://councils.g0v.tw/api/councilors/1388/","each_terms":[{"url":"http://councils.g0v.tw/api/councilors_terms/2314/","election_year":"2009","name":"郭美玲","gender":"女","party":"中國國民黨","title":"","constituency":1,"county":"嘉義市","district":"東區","in_office":true,"contact_details":[{"type":"address","value":"嘉義市東區吳鳳南路112號","label":"通訊處"},{"type":"voice","value":"05-2225707　　","label":"電話"}],"term_start":"2009-12-25","term_end":{"date":"2014-12-25"},"education":"國立中正大學學士\n","experience":"殘障者服務協會顧問 , 智障福利協進會顧問,   肢體殘障協會顧問  ,  啟智學校顧問,   服務策進委員會委員,東區調解委員會主席,   郭姓宗親會常務理事,  地方法院榮譽調解委員\n","remark":null,"image":"http://www.cycc.gov.tw/files/b/may1.jpg","links":[{"url":"http://www.cycc.gov.tw/form1/index-2.asp?m=99&m1=4&m2=15&mode=1&id=7","note":"議會個人官網"}],"social_media":null,"platform":"(一)督促政府興建污水下水道系統，儘速完成防治水污染，改善河川水質及排水設施，以防後患，如吳鳳南路365巷銜接立仁路中央排水設施之改善及光正街、玉峰街、新生路等等排水改善問題\n(二)積極爭取週邊已完成建築物林立的區域公園\n如「兒十」公園吳鳳南路521巷內及「公三」公園等等\n(三)督促政府盡速開發軍輝橋北岸的綠帶及完整設施改善與軍輝橋南岸，展現軍輝橋兩岸共存的優良環境\n(四)體育場及週邊運動設施之改建工程，增設多方面運動設施，提供民眾休閒運動空間\n(五)改善老人福利，殘障福利，一般低收入福利，勞工福利退休公教人員福利及青少年活動空間設施，落實建構長期照護體系，使社會呈現大同世界景象\n(六)督促政府協助廠商產業發展，以增加就業機會，保護失業人口，帶動經濟發展及產業創新研發的設立\n(七)督促政府加強維護治安，強化救災功能，充實消防設備維護民眾安全","param":{"suggestions_piles":[{"count":0,"tokens":"協會|學會|商會|公會|協進會|促進會|研習會|婦聯會|婦女會|體育會|同心會|農會|早起會|健身會|宗親會|功德會|商業會|長青會|民眾服務社|聯盟","sum":0,"label":"協會"},{"count":0,"tokens":"辦公室|辦公處","sum":0,"label":"辦公室"},{"count":0,"tokens":"廟|宮","sum":0,"label":"廟"},{"count":0,"tokens":"警察局|分局","sum":0,"label":"警察局"},{"count":0,"tokens":"消防局|消防隊|分隊|中隊","sum":0,"label":"消防局"},{"count":0,"tokens":"國中|國小","sum":0,"label":"國中、國小"}],"suggestions_associations":[{"count":0,"sum":0,"label":"社區發展協會"},{"count":0,"sum":0,"label":"學會"},{"count":0,"sum":0,"label":"商會"},{"count":0,"sum":0,"label":"公會"},{"count":0,"sum":0,"label":"協進會"},{"count":0,"sum":0,"label":"促進會"},{"count":0,"sum":0,"label":"研習會"},{"count":0,"sum":0,"label":"婦聯會"},{"count":0,"sum":0,"label":"婦女會"},{"count":0,"sum":0,"label":"體育會"},{"count":0,"sum":0,"label":"同心會"},{"count":0,"sum":0,"label":"農會"},{"count":0,"sum":0,"label":"早起會"},{"count":0,"sum":0,"label":"健身會"},{"count":0,"sum":0,"label":"宗親會"},{"count":0,"sum":0,"label":"功德會"},{"count":0,"sum":0,"label":"商業會"},{"count":0,"sum":0,"label":"長青會"},{"count":0,"sum":0,"label":"民眾服務社"},{"count":0,"sum":0,"label":"聯盟"}],"diversity":{},"suggestions_years":{"count":1,"sum":88000,"years":[{"count":1,"sum":88000,"suggest_year":"2012","small_purchase":1}]}},"councilor":"ffa3ac6c59f74875a4eab79197c7f768"}],"uid":"ffa3ac6c59f74875a4eab79197c7f768","name":"郭美玲","birth":null,"former_names":"","identifiers":["郭美玲","郭美玲"]},{"url":"http://councils.g0v.tw/api/councilors/1395/","each_terms":[{"url":"http://councils.g0v.tw/api/councilors_terms/2321/","election_year":"2009","name":"黃國村","gender":"男","party":"中國國民黨","title":"","constituency":1,"county":"嘉義市","district":"東區","in_office":true,"contact_details":[{"type":"address","value":"嘉義市號","label":"通訊處"},{"type":"voice","value":"05-　　","label":"電話"}],"term_start":"2009-12-25","term_end":{"date":"2014-12-25"},"education":"私立吳鳳工業專科學校畢業。","experience":"一、嘉義市市政府專員\n二、嘉義市第一、二、三、四、五、六屆市議員\n三、嘉南水利會六、七、八屆會員代表\n四、嘉義縣第十屆縣議員\n五、嘉義市第九屆市民代表\n六、嘉義市市農會二屆理事\n七、現任：嘉義市游泳委員會主任委員\n八、國立中正大學學士學分班結業","remark":null,"image":"http://www.cycc.gov.tw/files/b/ee003.jpg","links":[{"url":"http://www.cycc.gov.tw/form1/index-2.asp?m=99&m1=4&m2=15&mode=1&id=3","note":"議會個人官網"}],"social_media":null,"platform":"一、遵照縣市議會之職權，切實扮好民代角色\n二、深入基層，探求民苦，了解民意，反映民情\n三、極力爭取地方建設，綠化、美化與繁榮社區\n四、督促政府重視老人、婦幼、弱勢團體等各項福利措施\n五、善盡政府與市民之橋樑\n六、積極協助市府推動市政\n七、看緊市民之荷包，嚴密審議市庫收支\n八、服務至上，理性問政，民意為重，市政為先","param":{"bills_role_statistics":{"total":15,"priproposer":5,"sponsor":6,"cosponsor":9},"diversity":{"中國國民黨":0.43259018759018747,"民主進步黨":0.19004810004810005,"臺灣團結聯盟":0.05879028379028379,"無黨籍":0.3185714285714285}},"councilor":"e9e12c7e2d594d9997fddc08ab21ce18"}],"uid":"e9e12c7e2d594d9997fddc08ab21ce18","name":"黃國村","birth":null,"former_names":"","identifiers":["黃國村","黄國村"]}]}