{"count":1904,"next":"http://councils.g0v.tw/api/councilors/?page=126","previous":"http://councils.g0v.tw/api/councilors/?page=124","results":[{"url":"http://councils.g0v.tw/api/councilors/356/","each_terms":[{"url":"http://councils.g0v.tw/api/councilors_terms/694/","election_year":"2010","name":"高基讚","gender":"","party":"臺灣團結聯盟","title":"議員","constituency":4,"county":"臺中市","district":"后里區、豐原區","in_office":true,"contact_details":[{"type":"address","value":"臺中市后里區中和里大圳路295號","label":"服務處地址"},{"type":"voice","value":"04-2556-6678","label":"服務處電話"},{"type":"fax","value":"04-2557-6385","label":"服務處傳真"},{"type":"email","value":"kao.service@msa.hinet.net","label":"e-mail"}],"term_start":"2010-12-25","term_end":{"date":"2014-12-25"},"education":"內埔國小畢業\n后綜國中畢業\n省立台中高農農業土木科畢業\n國立屏東農專農業土木科畢業","experience":"台灣省政府建設廳(辦事員、技佐、科員)\n嘉義市政府都市計畫課課長\n第十六屆后里鄉民代表\n第十五、十六屆台中縣議員\n第六、七屆后里游泳協會會長\n第六屆台中縣水上救生教練協會會長","remark":null,"image":"http://www.tccc.gov.tw/mediafile/1837/editor_model/229/pic/018.bmp","links":[{"url":"http://www.tccc.gov.tw/editor_model/u_editor_v1.asp?id=%7B762F8ED7-7A01-4473-9312-9B183B8E105C%7D","note":"議會個人官網"}],"social_media":null,"platform":"中國不得阻擾台灣與世界各國簽署「自由貿易協定」。\n政府應速制訂法律及政策，保護台灣農業及傳統產業。","param":{"suggestions_years":{"count":6,"sum":3138583,"years":[{"count":6,"sum":3138583,"suggest_year":"2014","small_purchase":1}]},"diversity":{"中國國民黨":0.11306174967547179,"民主進步黨":0.6746209168063753,"臺灣團結聯盟":0.13225336013897873,"親民黨":0.016797076367045406,"無黨籍":0.06326689701212822},"bills_role_statistics":{"total":10,"priproposer":1,"sponsor":1,"cosponsor":9},"suggestions_associations":[{"count":0,"sum":0,"label":"社區發展協會"},{"count":0,"sum":0,"label":"學會"},{"count":0,"sum":0,"label":"商會"},{"count":0,"sum":0,"label":"公會"},{"count":0,"sum":0,"label":"協進會"},{"count":0,"sum":0,"label":"促進會"},{"count":0,"sum":0,"label":"研習會"},{"count":0,"sum":0,"label":"婦聯會"},{"count":0,"sum":0,"label":"婦女會"},{"count":0,"sum":0,"label":"體育會"},{"count":0,"sum":0,"label":"同心會"},{"count":0,"sum":0,"label":"農會"},{"count":0,"sum":0,"label":"早起會"},{"count":0,"sum":0,"label":"健身會"},{"count":0,"sum":0,"label":"宗親會"},{"count":0,"sum":0,"label":"功德會"},{"count":0,"sum":0,"label":"商業會"},{"count":0,"sum":0,"label":"長青會"},{"count":0,"sum":0,"label":"民眾服務社"},{"count":0,"sum":0,"label":"聯盟"}],"bills_party_diversity":[{"party":"民主進步黨","ratio":0.6046511627906976},{"party":"中國國民黨","ratio":0.2616279069767442},{"party":"無黨籍","ratio":0.0755813953488372},{"party":"臺灣團結聯盟","ratio":0.05813953488372093}],"suggestions_piles":[{"count":0,"tokens":"協會|學會|商會|公會|協進會|促進會|研習會|婦聯會|婦女會|體育會|同心會|農會|早起會|健身會|宗親會|功德會|商業會|長青會|民眾服務社|聯盟","sum":0,"label":"協會"},{"count":0,"tokens":"辦公室|辦公處","sum":0,"label":"辦公室"},{"count":0,"tokens":"廟|宮","sum":0,"label":"廟"},{"count":0,"tokens":"警察局|分局","sum":0,"label":"警察局"},{"count":0,"tokens":"消防局|消防隊|分隊|中隊","sum":0,"label":"消防局"},{"count":0,"tokens":"國中|國小","sum":0,"label":"國中、國小"}]},"councilor":"422c7c200b9346e1a0c4405e70ce42e0"}],"uid":"422c7c200b9346e1a0c4405e70ce42e0","name":"高基讚","birth":null,"former_names":"","identifiers":["高基讚"]},{"url":"http://councils.g0v.tw/api/councilors/365/","each_terms":[{"url":"http://councils.g0v.tw/api/councilors_terms/703/","election_year":"2010","name":"連立堅","gender":"","party":"民主進步黨","title":"議員","constituency":6,"county":"高雄市","district":"鼓山區、鹽埕區、旗津區","in_office":true,"contact_details":[{"type":"voice","value":"521-4081","label":"傳真"},{"type":"fax","value":"551-1623","label":"傳真"},{"type":"email","value":"lienlijen@gmail.com","label":"電子信箱"},{"type":"address","value":"804鼓山區鼓山二路251-1號","label":"通訊處"}],"term_start":"2010-12-25","term_end":{"date":"2014-12-25"},"education":"國立中興大學法商學院(現改名國立台北大學)法律系畢業","experience":"一、執業律師(律師高考及格)。\n二、高雄市議員。\n三、國民大會代表。\n四、高市總工會、職業總工會法律顧問。\n五、消基會高屏分會主任委員暨義務律師。\n六、高雄市平民法律扶助中心律師。","remark":null,"image":"http://www.kcc.gov.tw/Upload/PeriodMembers/0701026.jpg","links":[{"url":"http://www.kcc.gov.tw/PeriodMembers/Introduction.aspx?KeyID=26","note":"議會個人官網"}],"social_media":null,"platform":"一、堅持台灣優先。\n二、堅持弱勢優先。\n三、推動鴨子船隊、觀光纜車、旗津觀光大島、振興觀光產業。\n四、爭取加速捷運、輕軌路網交通系統。\n五、推動綠能、減碳、遊艇及文創產業。\n六、加強婦幼安全，增加生育、托育補助。\n七、關懷外籍配偶，提供就業、學習...等福利措施。\n八、加強辦理老人文康活動，增加老人照護設施及福利。\n九、持續推動駁二文創特區，擴大能量振興鹽埕。\n十、推動鹽埕、哈瑪星間高雄港站土地設置鐵道博物館。\n十一、捍衛旗津離島居民固有權益(渡輪免費、生育、喪葬、結婚、學齡前兒童補助、助學金、身障者營養...)。\n十二、爭取將農16停車場用地建設為多功能共構大樓，提供社區民眾福利、休憩、閱讀、停車及照護等設施。\n十三、爭取美術館特區、農16社區設立圖書館。\n十四、爭取美術館特區設立國家圖書館分館。\n十五、爭取美術館特區加速設立龍美國小。","param":{"bills_role_statistics":{"total":123,"priproposer":102,"sponsor":103,"cosponsor":20},"votes_decision_statistics":{"abstain":0,"disagree":2,"not_voting":1,"total":3,"agree":0,"conflict":0},"diversity":{"中國國民黨":0.11813186813186817,"民主進步黨":0.7878319597069601,"親民黨":0.0006868131868131868,"無黨籍":0.09334935897435896},"suggestions_years":{"count":61,"sum":32397038,"years":[{"count":20,"sum":8387104,"suggest_year":"2011","small_purchase":13},{"count":16,"sum":12000334,"suggest_year":"2012","small_purchase":1},{"count":18,"sum":11929600,"suggest_year":"2013","small_purchase":1},{"count":7,"sum":80000,"suggest_year":"2014","small_purchase":7}]},"attendance_statistics":{"absent":2,"total":392},"suggestions_associations":[{"count":0,"sum":0,"label":"社區發展協會"},{"count":0,"sum":0,"label":"學會"},{"count":0,"sum":0,"label":"商會"},{"count":0,"sum":0,"label":"公會"},{"count":0,"sum":0,"label":"協進會"},{"count":0,"sum":0,"label":"促進會"},{"count":0,"sum":0,"label":"研習會"},{"count":0,"sum":0,"label":"婦聯會"},{"count":0,"sum":0,"label":"婦女會"},{"count":0,"sum":0,"label":"體育會"},{"count":0,"sum":0,"label":"同心會"},{"count":0,"sum":0,"label":"農會"},{"count":0,"sum":0,"label":"早起會"},{"count":0,"sum":0,"label":"健身會"},{"count":0,"sum":0,"label":"宗親會"},{"count":0,"sum":0,"label":"功德會"},{"count":0,"sum":0,"label":"商業會"},{"count":0,"sum":0,"label":"長青會"},{"count":0,"sum":0,"label":"民眾服務社"},{"count":0,"sum":0,"label":"聯盟"}],"bills_party_diversity":[{"party":"民主進步黨","ratio":0.7608695652173914},{"party":"中國國民黨","ratio":0.1539855072463768},{"party":"無黨籍","ratio":0.07427536231884058},{"party":"親民黨","ratio":0.010869565217391304}],"suggestions_piles":[{"count":24,"tokens":"國中|國小","sum":16408774,"label":"國中、國小"},{"count":8,"tokens":"警察局|分局","sum":3249330,"label":"警察局"},{"count":0,"tokens":"協會|學會|商會|公會|協進會|促進會|研習會|婦聯會|婦女會|體育會|同心會|農會|早起會|健身會|宗親會|功德會|商業會|長青會|民眾服務社|聯盟","sum":0,"label":"協會"},{"count":0,"tokens":"辦公室|辦公處","sum":0,"label":"辦公室"},{"count":0,"tokens":"廟|宮","sum":0,"label":"廟"},{"count":0,"tokens":"消防局|消防隊|分隊|中隊","sum":0,"label":"消防局"}]},"councilor":"1938d9ad369c4a1fa62f17cf4747029e"}],"uid":"1938d9ad369c4a1fa62f17cf4747029e","name":"連立堅","birth":null,"former_names":"","identifiers":["連立堅"]},{"url":"http://councils.g0v.tw/api/councilors/368/","each_terms":[{"url":"http://councils.g0v.tw/api/councilors_terms/706/","election_year":"2010","name":"吳利成","gender":"","party":"中國國民黨","title":"議員","constituency":5,"county":"高雄市","district":"大社區、仁武區、鳥松區、大樹區","in_office":true,"contact_details":[{"type":"voice","value":"6510070","label":"傳真"},{"type":"fax","value":"6521208","label":"傳真"},{"type":"address","value":"840大樹區和山路200號","label":"通訊處"}],"term_start":"2010-12-25","term_end":{"date":"2014-12-25"},"education":"國立高雄師範大學成教所碩士畢業","experience":"1.嘉義竹崎國小教師。\n2.嘉義師範附設國小教師。\n3.高雄縣議會第14、15、16屆縣議員。","remark":null,"image":"http://www.kcc.gov.tw/Upload/PeriodMembers/0701023.jpg","links":[{"url":"http://www.kcc.gov.tw/PeriodMembers/Introduction.aspx?KeyID=23","note":"議會個人官網"}],"social_media":null,"platform":"1.全心奉獻、不計利害，為民服務。\n2.督促政府改善治安維護人民權益。\n3.監督政府提升為民服務品質，改善人民生活環境。\n4.督促政府提高教育品質，防制毒品、暴力流入校園。\n5.促請政府落實就業輔導及工安維護。\n6.促請政府加速強化農漁業發展，增進民間經濟活力。\n7.促請政府落實觀光產業發展，提升高雄都會區域生活條件。\n8.促請政府積極推行社會倫理建設及人民生活文化品質。\n9.督促政府依法行政，加速都市建設提高國際競爭力。\n10.強力監督政府保障合法、公平落實市民各項福利措施。","param":{"bills_role_statistics":{"total":127,"priproposer":3,"sponsor":3,"cosponsor":124},"votes_decision_statistics":{"abstain":0,"disagree":0,"not_voting":0,"total":3,"agree":3,"conflict":0},"diversity":{"中國國民黨":0.8921474358974361,"民主進步黨":0.08060897435897435,"親民黨":0.0,"無黨籍":0.02724358974358974},"suggestions_years":{"count":47,"sum":33189914,"years":[{"count":10,"sum":12383290,"suggest_year":"2011","small_purchase":0},{"count":16,"sum":10141824,"suggest_year":"2012","small_purchase":3},{"count":15,"sum":10664800,"suggest_year":"2013","small_purchase":2},{"count":6,"sum":0,"suggest_year":"2014","small_purchase":6}]},"attendance_statistics":{"absent":5,"total":392},"suggestions_associations":[{"count":0,"sum":0,"label":"社區發展協會"},{"count":0,"sum":0,"label":"學會"},{"count":0,"sum":0,"label":"商會"},{"count":0,"sum":0,"label":"公會"},{"count":0,"sum":0,"label":"協進會"},{"count":0,"sum":0,"label":"促進會"},{"count":0,"sum":0,"label":"研習會"},{"count":0,"sum":0,"label":"婦聯會"},{"count":0,"sum":0,"label":"婦女會"},{"count":0,"sum":0,"label":"體育會"},{"count":0,"sum":0,"label":"同心會"},{"count":0,"sum":0,"label":"農會"},{"count":0,"sum":0,"label":"早起會"},{"count":0,"sum":0,"label":"健身會"},{"count":0,"sum":0,"label":"宗親會"},{"count":0,"sum":0,"label":"功德會"},{"count":0,"sum":0,"label":"商業會"},{"count":0,"sum":0,"label":"長青會"},{"count":0,"sum":0,"label":"民眾服務社"},{"count":0,"sum":0,"label":"聯盟"}],"bills_party_diversity":[{"party":"中國國民黨","ratio":0.8476702508960573},{"party":"民主進步黨","ratio":0.09498207885304659},{"party":"無黨籍","ratio":0.053763440860215055},{"party":"親民黨","ratio":0.0035842293906810036}],"suggestions_piles":[{"count":11,"tokens":"國中|國小","sum":11743824,"label":"國中、國小"},{"count":5,"tokens":"警察局|分局","sum":2692290,"label":"警察局"},{"count":1,"tokens":"辦公室|辦公處","sum":219290,"label":"辦公室"},{"count":0,"tokens":"協會|學會|商會|公會|協進會|促進會|研習會|婦聯會|婦女會|體育會|同心會|農會|早起會|健身會|宗親會|功德會|商業會|長青會|民眾服務社|聯盟","sum":0,"label":"協會"},{"count":0,"tokens":"廟|宮","sum":0,"label":"廟"},{"count":0,"tokens":"消防局|消防隊|分隊|中隊","sum":0,"label":"消防局"}]},"councilor":"ddd04bc835944b51bfb9b3fedb1e29d3"}],"uid":"ddd04bc835944b51bfb9b3fedb1e29d3","name":"吳利成","birth":null,"former_names":"","identifiers":["吳利成"]},{"url":"http://councils.g0v.tw/api/councilors/369/","each_terms":[{"url":"http://councils.g0v.tw/api/councilors_terms/707/","election_year":"2010","name":"錢聖武","gender":"","party":"民主進步黨","title":"議員","constituency":5,"county":"高雄市","district":"大社區、仁武區、鳥松區、大樹區","in_office":true,"contact_details":[{"type":"voice","value":"3724273","label":"傳真"},{"type":"fax","value":"3758972","label":"傳真"},{"type":"address","value":"814仁武區仁樂街210號","label":"通訊處"}],"term_start":"2010-12-25","term_end":{"date":"2014-12-25"},"education":"一、仁武國小畢。\n二、仁武國中畢。\n三、臺北市私立三極高職畢。","experience":"一、竹後村村長二屆。\n二、仁武鄉鄉民代表。\n三、保五警察總隊顧問。\n四、民進黨全國黨代表。\n五、民進黨高雄縣黨部評議召集人。　\n六、仁武鄉義消分隊顧問。\n七、仁武鄉同心慈善會顧問團長。\n八、仁武鄉公害防治小組召集人。\n九、仁武警分局義勇刑事警察小隊長。\n十、現任高雄縣議員。","remark":null,"image":"http://www.kcc.gov.tw/Upload/PeriodMembers/0701022.jpg","links":[{"url":"http://www.kcc.gov.tw/PeriodMembers/Introduction.aspx?KeyID=22","note":"議會個人官網"}],"social_media":null,"platform":"一、推動四鄉（仁武、大社、鳥松、大樹）聯盟，共同繁榮發展。\n二、以「交通新仁武」為核心，建構交通網路，作為對外發展門戶。\n三、以「健康觀音山」帶動大社鄉人潮，營造運動＆農產集散專區。\n四、以「觀光澄清湖」舞動鳥松優勢，行銷觀光熱潮景點。\n五、以「農業玉荷包」發展大樹鄉農產，建構暢銷通路，讓農民辛苦有代價。\n六、六十五歲以上長輩，免交健保費，免費裝假牙，免費坐捷運，交通行動無障礙。\n七、關懷隔代教養及弱勢家庭子女，推動陪讀安親服務，讓其也能贏在起跑點上。\n八、全面推動國中小免費營養午餐。\n九、繁榮產業，經濟起飛，社會福利有保障。\n十、提高生育補助津貼及幼稚園兒童就讀補助。\n十一、反映民意、造福市民、爭取農民、勞工權益。\n十二、協助市政，推動地方建設。","param":{"bills_role_statistics":{"total":111,"priproposer":58,"sponsor":58,"cosponsor":53},"votes_decision_statistics":{"abstain":0,"disagree":0,"not_voting":3,"total":3,"agree":0,"conflict":0},"diversity":{"中國國民黨":0.11501501501501497,"民主進步黨":0.789489489489489,"親民黨":0.0,"無黨籍":0.09549549549549546},"suggestions_years":{"count":40,"sum":22089614,"years":[{"count":18,"sum":9825483,"suggest_year":"2011","small_purchase":8},{"count":19,"sum":10061131,"suggest_year":"2012","small_purchase":6},{"count":3,"sum":2203000,"suggest_year":"2013","small_purchase":0}]},"attendance_statistics":{"absent":15,"total":392},"suggestions_associations":[{"count":0,"sum":0,"label":"社區發展協會"},{"count":0,"sum":0,"label":"學會"},{"count":0,"sum":0,"label":"商會"},{"count":0,"sum":0,"label":"公會"},{"count":0,"sum":0,"label":"協進會"},{"count":0,"sum":0,"label":"促進會"},{"count":0,"sum":0,"label":"研習會"},{"count":0,"sum":0,"label":"婦聯會"},{"count":0,"sum":0,"label":"婦女會"},{"count":0,"sum":0,"label":"體育會"},{"count":0,"sum":0,"label":"同心會"},{"count":0,"sum":0,"label":"農會"},{"count":0,"sum":0,"label":"早起會"},{"count":0,"sum":0,"label":"健身會"},{"count":0,"sum":0,"label":"宗親會"},{"count":0,"sum":0,"label":"功德會"},{"count":0,"sum":0,"label":"商業會"},{"count":0,"sum":0,"label":"長青會"},{"count":0,"sum":0,"label":"民眾服務社"},{"count":0,"sum":0,"label":"聯盟"}],"bills_party_diversity":null,"suggestions_piles":[{"count":23,"tokens":"國中|國小","sum":12273304,"label":"國中、國小"},{"count":7,"tokens":"警察局|分局","sum":5900710,"label":"警察局"},{"count":0,"tokens":"協會|學會|商會|公會|協進會|促進會|研習會|婦聯會|婦女會|體育會|同心會|農會|早起會|健身會|宗親會|功德會|商業會|長青會|民眾服務社|聯盟","sum":0,"label":"協會"},{"count":0,"tokens":"辦公室|辦公處","sum":0,"label":"辦公室"},{"count":0,"tokens":"廟|宮","sum":0,"label":"廟"},{"count":0,"tokens":"消防局|消防隊|分隊|中隊","sum":0,"label":"消防局"}]},"councilor":"4de961823df04046944c1f61b32fba5f"}],"uid":"4de961823df04046944c1f61b32fba5f","name":"錢聖武","birth":null,"former_names":"","identifiers":["錢聖武"]},{"url":"http://councils.g0v.tw/api/councilors/372/","each_terms":[{"url":"http://councils.g0v.tw/api/councilors_terms/710/","election_year":"2010","name":"藍星木","gender":"","party":"中國國民黨","title":"議員","constituency":4,"county":"高雄市","district":"楠梓區、左營區","in_office":true,"contact_details":[{"type":"voice","value":"363-5253","label":"傳真"},{"type":"fax","value":"362-8326","label":"傳真"},{"type":"email","value":"singmu@yahoo.com.tw","label":"電子信箱"},{"type":"address","value":"811楠梓區盛昌街255巷100之6號","label":"通訊處"}],"term_start":"2010-12-25","term_end":{"date":"2014-12-25"},"education":"高雄市立右昌國中畢業","experience":"高雄市第四、五、六、七屆市議員\n第15、16、17、18全黨代表\n17全中央委員　　\n高雄市右昌元帥府、三山國王廟、一甲福德廟、三甲福德祠、土庫清福寺管委會顧問\n高雄市淑德婦女協進會顧問\n高雄市信鴿協會後昌分會顧問","remark":null,"image":"http://www.kcc.gov.tw/Upload/PeriodMembers/0701019.jpg","links":[{"url":"http://www.kcc.gov.tw/PeriodMembers/Introduction.aspx?KeyID=19","note":"議會個人官網"}],"social_media":null,"platform":"一、重視弱勢族群，健全福利安養。\n二、關懷勞工就業，保障勞工權益。\n三、推動地方建設，督促市府重視傳統市場的更新與活化。\n四、規劃交通網絡，全力監督鐵路地下化進度。\n五、提高教育水準，爭取增加市立幼稚園班級和名額。\n六、改善治安狀況，提昇居住品質。\n七、提昇社區醫療資源，落實社會福利政策。\n八、整治排水系統，降低災害損失。\n九、落實兩性平權，提高婦女地位。\n十、堅持認真、用心的專業服務。","param":{"bills_role_statistics":{"total":83,"priproposer":0,"sponsor":0,"cosponsor":83},"votes_decision_statistics":{"abstain":0,"disagree":0,"not_voting":0,"total":3,"agree":3,"conflict":0},"diversity":{"中國國民黨":0.7944444444444443,"民主進步黨":0.06280193236714976,"親民黨":0.004830917874396135,"無黨籍":0.13792270531400963},"suggestions_years":{"count":75,"sum":26715794,"years":[{"count":9,"sum":4829420,"suggest_year":"2011","small_purchase":5},{"count":28,"sum":9333874,"suggest_year":"2012","small_purchase":3},{"count":24,"sum":11894500,"suggest_year":"2013","small_purchase":2},{"count":14,"sum":658000,"suggest_year":"2014","small_purchase":13}]},"attendance_statistics":{"absent":4,"total":392},"suggestions_associations":[{"count":0,"sum":0,"label":"社區發展協會"},{"count":0,"sum":0,"label":"學會"},{"count":0,"sum":0,"label":"商會"},{"count":0,"sum":0,"label":"公會"},{"count":0,"sum":0,"label":"協進會"},{"count":0,"sum":0,"label":"促進會"},{"count":0,"sum":0,"label":"研習會"},{"count":0,"sum":0,"label":"婦聯會"},{"count":0,"sum":0,"label":"婦女會"},{"count":0,"sum":0,"label":"體育會"},{"count":0,"sum":0,"label":"同心會"},{"count":0,"sum":0,"label":"農會"},{"count":0,"sum":0,"label":"早起會"},{"count":0,"sum":0,"label":"健身會"},{"count":0,"sum":0,"label":"宗親會"},{"count":0,"sum":0,"label":"功德會"},{"count":0,"sum":0,"label":"商業會"},{"count":0,"sum":0,"label":"長青會"},{"count":0,"sum":0,"label":"民眾服務社"},{"count":0,"sum":0,"label":"聯盟"}],"bills_party_diversity":[{"party":"中國國民黨","ratio":0.7445652173913043},{"party":"無黨籍","ratio":0.13043478260869565},{"party":"民主進步黨","ratio":0.11956521739130435},{"party":"親民黨","ratio":0.005434782608695652}],"suggestions_piles":[{"count":28,"tokens":"警察局|分局","sum":11791040,"label":"警察局"},{"count":12,"tokens":"國中|國小","sum":2515254,"label":"國中、國小"},{"count":2,"tokens":"消防局|消防隊|分隊|中隊","sum":90000,"label":"消防局"},{"count":0,"tokens":"協會|學會|商會|公會|協進會|促進會|研習會|婦聯會|婦女會|體育會|同心會|農會|早起會|健身會|宗親會|功德會|商業會|長青會|民眾服務社|聯盟","sum":0,"label":"協會"},{"count":1,"tokens":"辦公室|辦公處","sum":0,"label":"辦公室"},{"count":0,"tokens":"廟|宮","sum":0,"label":"廟"}]},"councilor":"8599fa12da8c49a996f92310dbfff7e7"}],"uid":"8599fa12da8c49a996f92310dbfff7e7","name":"藍星木","birth":null,"former_names":"","identifiers":["藍星木"]},{"url":"http://councils.g0v.tw/api/councilors/193/","each_terms":[{"url":"http://councils.g0v.tw/api/councilors_terms/390/","election_year":"1989","name":"卓榮泰","gender":"男","party":"民主進步黨","title":"議員","constituency":null,"county":"臺北市","district":"","in_office":true,"contact_details":null,"term_start":"1989-12-25","term_end":{"date":"1994-12-25"},"education":"日新國小、大同國中、復興高中、中興大學法律系。","experience":"謝長廷議員助理、世紀法律事務所法務助理、新文化雜誌顧問。","remark":"","image":"http://www.tcc.gov.tw/../upload/photo/%E5%8D%93%E6%A6%AE%E6%B3%B014.jpg","links":[{"url":"http://www.tcc.gov.tw/Councilor_Content_All.aspx?s=2144&d=590122&n=%E5%8D%93%E6%A6%AE%E6%B3%B0","note":"議會個人官網"}],"social_media":null,"platform":"","param":null,"councilor":"d43df326f5c84745bbe059d49a9c9adf"},{"url":"http://councils.g0v.tw/api/councilors_terms/337/","election_year":"1994","name":"卓榮泰","gender":"男","party":"民主進步黨","title":"議員","constituency":null,"county":"臺北市","district":"","in_office":false,"contact_details":null,"term_start":"1994-12-25","term_end":{"date":"1998-12-25","reason":"臺北市直轄市議會第六屆議員。民國88年當選第四屆立法委員，連任第五屆立委，其後擔任行政院發言人職務，乙級行政院秘書長、總統府副秘書長、代理總統府副秘書長要職。"},"education":"日新國小、大同國中、復興高中、東吳大學法律系(轉)、中興大學法律系。","experience":"謝長廷東區服務處第一屆主任，民進黨臺北市黨部第一屆執行委員，一九九二年謝長廷立委競選總幹事，民進黨台北市議會黨團召集人，副召集人及幹事長，臺北市議會「捷運弊案調查小組」成員，民政審查會召集人，工務審查會及警政衛生審查會副召集人，民國87年底參選立法委員並當選。","remark":"臺北市直轄市議會第六屆議員。民國88年當選第四屆立法委員，連任第五屆立委，其後擔任行政院發言人職務，乙級行政院秘書長、總統府副秘書長、代理總統府副秘書長要職。","image":"http://www.tcc.gov.tw/../upload/photo/%E5%8D%93%E6%A6%AE%E6%B3%B015.jpg","links":[{"url":"http://www.tcc.gov.tw/Councilor_Content_All.aspx?s=1528&d=580122&n=%E5%8D%93%E6%A6%AE%E6%B3%B0","note":"議會個人官網"}],"social_media":null,"platform":"","param":null,"councilor":"d43df326f5c84745bbe059d49a9c9adf"}],"uid":"d43df326f5c84745bbe059d49a9c9adf","name":"卓榮泰","birth":"1958-01-22","former_names":"","identifiers":["卓榮泰"]},{"url":"http://councils.g0v.tw/api/councilors/194/","each_terms":[{"url":"http://councils.g0v.tw/api/councilors_terms/338/","election_year":"1994","name":"李慶安","gender":"女","party":"中國國民黨","title":"議員","constituency":null,"county":"臺北市","district":"","in_office":false,"contact_details":null,"term_start":"1994-12-25","term_end":{"date":"2009-02-13","reason":"中央選舉委員會於民國98年2月13日中選一字第0983100049號公告，撤銷李慶安女士第7屆臺北市議員當選公告並註銷其當選證書。"},"education":"北一女中畢業、國立政治大學新聞系畢業、美國馬利蘭州大眾傳播學碩士。","experience":"中視「六十分鐘」執行製作、華視駐美特派員、華視「新聞雜誌」主持人、公視「國際瞭望」主持人、公視環保節目主持人、展望基金會執行長、中國國民黨中央委員。","remark":"中央選舉委員會於民國98年2月13日中選一字第0983100049號公告，撤銷李慶安女士第7屆臺北市議員當選公告並註銷其當選證書。","image":"http://www.tcc.gov.tw/../upload/photo/%E6%9D%8E%E6%85%B6%E5%AE%8915.jpg","links":[{"url":"http://www.tcc.gov.tw/Councilor_Content_All.aspx?s=1525&d=590117&n=%E6%9D%8E%E6%85%B6%E5%AE%89","note":"議會個人官網"}],"social_media":null,"platform":"","param":null,"councilor":"fb0f06c0dc8a4bcba5253182dbf17c81"}],"uid":"fb0f06c0dc8a4bcba5253182dbf17c81","name":"李慶安","birth":"1959-01-17","former_names":"","identifiers":["李慶安","李慶安"]},{"url":"http://councils.g0v.tw/api/councilors/195/","each_terms":[{"url":"http://councils.g0v.tw/api/councilors_terms/340/","election_year":"1994","name":"李逸洋","gender":"男","party":"民主進步黨","title":"議員","constituency":null,"county":"臺北市","district":"","in_office":false,"contact_details":null,"term_start":"1994-12-25","term_end":{"date":"1998-12-25","reason":"民國86年任內轉任臺北市政府民政局長，其後任內政部政務次長、人事行政局長、內政部長（民９５年）等職務。"},"education":"成功高中、臺大政治系、臺大政治研究所碩士。","experience":"中國時報立法院記者，蓬來島系列雜誌總編輯，民進黨文宣部主任，中央執行委員，敬老年金行動聯盟副總召集人，民進黨新潮流系總召集人，立委吳淑珍國會助理、建國烈士鄭南榕基金會董事、臺北市直轄市議會第六屆議員。","remark":"民國86年任內轉任臺北市政府民政局長，其後任內政部政務次長、人事行政局長、內政部長（民９５年）等職務。","image":"http://www.tcc.gov.tw/../upload/photo/%E6%9D%8E%E9%80%B8%E6%B4%8B15.jpg","links":[{"url":"http://www.tcc.gov.tw/Councilor_Content_All.aspx?s=1527&d=550628&n=%E6%9D%8E%E9%80%B8%E6%B4%8B","note":"議會個人官網"}],"social_media":null,"platform":"","param":null,"councilor":"4b6ec9f0610c481c8b8c3574787f6a48"},{"url":"http://councils.g0v.tw/api/councilors_terms/391/","election_year":"1989","name":"李逸洋","gender":"男","party":"民主進步黨","title":"議員","constituency":null,"county":"臺北市","district":"","in_office":true,"contact_details":null,"term_start":"1989-12-25","term_end":{"date":"1994-12-25"},"education":"臺大政治系、臺大政治研究所碩士。","experience":"新潮流雜誌社社長、基隆二信研究員、中國時報立法院記者、蓬萊島雜誌總編輯。","remark":"","image":"http://www.tcc.gov.tw/../upload/photo/%E6%9D%8E%E9%80%B8%E6%B4%8B14.jpg","links":[{"url":"http://www.tcc.gov.tw/Councilor_Content_All.aspx?s=2104&d=550628&n=%E6%9D%8E%E9%80%B8%E6%B4%8B","note":"議會個人官網"}],"social_media":null,"platform":"","param":null,"councilor":"4b6ec9f0610c481c8b8c3574787f6a48"}],"uid":"4b6ec9f0610c481c8b8c3574787f6a48","name":"李逸洋","birth":"1955-06-28","former_names":"","identifiers":["李逸洋","李逸洋"]},{"url":"http://councils.g0v.tw/api/councilors/196/","each_terms":[{"url":"http://councils.g0v.tw/api/councilors_terms/342/","election_year":"1994","name":"李金璋","gender":"男","party":"中國國民黨","title":"議員","constituency":null,"county":"臺北市","district":"","in_office":true,"contact_details":null,"term_start":"1994-12-25","term_end":{"date":"1998-12-25"},"education":"革命實踐研究院，臺灣軍管區後備幹部訓練班九十七期畢業。","experience":"中國國民黨臺北市議會黨團副書記長，臺北市直轄市議會第六屆議員， 臺北市體育會空手道委員會主任委員，士林地方法院榮譽觀護人，關懷生命協會諮詢委員，南港區後備軍人輔導中心主任，南港區體育會理事長、名譽理事長。","remark":"","image":"http://www.tcc.gov.tw/../upload/photo/%E6%9D%8E%E9%87%91%E7%92%8B15.jpg","links":[{"url":"http://www.tcc.gov.tw/Councilor_Content_All.aspx?s=1503&d=461130&n=%E6%9D%8E%E9%87%91%E7%92%8B","note":"議會個人官網"}],"social_media":null,"platform":"","param":null,"councilor":"948f3fbddbbb470fb19da8942e3e4d8e"},{"url":"http://councils.g0v.tw/api/councilors_terms/392/","election_year":"1989","name":"李金璋","gender":"男","party":"中國國民黨","title":"議員","constituency":null,"county":"臺北市","district":"","in_office":true,"contact_details":null,"term_start":"1989-12-25","term_end":{"date":"1994-12-25"},"education":"聖時高中畢業","experience":"後備軍人楷模、臺北市南港區體育會理事長、臺北市立誠正國中家長會委員、臺北市體育會空手道委員會主任委員。","remark":"","image":"http://www.tcc.gov.tw/../upload/photo/%E6%9D%8E%E9%87%91%E7%92%8B14.jpg","links":[{"url":"http://www.tcc.gov.tw/Councilor_Content_All.aspx?s=2123&d=461130&n=%E6%9D%8E%E9%87%91%E7%92%8B","note":"議會個人官網"}],"social_media":null,"platform":"","param":null,"councilor":"948f3fbddbbb470fb19da8942e3e4d8e"}],"uid":"948f3fbddbbb470fb19da8942e3e4d8e","name":"李金璋","birth":"1946-11-30","former_names":"","identifiers":["李金璋","李金璋"]},{"url":"http://councils.g0v.tw/api/councilors/197/","each_terms":[{"url":"http://councils.g0v.tw/api/councilors_terms/343/","election_year":"1994","name":"李承龍","gender":"男","party":"新黨","title":"議員","constituency":null,"county":"臺北市","district":"","in_office":false,"contact_details":null,"term_start":"1994-12-25","term_end":{"date":"1998-12-25","reason":"其後退出新黨為無黨籍議員"},"education":"西門國小、南門國中、延平中學、復興中學、辭修高中、中央大學化學工程學系。","experience":"「新思維」電台台長、「全民打扁連線」總召集人、八十三年十月一日焚燬「台共爛旗」行動員、前社民黨行政部主任、「社會民主聯盟」總策劃人、「籌安會」主任委員、「內閣制促進會」會長。","remark":"其後退出新黨為無黨籍議員","image":"http://www.tcc.gov.tw/../upload/photo/%E6%9D%8E%E6%89%BF%E9%BE%8D15.jpg","links":[{"url":"http://www.tcc.gov.tw/Councilor_Content_All.aspx?s=1502&d=580213&n=%E6%9D%8E%E6%89%BF%E9%BE%8D","note":"議會個人官網"}],"social_media":null,"platform":"","param":null,"councilor":"2f332349b3614c06bfb997b1f1e707be"}],"uid":"2f332349b3614c06bfb997b1f1e707be","name":"李承龍","birth":"1958-02-13","former_names":"","identifiers":["李承龍","李承龍"]}]}