{"count":1904,"next":"http://councils.g0v.tw/api/councilors/?page=127","previous":"http://councils.g0v.tw/api/councilors/?page=125","results":[{"url":"http://councils.g0v.tw/api/councilors/198/","each_terms":[{"url":"http://councils.g0v.tw/api/councilors_terms/396/","election_year":"1989","name":"王昆和","gender":"男","party":"民主進步黨","title":"議員","constituency":null,"county":"臺北市","district":"","in_office":true,"contact_details":null,"term_start":"1989-12-25","term_end":{"date":"1994-12-25"},"education":"中興大學企業管理系、開南商工、南港國小。","experience":"工人、店員、家教、中興大學開南校友會長、民生國中家長會長、臺北市直轄市議會第三、四、五屆議員。","remark":"","image":"http://www.tcc.gov.tw/../upload/photo/%E7%8E%8B%E6%98%86%E5%92%8C14.jpg","links":[{"url":"http://www.tcc.gov.tw/Councilor_Content_All.aspx?s=1949&d=400306&n=%E7%8E%8B%E6%98%86%E5%92%8C","note":"議會個人官網"}],"social_media":null,"platform":"","param":null,"councilor":"b7f800b8c719420cace69be312a0fe93"},{"url":"http://councils.g0v.tw/api/councilors_terms/544/","election_year":"1977","name":"王昆和","gender":"男","party":"無黨籍","title":"議員","constituency":null,"county":"臺北市","district":"","in_office":true,"contact_details":null,"term_start":"1977-12-25","term_end":{"date":"1981-12-25"},"education":"中興大學企管系畢業、開南商工土木科畢業。","experience":"中興大學開南校友會會長、中央研究院職員。","remark":"","image":"http://www.tcc.gov.tw/../upload/photo/%E7%8E%8B%E6%98%86%E5%92%8C11.jpg","links":[{"url":"http://www.tcc.gov.tw/Councilor_Content_All.aspx?s=2200&d=400306&n=%E7%8E%8B%E6%98%86%E5%92%8C","note":"議會個人官網"}],"social_media":null,"platform":"","param":null,"councilor":"b7f800b8c719420cace69be312a0fe93"},{"url":"http://councils.g0v.tw/api/councilors_terms/346/","election_year":"1994","name":"王昆和","gender":"男","party":"民主進步黨","title":"議員","constituency":null,"county":"臺北市","district":"","in_office":true,"contact_details":null,"term_start":"1994-12-25","term_end":{"date":"1998-12-25"},"education":"國立中興大學企管系、開南商工、南港國小畢業。","experience":"臺北市直轄市議會第三、四、五、六屆議員、民進黨創黨黨員、施明德、陳水扁、謝長廷競選立委公共政策顧問、國大王雪峰(女兒)競選總幹事、黨外公政會發起人、中央研究院職員、工人、司機、攤販、家教。","remark":"","image":"http://www.tcc.gov.tw/../upload/photo/%E7%8E%8B%E6%98%86%E5%92%8C15.jpg","links":[{"url":"http://www.tcc.gov.tw/Councilor_Content_All.aspx?s=1522&d=400306&n=%E7%8E%8B%E6%98%86%E5%92%8C","note":"議會個人官網"}],"social_media":null,"platform":"","param":null,"councilor":"b7f800b8c719420cace69be312a0fe93"},{"url":"http://councils.g0v.tw/api/councilors_terms/446/","election_year":"1985","name":"王昆和","gender":"男","party":"民主進步黨","title":"議員","constituency":null,"county":"臺北市","district":"","in_office":true,"contact_details":null,"term_start":"1985-12-25","term_end":{"date":"1989-12-25"},"education":"南港國小、開南商工畢業、中興大學企業管理系畢業。","experience":"中央研究院職員、中興大學開南校友會會長、民生社區網球俱樂部會長、臺北市直轄市議會第三、四屆議員。","remark":"","image":"http://www.tcc.gov.tw/../upload/photo/%E7%8E%8B%E6%98%86%E5%92%8C13.jpg","links":[{"url":"http://www.tcc.gov.tw/Councilor_Content_All.aspx?s=1760&d=400306&n=%E7%8E%8B%E6%98%86%E5%92%8C","note":"議會個人官網"}],"social_media":null,"platform":"","param":null,"councilor":"b7f800b8c719420cace69be312a0fe93"},{"url":"http://councils.g0v.tw/api/councilors_terms/494/","election_year":"1981","name":"王昆和","gender":"男","party":"無黨籍","title":"議員","constituency":null,"county":"臺北市","district":"","in_office":true,"contact_details":null,"term_start":"1981-12-25","term_end":{"date":"1985-12-25"},"education":"中興大學企業管理系畢業、開南商工土木科畢業。","experience":"中興大學、開南校友會會長、中央研究院職員、松山國小家長會會長、民生社區棒壘球俱樂部會長、臺北市體育會橄欖球委員會顧問、臺北市直轄市議會第三屆議員。","remark":"","image":"http://www.tcc.gov.tw/../upload/photo/%E7%8E%8B%E6%98%86%E5%92%8C12.jpg","links":[{"url":"http://www.tcc.gov.tw/Councilor_Content_All.aspx?s=1474&d=400306&n=%E7%8E%8B%E6%98%86%E5%92%8C","note":"議會個人官網"}],"social_media":null,"platform":"","param":null,"councilor":"b7f800b8c719420cace69be312a0fe93"}],"uid":"b7f800b8c719420cace69be312a0fe93","name":"王昆和","birth":"1940-03-06","former_names":"","identifiers":["王昆和"]},{"url":"http://councils.g0v.tw/api/councilors/210/","each_terms":[{"url":"http://councils.g0v.tw/api/councilors_terms/371/","election_year":"1989","name":"陳世昌","gender":"男","party":"中國國民黨","title":"議員","constituency":null,"county":"臺北市","district":"","in_office":true,"contact_details":null,"term_start":"1989-12-25","term_end":{"date":"1994-12-25"},"education":"陸軍官校十七期、陸軍指揮參謀大學正九期、三軍聯合參謀大學正十四期。","experience":"臺北團管區司令、三軍大學教官、臺北市政府兵役處副處長、臺北市直轄市議會第四、五屆議員。","remark":"","image":"http://www.tcc.gov.tw/../upload/photo/%E9%99%B3%E4%B8%96%E6%98%8C14.jpg","links":[{"url":"http://www.tcc.gov.tw/Councilor_Content_All.aspx?s=1436&d=220810&n=%E9%99%B3%E4%B8%96%E6%98%8C","note":"議會個人官網"}],"social_media":null,"platform":"","param":null,"councilor":"9853b895afca4686b98974927dea1108"},{"url":"http://councils.g0v.tw/api/councilors_terms/421/","election_year":"1985","name":"陳世昌","gender":"男","party":"中國國民黨","title":"議員","constituency":null,"county":"臺北市","district":"","in_office":true,"contact_details":null,"term_start":"1985-12-25","term_end":{"date":"1989-12-25"},"education":"陸軍官校十七期步科、陸軍參謀大學九期、三軍聯合參謀大學正十四期。","experience":"參謀、連、隊長、日月潭警備指揮官、臺北縣團管區司令、三軍大學教官、臺北市兵役處副處長、臺北市直轄市議會第四屆議員。","remark":"","image":"http://www.tcc.gov.tw/../upload/photo/%E9%99%B3%E4%B8%96%E6%98%8C13.jpg","links":[{"url":"http://www.tcc.gov.tw/Councilor_Content_All.aspx?s=2229&d=220810&n=%E9%99%B3%E4%B8%96%E6%98%8C","note":"議會個人官網"}],"social_media":null,"platform":"","param":null,"councilor":"9853b895afca4686b98974927dea1108"},{"url":"http://councils.g0v.tw/api/councilors_terms/466/","election_year":"1981","name":"陳世昌","gender":"男","party":"中國國民黨","title":"議員","constituency":null,"county":"臺北市","district":"","in_office":true,"contact_details":null,"term_start":"1981-12-25","term_end":{"date":"1985-12-25"},"education":"陸軍官校十七期畢業、陸軍參謀大學正九期、三軍大學正十四期、革命實踐研究院黨務工作研討會四期。","experience":"參謀連隊長指揮官、介壽館警衛組組長、臺北縣團管區司令、三軍大學教官、臺北市政府兵役處副處長、臺北縣工業會總幹事。","remark":"","image":"http://www.tcc.gov.tw/../upload/photo/%E9%99%B3%E4%B8%96%E6%98%8C12.jpg","links":[{"url":"http://www.tcc.gov.tw/Councilor_Content_All.aspx?s=1759&d=220810&n=%E9%99%B3%E4%B8%96%E6%98%8C","note":"議會個人官網"}],"social_media":null,"platform":"","param":null,"councilor":"9853b895afca4686b98974927dea1108"}],"uid":"9853b895afca4686b98974927dea1108","name":"陳世昌","birth":"1922-08-10","former_names":"","identifiers":["陳世昌"]},{"url":"http://councils.g0v.tw/api/councilors/211/","each_terms":[{"url":"http://councils.g0v.tw/api/councilors_terms/426/","election_year":"1985","name":"張秋雄","gender":"男","party":"中國國民黨","title":"議員","constituency":null,"county":"臺北市","district":"","in_office":true,"contact_details":null,"term_start":"1985-12-25","term_end":{"date":"1989-12-25"},"education":"私立開南商工高級土木科畢業、中原理工學院土木工程學系肄業。","experience":"臺灣省公路局工務員、臺北市直轄市議會第四屆議員、北投區尊賢里里長、臺北市體育會理事。","remark":"","image":"http://www.tcc.gov.tw/../upload/photo/%E5%BC%B5%E7%A7%8B%E9%9B%8413.jpg","links":[{"url":"http://www.tcc.gov.tw/Councilor_Content_All.aspx?s=2141&d=360811&n=%E5%BC%B5%E7%A7%8B%E9%9B%84","note":"議會個人官網"}],"social_media":null,"platform":"","param":null,"councilor":"251e478009164f99afbb0f40ac50cd02"},{"url":"http://councils.g0v.tw/api/councilors_terms/374/","election_year":"1989","name":"張秋雄","gender":"男","party":"中國國民黨","title":"議員","constituency":null,"county":"臺北市","district":"","in_office":true,"contact_details":null,"term_start":"1989-12-25","term_end":{"date":"1994-12-25"},"education":"石牌國小、開南商工土木科、中原理工學院土木工程學系、日本大學經濟系、美國南加州大學碩士。","experience":"工務員、技士、工程師、臺北市直轄市議會第四、五屆議員、臺北市農會體育會理事、臺北市義警大隊顧問。","remark":"","image":"http://www.tcc.gov.tw/../upload/photo/%E5%BC%B5%E7%A7%8B%E9%9B%8414.jpg","links":[{"url":"http://www.tcc.gov.tw/Councilor_Content_All.aspx?s=2151&d=370811&n=%E5%BC%B5%E7%A7%8B%E9%9B%84","note":"議會個人官網"}],"social_media":null,"platform":"","param":null,"councilor":"251e478009164f99afbb0f40ac50cd02"},{"url":"http://councils.g0v.tw/api/councilors_terms/473/","election_year":"1981","name":"張秋雄","gender":"男","party":"中國國民黨","title":"議員","constituency":null,"county":"臺北市","district":"","in_office":true,"contact_details":null,"term_start":"1981-12-25","term_end":{"date":"1985-12-25"},"education":"開南商工職業學校畢業、臺灣省訓練團。","experience":"北投區尊賢里里長、北投區後備軍人輔導組組長、臺北市農會監事、臺北市團管區顧問。","remark":"","image":"http://www.tcc.gov.tw/../upload/photo/%E5%BC%B5%E7%A7%8B%E9%9B%8412.jpg","links":[{"url":"http://www.tcc.gov.tw/Councilor_Content_All.aspx?s=1601&d=370811&n=%E5%BC%B5%E7%A7%8B%E9%9B%84","note":"議會個人官網"}],"social_media":null,"platform":"","param":null,"councilor":"251e478009164f99afbb0f40ac50cd02"}],"uid":"251e478009164f99afbb0f40ac50cd02","name":"張秋雄","birth":"1937-08-11","former_names":"","identifiers":["張秋雄"]},{"url":"http://councils.g0v.tw/api/councilors/208/","each_terms":[{"url":"http://councils.g0v.tw/api/councilors_terms/369/","election_year":"1989","name":"陳俊雄","gender":"男","party":"中國國民黨","title":"議員","constituency":null,"county":"臺北市","district":"","in_office":true,"contact_details":null,"term_start":"1989-12-25","term_end":{"date":"1994-12-25"},"education":"興雅國小畢業、松山商職畢業、延平高中畢業、日本能率大學畢業。","experience":"臺北市直轄市議會第一、二、三、四、五屆議員、松山後備軍人輔導組長、松山市民消防團團長、俊德企業總經理。","remark":"","image":"http://www.tcc.gov.tw/../upload/photo/%E9%99%B3%E4%BF%8A%E9%9B%8414.jpg","links":[{"url":"http://www.tcc.gov.tw/Councilor_Content_All.aspx?s=2154&d=400514&n=%E9%99%B3%E4%BF%8A%E9%9B%84","note":"議會個人官網"}],"social_media":null,"platform":"","param":null,"councilor":"da58e46357f74500841dc70be9ca2fd6"},{"url":"http://councils.g0v.tw/api/councilors_terms/417/","election_year":"1985","name":"陳俊雄","gender":"男","party":"中國國民黨","title":"議員","constituency":null,"county":"臺北市","district":"","in_office":true,"contact_details":null,"term_start":"1985-12-25","term_end":{"date":"1989-12-25"},"education":"松山商職畢業、日本能率大學畢業、革命實踐研究院結業。","experience":"臺北市直轄市第一、二、三、四屆議員、松山區體育會理事長、兵役協會常務理事、松山商職校友會長、警察之友會顧問。","remark":"","image":"http://www.tcc.gov.tw/../upload/photo/%E9%99%B3%E4%BF%8A%E9%9B%8413.jpg","links":[{"url":"http://www.tcc.gov.tw/Councilor_Content_All.aspx?s=2230&d=400514&n=%E9%99%B3%E4%BF%8A%E9%9B%84","note":"議會個人官網"}],"social_media":null,"platform":"","param":null,"councilor":"da58e46357f74500841dc70be9ca2fd6"},{"url":"http://councils.g0v.tw/api/councilors_terms/463/","election_year":"1981","name":"陳俊雄","gender":"男","party":"中國國民黨","title":"議員","constituency":null,"county":"臺北市","district":"","in_office":true,"contact_details":null,"term_start":"1981-12-25","term_end":{"date":"1985-12-25"},"education":"松山商職畢業、延平高中畢業、革命實踐研究院結業、後備幹部訓練班第46期結業。","experience":"臺北市直轄市議會第一、二、三屆議員、松山區黨部委員、松山區後備軍人輔導中心組長、臺北市兵役協會常務理事、松山區體育會理事長、延平中學、松山商職校友會會長、仁愛國中家長會會長。","remark":"","image":"http://www.tcc.gov.tw/../upload/photo/%E9%99%B3%E4%BF%8A%E9%9B%8412.jpg","links":[{"url":"http://www.tcc.gov.tw/Councilor_Content_All.aspx?s=2166&d=400514&n=%E9%99%B3%E4%BF%8A%E9%9B%84","note":"議會個人官網"}],"social_media":null,"platform":"","param":null,"councilor":"da58e46357f74500841dc70be9ca2fd6"},{"url":"http://councils.g0v.tw/api/councilors_terms/517/","election_year":"1977","name":"陳俊雄","gender":"男","party":"中國國民黨","title":"議員","constituency":null,"county":"臺北市","district":"","in_office":true,"contact_details":null,"term_start":"1977-12-25","term_end":{"date":"1981-12-25"},"education":"松山商職畢業、延平高中畢業、革命實踐研究院結業、後備軍人訓練班第46期結業。","experience":"臺北市第一、二屆議員、松山區黨部委員、南興煉煤廠廠長、臺北市兵役協會常務理事、後備軍人輔導組長、松山區體育會理事長、延平中學校友會會長。","remark":"","image":"http://www.tcc.gov.tw/../upload/photo/%E9%99%B3%E4%BF%8A%E9%9B%8411.jpg","links":[{"url":"http://www.tcc.gov.tw/Councilor_Content_All.aspx?s=2164&d=400514&n=%E9%99%B3%E4%BF%8A%E9%9B%84","note":"議會個人官網"}],"social_media":null,"platform":"","param":null,"councilor":"da58e46357f74500841dc70be9ca2fd6"},{"url":"http://councils.g0v.tw/api/councilors_terms/565/","election_year":"1973","name":"陳俊雄","gender":"男","party":"中國國民黨","title":"議員","constituency":null,"county":"臺北市","district":"","in_office":true,"contact_details":null,"term_start":"1973-12-25","term_end":{"date":"1977-12-25"},"education":"臺北市延平高中畢業。","experience":"臺北市第一屆議會議員、臺北市松山區後備軍人輔導組長、臺北市兵役協會常務理事、中國國民黨臺北市松山區黨部委員。","remark":"","image":"http://www.tcc.gov.tw/../upload/photo/%E9%99%B3%E4%BF%8A%E9%9B%8410.jpg","links":[{"url":"http://www.tcc.gov.tw/Councilor_Content_All.aspx?s=2139&d=400514&n=%E9%99%B3%E4%BF%8A%E9%9B%84","note":"議會個人官網"}],"social_media":null,"platform":"","param":null,"councilor":"da58e46357f74500841dc70be9ca2fd6"},{"url":"http://councils.g0v.tw/api/councilors_terms/618/","election_year":"1969","name":"陳俊雄","gender":"男","party":"中國國民黨","title":"議員","constituency":null,"county":"臺北市","district":"","in_office":true,"contact_details":null,"term_start":"1969-12-25","term_end":{"date":"1973-12-25"},"education":"延平高職。","experience":"總經理、董事、廠長。","remark":"","image":"http://www.tcc.gov.tw/../upload/photo/%E9%99%B3%E4%BF%8A%E9%9B%8409.jpg","links":[{"url":"http://www.tcc.gov.tw/Councilor_Content_All.aspx?s=2197&d=400514&n=%E9%99%B3%E4%BF%8A%E9%9B%84","note":"議會個人官網"}],"social_media":null,"platform":"","param":null,"councilor":"da58e46357f74500841dc70be9ca2fd6"}],"uid":"da58e46357f74500841dc70be9ca2fd6","name":"陳俊雄","birth":"1940-05-14","former_names":"","identifiers":["陳俊雄"]},{"url":"http://councils.g0v.tw/api/councilors/209/","each_terms":[{"url":"http://councils.g0v.tw/api/councilors_terms/370/","election_year":"1989","name":"陳必強","gender":"男","party":"中國國民黨","title":"議員","constituency":null,"county":"臺北市","district":"","in_office":true,"contact_details":null,"term_start":"1989-12-25","term_end":{"date":"1994-12-25"},"education":"私立淡江文理學院畢業。","experience":"臺北市直轄市第四、五屆議員、景美區體育會理事長、景美區民防副大隊長、景美國中家長會會長、景美國際獅子會理事。","remark":"","image":"http://www.tcc.gov.tw/../upload/photo/%E9%99%B3%E5%BF%85%E5%BC%B714.jpg","links":[{"url":"http://www.tcc.gov.tw/Councilor_Content_All.aspx?s=2153&d=450701&n=%E9%99%B3%E5%BF%85%E5%BC%B7","note":"議會個人官網"}],"social_media":null,"platform":"","param":null,"councilor":"11a394f21c4d4848aa4efb67a288ada1"},{"url":"http://councils.g0v.tw/api/councilors_terms/420/","election_year":"1985","name":"陳必強","gender":"男","party":"中國國民黨","title":"議員","constituency":null,"county":"臺北市","district":"","in_office":true,"contact_details":null,"term_start":"1985-12-25","term_end":{"date":"1989-12-25"},"education":"私立淡江文理學院畢業。","experience":"景美區後備軍人輔導組長、興隆國小家長會副會長、景美國小家長會顧問、景美國中家長會副會長、景美國際獅子會理事、臺北市直轄市議會第四屆議員。","remark":"","image":"http://www.tcc.gov.tw/../upload/photo/%E9%99%B3%E5%BF%85%E5%BC%B713.jpg","links":[{"url":"http://www.tcc.gov.tw/Councilor_Content_All.aspx?s=2120&d=450701&n=%E9%99%B3%E5%BF%85%E5%BC%B7","note":"議會個人官網"}],"social_media":null,"platform":"","param":null,"councilor":"11a394f21c4d4848aa4efb67a288ada1"},{"url":"http://councils.g0v.tw/api/councilors_terms/465/","election_year":"1981","name":"陳必強","gender":"男","party":"中國國民黨","title":"議員","constituency":null,"county":"臺北市","district":"","in_office":true,"contact_details":null,"term_start":"1981-12-25","term_end":{"date":"1985-12-25"},"education":"私立淡江文理學院畢業。","experience":"臺北市景美區黨部委員、景美區民防大隊中隊長、景美區後備軍人輔導中心組長、興隆國小、景美國小家長會副會長、顧問、景美國際獅子會理事、弘美育樂公司董事長、聯鴻建設公司董事長。","remark":"","image":"http://www.tcc.gov.tw/../upload/photo/%E9%99%B3%E5%BF%85%E5%BC%B712.jpg","links":[{"url":"http://www.tcc.gov.tw/Councilor_Content_All.aspx?s=2189&d=450701&n=%E9%99%B3%E5%BF%85%E5%BC%B7","note":"議會個人官網"}],"social_media":null,"platform":"","param":null,"councilor":"11a394f21c4d4848aa4efb67a288ada1"}],"uid":"11a394f21c4d4848aa4efb67a288ada1","name":"陳必強","birth":"1945-07-01","former_names":"","identifiers":["陳必強"]},{"url":"http://councils.g0v.tw/api/councilors/504/","each_terms":[{"url":"http://councils.g0v.tw/api/councilors_terms/851/","election_year":"1968","name":"陳金德","gender":"","party":"","title":"議員","constituency":8,"county":"新北市","district":"新店鎮、深坑鄉、石碇鄉、坪林鄉、烏來鄉山地鄉","in_office":true,"contact_details":null,"term_start":"1968-02-21","term_end":{"date":"1973-04-30"},"education":"坪林國小６年\n育英中學３年\n開南商工高級部畢業\n臺北工專土木科畢業\n文化大學市政系畢業","experience":"臺北縣議會第7屆議員\n台灣省第6、7、8、9屆省議員","remark":null,"image":"http://www.ntp.gov.tw/UpFile/CouncilorFile/TTCC0754.jpg","links":[{"url":"http://www.ntp.gov.tw/content/history/history01-5-p.aspx?sid=295","note":"議會個人官網"}],"social_media":null,"platform":"","param":null,"councilor":"c0c7b22231264b648462a7cb9ae2407d"}],"uid":"c0c7b22231264b648462a7cb9ae2407d","name":"陳金德","birth":null,"former_names":"","identifiers":["陳金德"]},{"url":"http://councils.g0v.tw/api/councilors/597/","each_terms":[{"url":"http://councils.g0v.tw/api/councilors_terms/1020/","election_year":"1986","name":"童永雄","gender":"","party":"","title":"議員","constituency":2,"county":"新北市","district":"中和市、永和市","in_office":true,"contact_details":null,"term_start":"1986-03-01","term_end":{"date":"1990-02-28"},"education":"中興大學法律系畢業\n美國加大社會福利研究所","experience":"積穗國中教務主任\n空軍軍法官\n救國團中和市團委會常務委員、總幹事\n後備軍人轉導中心秘書、主任\n國際青商會顧問\n中國國民黨臺北縣黨部委員\n備役上尉軍法官\n中和市第4、5屆市長","remark":null,"image":"http://www.ntp.gov.tw/UpFile/CouncilorFile/TTCC1018.jpg","links":[{"url":"http://www.ntp.gov.tw/content/history/history01-5-p.aspx?sid=363","note":"議會個人官網"}],"social_media":null,"platform":"","param":null,"councilor":"fd5e10c2f352456480970f87940cb4c0"},{"url":"http://councils.g0v.tw/api/councilors_terms/1068/","election_year":"1982","name":"童永雄","gender":"","party":"","title":"議員","constituency":2,"county":"新北市","district":"中和市、永和市","in_office":true,"contact_details":null,"term_start":"1982-03-01","term_end":{"date":"1986-02-28"},"education":"中興大學法律系畢業\n美國加大社會福利研究所","experience":"積穗國中教務主任\n空軍軍法官\n救國團中和市團委會常務委員、總幹事\n後備軍人轉導中心秘書、主任\n國際青商會顧問\n中國國民黨臺北縣黨部委員\n備役上尉軍法官\n中和市第4、5屆市長","remark":null,"image":"http://www.ntp.gov.tw/UpFile/CouncilorFile/TTCC1018.jpg","links":[{"url":"http://www.ntp.gov.tw/content/history/history01-5-p.aspx?sid=363","note":"議會個人官網"}],"social_media":null,"platform":"","param":null,"councilor":"fd5e10c2f352456480970f87940cb4c0"}],"uid":"fd5e10c2f352456480970f87940cb4c0","name":"童永雄","birth":null,"former_names":"","identifiers":["童永雄"]},{"url":"http://councils.g0v.tw/api/councilors/598/","each_terms":[{"url":"http://councils.g0v.tw/api/councilors_terms/1021/","election_year":"1986","name":"呂芳煙","gender":"","party":"","title":"議員","constituency":2,"county":"新北市","district":"中和市、永和市","in_office":true,"contact_details":null,"term_start":"1986-03-01","term_end":{"date":"1990-02-28"},"education":"憲兵學校士兵官班\n日本產業能率短期大學\n(曾膺選為金門模範憲兵)","experience":"村長\n中和市景福里鄰長\n中和市景福里里長\n(曾當選北縣特優里長)\n臺北縣議會第10、11、12、13屆議員\n中和市第6、7屆市長","remark":null,"image":"http://www.ntp.gov.tw/UpFile/CouncilorFile/TTCC1021.jpg","links":[{"url":"http://www.ntp.gov.tw/content/history/history01-5-p.aspx?sid=365","note":"議會個人官網"}],"social_media":null,"platform":"","param":null,"councilor":"c9aa38ad0cb842cdbd774bc49381ff7e"},{"url":"http://councils.g0v.tw/api/councilors_terms/1136/","election_year":"1990","name":"呂芳煙","gender":"","party":"","title":"議員","constituency":2,"county":"新北市","district":"中和市","in_office":true,"contact_details":null,"term_start":"1990-03-01","term_end":{"date":"1994-02-28"},"education":"憲兵學校士兵官班\n日本產業能率短期大學\n(曾膺選為金門模範憲兵)","experience":"村長\n中和市景福里鄰長\n中和市景福里里長\n(曾當選北縣特優里長)\n臺北縣議會第10、11、12、13屆議員\n中和市第6、7屆市長","remark":null,"image":"http://www.ntp.gov.tw/UpFile/CouncilorFile/TTCC1021.jpg","links":[{"url":"http://www.ntp.gov.tw/content/history/history01-5-p.aspx?sid=365","note":"議會個人官網"}],"social_media":null,"platform":"","param":null,"councilor":"c9aa38ad0cb842cdbd774bc49381ff7e"},{"url":"http://councils.g0v.tw/api/councilors_terms/1066/","election_year":"1982","name":"呂芳煙","gender":"","party":"","title":"議員","constituency":2,"county":"新北市","district":"中和市、永和市","in_office":true,"contact_details":null,"term_start":"1982-03-01","term_end":{"date":"1986-02-28"},"education":"憲兵學校士兵官班\n日本產業能率短期大學\n(曾膺選為金門模範憲兵)","experience":"村長\n中和市景福里鄰長\n中和市景福里里長\n(曾當選北縣特優里長)\n臺北縣議會第10、11、12、13屆議員\n中和市第6、7屆市長","remark":null,"image":"http://www.ntp.gov.tw/UpFile/CouncilorFile/TTCC1021.jpg","links":[{"url":"http://www.ntp.gov.tw/content/history/history01-5-p.aspx?sid=365","note":"議會個人官網"}],"social_media":null,"platform":"","param":null,"councilor":"c9aa38ad0cb842cdbd774bc49381ff7e"},{"url":"http://councils.g0v.tw/api/councilors_terms/1201/","election_year":"1994","name":"呂芳煙","gender":"","party":"","title":"議員","constituency":2,"county":"新北市","district":"中和市","in_office":true,"contact_details":null,"term_start":"1994-03-01","term_end":{"date":"1998-02-28"},"education":"憲兵學校士兵官班\n日本產業能率短期大學\n(曾膺選為金門模範憲兵)","experience":"村長\n中和市景福里鄰長\n中和市景福里里長\n(曾當選北縣特優里長)\n臺北縣議會第10、11、12、13屆議員\n中和市第6、7屆市長","remark":null,"image":"http://www.ntp.gov.tw/UpFile/CouncilorFile/TTCC1021.jpg","links":[{"url":"http://www.ntp.gov.tw/content/history/history01-5-p.aspx?sid=365","note":"議會個人官網"}],"social_media":null,"platform":"","param":null,"councilor":"c9aa38ad0cb842cdbd774bc49381ff7e"}],"uid":"c9aa38ad0cb842cdbd774bc49381ff7e","name":"呂芳煙","birth":null,"former_names":"","identifiers":["呂芳煙"]},{"url":"http://councils.g0v.tw/api/councilors/599/","each_terms":[{"url":"http://councils.g0v.tw/api/councilors_terms/1022/","election_year":"1986","name":"游任和","gender":"","party":"","title":"議員","constituency":2,"county":"新北市","district":"中和市、永和市","in_office":true,"contact_details":null,"term_start":"1986-03-01","term_end":{"date":"1990-02-28"},"education":"大同工職高級部畢業\n國立台北工專建築科畢業\n文化大學地政學分班結業\n文化大學不動產估價師學分班結業\n大葉大學事業經營研究所管理碩士","experience":"大同校友會常務理事\n台北市游氏宗親會顧問\n台北縣游氏宗親會顧問\n竹林國小家長會長\n台北縣議會第十、十一屆議員\n台灣省議會第九屆議員\n台灣省政府都市計畫委員會委員\n台灣省議會教育小組副召集人\n國立台北工專傑出校友\n國立泰山高中文教基金會董事\n清雲科技大學兼任講師\n台灣省諮議會顧問\n新北市政府市政顧問","remark":null,"image":"http://www.ntp.gov.tw/UpFile/CouncilorFile/TTCC1014.jpg","links":[{"url":"http://www.ntp.gov.tw/content/history/history01-5-p.aspx?sid=360","note":"議會個人官網"}],"social_media":null,"platform":"","param":null,"councilor":"2464efcf719d4400bb6359e99d39dc10"},{"url":"http://councils.g0v.tw/api/councilors_terms/1073/","election_year":"1982","name":"游任和","gender":"","party":"","title":"議員","constituency":2,"county":"新北市","district":"中和市、永和市","in_office":true,"contact_details":null,"term_start":"1982-03-01","term_end":{"date":"1986-02-28"},"education":"大同工職高級部畢業\n國立台北工專建築科畢業\n文化大學地政學分班結業\n文化大學不動產估價師學分班結業\n大葉大學事業經營研究所管理碩士","experience":"大同校友會常務理事\n台北市游氏宗親會顧問\n台北縣游氏宗親會顧問\n竹林國小家長會長\n台北縣議會第十、十一屆議員\n台灣省議會第九屆議員\n台灣省政府都市計畫委員會委員\n台灣省議會教育小組副召集人\n國立台北工專傑出校友\n國立泰山高中文教基金會董事\n清雲科技大學兼任講師\n台灣省諮議會顧問\n新北市政府市政顧問","remark":null,"image":"http://www.ntp.gov.tw/UpFile/CouncilorFile/TTCC1014.jpg","links":[{"url":"http://www.ntp.gov.tw/content/history/history01-5-p.aspx?sid=360","note":"議會個人官網"}],"social_media":null,"platform":"","param":null,"councilor":"2464efcf719d4400bb6359e99d39dc10"}],"uid":"2464efcf719d4400bb6359e99d39dc10","name":"游任和","birth":null,"former_names":"","identifiers":["游任和"]},{"url":"http://councils.g0v.tw/api/councilors/600/","each_terms":[{"url":"http://councils.g0v.tw/api/councilors_terms/1024/","election_year":"1986","name":"許永河","gender":"","party":"","title":"議員","constituency":1,"county":"新北市","district":"板橋市、土城鄉","in_office":true,"contact_details":null,"term_start":"1986-03-01","term_end":{"date":"1990-02-28"},"education":"板橋國小第9屆畢業\n市立成淵中學畢業\n北市私立延平中學\n臺灣大學商學研究所企業研究計畫高級經理班結業","experience":"泰和影業公司製片經理\n嘉連貿易公司總經理\n私立廣慈博愛基金會董事\n北縣社會福利協進會常務監事\n板橋市游泳委員會主任委員\n臺北縣議會第10、11、12、13屆議員","remark":null,"image":"http://www.ntp.gov.tw/UpFile/CouncilorFile/TTCC1002.jpg","links":[{"url":"http://www.ntp.gov.tw/content/history/history01-5-p.aspx?sid=351","note":"議會個人官網"}],"social_media":null,"platform":"","param":null,"councilor":"dc69e169cf5249ef80054743a53d1682"},{"url":"http://councils.g0v.tw/api/councilors_terms/1084/","election_year":"1982","name":"許永河","gender":"","party":"","title":"議員","constituency":1,"county":"新北市","district":"板橋市、土城鄉","in_office":true,"contact_details":null,"term_start":"1982-03-01","term_end":{"date":"1986-02-28"},"education":"板橋國小第9屆畢業\n市立成淵中學畢業\n北市私立延平中學\n臺灣大學商學研究所企業研究計畫高級經理班結業","experience":"泰和影業公司製片經理\n嘉連貿易公司總經理\n私立廣慈博愛基金會董事\n北縣社會福利協進會常務監事\n板橋市游泳委員會主任委員\n臺北縣議會第10、11、12、13屆議員","remark":null,"image":"http://www.ntp.gov.tw/UpFile/CouncilorFile/TTCC1002.jpg","links":[{"url":"http://www.ntp.gov.tw/content/history/history01-5-p.aspx?sid=351","note":"議會個人官網"}],"social_media":null,"platform":"","param":null,"councilor":"dc69e169cf5249ef80054743a53d1682"},{"url":"http://councils.g0v.tw/api/councilors_terms/1141/","election_year":"1990","name":"許永河","gender":"","party":"","title":"議員","constituency":1,"county":"新北市","district":"板橋市","in_office":true,"contact_details":null,"term_start":"1990-03-01","term_end":{"date":"1994-02-28"},"education":"板橋國小第9屆畢業\n市立成淵中學畢業\n北市私立延平中學\n臺灣大學商學研究所企業研究計畫高級經理班結業","experience":"泰和影業公司製片經理\n嘉連貿易公司總經理\n私立廣慈博愛基金會董事\n北縣社會福利協進會常務監事\n板橋市游泳委員會主任委員\n臺北縣議會第10、11、12、13屆議員","remark":null,"image":"http://www.ntp.gov.tw/UpFile/CouncilorFile/TTCC1002.jpg","links":[{"url":"http://www.ntp.gov.tw/content/history/history01-5-p.aspx?sid=351","note":"議會個人官網"}],"social_media":null,"platform":"","param":null,"councilor":"dc69e169cf5249ef80054743a53d1682"},{"url":"http://councils.g0v.tw/api/councilors_terms/1204/","election_year":"1994","name":"許永河","gender":"","party":"","title":"議員","constituency":1,"county":"新北市","district":"板橋市","in_office":true,"contact_details":null,"term_start":"1994-03-01","term_end":{"date":"1998-02-28"},"education":"板橋國小第9屆畢業\n市立成淵中學畢業\n北市私立延平中學\n臺灣大學商學研究所企業研究計畫高級經理班結業","experience":"泰和影業公司製片經理\n嘉連貿易公司總經理\n私立廣慈博愛基金會董事\n北縣社會福利協進會常務監事\n板橋市游泳委員會主任委員\n臺北縣議會第10、11、12、13屆議員","remark":null,"image":"http://www.ntp.gov.tw/UpFile/CouncilorFile/TTCC1002.jpg","links":[{"url":"http://www.ntp.gov.tw/content/history/history01-5-p.aspx?sid=351","note":"議會個人官網"}],"social_media":null,"platform":"","param":null,"councilor":"dc69e169cf5249ef80054743a53d1682"}],"uid":"dc69e169cf5249ef80054743a53d1682","name":"許永河","birth":null,"former_names":"","identifiers":["許永河"]}]}