{"count":1904,"next":"http://councils.g0v.tw/api/councilors/?page=14","previous":"http://councils.g0v.tw/api/councilors/?page=12","results":[{"url":"http://councils.g0v.tw/api/councilors/455/","each_terms":[{"url":"http://councils.g0v.tw/api/councilors_terms/801/","election_year":"1973","name":"林美美","gender":"","party":"","title":"議員","constituency":5,"county":"新北市","district":"淡水鎮、八里鄉、三芝鄉、石門鄉","in_office":true,"contact_details":null,"term_start":"1973-05-01","term_end":{"date":"1977-12-29"},"education":"八里鄉米倉國校畢業\n淡水初中畢業\n東海高中畢業\n日本產業能率短期大學畢業\n考試院社工特考及格","experience":"民眾服務分社專員\n民眾服務站幹事\n北縣淡水鎮婦女會幹事\n臺北縣議會第7、8、9、10、11屆議員","remark":null,"image":"http://www.ntp.gov.tw/UpFile/CouncilorFile/TTCC0736.jpg","links":[{"url":"http://www.ntp.gov.tw/content/history/history01-5-p.aspx?sid=287","note":"議會個人官網"}],"social_media":null,"platform":"","param":null,"councilor":"9b7dab5a88174252be01d6c984f97fda"},{"url":"http://councils.g0v.tw/api/councilors_terms/865/","election_year":"1968","name":"林美美","gender":"","party":"","title":"議員","constituency":5,"county":"新北市","district":"淡水鎮、八里鄉、三芝鄉、石門鄉","in_office":true,"contact_details":null,"term_start":"1968-02-21","term_end":{"date":"1973-04-30"},"education":"八里鄉米倉國校畢業\n淡水初中畢業\n東海高中畢業\n日本產業能率短期大學畢業\n考試院社工特考及格","experience":"民眾服務分社專員\n民眾服務站幹事\n北縣淡水鎮婦女會幹事\n臺北縣議會第7、8、9、10、11屆議員","remark":null,"image":"http://www.ntp.gov.tw/UpFile/CouncilorFile/TTCC0736.jpg","links":[{"url":"http://www.ntp.gov.tw/content/history/history01-5-p.aspx?sid=287","note":"議會個人官網"}],"social_media":null,"platform":"","param":null,"councilor":"9b7dab5a88174252be01d6c984f97fda"},{"url":"http://councils.g0v.tw/api/councilors_terms/915/","election_year":"1977","name":"林美美","gender":"","party":"","title":"議員","constituency":4,"county":"新北市","district":"淡水鎮、八里鄉、三芝鄉、石門鄉","in_office":true,"contact_details":null,"term_start":"1977-12-30","term_end":{"date":"1982-02-28"},"education":"八里鄉米倉國校畢業\n淡水初中畢業\n東海高中畢業\n日本產業能率短期大學畢業\n考試院社工特考及格","experience":"民眾服務分社專員\n民眾服務站幹事\n北縣淡水鎮婦女會幹事\n臺北縣議會第7、8、9、10、11屆議員","remark":null,"image":"http://www.ntp.gov.tw/UpFile/CouncilorFile/TTCC0736.jpg","links":[{"url":"http://www.ntp.gov.tw/content/history/history01-5-p.aspx?sid=287","note":"議會個人官網"}],"social_media":null,"platform":"","param":null,"councilor":"9b7dab5a88174252be01d6c984f97fda"},{"url":"http://councils.g0v.tw/api/councilors_terms/972/","election_year":"1986","name":"林美美","gender":"","party":"","title":"議員","constituency":6,"county":"新北市","district":"淡水鎮、八里鄉、三芝鄉、石門鄉","in_office":true,"contact_details":null,"term_start":"1986-03-01","term_end":{"date":"1990-02-28"},"education":"八里鄉米倉國校畢業\n淡水初中畢業\n東海高中畢業\n日本產業能率短期大學畢業\n考試院社工特考及格","experience":"民眾服務分社專員\n民眾服務站幹事\n北縣淡水鎮婦女會幹事\n臺北縣議會第7、8、9、10、11屆議員","remark":null,"image":"http://www.ntp.gov.tw/UpFile/CouncilorFile/TTCC0736.jpg","links":[{"url":"http://www.ntp.gov.tw/content/history/history01-5-p.aspx?sid=287","note":"議會個人官網"}],"social_media":null,"platform":"","param":null,"councilor":"9b7dab5a88174252be01d6c984f97fda"},{"url":"http://councils.g0v.tw/api/councilors_terms/1030/","election_year":"1982","name":"林美美","gender":"","party":"","title":"議員","constituency":6,"county":"新北市","district":"淡水鎮、八里鄉、三芝鄉、石門鄉","in_office":true,"contact_details":null,"term_start":"1982-03-01","term_end":{"date":"1986-02-28"},"education":"八里鄉米倉國校畢業\n淡水初中畢業\n東海高中畢業\n日本產業能率短期大學畢業\n考試院社工特考及格","experience":"民眾服務分社專員\n民眾服務站幹事\n北縣淡水鎮婦女會幹事\n臺北縣議會第7、8、9、10、11屆議員","remark":null,"image":"http://www.ntp.gov.tw/UpFile/CouncilorFile/TTCC0736.jpg","links":[{"url":"http://www.ntp.gov.tw/content/history/history01-5-p.aspx?sid=287","note":"議會個人官網"}],"social_media":null,"platform":"","param":null,"councilor":"9b7dab5a88174252be01d6c984f97fda"}],"uid":"9b7dab5a88174252be01d6c984f97fda","name":"林美美","birth":null,"former_names":"","identifiers":["林美美","林美美"]},{"url":"http://councils.g0v.tw/api/councilors/795/","each_terms":[{"url":"http://councils.g0v.tw/api/councilors_terms/1445/","election_year":"1946","name":"林源治","gender":"","party":"","title":"議員","constituency":null,"county":"新北市","district":"","in_office":true,"contact_details":null,"term_start":"1946-04-15","term_end":{"date":"1950-12-31"},"education":"農業學校畢業。","experience":"*烏來鄉選出山胞議員，民國38年8月補陳志良缺","remark":null,"image":"http://www.ntp.gov.tw/UpFile/CouncilorFile/TTCC0032.jpg","links":[{"url":"http://www.ntp.gov.tw/content/history/history01-5-p.aspx?sid=32","note":"議會個人官網"}],"social_media":null,"platform":"","param":null,"councilor":"b941a10504f64651a461804d5f34b51d"}],"uid":"b941a10504f64651a461804d5f34b51d","name":"林源治","birth":null,"former_names":"","identifiers":["林源治","林源治"]},{"url":"http://councils.g0v.tw/api/councilors/796/","each_terms":[{"url":"http://councils.g0v.tw/api/councilors_terms/1446/","election_year":"1946","name":"鄭老埤","gender":"","party":"","title":"議員","constituency":null,"county":"新北市","district":"","in_office":true,"contact_details":null,"term_start":"1946-04-15","term_end":{"date":"1950-12-31"},"education":"省立宜蘭農校畢業。","experience":"州農會技手\n區署課員\n*民國三十九年八月遞補林黃鐘缺","remark":null,"image":"http://www.ntp.gov.tw/UpFile/CouncilorFile/TTCC0029.jpg","links":[{"url":"http://www.ntp.gov.tw/content/history/history01-5-p.aspx?sid=29","note":"議會個人官網"}],"social_media":null,"platform":"","param":null,"councilor":"b5a66fcb4927433c94d70f6dfc42a507"}],"uid":"b5a66fcb4927433c94d70f6dfc42a507","name":"鄭老埤","birth":null,"former_names":"","identifiers":["鄭老埤"]},{"url":"http://councils.g0v.tw/api/councilors/797/","each_terms":[{"url":"http://councils.g0v.tw/api/councilors_terms/1447/","election_year":"1946","name":"林黃鐘","gender":"","party":"","title":"議員","constituency":null,"county":"新北市","district":"","in_office":true,"contact_details":null,"term_start":"1946-04-15","term_end":{"date":"1950-12-31"},"education":"","experience":"*民國三十九年八月辭職","remark":null,"image":"http://www.ntp.gov.tw/UpFile/CouncilorFile/TTCC0028.jpg","links":[{"url":"http://www.ntp.gov.tw/content/history/history01-5-p.aspx?sid=28","note":"議會個人官網"}],"social_media":null,"platform":"","param":null,"councilor":"199b63642e6b4492aa7d6d620ee37c53"}],"uid":"199b63642e6b4492aa7d6d620ee37c53","name":"林黃鐘","birth":null,"former_names":"","identifiers":["林黄鐘","林黃鐘","林黄鐘","林黃鐘"]},{"url":"http://councils.g0v.tw/api/councilors/798/","each_terms":[{"url":"http://councils.g0v.tw/api/councilors_terms/1448/","election_year":"1946","name":"陳義芬","gender":"","party":"","title":"議員","constituency":null,"county":"新北市","district":"","in_office":true,"contact_details":null,"term_start":"1946-04-15","term_end":{"date":"1950-12-31"},"education":"中學畢業。","experience":"礦業公司董事長","remark":null,"image":"http://www.ntp.gov.tw/UpFile/CouncilorFile/TTCC0027.jpg","links":[{"url":"http://www.ntp.gov.tw/content/history/history01-5-p.aspx?sid=27","note":"議會個人官網"}],"social_media":null,"platform":"","param":null,"councilor":"fd7c07f547d541aeafda78879027e2ac"}],"uid":"fd7c07f547d541aeafda78879027e2ac","name":"陳義芬","birth":null,"former_names":"","identifiers":["陳義芬"]},{"url":"http://councils.g0v.tw/api/councilors/799/","each_terms":[{"url":"http://councils.g0v.tw/api/councilors_terms/1476/","election_year":"1951","name":"林佛國","gender":"","party":"","title":"議員","constituency":9,"county":"新北市","district":"新店鎮、景美鎮、木柵鄉、深坑鄉、石碇鄉、坪林鄉","in_office":true,"contact_details":null,"term_start":"1951-01-04","term_end":{"date":"1953-01-05"},"education":"早稻田大學法政學系","experience":"日據時代任教師\n記者、報社副總編輯\n州協議會議員\n縣參議員\n臺北縣議會第1屆議員\n*民國58年歿","remark":null,"image":"http://www.ntp.gov.tw/UpFile/CouncilorFile/TTCC0026.jpg","links":[{"url":"http://www.ntp.gov.tw/content/history/history01-5-p.aspx?sid=26","note":"議會個人官網"}],"social_media":null,"platform":"","param":null,"councilor":"dbc6f73a98c84475aac2af2808f3df96"},{"url":"http://councils.g0v.tw/api/councilors_terms/1449/","election_year":"1946","name":"林佛國","gender":"","party":"","title":"議員","constituency":null,"county":"新北市","district":"","in_office":true,"contact_details":null,"term_start":"1946-04-15","term_end":{"date":"1950-12-31"},"education":"早稻田大學法政學系","experience":"日據時代任教師\n記者、報社副總編輯\n州協議會議員\n縣參議員\n臺北縣議會第1屆議員\n*民國58年歿","remark":null,"image":"http://www.ntp.gov.tw/UpFile/CouncilorFile/TTCC0026.jpg","links":[{"url":"http://www.ntp.gov.tw/content/history/history01-5-p.aspx?sid=26","note":"議會個人官網"}],"social_media":null,"platform":"","param":null,"councilor":"dbc6f73a98c84475aac2af2808f3df96"}],"uid":"dbc6f73a98c84475aac2af2808f3df96","name":"林佛國","birth":null,"former_names":"","identifiers":["林佛國","林佛國"]},{"url":"http://councils.g0v.tw/api/councilors/800/","each_terms":[{"url":"http://councils.g0v.tw/api/councilors_terms/1450/","election_year":"1946","name":"蘇海水","gender":"","party":"","title":"議員","constituency":null,"county":"新北市","district":"","in_office":true,"contact_details":null,"term_start":"1946-04-15","term_end":{"date":"1950-12-31"},"education":"早稻田大學實業科畢業。","experience":"臺灣日日新報社記者\n臺北縣農會合作社聯合社理事\n新店鎮合作社理事主席\n*民國三十六年一月遞補周廷乾缺","remark":null,"image":"http://www.ntp.gov.tw/UpFile/CouncilorFile/TTCC0025.jpg","links":[{"url":"http://www.ntp.gov.tw/content/history/history01-5-p.aspx?sid=25","note":"議會個人官網"}],"social_media":null,"platform":"","param":null,"councilor":"27d7440ea8824a6faa9dae77df8e4c42"}],"uid":"27d7440ea8824a6faa9dae77df8e4c42","name":"蘇海水","birth":null,"former_names":"","identifiers":["蘇海水"]},{"url":"http://councils.g0v.tw/api/councilors/220/","each_terms":[{"url":"http://councils.g0v.tw/api/councilors_terms/502/","election_year":"1977","name":"闕河源","gender":"男","party":"中國國民黨","title":"議員","constituency":null,"county":"臺北市","district":"","in_office":true,"contact_details":null,"term_start":"1977-12-25","term_end":{"date":"1981-12-25"},"education":"開南商工職業高校高級部土木科畢業。","experience":"南港興運公司經理、良固工程公司董事。","remark":"","image":"http://www.tcc.gov.tw/../upload/photo/%E9%97%95%E6%B2%B3%E6%BA%9011.jpg","links":[{"url":"http://www.tcc.gov.tw/Councilor_Content_All.aspx?s=1428&d=340422&n=%E9%97%95%E6%B2%B3%E6%BA%90","note":"議會個人官網"}],"social_media":null,"platform":"","param":null,"councilor":"83aefb269fc741ed9ac600d71ce34143"},{"url":"http://councils.g0v.tw/api/councilors_terms/400/","election_year":"1985","name":"闕河源","gender":"男","party":"中國國民黨","title":"議員","constituency":null,"county":"臺北市","district":"","in_office":true,"contact_details":null,"term_start":"1985-12-25","term_end":{"date":"1989-12-25"},"education":"開南商工職校高級部土木科畢業、陸軍預備士官訓練班第一期結訓。","experience":"南港鎮鎮民代表、臺北市直轄市議會第三屆議員、南港興運公司經理、品建機械公司總經理、大有巴士公司副總經理。","remark":"","image":"http://www.tcc.gov.tw/../upload/photo/%E9%97%95%E6%B2%B3%E6%BA%9013.jpg","links":[{"url":"http://www.tcc.gov.tw/Councilor_Content_All.aspx?s=1948&d=340422&n=%E9%97%95%E6%B2%B3%E6%BA%90","note":"議會個人官網"}],"social_media":null,"platform":"","param":null,"councilor":"83aefb269fc741ed9ac600d71ce34143"}],"uid":"83aefb269fc741ed9ac600d71ce34143","name":"闕河源","birth":"1934-04-22","former_names":"","identifiers":["闕河源"]},{"url":"http://councils.g0v.tw/api/councilors/838/","each_terms":[{"url":"http://councils.g0v.tw/api/councilors_terms/1495/","election_year":"1951","name":"陳松霖","gender":"","party":"","title":"議員","constituency":6,"county":"新北市","district":"北投鎮、士林鎮","in_office":true,"contact_details":null,"term_start":"1951-01-04","term_end":{"date":"1953-01-05"},"education":"臺北高等商業學校\n臺灣大學法律系","experience":"泰北中學與臺北商專教師\n華南銀行副總經理\n中國化學製藥公司董事\n臺北縣議會第1屆議員\n富邦銀行常駐監察人","remark":null,"image":"http://www.ntp.gov.tw/UpFile/CouncilorFile/TTCC0138.jpg","links":[{"url":"http://www.ntp.gov.tw/content/history/history01-5-p.aspx?sid=102","note":"議會個人官網"}],"social_media":null,"platform":"","param":null,"councilor":"43afac83cc154bac8cb5fe767ae26d5d"}],"uid":"43afac83cc154bac8cb5fe767ae26d5d","name":"陳松霖","birth":null,"former_names":"","identifiers":["陳松霖"]},{"url":"http://councils.g0v.tw/api/councilors/839/","each_terms":[{"url":"http://councils.g0v.tw/api/councilors_terms/1496/","election_year":"1951","name":"陳嘉豐","gender":"","party":"","title":"議員","constituency":6,"county":"新北市","district":"北投鎮、士林鎮","in_office":true,"contact_details":null,"term_start":"1951-01-04","term_end":{"date":"1953-01-05"},"education":"日本東洋醫學院畢業","experience":"臺北縣議會第1、3、4屆議員\n成蹊醫院院長\n臺灣省醫師公會理事\n陽明山管理局顧問\n陽明山管理局兵役協會主任委員\n民國99年4月9日歿","remark":null,"image":"http://www.ntp.gov.tw/UpFile/CouncilorFile/TTCC0137.jpg","links":[{"url":"http://www.ntp.gov.tw/content/history/history01-5-p.aspx?sid=101","note":"議會個人官網"}],"social_media":null,"platform":"","param":null,"councilor":"4a76875c4f134a2e8ca86b15676ed57d"},{"url":"http://councils.g0v.tw/api/councilors_terms/1619/","election_year":"1955","name":"陳嘉豐","gender":"","party":"","title":"議員","constituency":6,"county":"新北市","district":"北投鎮、士林鎮","in_office":true,"contact_details":null,"term_start":"1955-01-16","term_end":{"date":"1958-02-20"},"education":"日本東洋醫學院畢業","experience":"臺北縣議會第1、3、4屆議員\n成蹊醫院院長\n臺灣省醫師公會理事\n陽明山管理局顧問\n陽明山管理局兵役協會主任委員\n民國99年4月9日歿","remark":null,"image":"http://www.ntp.gov.tw/UpFile/CouncilorFile/TTCC0137.jpg","links":[{"url":"http://www.ntp.gov.tw/content/history/history01-5-p.aspx?sid=101","note":"議會個人官網"}],"social_media":null,"platform":"","param":null,"councilor":"4a76875c4f134a2e8ca86b15676ed57d"},{"url":"http://councils.g0v.tw/api/councilors_terms/1690/","election_year":"1958","name":"陳嘉豐","gender":"","party":"","title":"議員","constituency":6,"county":"新北市","district":"北投鎮、士林鎮","in_office":true,"contact_details":null,"term_start":"1958-02-21","term_end":{"date":"1961-02-20"},"education":"日本東洋醫學院畢業","experience":"臺北縣議會第1、3、4屆議員\n成蹊醫院院長\n臺灣省醫師公會理事\n陽明山管理局顧問\n陽明山管理局兵役協會主任委員\n民國99年4月9日歿","remark":null,"image":"http://www.ntp.gov.tw/UpFile/CouncilorFile/TTCC0137.jpg","links":[{"url":"http://www.ntp.gov.tw/content/history/history01-5-p.aspx?sid=101","note":"議會個人官網"}],"social_media":null,"platform":"","param":null,"councilor":"4a76875c4f134a2e8ca86b15676ed57d"}],"uid":"4a76875c4f134a2e8ca86b15676ed57d","name":"陳嘉豐","birth":null,"former_names":"","identifiers":["陳嘉豐"]}]}