{"count":1904,"next":"http://councils.g0v.tw/api/councilors/?page=131","previous":"http://councils.g0v.tw/api/councilors/?page=129","results":[{"url":"http://councils.g0v.tw/api/councilors/1586/","each_terms":[],"uid":"fca987faaa4e4be49343009010f9eaf1","name":"邱紹俊議員","birth":null,"former_names":"","identifiers":["邱紹俊議員"]},{"url":"http://councils.g0v.tw/api/councilors/1587/","each_terms":[],"uid":"3a5475ff48fd4998a61881f74f86a73a","name":"巫恒昭","birth":null,"former_names":"","identifiers":["巫恒昭"]},{"url":"http://councils.g0v.tw/api/councilors/1588/","each_terms":[],"uid":"af37c8b8aae54033a34bfbf0e73fb767","name":"李聰祥","birth":null,"former_names":"","identifiers":["李聰祥","李聰祥"]},{"url":"http://councils.g0v.tw/api/councilors/410/","each_terms":[{"url":"http://councils.g0v.tw/api/councilors_terms/3342/","election_year":"2014","name":"許崑源","gender":"男","party":"中國國民黨","title":"議員","constituency":8,"county":"高雄市","district":"前金區、 新興區、苓雅區","in_office":true,"contact_details":[{"type":"voice","value":"723-5199","label":"聯絡電話"},{"type":"address","value":"802 苓雅區福德三路153-4號","label":"通訊地址"},{"type":"email","value":"kyhsh@kcc.gov.tw","label":"電子郵件"},{"type":"fax","value":"723-8510","label":"傳真電話"}],"term_start":"2014-12-25","term_end":{"date":"2018-12-24"},"education":"高雄市三信高級商業職業學校","experience":"一、高雄市第4、5、6、7屆市議員\n二、大高雄市第1屆市議員（議長）","remark":null,"image":"http://www.kcc.gov.tw/Upload/PeriodMembers/0702039.jpg","links":[{"url":"http://www.kcc.gov.tw/PeriodMembers/Introduction.aspx?KeyID=1798","note":"議會個人官網"},{"url":"http://www.facebook.com/kun.y.yizhang","note":"個人臉書"},{"url":"http://ppt.cc/iGhG","note":"粉絲團"}],"social_media":null,"platform":"一、搶救經濟危機，整合社區資源，擴大就業機會，提振都會商機，開發經貿園區，招商重大投資，開創社區繁榮。\n二、促進族群融合，消弭族群對立，平息政爭惡鬥，深耕族群和諧，引領政治清流，淨化社會風氣，再造高雄團結。\n三、保障勞工權益，促進勞資和諧，改善勞保政策，加強勞資協調，充實職訓教育，預防工安事故，健全福利制度。\n四、關懷弱勢團體，扶助弱勢族群，落實社會救助，善督婦幼安全，廣置殘障設施，協助就業服務，提昇人性尊嚴。\n五、研議交通對策，宣導大眾運輸，宏規都會運輸，擴建大停車場，拓展捷運商機，提升交通效率，保障交通安全。\n六、改善社會治安，強化警民聯防，廣設監視系統，宣導里鄰互助，增添警力裝備，加強社區巡守，宣導法律常識。\n七、健全教育制度，根除教育亂象，推動外語教學，維護校區安全，充實教學設備，獎勵師資研修，改善教育環境。\n八、拓展觀光產業，開發觀光資源，增建主體公園，導覽文物古蹟，強化景觀特色，擴建休閒設施，發展社區觀光。\n九、貫徹環保政策，改善環境汙染，加強資源回收，全面綠化環境，淨化空氣水質，宣導環保教育，落實社區環保。\n十、開創高雄願景，凝聚族群共識，貫徹民主政治，全民參與決策，邁向多元發展，促進國際交流，致力革新願景。","param":{"attendance_statistics":{"absent":68,"total":243},"bills_role_statistics":{"total":4,"priproposer":0,"sponsor":0,"cosponsor":4},"bills_party_diversity":[{"party":"中國國民黨","ratio":0.974025974025974},{"party":"無黨團結聯盟","ratio":0.012987012987012988},{"party":"親民黨","ratio":0.012987012987012988}]},"councilor":"a356d98fa9c24fa9920c4c59db158ed7"},{"url":"http://councils.g0v.tw/api/councilors_terms/748/","election_year":"2010","name":"許崑源","gender":"","party":"中國國民黨","title":"議長","constituency":8,"county":"高雄市","district":"前金區、 新興區、苓雅區","in_office":true,"contact_details":[{"type":"voice","value":"723-5199","label":"傳真"},{"type":"fax","value":"723-8510","label":"傳真"},{"type":"email","value":"kyhsh@kcc.gov.tw","label":"電子信箱"},{"type":"address","value":"802苓雅區三多一路78號","label":"通訊處"}],"term_start":"2010-12-25","term_end":{"date":"2014-12-25"},"education":"高雄市三信高級商職業學校畢業","experience":"1.第4、5、6、7屆高雄市議員。\n2.國民黨高雄市議會黨團總召集人。\n3.2008馬蕭競選總部全國無黨聯盟總會長。\n4.國民黨高雄市委員會義務副主任委員。\n5.高雄市網球委員會主任委員。\n6.前金萬興宮主任委員。","remark":null,"image":"http://www.kcc.gov.tw/Upload/PeriodMembers/0701041.jpg","links":[{"url":"http://www.kcc.gov.tw/PeriodMembers/Introduction.aspx?KeyID=41","note":"議會個人官網"}],"social_media":null,"platform":"一、搶救經濟危機：整合社區資源、擴大就業機會、提振都會商機、開發經貿園區、招商重大投資、開創社區繁榮。\n二、促進族群融合：消弭族群對立、平息政爭惡鬥、深耕族群和諧、引領政治清流、淨化社會風氣、再造高雄團結。\n三、保障勞工權益：促進勞資和諧、改善勞保政策、加強勞資協調、充實職訓教育、預防工安事故、健全福利制度。\n四、關懷弱勢團體：扶助弱勢族群、落實社會救助、善督婦幼安全、廣置殘障設施、協助就業服務、提升人性尊嚴。\n五、研議交通對策：宣導大眾運輸、宏規都會運輸、擴建大停車場、拓展捷運商機、提升交通效率、保障交通安全。\n六、改善社會治安：強化警民聯防、廣設監視系統、宣導里鄰互助、增添警力裝備、加強社區巡守、宣導法律常識。\n七、健全教育制度：根除教育亂象、推動外語教學、維護校區安全、充實教學設備、獎勵師資研修、改善教育環境。\n八、拓展觀光產業：開發觀光資源、增建主體公園、導覽文物古蹟、強化景觀特色、擴建休閒設施、發展社區觀光。\n九、貫徹環保政策：改善環境污染、加強資源回收、全面綠化環境、淨化空氣水質、宣導環保教育、落實社區環保。\n十、開創高雄願景：凝聚族群共識、貫徹民主政治、全民參與決策、邁向多元發展、促進國際交流、致力革新願景。","param":{"bills_role_statistics":{"total":6,"priproposer":0,"sponsor":0,"cosponsor":6},"votes_decision_statistics":{"abstain":0,"disagree":0,"not_voting":3,"total":3,"agree":0,"conflict":0},"diversity":{"中國國民黨":0.8333333333333334,"民主進步黨":0.16666666666666666,"親民黨":0.0,"無黨籍":0.0},"suggestions_years":{"count":310,"sum":148019804,"years":[{"count":93,"sum":31555604,"suggest_year":"2011","small_purchase":47},{"count":96,"sum":48558600,"suggest_year":"2012","small_purchase":12},{"count":85,"sum":47696600,"suggest_year":"2013","small_purchase":10},{"count":36,"sum":20209000,"suggest_year":"2014","small_purchase":17}]},"attendance_statistics":{"absent":9,"total":392},"suggestions_associations":[{"count":9,"sum":570200,"label":"社區發展協會"},{"count":0,"sum":0,"label":"學會"},{"count":0,"sum":0,"label":"商會"},{"count":0,"sum":0,"label":"公會"},{"count":0,"sum":0,"label":"協進會"},{"count":0,"sum":0,"label":"促進會"},{"count":0,"sum":0,"label":"研習會"},{"count":0,"sum":0,"label":"婦聯會"},{"count":0,"sum":0,"label":"婦女會"},{"count":0,"sum":0,"label":"體育會"},{"count":0,"sum":0,"label":"同心會"},{"count":0,"sum":0,"label":"農會"},{"count":0,"sum":0,"label":"早起會"},{"count":0,"sum":0,"label":"健身會"},{"count":0,"sum":0,"label":"宗親會"},{"count":0,"sum":0,"label":"功德會"},{"count":0,"sum":0,"label":"商業會"},{"count":0,"sum":0,"label":"長青會"},{"count":0,"sum":0,"label":"民眾服務社"},{"count":0,"sum":0,"label":"聯盟"}],"bills_party_diversity":[{"party":"中國國民黨","ratio":0.828125},{"party":"無黨籍","ratio":0.09375},{"party":"民主進步黨","ratio":0.0625},{"party":"親民黨","ratio":0.015625}],"suggestions_piles":[{"count":119,"tokens":"警察局|分局","sum":57591210,"label":"警察局"},{"count":40,"tokens":"國中|國小","sum":16460404,"label":"國中、國小"},{"count":4,"tokens":"廟|宮","sum":2486200,"label":"廟"},{"count":2,"tokens":"消防局|消防隊|分隊|中隊","sum":895000,"label":"消防局"},{"count":9,"tokens":"協會|學會|商會|公會|協進會|促進會|研習會|婦聯會|婦女會|體育會|同心會|農會|早起會|健身會|宗親會|功德會|商業會|長青會|民眾服務社|聯盟","sum":570200,"label":"協會"},{"count":4,"tokens":"辦公室|辦公處","sum":485960,"label":"辦公室"}]},"councilor":"a356d98fa9c24fa9920c4c59db158ed7"}],"uid":"a356d98fa9c24fa9920c4c59db158ed7","name":"許崑源","birth":null,"former_names":"","identifiers":["許崑源"]},{"url":"http://councils.g0v.tw/api/councilors/1589/","each_terms":[],"uid":"eabbc739be2c4d5b81361a2d79c556d9","name":"劉秋東","birth":null,"former_names":"","identifiers":["劉秋東","劉秋東"]},{"url":"http://councils.g0v.tw/api/councilors/1590/","each_terms":[],"uid":"e8c12c0ad3e34b77bd5c87fcf463e540","name":"張太陽","birth":null,"former_names":"","identifiers":["張太陽"]},{"url":"http://councils.g0v.tw/api/councilors/1591/","each_terms":[],"uid":"3a816adea3274b00bf7af5471a40f360","name":"張家靜","birth":null,"former_names":"","identifiers":["張家静","張家靜"]},{"url":"http://councils.g0v.tw/api/councilors/1592/","each_terms":[],"uid":"823f8b413e714f828854205c5c89925c","name":"黎旭欽","birth":null,"former_names":"","identifiers":["黎旭欽"]},{"url":"http://councils.g0v.tw/api/councilors/806/","each_terms":[{"url":"http://councils.g0v.tw/api/councilors_terms/1456/","election_year":"1946","name":"鄭榮春","gender":"","party":"","title":"議員","constituency":null,"county":"新北市","district":"","in_office":true,"contact_details":null,"term_start":"1946-04-15","term_end":{"date":"1950-12-31"},"education":"臺北師範學校畢業。","experience":"國校訓導\n組合會計組課長\n鐵工業統制會主事","remark":null,"image":"http://www.ntp.gov.tw/UpFile/CouncilorFile/TTCC0018.jpg","links":[{"url":"http://www.ntp.gov.tw/content/history/history01-5-p.aspx?sid=18","note":"議會個人官網"}],"social_media":null,"platform":"","param":null,"councilor":"41cb7eff115b42b8ad204b2cfc190c27"}],"uid":"41cb7eff115b42b8ad204b2cfc190c27","name":"鄭榮春","birth":null,"former_names":"","identifiers":["鄭榮春"]},{"url":"http://councils.g0v.tw/api/councilors/807/","each_terms":[{"url":"http://councils.g0v.tw/api/councilors_terms/1457/","election_year":"1946","name":"林清敦","gender":"","party":"","title":"議員","constituency":null,"county":"新北市","district":"","in_office":true,"contact_details":null,"term_start":"1946-04-15","term_end":{"date":"1950-12-31"},"education":"國文書塾畢業。","experience":"三重埔區區長\n信用購買組合長\n農會常務理事\n*原系鷺州鄉選出，三十七年分鷺洲鄉一部為三重鎮仍繼任","remark":null,"image":"http://www.ntp.gov.tw/UpFile/CouncilorFile/TTCC0017.jpg","links":[{"url":"http://www.ntp.gov.tw/content/history/history01-5-p.aspx?sid=17","note":"議會個人官網"}],"social_media":null,"platform":"","param":null,"councilor":"53d937d0344e4f7eb0a4d1dfcc97629d"}],"uid":"53d937d0344e4f7eb0a4d1dfcc97629d","name":"林清敦","birth":null,"former_names":"","identifiers":["林清敦","林清敦"]}]}