{"count":1904,"next":"http://councils.g0v.tw/api/councilors/?page=136","previous":"http://councils.g0v.tw/api/councilors/?page=134","results":[{"url":"http://councils.g0v.tw/api/councilors/214/","each_terms":[{"url":"http://councils.g0v.tw/api/councilors_terms/377/","election_year":"1989","name":"張元成","gender":"男","party":"中國國民黨","title":"議員","constituency":null,"county":"臺北市","district":"","in_office":true,"contact_details":null,"term_start":"1989-12-25","term_end":{"date":"1994-12-25"},"education":"木柵國小、省立成功、北商畢業、淡江大學畢業(刪除、後幹班38期、革命實踐研究院講習班47期結業)。","experience":"後備軍人中心主任、楷模、獅子會會長、義消中隊長、臺北市直轄市議會第一、二、三、四、五屆議員。(刪除救國團區常委、市義警大隊附、民防顧問)","remark":"","image":"http://www.tcc.gov.tw/../upload/photo/%E5%BC%B5%E5%85%83%E6%88%9014.jpg","links":[{"url":"http://www.tcc.gov.tw/Councilor_Content_All.aspx?s=1385&d=400712&n=%E5%BC%B5%E5%85%83%E6%88%90","note":"議會個人官網"}],"social_media":null,"platform":"","param":null,"councilor":"fa150838ef414bf4bac1cb1e59c53672"},{"url":"http://councils.g0v.tw/api/councilors_terms/428/","election_year":"1985","name":"張元成","gender":"男","party":"中國國民黨","title":"議員","constituency":null,"county":"臺北市","district":"","in_office":true,"contact_details":null,"term_start":"1985-12-25","term_end":{"date":"1989-12-25"},"education":"淡江文理學院畢業、革命實踐研究院黨政班55期、講習班47期結業。","experience":"後備軍人楷模、輔導組長、家長會長、民防、義警顧問、臺北市直轄市議會第一、二、三、四屆議員。","remark":"","image":"http://www.tcc.gov.tw/../upload/photo/%E5%BC%B5%E5%85%83%E6%88%9013.jpg","links":[{"url":"http://www.tcc.gov.tw/Councilor_Content_All.aspx?s=2247&d=400712&n=%E5%BC%B5%E5%85%83%E6%88%90","note":"議會個人官網"}],"social_media":null,"platform":"","param":null,"councilor":"fa150838ef414bf4bac1cb1e59c53672"},{"url":"http://councils.g0v.tw/api/councilors_terms/572/","election_year":"1973","name":"張元成","gender":"男","party":"中國國民黨","title":"議員","constituency":null,"county":"臺北市","district":"","in_office":true,"contact_details":null,"term_start":"1973-12-25","term_end":{"date":"1977-12-25"},"education":"淡江文理學院畢業。","experience":"臺北市第一屆議會議員。","remark":"","image":"http://www.tcc.gov.tw/../upload/photo/%E5%BC%B5%E5%85%83%E6%88%9010.jpg","links":[{"url":"http://www.tcc.gov.tw/Councilor_Content_All.aspx?s=2159&d=400712&n=%E5%BC%B5%E5%85%83%E6%88%90","note":"議會個人官網"}],"social_media":null,"platform":"","param":null,"councilor":"fa150838ef414bf4bac1cb1e59c53672"},{"url":"http://councils.g0v.tw/api/councilors_terms/475/","election_year":"1981","name":"張元成","gender":"男","party":"中國國民黨","title":"議員","constituency":null,"county":"臺北市","district":"","in_office":true,"contact_details":null,"term_start":"1981-12-25","term_end":{"date":"1985-12-25"},"education":"淡江文理學院畢業、後幹班38期、革命實踐研究院黨政班五十五期結業。","experience":"臺北市直轄市議會第一、二、三屆議員、木柵區後備軍人輔導中心主任、臺北市體育會理事、木柵區體育會常務理事、木柵區足球委員會主任。","remark":"","image":"http://www.tcc.gov.tw/../upload/photo/%E5%BC%B5%E5%85%83%E6%88%9012.jpg","links":[{"url":"http://www.tcc.gov.tw/Councilor_Content_All.aspx?s=1477&d=400712&n=%E5%BC%B5%E5%85%83%E6%88%90","note":"議會個人官網"}],"social_media":null,"platform":"","param":null,"councilor":"fa150838ef414bf4bac1cb1e59c53672"},{"url":"http://councils.g0v.tw/api/councilors_terms/624/","election_year":"1969","name":"張元成","gender":"男","party":"中國國民黨","title":"議員","constituency":null,"county":"臺北市","district":"","in_office":true,"contact_details":null,"term_start":"1969-12-25","term_end":{"date":"1973-12-25"},"education":"淡江文理學院外文系。","experience":"經理","remark":"","image":"http://www.tcc.gov.tw/../upload/photo/%E5%BC%B5%E5%85%83%E6%88%9009.jpg","links":[{"url":"http://www.tcc.gov.tw/Councilor_Content_All.aspx?s=1941&d=400712&n=%E5%BC%B5%E5%85%83%E6%88%90","note":"議會個人官網"}],"social_media":null,"platform":"","param":null,"councilor":"fa150838ef414bf4bac1cb1e59c53672"},{"url":"http://councils.g0v.tw/api/councilors_terms/523/","election_year":"1977","name":"張元成","gender":"男","party":"中國國民黨","title":"議員","constituency":null,"county":"臺北市","district":"","in_office":true,"contact_details":null,"term_start":"1977-12-25","term_end":{"date":"1981-12-25"},"education":"淡江文理學院畢業、後幹班三十八期結業。","experience":"義警大隊附、市消副區隊長、後備軍人木柵區輔導組長、後備軍人楷模、中山國小、木柵國中家長會長、臺北市體育會理事、木柵區體育會常務理事、木柵區足球委員會主任、臺北市議會第一、二屆議員。","remark":"","image":"http://www.tcc.gov.tw/../upload/photo/%E5%BC%B5%E5%85%83%E6%88%9011.jpg","links":[{"url":"http://www.tcc.gov.tw/Councilor_Content_All.aspx?s=2233&d=400712&n=%E5%BC%B5%E5%85%83%E6%88%90","note":"議會個人官網"}],"social_media":null,"platform":"","param":null,"councilor":"fa150838ef414bf4bac1cb1e59c53672"}],"uid":"fa150838ef414bf4bac1cb1e59c53672","name":"張元成","birth":"1940-07-12","former_names":"","identifiers":["張元成"]},{"url":"http://councils.g0v.tw/api/councilors/215/","each_terms":[{"url":"http://councils.g0v.tw/api/councilors_terms/381/","election_year":"1989","name":"洪濬哲","gender":"男","party":"中國國民黨","title":"議員","constituency":null,"county":"臺北市","district":"","in_office":false,"contact_details":null,"term_start":"1989-12-25","term_end":{"date":"1993-01-31","reason":"82年1月31日當選第2屆立法委員，辭職轉任國會議員。"},"education":"國立師範大學畢業，美國東北密蘇里大學碩士研究。","experience":"當選全國十大傑出青年，全國青年獎章得獎人，十六次中華隊國手、臺北市直轄市議會第五屆議員。","remark":"82年1月31日當選第2屆立法委員，辭職轉任國會議員。","image":"http://www.tcc.gov.tw/../upload/photo/%E6%B4%AA%E6%BF%AC%E5%93%B214.jpg","links":[{"url":"http://www.tcc.gov.tw/Councilor_Content_All.aspx?s=1557&d=510209&n=%E6%B4%AA%E6%BF%AC%E5%93%B2","note":"議會個人官網"}],"social_media":null,"platform":"","param":null,"councilor":"7665a46785bb4c83ad12c81562209596"},{"url":"http://councils.g0v.tw/api/councilors_terms/435/","election_year":"1985","name":"洪濬哲","gender":"男","party":"中國國民黨","title":"議員","constituency":null,"county":"臺北市","district":"","in_office":true,"contact_details":null,"term_start":"1985-12-25","term_end":{"date":"1989-12-25"},"education":"基隆市成功國小、基隆市立一中、東方高中畢業、國立師範大學體育系畢業。","experience":"全國青年獎章得主、全國十大傑出青年、亞洲籃球明星、全國優秀體育青年、濬德公司總經理、南亞女籃球隊總教練、臺北醫學院體育講師。","remark":"","image":"http://www.tcc.gov.tw/../upload/photo/%E6%B4%AA%E6%BF%AC%E5%93%B213.jpg","links":[{"url":"http://www.tcc.gov.tw/Councilor_Content_All.aspx?s=1986&d=510209&n=%E6%B4%AA%E6%BF%AC%E5%93%B2","note":"議會個人官網"}],"social_media":null,"platform":"","param":null,"councilor":"7665a46785bb4c83ad12c81562209596"}],"uid":"7665a46785bb4c83ad12c81562209596","name":"洪濬哲","birth":"1951-02-09","former_names":"","identifiers":["洪濬哲"]},{"url":"http://councils.g0v.tw/api/councilors/216/","each_terms":[{"url":"http://councils.g0v.tw/api/councilors_terms/382/","election_year":"1989","name":"邱錦添","gender":"男","party":"中國國民黨","title":"議員","constituency":null,"county":"臺北市","district":"","in_office":true,"contact_details":null,"term_start":"1989-12-25","term_end":{"date":"1994-12-25"},"education":"新竹縣照門國小畢業，國立師大附中初級部畢業，省立臺北師範畢業，國立臺灣大學法律系畢業，中國文化大學法研究碩士，美國林肯大學博士班研究。","experience":"臺北市敦化國小教師、中央信託局職員、中國產物保險公司副科長、臺北商專講師、臺北市直轄市議會第五屆議員。","remark":"","image":"http://www.tcc.gov.tw/../upload/photo/%E9%82%B1%E9%8C%A6%E6%B7%BB14.jpg","links":[{"url":"http://www.tcc.gov.tw/Councilor_Content_All.aspx?s=1435&d=390810&n=%E9%82%B1%E9%8C%A6%E6%B7%BB","note":"議會個人官網"}],"social_media":null,"platform":"","param":null,"councilor":"db66d992fd4a4f5dac84e1d3684a372b"},{"url":"http://councils.g0v.tw/api/councilors_terms/436/","election_year":"1985","name":"邱錦添","gender":"男","party":"中國國民黨","title":"議員","constituency":null,"county":"臺北市","district":"","in_office":true,"contact_details":null,"term_start":"1985-12-25","term_end":{"date":"1989-12-25"},"education":"省立臺北師範畢業、國立臺灣大學法律系畢業、中國文化大學法研究碩士、美國林肯大學博士班研究，民國六十年律師高考及格。","experience":"臺北市國小教師、新竹縣立新埔初級中學教師、中國產物保險公司副科長、臺北商專講師。","remark":"","image":"http://www.tcc.gov.tw/../upload/photo/%E9%82%B1%E9%8C%A6%E6%B7%BB13.jpg","links":[{"url":"http://www.tcc.gov.tw/Councilor_Content_All.aspx?s=2193&d=390810&n=%E9%82%B1%E9%8C%A6%E6%B7%BB","note":"議會個人官網"}],"social_media":null,"platform":"","param":null,"councilor":"db66d992fd4a4f5dac84e1d3684a372b"}],"uid":"db66d992fd4a4f5dac84e1d3684a372b","name":"邱錦添","birth":"1939-08-10","former_names":"","identifiers":["邱錦添"]},{"url":"http://councils.g0v.tw/api/councilors/172/","each_terms":[{"url":"http://councils.g0v.tw/api/councilors_terms/279/","election_year":"1998","name":"段宜康","gender":"男","party":"民主進步黨","title":"議員","constituency":null,"county":"臺北市","district":"","in_office":false,"contact_details":null,"term_start":"1998-12-25","term_end":{"date":"2002-01-31","reason":"91年1月31日當選第5屆立法委員，９１年２月１日辭職轉任國會議員。"},"education":"國立臺灣大學政治學系畢業。","experience":"臺北市直轄市議會第七屆議員、立法委員洪奇昌、盧修一、葉菊蘭聯合助理。「臺大政治」總編輯。民進報總編輯。立法委員洪奇昌臺南服務處主任。「外獨會」創會執委。澎湖縣長高值澎特別助理。410教改大遊行副總指揮。認識臺灣教科書辯論代表。","remark":"91年1月31日當選第5屆立法委員，９１年２月１日辭職轉任國會議員。","image":"http://www.tcc.gov.tw/../upload/photo/%E7%AC%AC%E5%8D%81%E4%BA%8C%E5%B1%86%E6%AE%B5%E5%AE%9C%E5%BA%B7017.jpg","links":[{"url":"http://www.tcc.gov.tw/Councilor_Content_All.aspx?s=1755&d=631114&n=%E6%AE%B5%E5%AE%9C%E5%BA%B7","note":"議會個人官網"}],"social_media":null,"platform":"","param":null,"councilor":"ceee0e5700d34625a338f7ae8449b255"},{"url":"http://councils.g0v.tw/api/councilors_terms/329/","election_year":"1994","name":"段宜康","gender":"男","party":"民主進步黨","title":"議員","constituency":null,"county":"臺北市","district":"","in_office":true,"contact_details":null,"term_start":"1994-12-25","term_end":{"date":"1998-12-25"},"education":"成功高中畢業、國立臺灣大學政治學系政治理論組畢業","experience":"立法委員洪奇昌競選執行副總幹事、服務處主任。高植澎參選縣長執行總幹事、澎湖縣政府馬上辦中心主任、新潮流辦公室組織部專員、外省人臺灣獨立協進會創會執委、環保聯盟臺南分會執委、1023敬老年金大遊行指揮、410教育改造大遊行副總指揮。","remark":"","image":"http://www.tcc.gov.tw/../upload/photo/%E6%AE%B5%E5%AE%9C%E5%BA%B715.jpg","links":[{"url":"http://www.tcc.gov.tw/Councilor_Content_All.aspx?s=1542&d=631114&n=%E6%AE%B5%E5%AE%9C%E5%BA%B7","note":"議會個人官網"}],"social_media":null,"platform":"","param":null,"councilor":"ceee0e5700d34625a338f7ae8449b255"}],"uid":"ceee0e5700d34625a338f7ae8449b255","name":"段宜康","birth":"1963-11-14","former_names":"","identifiers":["段宜康"]},{"url":"http://councils.g0v.tw/api/councilors/173/","each_terms":[{"url":"http://councils.g0v.tw/api/councilors_terms/280/","election_year":"1998","name":"柯景昇","gender":"男","party":"民主進步黨","title":"議員","constituency":null,"county":"臺北市","district":"","in_office":true,"contact_details":null,"term_start":"1998-12-25","term_end":{"date":"2002-12-25"},"education":"政大公行所碩士、政大政治系、師大附中、大同中學、日新國小。","experience":"民進黨創黨黨員。民進黨臺北市黨部執行長、中央政策研究中心副主任。臺北市選監小組委員。世界新專、能仁家商講師。加盟獅子會  300A1  區 9394會長。臺北市觀護協會理事、監事。臺北市直轄市議會民進黨黨團副總召集人、幹事長。四年府會協商小組成員。臺北市直轄市議會第七屆議員、博愛扶輪社友。臺北市國際青年商會會員。","remark":"","image":"http://www.tcc.gov.tw/../upload/photo/%E6%9F%AF%E6%99%AF%E6%98%8716.jpg","links":[{"url":"http://www.tcc.gov.tw/Councilor_Content_All.aspx?s=1737&d=540311&n=%E6%9F%AF%E6%99%AF%E6%98%87","note":"議會個人官網"}],"social_media":null,"platform":"","param":null,"councilor":"b6a156fbaa144db78e79a31f568dda09"},{"url":"http://councils.g0v.tw/api/councilors_terms/330/","election_year":"1994","name":"柯景昇","gender":"男","party":"民主進步黨","title":"議員","constituency":null,"county":"臺北市","district":"","in_office":true,"contact_details":null,"term_start":"1994-12-25","term_end":{"date":"1998-12-25"},"education":"政治大學公共行政研究所碩士、政治大學政治系、師大附中、大同中學、日新國小。","experience":"六十年起為許信良、張德銘、吳敬法、蕭裕珍、蔡仁堅、陳永興等助選。美麗島雜誌、八十年代雜誌編輯。立委張德銘、康寧祥特別助理。民主進步黨建黨黨員。民主進步黨臺北市黨部執行長。中央黨部政策研究中心副主任。臺北市選舉委員會選監小組委員。加盟獅子會、臺北市國際青商會會員。世界新專、能仁家商講師。","remark":"","image":"http://www.tcc.gov.tw/../upload/photo/%E6%9F%AF%E6%99%AF%E6%98%8715.jpg","links":[{"url":"http://www.tcc.gov.tw/Councilor_Content_All.aspx?s=1693&d=540311&n=%E6%9F%AF%E6%99%AF%E6%98%87","note":"議會個人官網"}],"social_media":null,"platform":"","param":null,"councilor":"b6a156fbaa144db78e79a31f568dda09"}],"uid":"b6a156fbaa144db78e79a31f568dda09","name":"柯景昇","birth":"1954-03-11","former_names":"","identifiers":["柯景昇"]},{"url":"http://councils.g0v.tw/api/councilors/174/","each_terms":[{"url":"http://councils.g0v.tw/api/councilors_terms/291/","election_year":"1998","name":"江蓋世","gender":"男","party":"民主進步黨","title":"議員","constituency":null,"county":"臺北市","district":"","in_office":true,"contact_details":null,"term_start":"1998-12-25","term_end":{"date":"2002-12-25"},"education":"西門國小、延平初中、建國中學。臺灣大學政治系、臺灣大學政治研究所碩士。","experience":"鄭南榕「自由時代」編輯。倡導「愛與非暴力」。首倡「人民有主張臺灣獨立的自由」。五度環島行軍。兩度入政治獄。新青年社社長。臺北市議會議員。市議會民進黨黨團幹事長。北市「愛與非暴力協會」理事長。臺灣書道家。著作：「展現民力－非暴力的理論與實踐」、「鐵窗筆墨」、「我走過的臺灣路」、臺北市直轄市議會第七屆議員。","remark":"","image":"http://www.tcc.gov.tw/../upload/photo/%E6%B1%9F%E8%93%8B%E4%B8%9616.bmp","links":[{"url":"http://www.tcc.gov.tw/Councilor_Content_All.aspx?s=1876&d=580222&n=%E6%B1%9F%E8%93%8B%E4%B8%96","note":"議會個人官網"}],"social_media":null,"platform":"","param":null,"councilor":"55d55db857bc40c799d7187c311a358d"},{"url":"http://councils.g0v.tw/api/councilors_terms/345/","election_year":"1994","name":"江蓋世","gender":"男","party":"民主進步黨","title":"議員","constituency":null,"county":"臺北市","district":"","in_office":true,"contact_details":null,"term_start":"1994-12-25","term_end":{"date":"1998-12-25"},"education":"西門國小、延平初中、建國中學。臺灣大學政治系、臺灣大學政研所碩士、英國利物浦大學政治研究所短期進修。","experience":"1.鄭南榕『自由時代』編輯。(1986)2.首倡『人民有主張臺灣獨立的自由』。(1987)3.『六一二事件』與謝長廷、洪奇昌為同案被告。(1987)4.四度全島行軍，宣揚臺獨思想自由。(1987)5.臺獨事件，兩度入獄。(1988、1991)6.新青年社社長。(1990)7.英國利物浦大學短期『非暴力研究』。(1990)8.遠赴印度蒐集甘地『非暴力思想』資料。(1990)9.參加美國金恩中心『非暴力研習營』。(1991)10.巡迴全美臺灣人社團演講。(1992)11.立法委員姚嘉文國會辦公室主任。(1993)","remark":"","image":"http://www.tcc.gov.tw/../upload/photo/%E6%B1%9F%E8%93%8B%E4%B8%9615.jpg","links":[{"url":"http://www.tcc.gov.tw/Councilor_Content_All.aspx?s=1493&d=580222&n=%E6%B1%9F%E8%93%8B%E4%B8%96","note":"議會個人官網"}],"social_media":null,"platform":"","param":null,"councilor":"55d55db857bc40c799d7187c311a358d"}],"uid":"55d55db857bc40c799d7187c311a358d","name":"江蓋世","birth":"1958-02-22","former_names":"","identifiers":["江蓋世"]},{"url":"http://councils.g0v.tw/api/councilors/175/","each_terms":[{"url":"http://councils.g0v.tw/api/councilors_terms/292/","election_year":"1998","name":"王博昱","gender":"男","party":"民主進步黨","title":"議員","constituency":null,"county":"臺北市","district":"","in_office":true,"contact_details":null,"term_start":"1998-12-25","term_end":{"date":"2002-12-25"},"education":"松山國小、民生國中、中興高中、美國聯邦大學企管系畢業、美國貝克大學資訊管理研究所畢業","experience":"民進黨臺北市黨代表、市議員王昆和、立委王雪峰服務處主任。","remark":"","image":"http://www.tcc.gov.tw/../upload/photo/%E7%8E%8B%E5%8D%9A%E6%98%B116.bmp","links":[{"url":"http://www.tcc.gov.tw/Councilor_Content_All.aspx?s=2052&d=680921&n=%E7%8E%8B%E5%8D%9A%E6%98%B1","note":"議會個人官網"}],"social_media":null,"platform":"","param":null,"councilor":"4601db343f3f489b92f71ae0014a33dc"}],"uid":"4601db343f3f489b92f71ae0014a33dc","name":"王博昱","birth":"1968-09-21","former_names":"","identifiers":["王博昱"]},{"url":"http://councils.g0v.tw/api/councilors/643/","each_terms":[{"url":"http://councils.g0v.tw/api/councilors_terms/1126/","election_year":"1990","name":"蘇貴碧","gender":"","party":"","title":"議員","constituency":3,"county":"新北市","district":"永和市","in_office":true,"contact_details":null,"term_start":"1990-03-01","term_end":{"date":"1994-02-28"},"education":"溪洲國小(現永和國小)\n靜修女中初中畢\n臺北市立女子中學高中部畢業","experience":"救團社會大隊永和區隊團員(民國47年)\n永和市第3屆市民代表會副主席\n中華民國道教總會臺北縣支會縣代表\n臺北縣議會第12、13、14屆議員\n永和市義警中隊女子分隊長\n中國國民黨第3區黨部委員\n裕在有限公司負責人\n世芳國際同濟會創會會長\n永和市仁愛香功會副會長\n永和市體育會舞蹈委員會會長\n中華民國太極拳協會第20支會會長","remark":null,"image":"http://www.ntp.gov.tw/UpFile/CouncilorFile/TTCC1224.jpg","links":[{"url":"http://www.ntp.gov.tw/content/history/history01-5-p.aspx?sid=426","note":"議會個人官網"}],"social_media":null,"platform":"","param":null,"councilor":"1333d281a3d049cbaedc3e0a097a554e"},{"url":"http://councils.g0v.tw/api/councilors_terms/1194/","election_year":"1994","name":"蘇貴碧","gender":"","party":"","title":"議員","constituency":3,"county":"新北市","district":"永和市","in_office":true,"contact_details":null,"term_start":"1994-03-01","term_end":{"date":"1998-02-28"},"education":"溪洲國小(現永和國小)\n靜修女中初中畢\n臺北市立女子中學高中部畢業","experience":"救團社會大隊永和區隊團員(民國47年)\n永和市第3屆市民代表會副主席\n中華民國道教總會臺北縣支會縣代表\n臺北縣議會第12、13、14屆議員\n永和市義警中隊女子分隊長\n中國國民黨第3區黨部委員\n裕在有限公司負責人\n世芳國際同濟會創會會長\n永和市仁愛香功會副會長\n永和市體育會舞蹈委員會會長\n中華民國太極拳協會第20支會會長","remark":null,"image":"http://www.ntp.gov.tw/UpFile/CouncilorFile/TTCC1224.jpg","links":[{"url":"http://www.ntp.gov.tw/content/history/history01-5-p.aspx?sid=426","note":"議會個人官網"}],"social_media":null,"platform":"","param":null,"councilor":"1333d281a3d049cbaedc3e0a097a554e"},{"url":"http://councils.g0v.tw/api/councilors_terms/1259/","election_year":"1998","name":"蘇貴碧","gender":"","party":"","title":"議員","constituency":3,"county":"新北市","district":"永和市","in_office":true,"contact_details":null,"term_start":"1998-03-01","term_end":{"date":"2002-02-28"},"education":"溪洲國小(現永和國小)\n靜修女中初中畢\n臺北市立女子中學高中部畢業","experience":"救團社會大隊永和區隊團員(民國47年)\n永和市第3屆市民代表會副主席\n中華民國道教總會臺北縣支會縣代表\n臺北縣議會第12、13、14屆議員\n永和市義警中隊女子分隊長\n中國國民黨第3區黨部委員\n裕在有限公司負責人\n世芳國際同濟會創會會長\n永和市仁愛香功會副會長\n永和市體育會舞蹈委員會會長\n中華民國太極拳協會第20支會會長","remark":null,"image":"http://www.ntp.gov.tw/UpFile/CouncilorFile/TTCC1224.jpg","links":[{"url":"http://www.ntp.gov.tw/content/history/history01-5-p.aspx?sid=426","note":"議會個人官網"}],"social_media":null,"platform":"","param":null,"councilor":"1333d281a3d049cbaedc3e0a097a554e"}],"uid":"1333d281a3d049cbaedc3e0a097a554e","name":"蘇貴碧","birth":null,"former_names":"","identifiers":["蘇貴碧"]},{"url":"http://councils.g0v.tw/api/councilors/1016/","each_terms":[{"url":"http://councils.g0v.tw/api/councilors_terms/1941/","election_year":"2010","name":"謝財旺","gender":"男","party":"無黨籍","title":"議員","constituency":3,"county":"臺南市","district":"北門、學甲、將軍區","in_office":true,"contact_details":[{"type":"email","value":false,"label":"電子信箱"},{"type":"voice","value":"7823858","label":"電話"},{"type":"fax","value":"7823818","label":"傳真"},{"type":"address","value":"72643台南市學甲區中正路129號","label":"通訊處"}],"term_start":"2010-12-25","term_end":{"date":"2014-12-25"},"education":"遠東科技大學二年制畢業","experience":"現任大台南市議會第1屆議員。\n南縣區漁會第六、七屆理事\n南縣區漁會第八屆監事\n學甲鎮民代表會第九屆代表\n學甲鎮民代表會第十屆主席","remark":"","image":"http://www.tncc.gov.tw/warehouse/200000/%E8%AC%9D%E8%B2%A1%E6%97%BA.bmp","links":[{"url":"http://www.tncc.gov.tw/tnccp/ccp_01a.asp?CName=%C1%C2%B0%5D%A9%F4","note":"議會個人官網"}],"social_media":null,"platform":"積極爭取區、里及社區軟硬體建設與福利措施，避免鄉鎮邊緣化\n爭取大台南市行政區域劃定學甲、將軍、北門為一行政區，並將區公所設置於學甲，以利民眾洽公\n嚴格監督新市政府施政及區公所服務品質，提升便民服務之行政效率\n全力推展本地農、漁產業特色文化活動，促進產銷機能，以增加農、漁民收益\n加強督促賡續整治將軍溪，以杜絕水患\n岸予綠美化，並闢建為休憩觀光區\n建請交通部公路總局儘速完成(麻豆—學甲—北門)東西向快速道路之興建，以便利交通帶動地方繁榮\n重新規劃學甲工業區，並改善公共設施，以利廣招廠商進駐，增加就業機會，吸引青年在鄉服務，減少人口外流","param":{"suggestions_years":{"count":43,"sum":28615400,"years":[{"count":43,"sum":28615400,"suggest_year":"2014","small_purchase":5}]},"diversity":{"中國國民黨":0.43661776078159015,"民主進步黨":0.2796827507694207,"無黨籍":0.2836994884489895},"bills_role_statistics":{"total":108,"priproposer":2,"sponsor":3,"cosponsor":105},"suggestions_associations":[{"count":0,"sum":0,"label":"社區發展協會"},{"count":0,"sum":0,"label":"學會"},{"count":0,"sum":0,"label":"商會"},{"count":0,"sum":0,"label":"公會"},{"count":0,"sum":0,"label":"協進會"},{"count":0,"sum":0,"label":"促進會"},{"count":0,"sum":0,"label":"研習會"},{"count":0,"sum":0,"label":"婦聯會"},{"count":0,"sum":0,"label":"婦女會"},{"count":0,"sum":0,"label":"體育會"},{"count":0,"sum":0,"label":"同心會"},{"count":0,"sum":0,"label":"農會"},{"count":0,"sum":0,"label":"早起會"},{"count":0,"sum":0,"label":"健身會"},{"count":0,"sum":0,"label":"宗親會"},{"count":0,"sum":0,"label":"功德會"},{"count":0,"sum":0,"label":"商業會"},{"count":0,"sum":0,"label":"長青會"},{"count":0,"sum":0,"label":"民眾服務社"},{"count":0,"sum":0,"label":"聯盟"}],"bills_party_diversity":[{"party":"中國國民黨","ratio":0.37913223140495866},{"party":"民主進步黨","ratio":0.35330578512396693},{"party":"無黨籍","ratio":0.2675619834710744}],"suggestions_piles":[{"count":2,"tokens":"廟|宮","sum":2863000,"label":"廟"},{"count":0,"tokens":"協會|學會|商會|公會|協進會|促進會|研習會|婦聯會|婦女會|體育會|同心會|農會|早起會|健身會|宗親會|功德會|商業會|長青會|民眾服務社|聯盟","sum":0,"label":"協會"},{"count":0,"tokens":"辦公室|辦公處","sum":0,"label":"辦公室"},{"count":0,"tokens":"警察局|分局","sum":0,"label":"警察局"},{"count":0,"tokens":"消防局|消防隊|分隊|中隊","sum":0,"label":"消防局"},{"count":0,"tokens":"國中|國小","sum":0,"label":"國中、國小"}]},"councilor":"970006d8a7c24dc7854e427f143e1c30"},{"url":"http://councils.g0v.tw/api/councilors_terms/3186/","election_year":"2014","name":"謝財旺","gender":"男","party":"無黨籍","title":"議員","constituency":3,"county":"臺南市","district":"北門、學甲、將軍區","in_office":true,"contact_details":[{"type":"voice","value":"7823858","label":"電話"},{"type":"address","value":"台南市學甲區中正路129號","label":"通訊處"},{"type":"email","value":"a7823858@yahoo.com.tw","label":"電子信箱"}],"term_start":"2014-12-25","term_end":{"date":"2018-12-25"},"education":"遠東科技大學二年制畢業","experience":"臺南市議會第一屆市議員；\n學甲鎮第十一屆鎮長；\n學甲鎮民代表會第十屆主席；\n學甲鎮民代表會第九屆代表；\n臺南縣區漁會第八屆監事；\n臺南縣區漁會第六、七屆理事","remark":null,"image":"http://www.tncc.gov.tw/warehouse/200000/%E8%AC%9D%E8%B2%A1%E6%97%BA.bmp","links":[{"url":"http://www.tncc.gov.tw/tnccp2/ccp_01a.asp?CName=%E8%AC%9D%E8%B2%A1%E6%97%BA","note":"議會個人官網"},{"url":"webmap.asp","note":"FaceBook"}],"social_media":null,"platform":"一、 承擔、魄力、用心、不分黨派，全力為鄉親打拚，專業監督市政服務品質，謀求鄉親最大福利。\n二、 督促市府專案辦理行銷學甲－將軍－北門地區特有之農、漁產業，結合地方宗教及在地文化特色，增進農漁民經濟效益。\n三、 全力推動修正不合時宜並通盤檢討「南鯤鯓特定區計畫案」，並配合「雲嘉南濱海國家風景區」開發，帶動北門區地方繁榮。\n四、 針對「將軍漁港、馬沙溝漁港及青山漁港」閒置空間與漁貨拍賣場，督促市府提出發展觀光產業改造方案及輔導漁業資源保育增加魚貨量，帶動地方經濟繁榮。\n五、 支持市府繼續推動治水方案，建構完善排水系統杜絕水患，以確保農、漁業者及市民之生命財產安全。\n六、 配合各區里長及社區發展協會積極爭取經費落實基層建設，推動環境綠美化，辦理藝文、社區大學各項活動，增進市民生活品質。\n七、 督促市府推動老人安養日照及低收入戶、身心障礙者照顧、提高婦女生育津貼及托育補助、並重視新移民生活輔導及就業機會。\n八、 督促市府辦理更新及改善學甲工業區公共設施，提出招商計畫輔導特色產業進駐，增加就業機會，吸引本地青年子弟返鄉服務，避免人口外流。","param":{"suggestions_years":{"count":37,"sum":16549000,"years":[{"count":25,"sum":10503000,"suggest_year":"2015","small_purchase":5},{"count":12,"sum":6046000,"suggest_year":"2016","small_purchase":1}]},"bills_role_statistics":{"total":112,"priproposer":0,"sponsor":1,"cosponsor":111},"attendance_statistics":{"absent":45,"total":231},"suggestions_associations":[{"count":0,"sum":0,"label":"社區發展協會"},{"count":0,"sum":0,"label":"學會"},{"count":0,"sum":0,"label":"商會"},{"count":0,"sum":0,"label":"公會"},{"count":0,"sum":0,"label":"協進會"},{"count":0,"sum":0,"label":"促進會"},{"count":0,"sum":0,"label":"研習會"},{"count":0,"sum":0,"label":"婦聯會"},{"count":0,"sum":0,"label":"婦女會"},{"count":0,"sum":0,"label":"體育會"},{"count":0,"sum":0,"label":"同心會"},{"count":0,"sum":0,"label":"農會"},{"count":0,"sum":0,"label":"早起會"},{"count":0,"sum":0,"label":"健身會"},{"count":0,"sum":0,"label":"宗親會"},{"count":0,"sum":0,"label":"功德會"},{"count":0,"sum":0,"label":"商業會"},{"count":0,"sum":0,"label":"長青會"},{"count":0,"sum":0,"label":"民眾服務社"},{"count":0,"sum":0,"label":"聯盟"}],"bills_party_diversity":[{"party":"無黨籍","ratio":0.4015233949945593},{"party":"民主進步黨","ratio":0.3068552774755169},{"party":"中國國民黨","ratio":0.2720348204570185},{"party":"臺灣團結聯盟","ratio":0.01958650707290533}],"suggestions_piles":[{"count":2,"tokens":"廟|宮","sum":493500,"label":"廟"},{"count":0,"tokens":"協會|學會|商會|公會|協進會|促進會|研習會|婦聯會|婦女會|體育會|同心會|農會|早起會|健身會|宗親會|功德會|商業會|長青會|民眾服務社|聯盟","sum":0,"label":"協會"},{"count":0,"tokens":"辦公室|辦公處","sum":0,"label":"辦公室"},{"count":0,"tokens":"警察局|分局","sum":0,"label":"警察局"},{"count":0,"tokens":"消防局|消防隊|分隊|中隊","sum":0,"label":"消防局"},{"count":0,"tokens":"國中|國小","sum":0,"label":"國中、國小"}]},"councilor":"970006d8a7c24dc7854e427f143e1c30"}],"uid":"970006d8a7c24dc7854e427f143e1c30","name":"謝財旺","birth":"1962-05-20","former_names":"","identifiers":["謝財旺"]},{"url":"http://councils.g0v.tw/api/councilors/1381/","each_terms":[{"url":"http://councils.g0v.tw/api/councilors_terms/3094/","election_year":"2014","name":"蔡榮豐","gender":"男","party":"無黨籍","title":"議員","constituency":2,"county":"嘉義市","district":"西區","in_office":true,"contact_details":[{"type":"voice","value":"05-2332106","label":"電話"},{"type":"address","value":"嘉義市自由路300號","label":"地址"}],"term_start":"2014-12-25","term_end":{"date":"2018-12-25"},"education":"","experience":"","remark":null,"image":"http://www.cycc.gov.tw/files/b/%BD%B2%BAa%C2%D7%281%29.jpg","links":[{"url":"http://www.cycc.gov.tw/form1/index-2.asp?m=99&m1=4&m2=15&mode=2&id=20","note":"議會個人官網"}],"social_media":null,"platform":"","param":{"bills_role_statistics":{"total":193,"priproposer":4,"sponsor":8,"cosponsor":185},"bills_party_diversity":[{"party":"無黨籍","ratio":0.44913338357196686},{"party":"民主進步黨","ratio":0.27995478522984174},{"party":"中國國民黨","ratio":0.22305953278070836},{"party":"臺灣團結聯盟","ratio":0.04785229841748304}]},"councilor":"2464692f752d42f5a6adb29856658011"},{"url":"http://councils.g0v.tw/api/councilors_terms/2307/","election_year":"2009","name":"蔡榮豐","gender":"男","party":"無黨籍","title":"","constituency":2,"county":"嘉義市","district":"西區","in_office":true,"contact_details":[{"type":"address","value":"嘉義市自由路300號","label":"通訊處"},{"type":"voice","value":"05-2332106　　","label":"電話"}],"term_start":"2009-12-25","term_end":{"date":"2014-12-25"},"education":"嘉義市博愛國小\n北興國中\n稚暉中學\n南華大學。","experience":"現任市議員及第三\n四\n五\n六屆嘉義市議員\n嘉義市體育會桌球委員會主任委員及嘉義市軟式網球委員會主任委員\n嘉義市家長協會顧問。","remark":null,"image":"http://www.cycc.gov.tw/files/b/%E8%94%A1%E6%A6%AE%E8%B1%90%281%29.jpg","links":[{"url":"http://www.cycc.gov.tw/form1/index-2.asp?m=99&m1=4&m2=15&mode=2&id=20","note":"議會個人官網"}],"social_media":null,"platform":"專業、清廉、嚴格做好監督市政的民意代表職責、極力爭取全市市民的利益與弱勢團體的權益、監督市府公共工程與建設、提高教育文化藝術品質水準、共同創造嘉義商業生機、提昇市民就業生活\n讓基層弱勢民眾得到應有的照顧，傾聽社會最微弱的聲音，要求自己照顧市民「零漏接」，是我擔任民意代表為民喉舌最大的原動力，以及嘉義市地方的繁榮可以大步的向前，推廣市民的運動風氣，打造嘉義成為運動之城，將是我積極推動的目標","param":{"bills_role_statistics":{"total":27,"priproposer":1,"sponsor":1,"cosponsor":26},"diversity":{"中國國民黨":0.2790082587468208,"民主進步黨":0.29665964028709124,"臺灣團結聯盟":0.06085269124484811,"無黨籍":0.3634794097212398}},"councilor":"2464692f752d42f5a6adb29856658011"}],"uid":"2464692f752d42f5a6adb29856658011","name":"蔡榮豐","birth":null,"former_names":"","identifiers":["蔡榮豐"]}]}