{"count":1904,"next":"http://councils.g0v.tw/api/councilors/?page=15","previous":"http://councils.g0v.tw/api/councilors/?page=13","results":[{"url":"http://councils.g0v.tw/api/councilors/840/","each_terms":[{"url":"http://councils.g0v.tw/api/councilors_terms/1497/","election_year":"1951","name":"鄭通順","gender":"","party":"","title":"議員","constituency":6,"county":"新北市","district":"北投鎮、士林鎮","in_office":true,"contact_details":null,"term_start":"1951-01-04","term_end":{"date":"1953-01-05"},"education":"成淵中學","experience":"臺灣區橡膠同業公會常務監事\n順泰橡膠工業\n世新塑膠公司董事長\n臺北市鄭氏宗親會常務理事\n臺北縣議會第1、2、3屆議員\n*民國76年5月19日歿","remark":null,"image":"http://www.ntp.gov.tw/UpFile/CouncilorFile/TTCC0136.jpg","links":[{"url":"http://www.ntp.gov.tw/content/history/history01-5-p.aspx?sid=100","note":"議會個人官網"}],"social_media":null,"platform":"","param":null,"councilor":"c9bb83707865421f95b29815b30e9302"},{"url":"http://councils.g0v.tw/api/councilors_terms/1553/","election_year":"1953","name":"鄭通順","gender":"","party":"","title":"議員","constituency":6,"county":"新北市","district":"北投鎮、士林鎮","in_office":true,"contact_details":null,"term_start":"1953-01-16","term_end":{"date":"1955-01-15"},"education":"成淵中學","experience":"臺灣區橡膠同業公會常務監事\n順泰橡膠工業\n世新塑膠公司董事長\n臺北市鄭氏宗親會常務理事\n臺北縣議會第1、2、3屆議員\n*民國76年5月19日歿","remark":null,"image":"http://www.ntp.gov.tw/UpFile/CouncilorFile/TTCC0136.jpg","links":[{"url":"http://www.ntp.gov.tw/content/history/history01-5-p.aspx?sid=100","note":"議會個人官網"}],"social_media":null,"platform":"","param":null,"councilor":"c9bb83707865421f95b29815b30e9302"},{"url":"http://councils.g0v.tw/api/councilors_terms/1621/","election_year":"1955","name":"鄭通順","gender":"","party":"","title":"議員","constituency":6,"county":"新北市","district":"北投鎮、士林鎮","in_office":true,"contact_details":null,"term_start":"1955-01-16","term_end":{"date":"1958-02-20"},"education":"成淵中學","experience":"臺灣區橡膠同業公會常務監事\n順泰橡膠工業\n世新塑膠公司董事長\n臺北市鄭氏宗親會常務理事\n臺北縣議會第1、2、3屆議員\n*民國76年5月19日歿","remark":null,"image":"http://www.ntp.gov.tw/UpFile/CouncilorFile/TTCC0136.jpg","links":[{"url":"http://www.ntp.gov.tw/content/history/history01-5-p.aspx?sid=100","note":"議會個人官網"}],"social_media":null,"platform":"","param":null,"councilor":"c9bb83707865421f95b29815b30e9302"}],"uid":"c9bb83707865421f95b29815b30e9302","name":"鄭通順","birth":null,"former_names":"","identifiers":["鄭通順"]},{"url":"http://councils.g0v.tw/api/councilors/841/","each_terms":[{"url":"http://councils.g0v.tw/api/councilors_terms/1498/","election_year":"1951","name":"曹木桂","gender":"","party":"","title":"議員","constituency":6,"county":"新北市","district":"北投鎮、士林鎮","in_office":true,"contact_details":null,"term_start":"1951-01-04","term_end":{"date":"1953-01-05"},"education":"國校畢業","experience":"三和汽車行董事及經理\n臺北縣議會第1屆議員","remark":null,"image":"http://www.ntp.gov.tw/UpFile/CouncilorFile/TTCC0135.jpg","links":[{"url":"http://www.ntp.gov.tw/content/history/history01-5-p.aspx?sid=99","note":"議會個人官網"}],"social_media":null,"platform":"","param":null,"councilor":"145b34822be54a449c199bb2ec7e4fca"}],"uid":"145b34822be54a449c199bb2ec7e4fca","name":"曹木桂","birth":null,"former_names":"","identifiers":["曹木桂"]},{"url":"http://councils.g0v.tw/api/councilors/842/","each_terms":[{"url":"http://councils.g0v.tw/api/councilors_terms/1499/","election_year":"1951","name":"潘靈鋆","gender":"","party":"","title":"議員","constituency":5,"county":"新北市","district":"汐止鎮、南港鎮、內湖鄉","in_office":true,"contact_details":null,"term_start":"1951-01-04","term_end":{"date":"1953-01-05"},"education":"河南大學法學院畢業","experience":"法院檢察官及律師\n臺北縣議會第1屆議員","remark":null,"image":"http://www.ntp.gov.tw/UpFile/CouncilorFile/TTCC0134.jpg","links":[{"url":"http://www.ntp.gov.tw/content/history/history01-5-p.aspx?sid=98","note":"議會個人官網"}],"social_media":null,"platform":"","param":null,"councilor":"01e9a198583b498ea3b34457aa369b81"}],"uid":"01e9a198583b498ea3b34457aa369b81","name":"潘靈鋆","birth":null,"former_names":"","identifiers":["潘靈鋆"]},{"url":"http://councils.g0v.tw/api/councilors/844/","each_terms":[{"url":"http://councils.g0v.tw/api/councilors_terms/1501/","election_year":"1951","name":"高名來","gender":"","party":"","title":"議員","constituency":5,"county":"新北市","district":"汐止鎮、南港鎮、內湖鄉","in_office":true,"contact_details":null,"term_start":"1951-01-04","term_end":{"date":"1953-01-05"},"education":"成淵中學","experience":"任初中教師\n北縣修誌委員會採訪委員\n北縣文獻委員會委員\n*民國74年歿","remark":null,"image":"http://www.ntp.gov.tw/UpFile/CouncilorFile/TTCC0132.jpg","links":[{"url":"http://www.ntp.gov.tw/content/history/history01-5-p.aspx?sid=96","note":"議會個人官網"}],"social_media":null,"platform":"","param":null,"councilor":"1a8d1f194c6a46689fd6e2b43fed17d4"},{"url":"http://councils.g0v.tw/api/councilors_terms/1565/","election_year":"1953","name":"高名來","gender":"","party":"","title":"議員","constituency":5,"county":"新北市","district":"汐止鎮、南港鎮、內湖鄉","in_office":true,"contact_details":null,"term_start":"1953-01-16","term_end":{"date":"1955-01-15"},"education":"成淵中學","experience":"任初中教師\n北縣修誌委員會採訪委員\n北縣文獻委員會委員\n*民國74年歿","remark":null,"image":"http://www.ntp.gov.tw/UpFile/CouncilorFile/TTCC0132.jpg","links":[{"url":"http://www.ntp.gov.tw/content/history/history01-5-p.aspx?sid=96","note":"議會個人官網"}],"social_media":null,"platform":"","param":null,"councilor":"1a8d1f194c6a46689fd6e2b43fed17d4"},{"url":"http://councils.g0v.tw/api/councilors_terms/1625/","election_year":"1955","name":"高名來","gender":"","party":"","title":"議員","constituency":5,"county":"新北市","district":"汐止鎮、南港鎮、內湖鄉","in_office":true,"contact_details":null,"term_start":"1955-01-16","term_end":{"date":"1958-02-20"},"education":"成淵中學","experience":"任初中教師\n北縣修誌委員會採訪委員\n北縣文獻委員會委員\n*民國74年歿","remark":null,"image":"http://www.ntp.gov.tw/UpFile/CouncilorFile/TTCC0132.jpg","links":[{"url":"http://www.ntp.gov.tw/content/history/history01-5-p.aspx?sid=96","note":"議會個人官網"}],"social_media":null,"platform":"","param":null,"councilor":"1a8d1f194c6a46689fd6e2b43fed17d4"}],"uid":"1a8d1f194c6a46689fd6e2b43fed17d4","name":"高名來","birth":null,"former_names":"","identifiers":["高名來"]},{"url":"http://councils.g0v.tw/api/councilors/845/","each_terms":[{"url":"http://councils.g0v.tw/api/councilors_terms/1502/","election_year":"1951","name":"蘇春濤","gender":"","party":"","title":"議員","constituency":5,"county":"新北市","district":"汐止鎮、南港鎮、內湖鄉","in_office":true,"contact_details":null,"term_start":"1951-01-04","term_end":{"date":"1953-01-05"},"education":"廈門同文書院","experience":"石碳委員會諮詢委員\n振興煤礦公司董事長\n臺北縣議會第1屆議員","remark":null,"image":"http://www.ntp.gov.tw/UpFile/CouncilorFile/TTCC0131.jpg","links":[{"url":"http://www.ntp.gov.tw/content/history/history01-5-p.aspx?sid=95","note":"議會個人官網"}],"social_media":null,"platform":"","param":null,"councilor":"8f3ab39d09ab4837a46b97f2fcd9ea73"}],"uid":"8f3ab39d09ab4837a46b97f2fcd9ea73","name":"蘇春濤","birth":null,"former_names":"","identifiers":["蘇春濤"]},{"url":"http://councils.g0v.tw/api/councilors/234/","each_terms":[{"url":"http://councils.g0v.tw/api/councilors_terms/433/","election_year":"1985","name":"徐明德","gender":"男","party":"民主進步黨","title":"議員","constituency":null,"county":"臺北市","district":"","in_office":true,"contact_details":null,"term_start":"1985-12-25","term_end":{"date":"1989-12-25"},"education":"政大經理研究班結業、後備軍人幹訓班七七期結業。","experience":"海軍總部工程隊建築士、臺北市後備軍人輔導組長、臺北市中山區新福里里長、臺灣區水管工業同業公會理事長、臺北市直轄市議會第三、四屆議員。","remark":"","image":"http://www.tcc.gov.tw/../upload/photo/%E5%BE%90%E6%98%8E%E5%BE%B713.jpg","links":[{"url":"http://www.tcc.gov.tw/Councilor_Content_All.aspx?s=2113&d=400416&n=%E5%BE%90%E6%98%8E%E5%BE%B7","note":"議會個人官網"}],"social_media":null,"platform":"","param":null,"councilor":"e80bb6e809df450a8729f6d061453d9d"},{"url":"http://councils.g0v.tw/api/councilors_terms/479/","election_year":"1981","name":"徐明德","gender":"男","party":"無黨籍","title":"議員","constituency":null,"county":"臺北市","district":"","in_office":true,"contact_details":null,"term_start":"1981-12-25","term_end":{"date":"1985-12-25"},"education":"政大經理研究班結業、後備軍人幹訓班七七期結業。","experience":"臺灣區水管工程工業同業公會理事長、中山區新福里里長、昶順企業公司總經理、臺北市直轄市議會第三屆議員。","remark":"","image":"http://www.tcc.gov.tw/../upload/photo/%E5%BE%90%E6%98%8E%E5%BE%B712.jpg","links":[{"url":"http://www.tcc.gov.tw/Councilor_Content_All.aspx?s=1364&d=400416&n=%E5%BE%90%E6%98%8E%E5%BE%B7","note":"議會個人官網"}],"social_media":null,"platform":"","param":null,"councilor":"e80bb6e809df450a8729f6d061453d9d"},{"url":"http://councils.g0v.tw/api/councilors_terms/528/","election_year":"1977","name":"徐明德","gender":"男","party":"無黨籍","title":"議員","constituency":null,"county":"臺北市","district":"","in_office":true,"contact_details":null,"term_start":"1977-12-25","term_end":{"date":"1981-12-25"},"education":"政大經理研究班結業、後備軍人幹訓班七七期結業。","experience":"臺灣區水管工程工業同業公會理事長、中山區新福里里長、昶順企業有限公司總經理。","remark":"","image":"http://www.tcc.gov.tw/../upload/photo/%E5%BE%90%E6%98%8E%E5%BE%B711.jpg","links":[{"url":"http://www.tcc.gov.tw/Councilor_Content_All.aspx?s=1951&d=400416&n=%E5%BE%90%E6%98%8E%E5%BE%B7","note":"議會個人官網"}],"social_media":null,"platform":"","param":null,"councilor":"e80bb6e809df450a8729f6d061453d9d"}],"uid":"e80bb6e809df450a8729f6d061453d9d","name":"徐明德","birth":"1940-04-16","former_names":"","identifiers":["徐明德"]},{"url":"http://councils.g0v.tw/api/councilors/239/","each_terms":[{"url":"http://councils.g0v.tw/api/councilors_terms/442/","election_year":"1985","name":"周英英","gender":"女","party":"中國國民黨","title":"議員","constituency":null,"county":"臺北市","district":"","in_office":true,"contact_details":null,"term_start":"1985-12-25","term_end":{"date":"1989-12-25"},"education":"市立師範專科學校畢業、國立師範大學教育系畢業。","experience":"松山國民小學教員、和平國中教員、松山區婦女會理事長、臺北市直轄市議會第二、三、四屆議員。","remark":"","image":"http://www.tcc.gov.tw/../upload/photo/%E5%91%A8%E8%8B%B1%E8%8B%B113.jpg","links":[{"url":"http://www.tcc.gov.tw/Councilor_Content_All.aspx?s=2192&d=350910&n=%E5%91%A8%E8%8B%B1%E8%8B%B1","note":"議會個人官網"}],"social_media":null,"platform":"","param":null,"councilor":"23ac5bc64db649498faa09ba59fee81a"},{"url":"http://councils.g0v.tw/api/councilors_terms/491/","election_year":"1981","name":"周英英","gender":"女","party":"中國國民黨","title":"議員","constituency":null,"county":"臺北市","district":"","in_office":true,"contact_details":null,"term_start":"1981-12-25","term_end":{"date":"1985-12-25"},"education":"臺北市女子師範專科學校畢業、國立師範大學畢業。","experience":"松山國民小學教師、和平國中教師、臺北市直轄市議會第二、三屆議員、私立南松幼稚園園長、市立高級農工職業學校教師。","remark":"","image":"http://www.tcc.gov.tw/../upload/photo/%E5%91%A8%E8%8B%B1%E8%8B%B112.jpg","links":[{"url":"http://www.tcc.gov.tw/Councilor_Content_All.aspx?s=1447&d=350910&n=%E5%91%A8%E8%8B%B1%E8%8B%B1","note":"議會個人官網"}],"social_media":null,"platform":"","param":null,"councilor":"23ac5bc64db649498faa09ba59fee81a"},{"url":"http://councils.g0v.tw/api/councilors_terms/587/","election_year":"1973","name":"周英英","gender":"女","party":"中國國民黨","title":"議員","constituency":null,"county":"臺北市","district":"","in_office":true,"contact_details":null,"term_start":"1973-12-25","term_end":{"date":"1977-12-25"},"education":"國立臺灣師範大學教育系畢業。","experience":"臺北市立松山國小教員、私立南松幼稚園主任、臺北市立高級農業職業學校教員。","remark":"","image":"http://www.tcc.gov.tw/../upload/photo/%E5%91%A8%E8%8B%B1%E8%8B%B110.jpg","links":[{"url":"http://www.tcc.gov.tw/Councilor_Content_All.aspx?s=2092&d=350910&n=%E5%91%A8%E8%8B%B1%E8%8B%B1","note":"議會個人官網"}],"social_media":null,"platform":"","param":null,"councilor":"23ac5bc64db649498faa09ba59fee81a"},{"url":"http://councils.g0v.tw/api/councilors_terms/538/","election_year":"1977","name":"周英英","gender":"女","party":"中國國民黨","title":"議員","constituency":null,"county":"臺北市","district":"","in_office":true,"contact_details":null,"term_start":"1977-12-25","term_end":{"date":"1981-12-25"},"education":"臺北市松山國民小學畢業、臺北市中山女中畢業、臺北市女師專畢業、國立師範大學畢業。","experience":"松山國小教員、和平國中教員、南松幼稚園園長、高級工農職校教員、臺北市直轄市議會第一屆議員。","remark":"","image":"http://www.tcc.gov.tw/../upload/photo/%E5%91%A8%E8%8B%B1%E8%8B%B111.jpg","links":[{"url":"http://www.tcc.gov.tw/Councilor_Content_All.aspx?s=1444&d=350910&n=%E5%91%A8%E8%8B%B1%E8%8B%B1","note":"議會個人官網"}],"social_media":null,"platform":"","param":null,"councilor":"23ac5bc64db649498faa09ba59fee81a"}],"uid":"23ac5bc64db649498faa09ba59fee81a","name":"周英英","birth":"1935-09-10","former_names":"","identifiers":["周英英"]},{"url":"http://councils.g0v.tw/api/councilors/846/","each_terms":[{"url":"http://councils.g0v.tw/api/councilors_terms/1503/","election_year":"1951","name":"葉金火","gender":"","party":"","title":"議員","constituency":5,"county":"新北市","district":"汐止鎮、南港鎮、內湖鄉","in_office":true,"contact_details":null,"term_start":"1951-01-04","term_end":{"date":"1953-01-05"},"education":"臺灣總督府臺北第二師範學校演習科","experience":"國小教師、校長\n縣政府督學\n教育科股長\n臺北縣教育會第1至5屆理事\n中華民國軍人之友社理監事\n臺北市內湖調解委員會主席\n臺北市國民黨評議委員\n臺北縣議會第1、2屆議員\n民國93年9月1日歿","remark":null,"image":"http://www.ntp.gov.tw/UpFile/CouncilorFile/TTCC0130.jpg","links":[{"url":"http://www.ntp.gov.tw/content/history/history01-5-p.aspx?sid=94","note":"議會個人官網"}],"social_media":null,"platform":"","param":null,"councilor":"432816b54760431e8f68f4e9cf29a7a3"},{"url":"http://councils.g0v.tw/api/councilors_terms/1560/","election_year":"1953","name":"葉金火","gender":"","party":"","title":"議員","constituency":5,"county":"新北市","district":"汐止鎮、南港鎮、內湖鄉","in_office":true,"contact_details":null,"term_start":"1953-01-16","term_end":{"date":"1955-01-15"},"education":"臺灣總督府臺北第二師範學校演習科","experience":"國小教師、校長\n縣政府督學\n教育科股長\n臺北縣教育會第1至5屆理事\n中華民國軍人之友社理監事\n臺北市內湖調解委員會主席\n臺北市國民黨評議委員\n臺北縣議會第1、2屆議員\n民國93年9月1日歿","remark":null,"image":"http://www.ntp.gov.tw/UpFile/CouncilorFile/TTCC0130.jpg","links":[{"url":"http://www.ntp.gov.tw/content/history/history01-5-p.aspx?sid=94","note":"議會個人官網"}],"social_media":null,"platform":"","param":null,"councilor":"432816b54760431e8f68f4e9cf29a7a3"}],"uid":"432816b54760431e8f68f4e9cf29a7a3","name":"葉金火","birth":null,"former_names":"","identifiers":["葉金火"]},{"url":"http://councils.g0v.tw/api/councilors/847/","each_terms":[{"url":"http://councils.g0v.tw/api/councilors_terms/1504/","election_year":"1951","name":"張水圳","gender":"","party":"","title":"議員","constituency":4,"county":"新北市","district":"淡水鎮、三芝鄉、石門鄉、八里鄉","in_office":true,"contact_details":null,"term_start":"1951-01-04","term_end":{"date":"1953-01-05"},"education":"國校畢業","experience":"大坪農場董事長\n臺北縣議會第1屆議員","remark":null,"image":"http://www.ntp.gov.tw/UpFile/CouncilorFile/TTCC0129.jpg","links":[{"url":"http://www.ntp.gov.tw/content/history/history01-5-p.aspx?sid=93","note":"議會個人官網"}],"social_media":null,"platform":"","param":null,"councilor":"ab8262f6336e4bdb90119a808ea5edee"}],"uid":"ab8262f6336e4bdb90119a808ea5edee","name":"張水圳","birth":null,"former_names":"","identifiers":["張水圳"]},{"url":"http://councils.g0v.tw/api/councilors/874/","each_terms":[{"url":"http://councils.g0v.tw/api/councilors_terms/1548/","election_year":"1953","name":"黃木燧","gender":"","party":"","title":"議員","constituency":7,"county":"新北市","district":"瑞芳鎮、貢寮鄉、雙溪鄉、平溪鄉","in_office":true,"contact_details":null,"term_start":"1953-01-16","term_end":{"date":"1955-01-15"},"education":"臺灣大學醫學部","experience":"鄉民代表會主席\n農會理事長\n縣醫師公會理事\n民眾服務站主任\n臺北縣議會第2、3、4屆議員","remark":null,"image":"http://www.ntp.gov.tw/UpFile/CouncilorFile/TTCC0246.jpg","links":[{"url":"http://www.ntp.gov.tw/content/history/history01-5-p.aspx?sid=146","note":"議會個人官網"}],"social_media":null,"platform":"","param":null,"councilor":"b9598d9dc6ff46bb994ac5ce66894c17"},{"url":"http://councils.g0v.tw/api/councilors_terms/1610/","election_year":"1955","name":"黃木燧","gender":"","party":"","title":"議員","constituency":7,"county":"新北市","district":"瑞芳鎮、貢寮鄉、雙溪鄉、平溪鄉","in_office":true,"contact_details":null,"term_start":"1955-01-16","term_end":{"date":"1958-02-20"},"education":"臺灣大學醫學部","experience":"鄉民代表會主席\n農會理事長\n縣醫師公會理事\n民眾服務站主任\n臺北縣議會第2、3、4屆議員","remark":null,"image":"http://www.ntp.gov.tw/UpFile/CouncilorFile/TTCC0246.jpg","links":[{"url":"http://www.ntp.gov.tw/content/history/history01-5-p.aspx?sid=146","note":"議會個人官網"}],"social_media":null,"platform":"","param":null,"councilor":"b9598d9dc6ff46bb994ac5ce66894c17"},{"url":"http://councils.g0v.tw/api/councilors_terms/1672/","election_year":"1958","name":"黃木燧","gender":"","party":"","title":"議員","constituency":8,"county":"新北市","district":"金山鄉、萬里鄉","in_office":true,"contact_details":null,"term_start":"1958-02-21","term_end":{"date":"1961-02-20"},"education":"臺灣大學醫學部","experience":"鄉民代表會主席\n農會理事長\n縣醫師公會理事\n民眾服務站主任\n臺北縣議會第2、3、4屆議員","remark":null,"image":"http://www.ntp.gov.tw/UpFile/CouncilorFile/TTCC0246.jpg","links":[{"url":"http://www.ntp.gov.tw/content/history/history01-5-p.aspx?sid=146","note":"議會個人官網"}],"social_media":null,"platform":"","param":null,"councilor":"b9598d9dc6ff46bb994ac5ce66894c17"}],"uid":"b9598d9dc6ff46bb994ac5ce66894c17","name":"黃木燧","birth":null,"former_names":"","identifiers":["黄木燧","黃木燧"]}]}