{"count":1904,"next":"http://councils.g0v.tw/api/councilors/?page=141","previous":"http://councils.g0v.tw/api/councilors/?page=139","results":[{"url":"http://councils.g0v.tw/api/councilors/338/","each_terms":[{"url":"http://councils.g0v.tw/api/councilors_terms/2928/","election_year":"2014","name":"蔡雅玲","gender":"女","party":"民主進步黨","title":"議員","constituency":8,"county":"臺中市","district":"北屯區","in_office":true,"contact_details":[{"type":"email","value":"c0208@tccc.gov.tw","label":"E-mail"}],"term_start":"2014-12-25","term_end":{"date":"2018-12-25"},"education":"•北屯國小畢業\n•北新國中畢業\n•豐原高中畢業\n•逢甲大學財稅學系畢業\n•東海大學公共事務碩士畢業","experience":"現職\n•台中市議員\n•民進黨團副總召\n•東海大學政治系博士生\n經歷\n•台中市議會第十五、十六屆議員\n•蔡英文競選總統台中市副總幹事\n•蘇嘉全競選市長副總幹事\n•台灣行動菩薩助學協會會員\n•台中市嘉義同鄉會顧問\n•台中市藥師公會顧問\n•台中市中藥商業同業公會顧問","remark":null,"image":"http://www.tccc.gov.tw/Conn/ConnThumb.asp?F=208_36.jpg&P=Pic\\Councillor&U=1&LW=200&LH=259","links":[{"url":"http://www.tccc.gov.tw/wb_introduction02.asp?cno=208&zno=23","note":"議會個人官網"},{"url":"https://www.facebook.com/yaling.tasi.3?fref=ts","note":"社群網站"}],"social_media":null,"platform":"•改善育嬰育幼環境，提高生育、養育、托育相關補助，增設公托中心，打造安全托育環境。\n•提高家庭教育預算比例，積極辦理家庭教育相關研習活動，推動父母成長教育。\n•推動善用中小學閒置教室，設置短時間長輩安親、銀髮族學習班。\n•提高老人裝設假牙補助預算，簡化申請流程、縮短時間，並爭取更多合格醫療院所配合簽約。\n•全面檢視北屯公園、公共場所設施安全，打造友善大北屯。\n•善用北屯觀光資源、發揚其特有產業、物產，整合北屯重大交通建設發展及人文古蹟維護、提升生活品質、文化素質，推動北屯成為台中之星。\n•全力監督市府，青年議員、專業問政、注入活力。","param":{"bills_role_statistics":{"total":139,"priproposer":6,"sponsor":74,"cosponsor":65},"suggestions_years":{"count":28,"sum":25686047,"years":[{"count":15,"sum":11605333,"suggest_year":"2015","small_purchase":1},{"count":13,"sum":14080714,"suggest_year":"2016","small_purchase":0}]},"suggestions_associations":[{"count":0,"sum":0,"label":"社區發展協會"},{"count":0,"sum":0,"label":"學會"},{"count":0,"sum":0,"label":"商會"},{"count":0,"sum":0,"label":"公會"},{"count":0,"sum":0,"label":"協進會"},{"count":0,"sum":0,"label":"促進會"},{"count":0,"sum":0,"label":"研習會"},{"count":0,"sum":0,"label":"婦聯會"},{"count":0,"sum":0,"label":"婦女會"},{"count":0,"sum":0,"label":"體育會"},{"count":0,"sum":0,"label":"同心會"},{"count":0,"sum":0,"label":"農會"},{"count":0,"sum":0,"label":"早起會"},{"count":0,"sum":0,"label":"健身會"},{"count":0,"sum":0,"label":"宗親會"},{"count":0,"sum":0,"label":"功德會"},{"count":0,"sum":0,"label":"商業會"},{"count":0,"sum":0,"label":"長青會"},{"count":0,"sum":0,"label":"民眾服務社"},{"count":0,"sum":0,"label":"聯盟"}],"suggestions_piles":[{"count":1,"tokens":"國中|國小","sum":630000,"label":"國中、國小"},{"count":0,"tokens":"協會|學會|商會|公會|協進會|促進會|研習會|婦聯會|婦女會|體育會|同心會|農會|早起會|健身會|宗親會|功德會|商業會|長青會|民眾服務社|聯盟","sum":0,"label":"協會"},{"count":0,"tokens":"辦公室|辦公處","sum":0,"label":"辦公室"},{"count":0,"tokens":"廟|宮","sum":0,"label":"廟"},{"count":0,"tokens":"警察局|分局","sum":0,"label":"警察局"},{"count":0,"tokens":"消防局|消防隊|分隊|中隊","sum":0,"label":"消防局"}],"bills_party_diversity":[{"party":"民主進步黨","ratio":0.8715244487056567},{"party":"中國國民黨","ratio":0.1112176414189837},{"party":"無黨籍","ratio":0.013422818791946308},{"party":"親民黨","ratio":0.003835091083413231}]},"councilor":"41f082b62e9442a9a2ea254e0999327c"},{"url":"http://councils.g0v.tw/api/councilors_terms/675/","election_year":"2010","name":"蔡雅玲","gender":"","party":"民主進步黨","title":"議員","constituency":8,"county":"臺中市","district":"北屯區","in_office":true,"contact_details":[{"type":"address","value":"臺中市北屯區北屯路212巷2號","label":"服務處地址"},{"type":"voice","value":"04-2230-8599","label":"服務處電話"},{"type":"fax","value":"04-2234-8387","label":"服務處傳真"}],"term_start":"2010-12-25","term_end":{"date":"2014-12-25"},"education":"北屯國小畢業。\n北新國中畢業。\n豐原高中畢業。\n逢甲大學財稅學系畢業。","experience":"現任台中市議員。\n台中市議會第十五、十六屆議員。\n台中市議會民進黨團幹事長。\n立法委員蔡明憲國會助理。\n蔡明憲競選台中市長副總幹事。\n謝明源競選立法委員副總幹事。\n李明憲競選立法委員執行副總幹事。\n林佳龍競選台中市長副總幹事。","remark":null,"image":"http://www.tccc.gov.tw/mediafile/1837/editor_model/251/pic/039.bmp","links":[{"url":"http://www.tccc.gov.tw/editor_model/u_editor_v1.asp?id=%7BC828A0E9-35BF-4AA7-A2AD-B35B7CB57086%7D","note":"議會個人官網"}],"social_media":null,"platform":"民主進步，堅持改革精神。\n青年議員，強力監督政府。\n專業問政，杜絕營私舞弊。\n關懷弱勢，提昇婦幼權益。\n服務鄉里，落實基層建設。","param":{"suggestions_years":{"count":2,"sum":130000,"years":[{"count":2,"sum":130000,"suggest_year":"2014","small_purchase":2}]},"diversity":{"中國國民黨":0.25368066210165174,"民主進步黨":0.6747996625515533,"臺灣團結聯盟":0.015593909733350139,"親民黨":0.004866866959185046,"無黨籍":0.05105889865425983},"bills_role_statistics":{"total":109,"priproposer":3,"sponsor":64,"cosponsor":45},"suggestions_associations":[{"count":0,"sum":0,"label":"社區發展協會"},{"count":0,"sum":0,"label":"學會"},{"count":0,"sum":0,"label":"商會"},{"count":0,"sum":0,"label":"公會"},{"count":0,"sum":0,"label":"協進會"},{"count":0,"sum":0,"label":"促進會"},{"count":0,"sum":0,"label":"研習會"},{"count":0,"sum":0,"label":"婦聯會"},{"count":0,"sum":0,"label":"婦女會"},{"count":0,"sum":0,"label":"體育會"},{"count":0,"sum":0,"label":"同心會"},{"count":0,"sum":0,"label":"農會"},{"count":0,"sum":0,"label":"早起會"},{"count":0,"sum":0,"label":"健身會"},{"count":0,"sum":0,"label":"宗親會"},{"count":0,"sum":0,"label":"功德會"},{"count":0,"sum":0,"label":"商業會"},{"count":0,"sum":0,"label":"長青會"},{"count":0,"sum":0,"label":"民眾服務社"},{"count":0,"sum":0,"label":"聯盟"}],"bills_party_diversity":[{"party":"民主進步黨","ratio":0.6943844492440605},{"party":"中國國民黨","ratio":0.26457883369330454},{"party":"無黨籍","ratio":0.03455723542116631},{"party":"臺灣團結聯盟","ratio":0.004319654427645789},{"party":"親民黨","ratio":0.0021598272138228943}],"suggestions_piles":[{"count":0,"tokens":"協會|學會|商會|公會|協進會|促進會|研習會|婦聯會|婦女會|體育會|同心會|農會|早起會|健身會|宗親會|功德會|商業會|長青會|民眾服務社|聯盟","sum":0,"label":"協會"},{"count":0,"tokens":"辦公室|辦公處","sum":0,"label":"辦公室"},{"count":0,"tokens":"廟|宮","sum":0,"label":"廟"},{"count":0,"tokens":"警察局|分局","sum":0,"label":"警察局"},{"count":0,"tokens":"消防局|消防隊|分隊|中隊","sum":0,"label":"消防局"},{"count":0,"tokens":"國中|國小","sum":0,"label":"國中、國小"}]},"councilor":"41f082b62e9442a9a2ea254e0999327c"}],"uid":"41f082b62e9442a9a2ea254e0999327c","name":"蔡雅玲","birth":null,"former_names":"","identifiers":["蔡雅玲","蔡雅玲"]},{"url":"http://councils.g0v.tw/api/councilors/343/","each_terms":[{"url":"http://councils.g0v.tw/api/councilors_terms/2929/","election_year":"2014","name":"曾朝榮","gender":"男","party":"民主進步黨","title":"議員","constituency":8,"county":"臺中市","district":"北屯區","in_office":true,"contact_details":[{"type":"email","value":"c0236@tccc.gov.tw","label":"E-mail"}],"term_start":"2014-12-25","term_end":{"date":"2018-12-25"},"education":"•台中市東山國中（完全中學）\n•國立台中高工\n•中州技術學院（專科）\n•東海大學公共事務研究所（碩士）","experience":"•第1屆直轄市台中市議會北屯區議員\n•台中市議會第15、16屆議員\n•廣亮慈善基金會創會董事長\n•台灣省廣亮慈善會理事長\n•台中市文化傑人會常務監事\n•民進黨直轄市台中市黨部第1、2屆主任委員","remark":null,"image":"http://www.tccc.gov.tw/Conn/ConnThumb.asp?F=209_37.jpg&P=Pic\\Councillor&U=1&LW=200&LH=259","links":[{"url":"http://www.tccc.gov.tw/wb_introduction02.asp?cno=209&zno=23","note":"議會個人官網"},{"url":"https://zh-tw.facebook.com/chaojung.tw","note":"社群網站"}],"social_media":null,"platform":"定位•北屯-「臺中之最」當之無愧\n※堅守服務最前線 用行動成就美好\n1.督促政府加速執行北屯區各項重大建設，提供北屯居民更優質化的生活空間。\n2.強力監督市府，打造透明、公開、生動的3D市政，創造北屯區與市政建設接軌零差距的大格局。\n3.強烈主張市議會設置預算審議專責幕僚單位；北屯居民請願管道簡易化。\n4.全力提升北屯區大眾運輸，成為通往山線與大屯區的大眾運輸門戶；北屯區捷運站，擴大為快速連結太平、新社與潭子地區的運輸路網。\n5.優先保存北屯區在地文化元素；堅守土地重劃開發應該尊重在地優美的歷史建築、文化遺址與聚落文化原則，創造可長可久的綠色生活社區。\n6.營造北屯區為具備生活、文化、產業與環境完整機能的綠色生活區；尤其是大坑的都市計畫應該主動引導有智慧的成長，不應限制發展。\n7.督促市府檢討台中市升格直轄市後自治條例之修訂以利市民權益。\n8.督促市府擴大幫助弱勢族群。\n9.督促市府大幅增加青少年活動軟硬體，以提升都市活力。\n10.督促市府落實婦女保護與兩性平權。","param":{"bills_role_statistics":{"total":125,"priproposer":25,"sponsor":46,"cosponsor":79},"suggestions_years":{"count":53,"sum":27652864,"years":[{"count":24,"sum":13986000,"suggest_year":"2015","small_purchase":0},{"count":29,"sum":13666864,"suggest_year":"2016","small_purchase":2}]},"suggestions_associations":[{"count":0,"sum":0,"label":"社區發展協會"},{"count":0,"sum":0,"label":"學會"},{"count":0,"sum":0,"label":"商會"},{"count":0,"sum":0,"label":"公會"},{"count":0,"sum":0,"label":"協進會"},{"count":0,"sum":0,"label":"促進會"},{"count":0,"sum":0,"label":"研習會"},{"count":0,"sum":0,"label":"婦聯會"},{"count":0,"sum":0,"label":"婦女會"},{"count":0,"sum":0,"label":"體育會"},{"count":0,"sum":0,"label":"同心會"},{"count":0,"sum":0,"label":"農會"},{"count":0,"sum":0,"label":"早起會"},{"count":0,"sum":0,"label":"健身會"},{"count":0,"sum":0,"label":"宗親會"},{"count":0,"sum":0,"label":"功德會"},{"count":0,"sum":0,"label":"商業會"},{"count":0,"sum":0,"label":"長青會"},{"count":0,"sum":0,"label":"民眾服務社"},{"count":0,"sum":0,"label":"聯盟"}],"suggestions_piles":[{"count":1,"tokens":"國中|國小","sum":630000,"label":"國中、國小"},{"count":0,"tokens":"協會|學會|商會|公會|協進會|促進會|研習會|婦聯會|婦女會|體育會|同心會|農會|早起會|健身會|宗親會|功德會|商業會|長青會|民眾服務社|聯盟","sum":0,"label":"協會"},{"count":0,"tokens":"辦公室|辦公處","sum":0,"label":"辦公室"},{"count":0,"tokens":"廟|宮","sum":0,"label":"廟"},{"count":0,"tokens":"警察局|分局","sum":0,"label":"警察局"},{"count":0,"tokens":"消防局|消防隊|分隊|中隊","sum":0,"label":"消防局"}],"bills_party_diversity":[{"party":"民主進步黨","ratio":0.9219858156028369},{"party":"中國國民黨","ratio":0.05673758865248227},{"party":"無黨籍","ratio":0.017223910840932118},{"party":"親民黨","ratio":0.004052684903748734}]},"councilor":"29e66f48f54d4312aef977c84f29dc8d"},{"url":"http://councils.g0v.tw/api/councilors_terms/680/","election_year":"2010","name":"曾朝榮","gender":"","party":"民主進步黨","title":"議員","constituency":8,"county":"臺中市","district":"北屯區","in_office":true,"contact_details":[{"type":"address","value":"臺中市東山路一段156-6號","label":"服務處地址"},{"type":"voice","value":"04-2436-2995","label":"服務處電話"},{"type":"fax","value":"04-2437-6468","label":"服務處傳真"},{"type":"email","value":"c0149@tccc.gov.tw","label":"e-mail"}],"term_start":"2010-12-25","term_end":{"date":"2014-12-25"},"education":"台中市東山國中〈完全中學〉\n國立台中高工\n中州技術學院\n東海大學公共事務研究所","experience":"台中市議會第15、16屆議員\n廣亮慈善基金會創會董事長\n台灣省廣亮慈善會理事長\n台中市城鄉發展協會理事長\n台中市自治獅子會理事長\n台中高工文教基金會常務董事\n中華民國人乘佛教會董事\n台中市文化傑人會常務監事","remark":null,"image":"http://www.tccc.gov.tw/mediafile/1837/editor_model/246/pic/034.bmp","links":[{"url":"http://www.tccc.gov.tw/editor_model/u_editor_v1.asp?id=%7B75AA352B-07EB-4CD1-A63D-B25A498D2687%7D","note":"議會個人官網"}],"social_media":null,"platform":"督促政府加速執行各項重大建設，以因應直轄市大格局之規劃。\n強力監督市府，打造透明、公開、生動的3D市政，創造台中市成為宜居的生活首都。\n強烈主張市議會設置預算審議專責幕僚單位；人民請願管道簡易化。\n全力提升北屯區大眾運輸，成為通往山線與大屯區的大眾運輸門戶；北屯區捷運站，擴大為快速連結太平、新社與潭子地區的運輸路網。\n優先保存北屯區在地文化元素；土地重劃開發應該尊重在地優美的歷史建築、文化遺址與聚落文化，創造可長可久的綠色生活社區。\n營造大坑為具備生活、文化、產業與環境完整機能的綠色生活區；大坑的都市計畫應該主動引導有智慧的成長，不應限制發展。\n督促市府檢討台中市升格直轄市後自治條例之修訂以利市民權益。\n督促市府擴大幫助弱勢族群。\n督促市府大幅增加青少年活動軟硬體，以提升都市活力。\n督促市府落實婦女保護與兩性平權。","param":{"suggestions_years":{"count":2,"sum":445000,"years":[{"count":2,"sum":445000,"suggest_year":"2014","small_purchase":1}]},"diversity":{"中國國民黨":0.11393238979186945,"民主進步黨":0.8204595765175222,"臺灣團結聯盟":0.02116662929818515,"親民黨":0.0057810412007884395,"無黨籍":0.038660363191634836},"bills_role_statistics":{"total":51,"priproposer":9,"sponsor":15,"cosponsor":36},"suggestions_associations":[{"count":0,"sum":0,"label":"社區發展協會"},{"count":0,"sum":0,"label":"學會"},{"count":0,"sum":0,"label":"商會"},{"count":0,"sum":0,"label":"公會"},{"count":0,"sum":0,"label":"協進會"},{"count":0,"sum":0,"label":"促進會"},{"count":0,"sum":0,"label":"研習會"},{"count":0,"sum":0,"label":"婦聯會"},{"count":0,"sum":0,"label":"婦女會"},{"count":0,"sum":0,"label":"體育會"},{"count":0,"sum":0,"label":"同心會"},{"count":0,"sum":0,"label":"農會"},{"count":0,"sum":0,"label":"早起會"},{"count":0,"sum":0,"label":"健身會"},{"count":0,"sum":0,"label":"宗親會"},{"count":0,"sum":0,"label":"功德會"},{"count":0,"sum":0,"label":"商業會"},{"count":0,"sum":0,"label":"長青會"},{"count":0,"sum":0,"label":"民眾服務社"},{"count":0,"sum":0,"label":"聯盟"}],"bills_party_diversity":[{"party":"民主進步黨","ratio":0.8521560574948666},{"party":"中國國民黨","ratio":0.13347022587268995},{"party":"無黨籍","ratio":0.006160164271047228},{"party":"親民黨","ratio":0.004106776180698152},{"party":"臺灣團結聯盟","ratio":0.004106776180698152}],"suggestions_piles":[{"count":0,"tokens":"協會|學會|商會|公會|協進會|促進會|研習會|婦聯會|婦女會|體育會|同心會|農會|早起會|健身會|宗親會|功德會|商業會|長青會|民眾服務社|聯盟","sum":0,"label":"協會"},{"count":0,"tokens":"辦公室|辦公處","sum":0,"label":"辦公室"},{"count":0,"tokens":"廟|宮","sum":0,"label":"廟"},{"count":0,"tokens":"警察局|分局","sum":0,"label":"警察局"},{"count":0,"tokens":"消防局|消防隊|分隊|中隊","sum":0,"label":"消防局"},{"count":0,"tokens":"國中|國小","sum":0,"label":"國中、國小"}]},"councilor":"29e66f48f54d4312aef977c84f29dc8d"}],"uid":"29e66f48f54d4312aef977c84f29dc8d","name":"曾朝榮","birth":null,"former_names":"","identifiers":["曾朝榮","曽朝榮"]},{"url":"http://councils.g0v.tw/api/councilors/1631/","each_terms":[{"url":"http://councils.g0v.tw/api/councilors_terms/2557/","election_year":"2009","name":"游忠鈿","gender":"","party":"","title":"","constituency":5,"county":"苗栗縣","district":"頭份鎮、南庄鄉、三灣鄉","in_office":true,"contact_details":null,"term_start":"2009-12-25","term_end":{"date":"2014-12-25"},"education":null,"experience":null,"remark":null,"image":"http://www.mcc.gov.tw/admin/upload/small_news_201003131650040.jpg","links":[{"url":"http://www.mcc.gov.tw/imgtxt_list.php?menu=27&typeid=42&typeid2=670","note":"議會個人官網"}],"social_media":null,"platform":"","param":null,"councilor":"825fb0c3931941788ac4175dd102e23e"},{"url":"http://councils.g0v.tw/api/councilors_terms/2837/","election_year":"2014","name":"游忠鈿","gender":"男","party":"中國國民黨","title":"議長","constituency":5,"county":"苗栗縣","district":"頭份鎮、南庄鄉、三灣鄉","in_office":true,"contact_details":[{"type":"address","value":"360苗栗縣苗栗市玉華里玉清路351號","label":"服務處"},{"type":"voice","value":"037-671946","label":"連絡電話"}],"term_start":"2014-12-25","term_end":{"date":"2018-12-25"},"education":"大成高中畢業","experience":"第17屆苗栗縣議員","remark":null,"image":"http://www.mcc.gov.tw/admin/upload/small_twgov_img_201511220022091.jpg","links":[{"url":"http://www.mcc.gov.tw/imgtxt_list.php?menu=2568&typeid=2580&typeid2=2603","note":"議會個人官網"}],"social_media":null,"platform":"","param":{"bills_role_statistics":{"total":26,"priproposer":23,"sponsor":23,"cosponsor":3},"bills_party_diversity":[{"party":"中國國民黨","ratio":0.6571428571428571},{"party":"無黨籍","ratio":0.2857142857142857},{"party":"民主進步黨","ratio":0.05714285714285714}]},"councilor":"825fb0c3931941788ac4175dd102e23e"}],"uid":"825fb0c3931941788ac4175dd102e23e","name":"游忠鈿","birth":null,"former_names":"","identifiers":["游忠鈿"]},{"url":"http://councils.g0v.tw/api/councilors/1633/","each_terms":[{"url":"http://councils.g0v.tw/api/councilors_terms/2559/","election_year":"2009","name":"邱秋琴","gender":"","party":"","title":"","constituency":5,"county":"苗栗縣","district":"頭份鎮、南庄鄉、三灣鄉","in_office":true,"contact_details":null,"term_start":"2009-12-25","term_end":{"date":"2014-12-25"},"education":null,"experience":null,"remark":null,"image":"http://www.mcc.gov.tw/admin/upload/small_news_201003131649460.jpg","links":[{"url":"http://www.mcc.gov.tw/imgtxt_list.php?menu=27&typeid=42&typeid2=670","note":"議會個人官網"}],"social_media":null,"platform":"","param":null,"councilor":"584321b7f2234be0835e11ce52944dac"},{"url":"http://councils.g0v.tw/api/councilors_terms/2838/","election_year":"2014","name":"邱秋琴","gender":"女","party":"無黨籍","title":"議員","constituency":5,"county":"苗栗縣","district":"頭份鎮、南庄鄉、三灣鄉","in_office":true,"contact_details":[{"type":"address","value":"360苗栗縣苗栗市玉華里玉清路351號","label":"服務處"},{"type":"voice","value":"037-669318","label":"連絡電話"}],"term_start":"2014-12-25","term_end":{"date":"2018-12-25"},"education":"中國家政畢業","experience":"第17屆苗栗縣議員","remark":null,"image":"http://www.mcc.gov.tw/admin/upload/small_twgov_img_201511220021451.jpg","links":[{"url":"http://www.mcc.gov.tw/imgtxt_list.php?menu=2568&typeid=2580&typeid2=2603","note":"議會個人官網"}],"social_media":null,"platform":"","param":{"bills_role_statistics":{"total":66,"priproposer":4,"sponsor":4,"cosponsor":62},"bills_party_diversity":[{"party":"無黨籍","ratio":0.4842105263157895},{"party":"中國國民黨","ratio":0.4368421052631579},{"party":"民主進步黨","ratio":0.07894736842105263}]},"councilor":"584321b7f2234be0835e11ce52944dac"}],"uid":"584321b7f2234be0835e11ce52944dac","name":"邱秋琴","birth":null,"former_names":"","identifiers":["邱秋琴"]},{"url":"http://councils.g0v.tw/api/councilors/1719/","each_terms":[{"url":"http://councils.g0v.tw/api/councilors_terms/2839/","election_year":"2014","name":"黃聲全","gender":"男","party":"無黨籍","title":"議員","constituency":4,"county":"苗栗縣","district":"竹南鎮、後龍鎮、造橋鄉","in_office":true,"contact_details":[{"type":"address","value":"350苗栗縣竹南鎮環市路2段263號","label":"服務處"},{"type":"voice","value":"037-484005","label":"連絡電話"}],"term_start":"2014-12-25","term_end":{"date":"2018-12-25"},"education":"明新工專","experience":"竹南裕民志工服務協會總顧問","remark":null,"image":"http://www.mcc.gov.tw/admin/upload/small_twgov_img_201511220021071.jpg","links":[{"url":"http://www.mcc.gov.tw/imgtxt_list.php?menu=2568&typeid=2580&typeid2=2602","note":"議會個人官網"}],"social_media":null,"platform":"","param":{"bills_role_statistics":{"total":53,"priproposer":16,"sponsor":17,"cosponsor":36},"bills_party_diversity":[{"party":"無黨籍","ratio":0.5434782608695652},{"party":"中國國民黨","ratio":0.3695652173913043},{"party":"民主進步黨","ratio":0.08695652173913043}]},"councilor":"8217a7df0ccd44998f768dca0bfc686a"}],"uid":"8217a7df0ccd44998f768dca0bfc686a","name":"黃聲全","birth":null,"former_names":"","identifiers":["黄聲全","黃聲全"]},{"url":"http://councils.g0v.tw/api/councilors/1720/","each_terms":[{"url":"http://councils.g0v.tw/api/councilors_terms/2840/","election_year":"2014","name":"廖英利","gender":"女","party":"中國國民黨","title":"議員","constituency":4,"county":"苗栗縣","district":"竹南鎮、後龍鎮、造橋鄉","in_office":true,"contact_details":[{"type":"address","value":"360苗栗縣苗栗市玉華里玉清路351號","label":"服務處"}],"term_start":"2014-12-25","term_end":{"date":"2018-12-25"},"education":"親民工專畢業","experience":"苗栗縣第13.14.15.16屆縣議員","remark":null,"image":"http://www.mcc.gov.tw/admin/upload/small_twgov_img_201511220020411.jpg","links":[{"url":"http://www.mcc.gov.tw/imgtxt_list.php?menu=2568&typeid=2580&typeid2=2602","note":"議會個人官網"}],"social_media":null,"platform":"","param":{"bills_role_statistics":{"total":35,"priproposer":6,"sponsor":7,"cosponsor":28},"bills_party_diversity":[{"party":"中國國民黨","ratio":0.5661157024793388},{"party":"無黨籍","ratio":0.3347107438016529},{"party":"民主進步黨","ratio":0.09917355371900827}]},"councilor":"9aee3731a3c24bc7bede1bb943f5d4a7"}],"uid":"9aee3731a3c24bc7bede1bb943f5d4a7","name":"廖英利","birth":null,"former_names":"","identifiers":["廖英利"]},{"url":"http://councils.g0v.tw/api/councilors/1637/","each_terms":[{"url":"http://councils.g0v.tw/api/councilors_terms/2843/","election_year":"2014","name":"陳碧華","gender":"女","party":"中國國民黨","title":"議員","constituency":4,"county":"苗栗縣","district":"竹南鎮、後龍鎮、造橋鄉","in_office":true,"contact_details":[{"type":"address","value":"360苗栗縣苗栗市玉華里玉清路351號","label":"服務處"},{"type":"voice","value":"037-472068","label":"連絡電話"}],"term_start":"2014-12-25","term_end":{"date":"2018-12-25"},"education":"台中技院畢業","experience":"第17屆苗栗縣議員","remark":null,"image":"http://www.mcc.gov.tw/admin/upload/small_twgov_img_201511220019121.jpg","links":[{"url":"http://www.mcc.gov.tw/imgtxt_list.php?menu=2568&typeid=2580&typeid2=2602","note":"議會個人官網"}],"social_media":null,"platform":"","param":{"bills_role_statistics":{"total":51,"priproposer":23,"sponsor":24,"cosponsor":27},"bills_party_diversity":[{"party":"中國國民黨","ratio":0.5114754098360655},{"party":"無黨籍","ratio":0.43278688524590164},{"party":"民主進步黨","ratio":0.05573770491803279}]},"councilor":"e82455c9b69b4da4b531c209e10809fc"},{"url":"http://councils.g0v.tw/api/councilors_terms/2563/","election_year":"2009","name":"陳碧華","gender":"","party":"","title":"","constituency":4,"county":"苗栗縣","district":"竹南鎮、後龍鎮、造橋鄉","in_office":true,"contact_details":null,"term_start":"2009-12-25","term_end":{"date":"2014-12-25"},"education":null,"experience":null,"remark":null,"image":"http://www.mcc.gov.tw/admin/upload/small_news_201003131644200.jpg","links":[{"url":"http://www.mcc.gov.tw/imgtxt_list.php?menu=27&typeid=42&typeid2=669","note":"議會個人官網"}],"social_media":null,"platform":"","param":{"suggestions_years":{"count":5,"sum":1168000,"years":[{"count":3,"sum":218000,"suggest_year":"2012","small_purchase":3},{"count":1,"sum":400000,"suggest_year":"2013","small_purchase":0},{"count":1,"sum":550000,"suggest_year":"2014","small_purchase":0}]},"suggestions_associations":[{"count":0,"sum":0,"label":"社區發展協會"},{"count":0,"sum":0,"label":"學會"},{"count":0,"sum":0,"label":"商會"},{"count":0,"sum":0,"label":"公會"},{"count":0,"sum":0,"label":"協進會"},{"count":0,"sum":0,"label":"促進會"},{"count":0,"sum":0,"label":"研習會"},{"count":0,"sum":0,"label":"婦聯會"},{"count":0,"sum":0,"label":"婦女會"},{"count":0,"sum":0,"label":"體育會"},{"count":0,"sum":0,"label":"同心會"},{"count":0,"sum":0,"label":"農會"},{"count":0,"sum":0,"label":"早起會"},{"count":0,"sum":0,"label":"健身會"},{"count":0,"sum":0,"label":"宗親會"},{"count":0,"sum":0,"label":"功德會"},{"count":0,"sum":0,"label":"商業會"},{"count":0,"sum":0,"label":"長青會"},{"count":0,"sum":0,"label":"民眾服務社"},{"count":0,"sum":0,"label":"聯盟"}],"suggestions_piles":[{"count":0,"tokens":"協會|學會|商會|公會|協進會|促進會|研習會|婦聯會|婦女會|體育會|同心會|農會|早起會|健身會|宗親會|功德會|商業會|長青會|民眾服務社|聯盟","sum":0,"label":"協會"},{"count":0,"tokens":"辦公室|辦公處","sum":0,"label":"辦公室"},{"count":0,"tokens":"廟|宮","sum":0,"label":"廟"},{"count":0,"tokens":"警察局|分局","sum":0,"label":"警察局"},{"count":0,"tokens":"消防局|消防隊|分隊|中隊","sum":0,"label":"消防局"},{"count":0,"tokens":"國中|國小","sum":0,"label":"國中、國小"}]},"councilor":"e82455c9b69b4da4b531c209e10809fc"}],"uid":"e82455c9b69b4da4b531c209e10809fc","name":"陳碧華","birth":null,"former_names":"","identifiers":["陳碧華"]},{"url":"http://councils.g0v.tw/api/councilors/1639/","each_terms":[{"url":"http://councils.g0v.tw/api/councilors_terms/2565/","election_year":"2009","name":"鄭秋風","gender":"","party":"","title":"","constituency":4,"county":"苗栗縣","district":"竹南鎮、後龍鎮、造橋鄉","in_office":true,"contact_details":null,"term_start":"2009-12-25","term_end":{"date":"2014-12-25"},"education":null,"experience":null,"remark":null,"image":"http://www.mcc.gov.tw/admin/upload/small_news_201003131645140.jpg","links":[{"url":"http://www.mcc.gov.tw/imgtxt_list.php?menu=27&typeid=42&typeid2=669","note":"議會個人官網"}],"social_media":null,"platform":"","param":null,"councilor":"e0c939a13618455ea1f8ece4bc5d2d54"},{"url":"http://councils.g0v.tw/api/councilors_terms/2845/","election_year":"2014","name":"鄭秋風","gender":"男","party":"中國國民黨","title":"議員","constituency":4,"county":"苗栗縣","district":"竹南鎮、後龍鎮、造橋鄉","in_office":true,"contact_details":[{"type":"address","value":"360苗栗縣苗栗市玉華里玉清路351號","label":"服務處"},{"type":"voice","value":"037-723119","label":"連絡電話"}],"term_start":"2014-12-25","term_end":{"date":"2018-12-25"},"education":"親民工專畢業","experience":"第17屆苗栗縣議員","remark":null,"image":"http://www.mcc.gov.tw/admin/upload/small_twgov_img_201511220017571.jpg","links":[{"url":"http://www.mcc.gov.tw/imgtxt_list.php?menu=2568&typeid=2580&typeid2=2602","note":"議會個人官網"}],"social_media":null,"platform":"","param":{"bills_role_statistics":{"total":19,"priproposer":0,"sponsor":2,"cosponsor":17},"bills_party_diversity":[{"party":"中國國民黨","ratio":0.47435897435897434},{"party":"無黨籍","ratio":0.4551282051282051},{"party":"民主進步黨","ratio":0.07051282051282051}]},"councilor":"e0c939a13618455ea1f8ece4bc5d2d54"}],"uid":"e0c939a13618455ea1f8ece4bc5d2d54","name":"鄭秋風","birth":null,"former_names":"","identifiers":["鄭秋風"]},{"url":"http://councils.g0v.tw/api/councilors/1640/","each_terms":[{"url":"http://councils.g0v.tw/api/councilors_terms/2566/","election_year":"2009","name":"林寶珠","gender":"","party":"","title":"","constituency":4,"county":"苗栗縣","district":"竹南鎮、後龍鎮、造橋鄉","in_office":true,"contact_details":null,"term_start":"2009-12-25","term_end":{"date":"2014-12-25"},"education":null,"experience":null,"remark":null,"image":"http://www.mcc.gov.tw/admin/upload/small_news_201003131645060.jpg","links":[{"url":"http://www.mcc.gov.tw/imgtxt_list.php?menu=27&typeid=42&typeid2=669","note":"議會個人官網"}],"social_media":null,"platform":"","param":null,"councilor":"8af519e46d93496c82bb07c7d6f0a659"},{"url":"http://councils.g0v.tw/api/councilors_terms/2846/","election_year":"2014","name":"林寶珠","gender":"女","party":"中國國民黨","title":"議員","constituency":4,"county":"苗栗縣","district":"竹南鎮、後龍鎮、造橋鄉","in_office":true,"contact_details":[{"type":"address","value":"360苗栗縣苗栗市玉華里玉清路351號","label":"服務處"},{"type":"voice","value":"037-721177","label":"連絡電話"}],"term_start":"2014-12-25","term_end":{"date":"2018-12-25"},"education":"苗栗農工畢業","experience":"第17屆苗栗縣議員","remark":null,"image":"http://www.mcc.gov.tw/admin/upload/small_twgov_img_201511220017281.jpg","links":[{"url":"http://www.mcc.gov.tw/imgtxt_list.php?menu=2568&typeid=2580&typeid2=2602","note":"議會個人官網"}],"social_media":null,"platform":"","param":{"bills_role_statistics":{"total":51,"priproposer":16,"sponsor":19,"cosponsor":32},"bills_party_diversity":[{"party":"中國國民黨","ratio":0.5506329113924051},{"party":"無黨籍","ratio":0.3575949367088608},{"party":"民主進步黨","ratio":0.09177215189873418}]},"councilor":"8af519e46d93496c82bb07c7d6f0a659"}],"uid":"8af519e46d93496c82bb07c7d6f0a659","name":"林寶珠","birth":null,"former_names":"","identifiers":["林寳珠","林寶珠","林寶珠","林寳珠"]},{"url":"http://councils.g0v.tw/api/councilors/1641/","each_terms":[{"url":"http://councils.g0v.tw/api/councilors_terms/2567/","election_year":"2009","name":"陳明朝","gender":"","party":"","title":"","constituency":4,"county":"苗栗縣","district":"竹南鎮、後龍鎮、造橋鄉","in_office":true,"contact_details":null,"term_start":"2009-12-25","term_end":{"date":"2014-12-25"},"education":null,"experience":null,"remark":null,"image":"http://www.mcc.gov.tw/admin/upload/small_news_201003131644560.jpg","links":[{"url":"http://www.mcc.gov.tw/imgtxt_list.php?menu=27&typeid=42&typeid2=669","note":"議會個人官網"}],"social_media":null,"platform":"","param":null,"councilor":"4400cd15273b48198a2f55e784ee9b0a"},{"url":"http://councils.g0v.tw/api/councilors_terms/2847/","election_year":"2014","name":"陳明朝","gender":"男","party":"中國國民黨","title":"副議長","constituency":4,"county":"苗栗縣","district":"竹南鎮、後龍鎮、造橋鄉","in_office":true,"contact_details":[{"type":"address","value":"360苗栗縣苗栗市玉華里玉清路351號","label":"服務處"},{"type":"voice","value":"037-651757","label":"連絡電話"}],"term_start":"2014-12-25","term_end":{"date":"2018-12-25"},"education":"高職畢業","experience":"第17屆苗栗縣議員","remark":null,"image":"http://www.mcc.gov.tw/admin/upload/small_twgov_img_201511220017051.jpg","links":[{"url":"http://www.mcc.gov.tw/imgtxt_list.php?menu=2568&typeid=2580&typeid2=2602","note":"議會個人官網"}],"social_media":null,"platform":"","param":{"bills_role_statistics":{"total":33,"priproposer":32,"sponsor":32,"cosponsor":1},"bills_party_diversity":[{"party":"中國國民黨","ratio":0.7586206896551724},{"party":"無黨籍","ratio":0.1896551724137931},{"party":"民主進步黨","ratio":0.05172413793103448}]},"councilor":"4400cd15273b48198a2f55e784ee9b0a"}],"uid":"4400cd15273b48198a2f55e784ee9b0a","name":"陳明朝","birth":null,"former_names":"","identifiers":["陳明朝"]}]}