{"count":1904,"next":"http://councils.g0v.tw/api/councilors/?page=145","previous":"http://councils.g0v.tw/api/councilors/?page=143","results":[{"url":"http://councils.g0v.tw/api/councilors/1556/","each_terms":[{"url":"http://councils.g0v.tw/api/councilors_terms/2482/","election_year":"2009","name":"林琮翰","gender":"男","party":"中國國民黨","title":"","constituency":6,"county":"臺東縣","district":"平地原住民（臺東市）","in_office":true,"contact_details":[{"type":"voice","value":"089-345513","label":"電話"},{"type":"address","value":"台東市漢陽北路86巷26弄15號","label":"地址"}],"term_start":"2009-12-25","term_end":{"date":"2014-12-25"},"education":"一、國立花蓮師範學院初等教育學系畢業。\n二、中國文化大學運動教練研究所畢業。","experience":"台東縣振興、知本、加拿國小教師、組長、代理主任。","remark":null,"image":"http://www.taitungcc.gov.tw/ourteam/images/06_name01_pic001.jpg","links":[{"url":"http://www.taitungcc.gov.tw/ourteam/07ourteam_detail01.html","note":"議會個人官網"}],"social_media":null,"platform":"一、全力完成選民託咐，並監督縣府，積極做好服務原住民各項工作。\n二、看的到、找的到、需要服務一定到。\n三、積極爭取市區部落基礎建設，營造部落特有風貌。\n四、加強原住民教育養成，協助解決就業困境，培養原住民專業人才。\n五、督促縣府對於原住民生產之農特產品，建立行銷通路，並建請有關單位提高天然災害之經費補助。\n六、改善原住民失業問題，建請政府增加擴大就業名額，保障原住民工作權。\n七、督促政府落實原住民政策，拔擢原住民從事噘供較之優秀人才，使其作為表率，建立其自信心。\n八、建議政府重視原住民醫療問題，強化緊急救護系統及流程簡化。\n九、督促縣府重是部落文化資產，並妥善寶吋，協助推動各項部落文化建設事宜。\n十、加強原住民青少年社區教育之功能及輔助工作。\n十一、建請政府增加編列原住民慶典預算及建立經費補助標準。\n十二、要求政府建構原住民體育人才培訓仰程計畫及生涯發展規劃。","param":{"suggestions_years":{"count":46,"sum":6404000,"years":[{"count":19,"sum":3071000,"suggest_year":"2012","small_purchase":16},{"count":14,"sum":1905000,"suggest_year":"2013","small_purchase":11},{"count":13,"sum":1428000,"suggest_year":"2014","small_purchase":12}]},"suggestions_associations":[{"count":4,"sum":310000,"label":"社區發展協會"},{"count":0,"sum":0,"label":"學會"},{"count":0,"sum":0,"label":"商會"},{"count":0,"sum":0,"label":"公會"},{"count":0,"sum":0,"label":"協進會"},{"count":0,"sum":0,"label":"促進會"},{"count":0,"sum":0,"label":"研習會"},{"count":0,"sum":0,"label":"婦聯會"},{"count":0,"sum":0,"label":"婦女會"},{"count":0,"sum":0,"label":"體育會"},{"count":0,"sum":0,"label":"同心會"},{"count":0,"sum":0,"label":"農會"},{"count":0,"sum":0,"label":"早起會"},{"count":0,"sum":0,"label":"健身會"},{"count":0,"sum":0,"label":"宗親會"},{"count":0,"sum":0,"label":"功德會"},{"count":0,"sum":0,"label":"商業會"},{"count":0,"sum":0,"label":"長青會"},{"count":0,"sum":0,"label":"民眾服務社"},{"count":0,"sum":0,"label":"聯盟"}],"suggestions_piles":[{"count":11,"tokens":"國中|國小","sum":2628000,"label":"國中、國小"},{"count":9,"tokens":"協會|學會|商會|公會|協進會|促進會|研習會|婦聯會|婦女會|體育會|同心會|農會|早起會|健身會|宗親會|功德會|商業會|長青會|民眾服務社|聯盟","sum":650000,"label":"協會"},{"count":3,"tokens":"辦公室|辦公處","sum":472000,"label":"辦公室"},{"count":1,"tokens":"消防局|消防隊|分隊|中隊","sum":276000,"label":"消防局"},{"count":2,"tokens":"警察局|分局","sum":114000,"label":"警察局"},{"count":0,"tokens":"廟|宮","sum":0,"label":"廟"}],"bills_party_diversity":null},"councilor":"f94ff53c023447b599bda806ddf54bad"},{"url":"http://councils.g0v.tw/api/councilors_terms/3261/","election_year":"2014","name":"林琮翰","gender":"男","party":"中國國民黨","title":"議員","constituency":7,"county":"臺東縣","district":"臺東市","in_office":true,"contact_details":[{"type":"voice","value":"089-357688","label":"電話"},{"type":"address","value":"臺東縣台東市浙江路71號","label":"地址"}],"term_start":"2014-12-25","term_end":{"date":"2018-12-25"},"education":"一、中國文化大學運動教練研究所碩士。\n二、國立花蓮師院初等教育學系學士。","experience":"一、現任第17屆臺東縣議員。\n二、中國國民黨臺東縣青工總會長。","remark":null,"image":"http://www.taitungcc.gov.tw/../FileUpload/loadImage.ashx?MasterGuid=56f70456-93a6-493f-982f-728dfe47a1de&RealNameGuid=9d3ce671-d3f8-4e54-ac23-eae4d4612b16","links":[{"url":"http://www.taitungcc.gov.tw/OurTeamDetail.aspx?Guid=56f70456-93a6-493f-982f-728dfe47a1de","note":"議會個人官網"}],"social_media":null,"platform":"一、監督縣府落實原住民基本法及各項福利政策。\n二、關懷原住民中的弱勢團體使之能有更好的生活保障。\n三、催促縣府迅速制定原住民相關產業經濟發展計劃。\n四、協助發展原住民部落的文創產業，讓商品更具競爭力。\n五、督促縣府重視原住民教育的未來發展，制定健全的原住民教育政策。\n六、重視原住民的傳統文化、語言、技能及祭典儀式的傳承。\n七、協助縣府培養原住民族中的優秀專業人才（體育、藝文、音樂、舞蹈等）未來發展性。\n八、捍衛有關原住民各項權益及政策，創造原住民新未來。","param":{"bills_role_statistics":{"total":88,"priproposer":36,"sponsor":36,"cosponsor":52},"suggestions_years":{"count":87,"sum":8158000,"years":[{"count":34,"sum":3125000,"suggest_year":"2015","small_purchase":32},{"count":53,"sum":5033000,"suggest_year":"2016","small_purchase":49}]},"suggestions_associations":[{"count":7,"sum":618000,"label":"社區發展協會"},{"count":4,"sum":387000,"label":"協進會"},{"count":2,"sum":200000,"label":"體育會"},{"count":2,"sum":200000,"label":"農會"},{"count":0,"sum":0,"label":"學會"},{"count":0,"sum":0,"label":"商會"},{"count":0,"sum":0,"label":"公會"},{"count":0,"sum":0,"label":"促進會"},{"count":0,"sum":0,"label":"研習會"},{"count":0,"sum":0,"label":"婦聯會"},{"count":0,"sum":0,"label":"婦女會"},{"count":0,"sum":0,"label":"同心會"},{"count":0,"sum":0,"label":"早起會"},{"count":0,"sum":0,"label":"健身會"},{"count":0,"sum":0,"label":"宗親會"},{"count":0,"sum":0,"label":"功德會"},{"count":0,"sum":0,"label":"商業會"},{"count":0,"sum":0,"label":"長青會"},{"count":0,"sum":0,"label":"民眾服務社"},{"count":0,"sum":0,"label":"聯盟"}],"suggestions_piles":[{"count":33,"tokens":"協會|學會|商會|公會|協進會|促進會|研習會|婦聯會|婦女會|體育會|同心會|農會|早起會|健身會|宗親會|功德會|商業會|長青會|民眾服務社|聯盟","sum":2691000,"label":"協會"},{"count":6,"tokens":"國中|國小","sum":959000,"label":"國中、國小"},{"count":6,"tokens":"辦公室|辦公處","sum":417000,"label":"辦公室"},{"count":3,"tokens":"警察局|分局","sum":300000,"label":"警察局"},{"count":2,"tokens":"消防局|消防隊|分隊|中隊","sum":99000,"label":"消防局"},{"count":0,"tokens":"廟|宮","sum":0,"label":"廟"}],"bills_party_diversity":[{"party":"中國國民黨","ratio":0.9688581314878892},{"party":"無黨籍","ratio":0.02768166089965398},{"party":"民主進步黨","ratio":0.0034602076124567475}]},"councilor":"f94ff53c023447b599bda806ddf54bad"}],"uid":"f94ff53c023447b599bda806ddf54bad","name":"林琮翰","birth":null,"former_names":"","identifiers":["林琮翰","林琮翰"]},{"url":"http://councils.g0v.tw/api/councilors/1721/","each_terms":[{"url":"http://councils.g0v.tw/api/councilors_terms/2849/","election_year":"2014","name":"周玉滿","gender":"女","party":"無黨籍","title":"議員","constituency":3,"county":"苗栗縣","district":"通霄鎮、苑裡鎮","in_office":true,"contact_details":[{"type":"address","value":"360苗栗縣苗栗市玉華里玉清路351號","label":"服務處"}],"term_start":"2014-12-25","term_end":{"date":"2018-12-25"},"education":"親民工商","experience":"苗栗縣第13.14.15.16屆縣議員","remark":null,"image":"http://www.mcc.gov.tw/admin/upload/small_twgov_img_201511220016031.jpg","links":[{"url":"http://www.mcc.gov.tw/imgtxt_list.php?menu=2568&typeid=2580&typeid2=2601","note":"議會個人官網"}],"social_media":null,"platform":"","param":{"bills_role_statistics":{"total":42,"priproposer":8,"sponsor":8,"cosponsor":34},"suggestions_years":{"count":1,"sum":359000,"years":[{"count":1,"sum":359000,"suggest_year":"2016","small_purchase":0}]},"suggestions_associations":[{"count":0,"sum":0,"label":"社區發展協會"},{"count":0,"sum":0,"label":"學會"},{"count":0,"sum":0,"label":"商會"},{"count":0,"sum":0,"label":"公會"},{"count":0,"sum":0,"label":"協進會"},{"count":0,"sum":0,"label":"促進會"},{"count":0,"sum":0,"label":"研習會"},{"count":0,"sum":0,"label":"婦聯會"},{"count":0,"sum":0,"label":"婦女會"},{"count":0,"sum":0,"label":"體育會"},{"count":0,"sum":0,"label":"同心會"},{"count":0,"sum":0,"label":"農會"},{"count":0,"sum":0,"label":"早起會"},{"count":0,"sum":0,"label":"健身會"},{"count":0,"sum":0,"label":"宗親會"},{"count":0,"sum":0,"label":"功德會"},{"count":0,"sum":0,"label":"商業會"},{"count":0,"sum":0,"label":"長青會"},{"count":0,"sum":0,"label":"民眾服務社"},{"count":0,"sum":0,"label":"聯盟"}],"suggestions_piles":[{"count":0,"tokens":"協會|學會|商會|公會|協進會|促進會|研習會|婦聯會|婦女會|體育會|同心會|農會|早起會|健身會|宗親會|功德會|商業會|長青會|民眾服務社|聯盟","sum":0,"label":"協會"},{"count":0,"tokens":"辦公室|辦公處","sum":0,"label":"辦公室"},{"count":0,"tokens":"廟|宮","sum":0,"label":"廟"},{"count":0,"tokens":"警察局|分局","sum":0,"label":"警察局"},{"count":0,"tokens":"消防局|消防隊|分隊|中隊","sum":0,"label":"消防局"},{"count":0,"tokens":"國中|國小","sum":0,"label":"國中、國小"}],"bills_party_diversity":[{"party":"無黨籍","ratio":0.5330396475770925},{"party":"中國國民黨","ratio":0.32599118942731276},{"party":"民主進步黨","ratio":0.14096916299559473}]},"councilor":"fb9cee15f5ff48798bdce4cb0c42cce0"}],"uid":"fb9cee15f5ff48798bdce4cb0c42cce0","name":"周玉滿","birth":null,"former_names":"","identifiers":["周玉滿"]},{"url":"http://councils.g0v.tw/api/councilors/1643/","each_terms":[{"url":"http://councils.g0v.tw/api/councilors_terms/2850/","election_year":"2014","name":"邱紹俊","gender":"男","party":"無黨籍","title":"議員","constituency":3,"county":"苗栗縣","district":"通霄鎮、苑裡鎮","in_office":true,"contact_details":[{"type":"address","value":"360苗栗縣苗栗市玉華里玉清路351號","label":"服務處"},{"type":"voice","value":"037-763001","label":"連絡電話"}],"term_start":"2014-12-25","term_end":{"date":"2018-12-25"},"education":"沙鹿高工","experience":"苗栗縣第15.16屆縣議員","remark":null,"image":"http://www.mcc.gov.tw/admin/upload/small_twgov_img_201511220015361.jpg","links":[{"url":"http://www.mcc.gov.tw/imgtxt_list.php?menu=2568&typeid=2580&typeid2=2601","note":"議會個人官網"}],"social_media":null,"platform":"","param":{"bills_role_statistics":{"total":34,"priproposer":23,"sponsor":23,"cosponsor":11},"bills_party_diversity":[{"party":"無黨籍","ratio":0.5585106382978723},{"party":"中國國民黨","ratio":0.3670212765957447},{"party":"民主進步黨","ratio":0.07446808510638298}]},"councilor":"a26d9f32d5544f3f9f2b7807779fc9ae"},{"url":"http://councils.g0v.tw/api/councilors_terms/2569/","election_year":"2009","name":"邱紹俊","gender":"","party":"","title":"","constituency":3,"county":"苗栗縣","district":"通霄鎮、苑裡鎮","in_office":true,"contact_details":null,"term_start":"2009-12-25","term_end":{"date":"2014-12-25"},"education":null,"experience":null,"remark":null,"image":"http://www.mcc.gov.tw/admin/upload/small_news_201105031741310.jpg","links":[{"url":"http://www.mcc.gov.tw/imgtxt_list.php?menu=27&typeid=42&typeid2=668","note":"議會個人官網"}],"social_media":null,"platform":"","param":{"suggestions_years":{"count":1,"sum":655000,"years":[{"count":1,"sum":655000,"suggest_year":"2012","small_purchase":0}]},"suggestions_associations":[{"count":0,"sum":0,"label":"社區發展協會"},{"count":0,"sum":0,"label":"學會"},{"count":0,"sum":0,"label":"商會"},{"count":0,"sum":0,"label":"公會"},{"count":0,"sum":0,"label":"協進會"},{"count":0,"sum":0,"label":"促進會"},{"count":0,"sum":0,"label":"研習會"},{"count":0,"sum":0,"label":"婦聯會"},{"count":0,"sum":0,"label":"婦女會"},{"count":0,"sum":0,"label":"體育會"},{"count":0,"sum":0,"label":"同心會"},{"count":0,"sum":0,"label":"農會"},{"count":0,"sum":0,"label":"早起會"},{"count":0,"sum":0,"label":"健身會"},{"count":0,"sum":0,"label":"宗親會"},{"count":0,"sum":0,"label":"功德會"},{"count":0,"sum":0,"label":"商業會"},{"count":0,"sum":0,"label":"長青會"},{"count":0,"sum":0,"label":"民眾服務社"},{"count":0,"sum":0,"label":"聯盟"}],"suggestions_piles":[{"count":0,"tokens":"協會|學會|商會|公會|協進會|促進會|研習會|婦聯會|婦女會|體育會|同心會|農會|早起會|健身會|宗親會|功德會|商業會|長青會|民眾服務社|聯盟","sum":0,"label":"協會"},{"count":0,"tokens":"辦公室|辦公處","sum":0,"label":"辦公室"},{"count":0,"tokens":"廟|宮","sum":0,"label":"廟"},{"count":0,"tokens":"警察局|分局","sum":0,"label":"警察局"},{"count":0,"tokens":"消防局|消防隊|分隊|中隊","sum":0,"label":"消防局"},{"count":0,"tokens":"國中|國小","sum":0,"label":"國中、國小"}]},"councilor":"a26d9f32d5544f3f9f2b7807779fc9ae"}],"uid":"a26d9f32d5544f3f9f2b7807779fc9ae","name":"邱紹俊","birth":null,"former_names":"","identifiers":["邱紹俊"]},{"url":"http://councils.g0v.tw/api/councilors/578/","each_terms":[{"url":"http://councils.g0v.tw/api/councilors_terms/989/","election_year":"1986","name":"許秀雄","gender":"","party":"","title":"議員","constituency":4,"county":"新北市","district":"三重市、蘆洲鄉","in_office":true,"contact_details":null,"term_start":"1986-03-01","term_end":{"date":"1990-02-28"},"education":"國校畢\n中學肄\n空軍機械學校","experience":"蘆洲鄉第10、11屆鄉民代表\n調解委員會委員\n消防隊顧問\n青商會顧問\n婦女會顧問\n信鴿會顧問\n臺北縣議會第10、11、12屆議員","remark":null,"image":"http://www.ntp.gov.tw/UpFile/CouncilorFile/TTCC1038.jpg","links":[{"url":"http://www.ntp.gov.tw/content/history/history01-5-p.aspx?sid=374","note":"議會個人官網"}],"social_media":null,"platform":"","param":null,"councilor":"687d978f878c43b2968db415b6709172"},{"url":"http://councils.g0v.tw/api/councilors_terms/1044/","election_year":"1982","name":"許秀雄","gender":"","party":"","title":"議員","constituency":4,"county":"新北市","district":"三重市、蘆洲鄉","in_office":true,"contact_details":null,"term_start":"1982-03-01","term_end":{"date":"1986-02-28"},"education":"國校畢\n中學肄\n空軍機械學校","experience":"蘆洲鄉第10、11屆鄉民代表\n調解委員會委員\n消防隊顧問\n青商會顧問\n婦女會顧問\n信鴿會顧問\n臺北縣議會第10、11、12屆議員","remark":null,"image":"http://www.ntp.gov.tw/UpFile/CouncilorFile/TTCC1038.jpg","links":[{"url":"http://www.ntp.gov.tw/content/history/history01-5-p.aspx?sid=374","note":"議會個人官網"}],"social_media":null,"platform":"","param":null,"councilor":"687d978f878c43b2968db415b6709172"},{"url":"http://councils.g0v.tw/api/councilors_terms/1113/","election_year":"1990","name":"許秀雄","gender":"","party":"","title":"議員","constituency":5,"county":"新北市","district":"三重市、蘆洲鄉","in_office":true,"contact_details":null,"term_start":"1990-03-01","term_end":{"date":"1994-02-28"},"education":"國校畢\n中學肄\n空軍機械學校","experience":"蘆洲鄉第10、11屆鄉民代表\n調解委員會委員\n消防隊顧問\n青商會顧問\n婦女會顧問\n信鴿會顧問\n臺北縣議會第10、11、12屆議員","remark":null,"image":"http://www.ntp.gov.tw/UpFile/CouncilorFile/TTCC1038.jpg","links":[{"url":"http://www.ntp.gov.tw/content/history/history01-5-p.aspx?sid=374","note":"議會個人官網"}],"social_media":null,"platform":"","param":null,"councilor":"687d978f878c43b2968db415b6709172"}],"uid":"687d978f878c43b2968db415b6709172","name":"許秀雄","birth":null,"former_names":"","identifiers":["許秀雄"]},{"url":"http://councils.g0v.tw/api/councilors/579/","each_terms":[{"url":"http://councils.g0v.tw/api/councilors_terms/990/","election_year":"1986","name":"黃榮樁","gender":"","party":"","title":"議員","constituency":4,"county":"新北市","district":"三重市、蘆洲鄉","in_office":true,"contact_details":null,"term_start":"1986-03-01","term_end":{"date":"1990-02-28"},"education":"嘉南工商職業學校高商畢業\n中興大學公共政策研究所憲政研習班進修結業","experience":"內政部警政署警察機關柔道裁判長\n國防部情報局幹部班柔道教官\n政治作戰學校柔道教官\n中央警官學校柔道教官\n警察學校柔道教官\n三重市第4、5屆市民代表\n臺北縣青果公會顧問\n臺北縣視聽公會顧問\n臺北縣體育會顧問\n臺北縣早覺會顧問\n臺北縣議會第10、11屆議員\n民國96年8月22日歿","remark":null,"image":"http://www.ntp.gov.tw/UpFile/CouncilorFile/TTCC1037.jpg","links":[{"url":"http://www.ntp.gov.tw/content/history/history01-5-p.aspx?sid=373","note":"議會個人官網"}],"social_media":null,"platform":"","param":null,"councilor":"fabf85600e8344a7a637425aebcedbe1"},{"url":"http://councils.g0v.tw/api/councilors_terms/1045/","election_year":"1982","name":"黃榮樁","gender":"","party":"","title":"議員","constituency":4,"county":"新北市","district":"三重市、蘆洲鄉","in_office":true,"contact_details":null,"term_start":"1982-03-01","term_end":{"date":"1986-02-28"},"education":"嘉南工商職業學校高商畢業\n中興大學公共政策研究所憲政研習班進修結業","experience":"內政部警政署警察機關柔道裁判長\n國防部情報局幹部班柔道教官\n政治作戰學校柔道教官\n中央警官學校柔道教官\n警察學校柔道教官\n三重市第4、5屆市民代表\n臺北縣青果公會顧問\n臺北縣視聽公會顧問\n臺北縣體育會顧問\n臺北縣早覺會顧問\n臺北縣議會第10、11屆議員\n民國96年8月22日歿","remark":null,"image":"http://www.ntp.gov.tw/UpFile/CouncilorFile/TTCC1037.jpg","links":[{"url":"http://www.ntp.gov.tw/content/history/history01-5-p.aspx?sid=373","note":"議會個人官網"}],"social_media":null,"platform":"","param":null,"councilor":"fabf85600e8344a7a637425aebcedbe1"}],"uid":"fabf85600e8344a7a637425aebcedbe1","name":"黃榮樁","birth":null,"former_names":"","identifiers":["黄榮樁","黃榮樁"]},{"url":"http://councils.g0v.tw/api/councilors/1645/","each_terms":[{"url":"http://councils.g0v.tw/api/councilors_terms/2571/","election_year":"2009","name":"李聰祥","gender":"","party":"","title":"","constituency":3,"county":"苗栗縣","district":"通霄鎮、苑裡鎮","in_office":true,"contact_details":null,"term_start":"2009-12-25","term_end":{"date":"2014-12-25"},"education":null,"experience":null,"remark":null,"image":"http://www.mcc.gov.tw/admin/upload/small_news_201003131642010.jpg","links":[{"url":"http://www.mcc.gov.tw/imgtxt_list.php?menu=27&typeid=42&typeid2=668","note":"議會個人官網"}],"social_media":null,"platform":"","param":null,"councilor":"6c0bd74794f04adba1bf4bf71aa81073"},{"url":"http://councils.g0v.tw/api/councilors_terms/2851/","election_year":"2014","name":"李聰祥","gender":"男","party":"民主進步黨","title":"議員","constituency":3,"county":"苗栗縣","district":"通霄鎮、苑裡鎮","in_office":true,"contact_details":[{"type":"address","value":"360苗栗縣苗栗市玉華里玉清路351號","label":"服務處"},{"type":"voice","value":"037-745571","label":"連絡電話"}],"term_start":"2014-12-25","term_end":{"date":"2018-12-25"},"education":"苑裡國中畢業","experience":"第17屆苗栗縣議員","remark":null,"image":"http://www.mcc.gov.tw/admin/upload/small_twgov_img_201511220015121.jpg","links":[{"url":"http://www.mcc.gov.tw/imgtxt_list.php?menu=2568&typeid=2580&typeid2=2601","note":"議會個人官網"}],"social_media":null,"platform":"","param":{"bills_role_statistics":{"total":43,"priproposer":0,"sponsor":1,"cosponsor":42},"bills_party_diversity":[{"party":"民主進步黨","ratio":0.5210727969348659},{"party":"中國國民黨","ratio":0.24521072796934865},{"party":"無黨籍","ratio":0.23371647509578544}]},"councilor":"6c0bd74794f04adba1bf4bf71aa81073"}],"uid":"6c0bd74794f04adba1bf4bf71aa81073","name":"李聰祥","birth":null,"former_names":"","identifiers":["李聰祥","李聰祥"]},{"url":"http://councils.g0v.tw/api/councilors/1646/","each_terms":[{"url":"http://councils.g0v.tw/api/councilors_terms/2572/","election_year":"2009","name":"劉秋東","gender":"","party":"","title":"","constituency":3,"county":"苗栗縣","district":"通霄鎮、苑裡鎮","in_office":true,"contact_details":null,"term_start":"2009-12-25","term_end":{"date":"2014-12-25"},"education":null,"experience":null,"remark":null,"image":"http://www.mcc.gov.tw/admin/upload/small_news_201003131641410.jpg","links":[{"url":"http://www.mcc.gov.tw/imgtxt_list.php?menu=27&typeid=42&typeid2=668","note":"議會個人官網"}],"social_media":null,"platform":"","param":{"suggestions_years":{"count":2,"sum":4135000,"years":[{"count":1,"sum":2300000,"suggest_year":"2012","small_purchase":0},{"count":1,"sum":1835000,"suggest_year":"2014","small_purchase":0}]},"suggestions_associations":[{"count":0,"sum":0,"label":"社區發展協會"},{"count":0,"sum":0,"label":"學會"},{"count":0,"sum":0,"label":"商會"},{"count":0,"sum":0,"label":"公會"},{"count":0,"sum":0,"label":"協進會"},{"count":0,"sum":0,"label":"促進會"},{"count":0,"sum":0,"label":"研習會"},{"count":0,"sum":0,"label":"婦聯會"},{"count":0,"sum":0,"label":"婦女會"},{"count":0,"sum":0,"label":"體育會"},{"count":0,"sum":0,"label":"同心會"},{"count":0,"sum":0,"label":"農會"},{"count":0,"sum":0,"label":"早起會"},{"count":0,"sum":0,"label":"健身會"},{"count":0,"sum":0,"label":"宗親會"},{"count":0,"sum":0,"label":"功德會"},{"count":0,"sum":0,"label":"商業會"},{"count":0,"sum":0,"label":"長青會"},{"count":0,"sum":0,"label":"民眾服務社"},{"count":0,"sum":0,"label":"聯盟"}],"suggestions_piles":[{"count":0,"tokens":"協會|學會|商會|公會|協進會|促進會|研習會|婦聯會|婦女會|體育會|同心會|農會|早起會|健身會|宗親會|功德會|商業會|長青會|民眾服務社|聯盟","sum":0,"label":"協會"},{"count":0,"tokens":"辦公室|辦公處","sum":0,"label":"辦公室"},{"count":0,"tokens":"廟|宮","sum":0,"label":"廟"},{"count":0,"tokens":"警察局|分局","sum":0,"label":"警察局"},{"count":0,"tokens":"消防局|消防隊|分隊|中隊","sum":0,"label":"消防局"},{"count":0,"tokens":"國中|國小","sum":0,"label":"國中、國小"}]},"councilor":"90974bd08f9f4104959dac6007655a34"},{"url":"http://councils.g0v.tw/api/councilors_terms/2852/","election_year":"2014","name":"劉秋東","gender":"男","party":"中國國民黨","title":"議員","constituency":3,"county":"苗栗縣","district":"通霄鎮、苑裡鎮","in_office":true,"contact_details":[{"type":"address","value":"360苗栗縣苗栗市玉華里玉清路351號","label":"服務處"},{"type":"voice","value":"037-868698","label":"連絡電話"}],"term_start":"2014-12-25","term_end":{"date":"2018-12-25"},"education":"致用商工畢業","experience":"第17屆苗栗縣議員","remark":null,"image":"http://www.mcc.gov.tw/admin/upload/small_twgov_img_201511220014461.jpg","links":[{"url":"http://www.mcc.gov.tw/imgtxt_list.php?menu=2568&typeid=2580&typeid2=2601","note":"議會個人官網"}],"social_media":null,"platform":"","param":{"bills_role_statistics":{"total":19,"priproposer":9,"sponsor":9,"cosponsor":10},"suggestions_years":{"count":1,"sum":1125000,"years":[{"count":1,"sum":1125000,"suggest_year":"2016","small_purchase":0}]},"suggestions_associations":[{"count":0,"sum":0,"label":"社區發展協會"},{"count":0,"sum":0,"label":"學會"},{"count":0,"sum":0,"label":"商會"},{"count":0,"sum":0,"label":"公會"},{"count":0,"sum":0,"label":"協進會"},{"count":0,"sum":0,"label":"促進會"},{"count":0,"sum":0,"label":"研習會"},{"count":0,"sum":0,"label":"婦聯會"},{"count":0,"sum":0,"label":"婦女會"},{"count":0,"sum":0,"label":"體育會"},{"count":0,"sum":0,"label":"同心會"},{"count":0,"sum":0,"label":"農會"},{"count":0,"sum":0,"label":"早起會"},{"count":0,"sum":0,"label":"健身會"},{"count":0,"sum":0,"label":"宗親會"},{"count":0,"sum":0,"label":"功德會"},{"count":0,"sum":0,"label":"商業會"},{"count":0,"sum":0,"label":"長青會"},{"count":0,"sum":0,"label":"民眾服務社"},{"count":0,"sum":0,"label":"聯盟"}],"suggestions_piles":[{"count":0,"tokens":"協會|學會|商會|公會|協進會|促進會|研習會|婦聯會|婦女會|體育會|同心會|農會|早起會|健身會|宗親會|功德會|商業會|長青會|民眾服務社|聯盟","sum":0,"label":"協會"},{"count":0,"tokens":"辦公室|辦公處","sum":0,"label":"辦公室"},{"count":0,"tokens":"廟|宮","sum":0,"label":"廟"},{"count":0,"tokens":"警察局|分局","sum":0,"label":"警察局"},{"count":0,"tokens":"消防局|消防隊|分隊|中隊","sum":0,"label":"消防局"},{"count":0,"tokens":"國中|國小","sum":0,"label":"國中、國小"}],"bills_party_diversity":[{"party":"無黨籍","ratio":0.4715447154471545},{"party":"中國國民黨","ratio":0.42276422764227645},{"party":"民主進步黨","ratio":0.10569105691056911}]},"councilor":"90974bd08f9f4104959dac6007655a34"}],"uid":"90974bd08f9f4104959dac6007655a34","name":"劉秋東","birth":null,"former_names":"","identifiers":["劉秋東","劉秋東"]},{"url":"http://councils.g0v.tw/api/councilors/1723/","each_terms":[{"url":"http://councils.g0v.tw/api/councilors_terms/2856/","election_year":"2014","name":"徐集明","gender":"男","party":"中國國民黨","title":"議員","constituency":1,"county":"苗栗縣","district":"苗栗市、公館鄉、頭屋鄉","in_office":true,"contact_details":[{"type":"address","value":"360苗栗縣苗栗市玉華里玉清路351號","label":"服務處"},{"type":"voice","value":"037-326450","label":"連絡電話"}],"term_start":"2016-03-15","term_end":{"date":"2018-12-25"},"education":"建台高中","experience":"第17屆議員","remark":null,"image":"http://www.mcc.gov.tw/admin/upload/small_twgov_img_201603241527271.jpg","links":[{"url":"http://www.mcc.gov.tw/imgtxt_list.php?menu=2568&typeid=2580&typeid2=2599","note":"議會個人官網"}],"social_media":null,"platform":"","param":{"bills_role_statistics":{"total":8,"priproposer":2,"sponsor":2,"cosponsor":6},"bills_party_diversity":[{"party":"中國國民黨","ratio":0.5625},{"party":"無黨籍","ratio":0.25},{"party":"民主進步黨","ratio":0.1875}]},"councilor":"877edfb2ae35477382505bcd3671e882"}],"uid":"877edfb2ae35477382505bcd3671e882","name":"徐集明","birth":null,"former_names":"","identifiers":["徐集明"]},{"url":"http://councils.g0v.tw/api/councilors/1651/","each_terms":[{"url":"http://councils.g0v.tw/api/councilors_terms/2577/","election_year":"2009","name":"禹耀東","gender":"","party":"","title":"","constituency":1,"county":"苗栗縣","district":"苗栗市、公館鄉、頭屋鄉","in_office":true,"contact_details":null,"term_start":"2009-12-25","term_end":{"date":"2014-12-25"},"education":null,"experience":null,"remark":null,"image":"http://www.mcc.gov.tw/admin/upload/small_news_201003131634520.jpg","links":[{"url":"http://www.mcc.gov.tw/imgtxt_list.php?menu=27&typeid=42&typeid2=665","note":"議會個人官網"}],"social_media":null,"platform":"","param":null,"councilor":"96c0d63712b14c2fa3a5b478a95c804f"},{"url":"http://councils.g0v.tw/api/councilors_terms/2857/","election_year":"2014","name":"禹耀東","gender":"男","party":"中國國民黨","title":"議員","constituency":1,"county":"苗栗縣","district":"苗栗市、公館鄉、頭屋鄉","in_office":true,"contact_details":[{"type":"address","value":"360苗栗縣苗栗市玉華里玉清路351號","label":"服務處"},{"type":"voice","value":"037-365345","label":"連絡電話"}],"term_start":"2014-12-25","term_end":{"date":"2018-12-25"},"education":"玄奘大學碩士班畢業","experience":"第14.15.16.17屆縣議員","remark":null,"image":"http://www.mcc.gov.tw/admin/upload/small_twgov_img_201511220012241.jpg","links":[{"url":"http://www.mcc.gov.tw/imgtxt_list.php?menu=2568&typeid=2580&typeid2=2599","note":"議會個人官網"}],"social_media":null,"platform":"","param":{"bills_role_statistics":{"total":14,"priproposer":7,"sponsor":7,"cosponsor":7},"bills_party_diversity":[{"party":"中國國民黨","ratio":0.4803921568627451},{"party":"無黨籍","ratio":0.3333333333333333},{"party":"民主進步黨","ratio":0.18627450980392157}]},"councilor":"96c0d63712b14c2fa3a5b478a95c804f"}],"uid":"96c0d63712b14c2fa3a5b478a95c804f","name":"禹耀東","birth":null,"former_names":"","identifiers":["禹耀東"]},{"url":"http://councils.g0v.tw/api/councilors/1916/","each_terms":[{"url":"http://councils.g0v.tw/api/councilors_terms/26404/","election_year":"2009","name":"黃春燕","gender":"女","party":"無黨籍","title":"議員","constituency":1,"county":"澎湖縣","district":"","in_office":true,"contact_details":null,"term_start":null,"term_end":{},"education":null,"experience":null,"remark":null,"image":"","links":null,"social_media":null,"platform":"","param":{"bills_role_statistics":{"total":20,"priproposer":0,"sponsor":0,"cosponsor":20},"suggestions_years":{"count":141,"sum":5665150,"years":[{"count":43,"sum":1662800,"suggest_year":"2011","small_purchase":42},{"count":29,"sum":1082600,"suggest_year":"2012","small_purchase":29},{"count":43,"sum":1754700,"suggest_year":"2013","small_purchase":43},{"count":26,"sum":1165050,"suggest_year":"2014","small_purchase":26}]},"suggestions_associations":[{"count":15,"sum":639000,"label":"社區發展協會"},{"count":9,"sum":290000,"label":"學會"},{"count":4,"sum":101500,"label":"促進會"},{"count":1,"sum":50000,"label":"公會"},{"count":0,"sum":0,"label":"商會"},{"count":0,"sum":0,"label":"協進會"},{"count":0,"sum":0,"label":"研習會"},{"count":0,"sum":0,"label":"婦聯會"},{"count":0,"sum":0,"label":"婦女會"},{"count":0,"sum":0,"label":"體育會"},{"count":0,"sum":0,"label":"同心會"},{"count":0,"sum":0,"label":"農會"},{"count":0,"sum":0,"label":"早起會"},{"count":0,"sum":0,"label":"健身會"},{"count":0,"sum":0,"label":"宗親會"},{"count":0,"sum":0,"label":"功德會"},{"count":0,"sum":0,"label":"商業會"},{"count":0,"sum":0,"label":"長青會"},{"count":0,"sum":0,"label":"民眾服務社"},{"count":0,"sum":0,"label":"聯盟"}],"suggestions_piles":[{"count":55,"tokens":"協會|學會|商會|公會|協進會|促進會|研習會|婦聯會|婦女會|體育會|同心會|農會|早起會|健身會|宗親會|功德會|商業會|長青會|民眾服務社|聯盟","sum":1706900,"label":"協會"},{"count":29,"tokens":"辦公室|辦公處","sum":1276000,"label":"辦公室"},{"count":7,"tokens":"廟|宮","sum":526000,"label":"廟"},{"count":9,"tokens":"國中|國小","sum":290000,"label":"國中、國小"},{"count":0,"tokens":"警察局|分局","sum":0,"label":"警察局"},{"count":0,"tokens":"消防局|消防隊|分隊|中隊","sum":0,"label":"消防局"}]},"councilor":"012f9f8e92904f71b4c9135b6a1e3b83"},{"url":"http://councils.g0v.tw/api/councilors_terms/3378/","election_year":"2014","name":"黃春燕","gender":"女","party":"無黨籍","title":"議員","constituency":1,"county":"澎湖縣","district":"馬公市","in_office":true,"contact_details":[{"type":"address","value":"澎湖縣","label":"服務處"}],"term_start":"2016-03-28","term_end":{"date":"2018-12-25"},"education":"國立澎湖科技大學附設專科部水產養殖科。\n永達技術學院經營管理系","experience":"澎湖縣議會14.15.16.17屆議員。\n澎湖科技大學校友會會長。\n澎湖縣生命線協會理事長。\n澎湖縣帆船協會理事長。\n澎湖縣照顧者協會理事長。\n澎湖縣動物照顧協會理事長。","remark":null,"image":"http://www.phcouncil.gov.tw/attachments/mop/M06030011.jpg","links":null,"social_media":null,"platform":"","param":{"bills_role_statistics":{"total":3,"priproposer":0,"sponsor":0,"cosponsor":3},"bills_party_diversity":[{"party":"無黨籍","ratio":0.6666666666666666},{"party":"無黨團結聯盟","ratio":0.2222222222222222},{"party":"中國國民黨","ratio":0.1111111111111111}]},"councilor":"012f9f8e92904f71b4c9135b6a1e3b83"}],"uid":"012f9f8e92904f71b4c9135b6a1e3b83","name":"黃春燕","birth":"1957-02-21","former_names":"","identifiers":["黃春燕","黄春燕"]}]}