{"count":1904,"next":"http://councils.g0v.tw/api/councilors/?page=148","previous":"http://councils.g0v.tw/api/councilors/?page=146","results":[{"url":"http://councils.g0v.tw/api/councilors/1348/","each_terms":[{"url":"http://councils.g0v.tw/api/councilors_terms/2274/","election_year":"2009","name":"郭芳宜","gender":"男","party":"","title":"","constituency":3,"county":"嘉義縣","district":"溪口鄉、大林鎮、梅山鄉","in_office":true,"contact_details":[{"type":"phone","value":"05-2623148 ","label":"電話"},{"type":"address","value":"嘉義縣梅山鄉梅北村環北街89號 ","label":"通訊處"},{"type":"email","value":"","label":"電子信箱"}],"term_start":"2009-12-25","term_end":{"date":"2014-12-25"},"education":"梅山國中畢業 ","experience":"(一)梅山鄉農會第１１、１２、１３屆會員代表。\n(二)梅山義警分隊長。\n(三)梅山鄉梅北村村長。\n(四)嘉義縣消防局梅山義消顧問。\n(五)梅山救國團團委會會長。\n(六)梅山巧聖仙師主任委員。\n(七)梅山軒樂團顧問。\n(八)梅山文教基金會顧問。\n(九)梅山愛心會監事。 ","remark":null,"image":"http://www.cyscc.gov.tw/template/DisplaySmallPicture.ashx?p=/Upload/Parliamentary/21/634535108843652920.bmp&w=145&h=170","links":[{"url":"http://www.cyscc.gov.tw/chinese/Parliamentary_Detail.aspx?s=21&n=29","note":"議會個人官網"}],"social_media":null,"platform":"（一）爭取營造梅山街道，創造商機，促進地方繁榮，建立快樂幸福鄉鎮。\n（二）重視柑桔蓮霧及各項農作物災害損失補助作業，爭取簡化申請作業。\n（三）注重山區茶農福利，爭取補助產銷團體運作經費，使產銷班能永續經營。\n（四）全心專職不分黨派為梅山、大林、溪口民眾服務，以民眾意見為服務宗旨。\n（五）全力爭取各項建設，解決民眾所需，決不敷衍了事。\n（六）配合梅山、大林、溪口各寺廟辦理文化宗教活動，弘揚固有倫理精神，端正社會風氣。\n（七）協助公所及各機關團體辦理各項活動及政策推行，並全力爭取經費。\n（八）爭取天然災害各建設工程之經費，及督促工程之施行。 ","param":{"suggestions_years":{"count":30,"sum":37460000,"years":[{"count":5,"sum":7500000,"suggest_year":"2011","small_purchase":0},{"count":14,"sum":12760000,"suggest_year":"2012","small_purchase":2},{"count":2,"sum":3200000,"suggest_year":"2013","small_purchase":0},{"count":9,"sum":14000000,"suggest_year":"2014","small_purchase":0}]},"diversity":{"":1.0},"bills_role_statistics":{"total":5,"priproposer":0,"sponsor":0,"cosponsor":5},"suggestions_associations":[{"count":0,"sum":0,"label":"社區發展協會"},{"count":0,"sum":0,"label":"學會"},{"count":0,"sum":0,"label":"商會"},{"count":0,"sum":0,"label":"公會"},{"count":0,"sum":0,"label":"協進會"},{"count":0,"sum":0,"label":"促進會"},{"count":0,"sum":0,"label":"研習會"},{"count":0,"sum":0,"label":"婦聯會"},{"count":0,"sum":0,"label":"婦女會"},{"count":0,"sum":0,"label":"體育會"},{"count":0,"sum":0,"label":"同心會"},{"count":0,"sum":0,"label":"農會"},{"count":0,"sum":0,"label":"早起會"},{"count":0,"sum":0,"label":"健身會"},{"count":0,"sum":0,"label":"宗親會"},{"count":0,"sum":0,"label":"功德會"},{"count":0,"sum":0,"label":"商業會"},{"count":0,"sum":0,"label":"長青會"},{"count":0,"sum":0,"label":"民眾服務社"},{"count":0,"sum":0,"label":"聯盟"}],"bills_party_diversity":[{"party":"","ratio":1.0}],"suggestions_piles":[{"count":1,"tokens":"國中|國小","sum":1000000,"label":"國中、國小"},{"count":0,"tokens":"協會|學會|商會|公會|協進會|促進會|研習會|婦聯會|婦女會|體育會|同心會|農會|早起會|健身會|宗親會|功德會|商業會|長青會|民眾服務社|聯盟","sum":0,"label":"協會"},{"count":0,"tokens":"辦公室|辦公處","sum":0,"label":"辦公室"},{"count":0,"tokens":"廟|宮","sum":0,"label":"廟"},{"count":0,"tokens":"警察局|分局","sum":0,"label":"警察局"},{"count":0,"tokens":"消防局|消防隊|分隊|中隊","sum":0,"label":"消防局"}]},"councilor":"9d25e975e39345e293e0c0a91e8508f8"},{"url":"http://councils.g0v.tw/api/councilors_terms/3131/","election_year":"2014","name":"郭芳宜","gender":"男","party":"民主進步黨","title":"議員","constituency":3,"county":"嘉義縣","district":"溪口鄉、大林鎮、梅山鄉","in_office":true,"contact_details":[{"type":"voice","value":"05-262-3148","label":"電話"},{"type":"address","value":"嘉義縣梅山鄉梅北村12鄰環北街89號","label":"通訊處"}],"term_start":"2014-12-25","term_end":{"date":"2018-12-25"},"education":"國中畢業","experience":"1梅山鄉梅北村第16、17屆村長。\n2現任嘉義縣議會第17屆縣議員。","remark":"","image":"http://www.cyscc.gov.tw/template/DisplaySmallPicture.ashx?p=/Upload/Parliamentary/116/635560523736666661.jpg&w=145&h=170","links":[{"url":"http://www.cyscc.gov.tw/chinese/Parliamentary_Detail.aspx?s=116&n=29","note":"議會個人官網"}],"social_media":null,"platform":"一、爭取經費建設村里道路、農路、野溪整治等工程。\n二、推動觀光旅遊，配合太平雲梯爭取配套建設工程。\n三、爭取教育經費，建設中小學校設施。\n四、關懷弱勢團體，照顧身障人士，爭取福利補助。\n五、全心專職熱誠服務鄉親，隨時反映民意，解決問題。\n六、監督政府施政、預算編列、簡化公文作業及便民措施。\n七、推動地方農特產業，爭取經費補助產銷團體運銷作業，增加農民收入。","param":{"bills_role_statistics":{"total":27,"priproposer":0,"sponsor":0,"cosponsor":27},"suggestions_years":{"count":28,"sum":16390125,"years":[{"count":6,"sum":6466000,"suggest_year":"2015","small_purchase":0},{"count":22,"sum":9924125,"suggest_year":"2016","small_purchase":2}]},"suggestions_associations":[{"count":0,"sum":0,"label":"社區發展協會"},{"count":0,"sum":0,"label":"學會"},{"count":0,"sum":0,"label":"商會"},{"count":0,"sum":0,"label":"公會"},{"count":0,"sum":0,"label":"協進會"},{"count":0,"sum":0,"label":"促進會"},{"count":0,"sum":0,"label":"研習會"},{"count":0,"sum":0,"label":"婦聯會"},{"count":0,"sum":0,"label":"婦女會"},{"count":0,"sum":0,"label":"體育會"},{"count":0,"sum":0,"label":"同心會"},{"count":0,"sum":0,"label":"農會"},{"count":0,"sum":0,"label":"早起會"},{"count":0,"sum":0,"label":"健身會"},{"count":0,"sum":0,"label":"宗親會"},{"count":0,"sum":0,"label":"功德會"},{"count":0,"sum":0,"label":"商業會"},{"count":0,"sum":0,"label":"長青會"},{"count":0,"sum":0,"label":"民眾服務社"},{"count":0,"sum":0,"label":"聯盟"}],"suggestions_piles":[{"count":2,"tokens":"廟|宮","sum":844000,"label":"廟"},{"count":0,"tokens":"協會|學會|商會|公會|協進會|促進會|研習會|婦聯會|婦女會|體育會|同心會|農會|早起會|健身會|宗親會|功德會|商業會|長青會|民眾服務社|聯盟","sum":0,"label":"協會"},{"count":0,"tokens":"辦公室|辦公處","sum":0,"label":"辦公室"},{"count":0,"tokens":"警察局|分局","sum":0,"label":"警察局"},{"count":0,"tokens":"消防局|消防隊|分隊|中隊","sum":0,"label":"消防局"},{"count":0,"tokens":"國中|國小","sum":0,"label":"國中、國小"}],"bills_party_diversity":[{"party":"民主進步黨","ratio":0.645021645021645},{"party":"無黨籍","ratio":0.3333333333333333},{"party":"中國國民黨","ratio":0.021645021645021644}]},"councilor":"9d25e975e39345e293e0c0a91e8508f8"}],"uid":"9d25e975e39345e293e0c0a91e8508f8","name":"郭芳宜","birth":null,"former_names":"","identifiers":["郭芳宜"]},{"url":"http://councils.g0v.tw/api/councilors/1837/","each_terms":[{"url":"http://councils.g0v.tw/api/councilors_terms/3135/","election_year":"2014","name":"蔡瑋傑","gender":"男","party":"民主進步黨","title":"議員","constituency":5,"county":"嘉義縣","district":"布袋鎮、義竹鄉","in_office":true,"contact_details":[{"type":"voice","value":"05-347-6822","label":"電話"},{"type":"address","value":"嘉義縣布袋鎮光復里太平東路427巷7號","label":"通訊處"}],"term_start":"2014-12-25","term_end":{"date":"2018-12-25"},"education":"1布袋國小。\n2興國高級中學。\n3嘉義農專。\n4嘉義大學。","experience":"","remark":"","image":"http://www.cyscc.gov.tw/template/DisplaySmallPicture.ashx?p=/Upload/Parliamentary/96/635608850520883246.jpg&w=145&h=170","links":[{"url":"http://www.cyscc.gov.tw/chinese/Parliamentary_Detail.aspx?s=96&n=29","note":"議會個人官網"}],"social_media":null,"platform":"一、爭取布袋區傳統產業升級，推動布袋發展成『鹽的文化』之觀光重鎮。\n二、爭取布袋港區成為漁業，貨運業的物流園區。\n三、爭取布袋贊寮溝抽水站加大，以徹底解決布袋淹水問題。\n四、爭取在新塭地區設置水產加值園區。\n五、爭取義竹、布袋廢鹽灘地的活化利用。\n六、發揚過溝地區火燈文化，結合在地宗教、農特產品，推廣觀光強化地方深度旅遊。\n七、爭取婦女、身障、貧戶等弱勢公民權利，捍衛農漁民基本福利政策。\n八、堅持「嘉義優先、人民最大」之問政理念。","param":{"bills_role_statistics":{"total":108,"priproposer":5,"sponsor":6,"cosponsor":102},"suggestions_years":{"count":11,"sum":11750000,"years":[{"count":9,"sum":9150000,"suggest_year":"2015","small_purchase":0},{"count":2,"sum":2600000,"suggest_year":"2016","small_purchase":0}]},"suggestions_associations":[{"count":0,"sum":0,"label":"社區發展協會"},{"count":0,"sum":0,"label":"學會"},{"count":0,"sum":0,"label":"商會"},{"count":0,"sum":0,"label":"公會"},{"count":0,"sum":0,"label":"協進會"},{"count":0,"sum":0,"label":"促進會"},{"count":0,"sum":0,"label":"研習會"},{"count":0,"sum":0,"label":"婦聯會"},{"count":0,"sum":0,"label":"婦女會"},{"count":0,"sum":0,"label":"體育會"},{"count":0,"sum":0,"label":"同心會"},{"count":0,"sum":0,"label":"農會"},{"count":0,"sum":0,"label":"早起會"},{"count":0,"sum":0,"label":"健身會"},{"count":0,"sum":0,"label":"宗親會"},{"count":0,"sum":0,"label":"功德會"},{"count":0,"sum":0,"label":"商業會"},{"count":0,"sum":0,"label":"長青會"},{"count":0,"sum":0,"label":"民眾服務社"},{"count":0,"sum":0,"label":"聯盟"}],"suggestions_piles":[{"count":0,"tokens":"協會|學會|商會|公會|協進會|促進會|研習會|婦聯會|婦女會|體育會|同心會|農會|早起會|健身會|宗親會|功德會|商業會|長青會|民眾服務社|聯盟","sum":0,"label":"協會"},{"count":0,"tokens":"辦公室|辦公處","sum":0,"label":"辦公室"},{"count":0,"tokens":"廟|宮","sum":0,"label":"廟"},{"count":0,"tokens":"警察局|分局","sum":0,"label":"警察局"},{"count":0,"tokens":"消防局|消防隊|分隊|中隊","sum":0,"label":"消防局"},{"count":0,"tokens":"國中|國小","sum":0,"label":"國中、國小"}],"bills_party_diversity":[{"party":"民主進步黨","ratio":0.5563025210084034},{"party":"無黨籍","ratio":0.43865546218487395},{"party":"中國國民黨","ratio":0.005042016806722689}]},"councilor":"6a1fcb28b6f44ed6a5854498c20584fe"}],"uid":"6a1fcb28b6f44ed6a5854498c20584fe","name":"蔡瑋傑","birth":null,"former_names":"","identifiers":["蔡瑋傑"]},{"url":"http://councils.g0v.tw/api/councilors/1346/","each_terms":[{"url":"http://councils.g0v.tw/api/councilors_terms/2272/","election_year":"2009","name":"葉和平","gender":"男","party":"","title":"","constituency":3,"county":"嘉義縣","district":"溪口鄉、大林鎮、梅山鄉","in_office":true,"contact_details":[{"type":"phone","value":"05-2654600 ","label":"電話"},{"type":"address","value":"嘉義縣大林鎮西林里祥和路201號 ","label":"通訊處"},{"type":"email","value":"","label":"電子信箱"}],"term_start":"2009-12-25","term_end":{"date":"2014-12-25"},"education":"梅山初中畢業 ","experience":"(一)大林鎮後備軍人輔導中心主任。\n(二)大林國小家長會長。\n(三)同濟中學家長會長。\n(四)吉林里里長。\n(五)大林鎮農會理、監事12年、理事長4年。 ","remark":null,"image":"http://www.cyscc.gov.tw/template/DisplaySmallPicture.ashx?p=/Upload/Parliamentary/23/634535110091069494.bmp&w=145&h=170","links":[{"url":"http://www.cyscc.gov.tw/chinese/Parliamentary_Detail.aspx?s=23&n=29","note":"議會個人官網"}],"social_media":null,"platform":"(一)創造農村改建、營造富麗農村。\n(二)積極協助農產品牌、加強行銷、保障收益。\n(三)推動老人福利、老農津貼、日間照護服務。\n(四)關懷弱勢族群打造幸福鄉里。\n(五)堅持最高品質服務、造福鄉里。 ","param":{"suggestions_years":{"count":43,"sum":15871323,"years":[{"count":5,"sum":2240000,"suggest_year":"2011","small_purchase":0},{"count":7,"sum":2592323,"suggest_year":"2012","small_purchase":0},{"count":13,"sum":4910000,"suggest_year":"2013","small_purchase":2},{"count":18,"sum":6129000,"suggest_year":"2014","small_purchase":1}]},"diversity":{"":1.0},"bills_role_statistics":{"total":11,"priproposer":0,"sponsor":0,"cosponsor":11},"suggestions_associations":[{"count":0,"sum":0,"label":"社區發展協會"},{"count":0,"sum":0,"label":"學會"},{"count":0,"sum":0,"label":"商會"},{"count":0,"sum":0,"label":"公會"},{"count":0,"sum":0,"label":"協進會"},{"count":0,"sum":0,"label":"促進會"},{"count":0,"sum":0,"label":"研習會"},{"count":0,"sum":0,"label":"婦聯會"},{"count":0,"sum":0,"label":"婦女會"},{"count":0,"sum":0,"label":"體育會"},{"count":0,"sum":0,"label":"同心會"},{"count":0,"sum":0,"label":"農會"},{"count":0,"sum":0,"label":"早起會"},{"count":0,"sum":0,"label":"健身會"},{"count":0,"sum":0,"label":"宗親會"},{"count":0,"sum":0,"label":"功德會"},{"count":0,"sum":0,"label":"商業會"},{"count":0,"sum":0,"label":"長青會"},{"count":0,"sum":0,"label":"民眾服務社"},{"count":0,"sum":0,"label":"聯盟"}],"bills_party_diversity":[{"party":"","ratio":1.0}],"suggestions_piles":[{"count":2,"tokens":"廟|宮","sum":440000,"label":"廟"},{"count":0,"tokens":"協會|學會|商會|公會|協進會|促進會|研習會|婦聯會|婦女會|體育會|同心會|農會|早起會|健身會|宗親會|功德會|商業會|長青會|民眾服務社|聯盟","sum":0,"label":"協會"},{"count":0,"tokens":"辦公室|辦公處","sum":0,"label":"辦公室"},{"count":0,"tokens":"警察局|分局","sum":0,"label":"警察局"},{"count":0,"tokens":"消防局|消防隊|分隊|中隊","sum":0,"label":"消防局"},{"count":0,"tokens":"國中|國小","sum":0,"label":"國中、國小"}]},"councilor":"a3c3cde7079f4187a1dcc70b31d401e0"},{"url":"http://councils.g0v.tw/api/councilors_terms/3137/","election_year":"2014","name":"葉和平","gender":"男","party":"民主進步黨","title":"議員","constituency":3,"county":"嘉義縣","district":"溪口鄉、大林鎮、梅山鄉","in_office":true,"contact_details":[{"type":"voice","value":"05-265-4600","label":"電話"},{"type":"address","value":"嘉義縣大林鎮西林里祥和路201號","label":"通訊處"}],"term_start":"2014-12-25","term_end":{"date":"2018-12-25"},"education":"梅山初中畢業","experience":"1現任：嘉義縣議員。\n2現任：嘉義縣大林農會常務監事。\n3嘉義縣大林農會理事長。\n4大林後備軍人輔導中心主任。\n5大林鎮吉林里里長。\n6大林青商會創會長。","remark":"","image":"http://www.cyscc.gov.tw/template/DisplaySmallPicture.ashx?p=/Upload/Parliamentary/114/635560524375520540.jpg&w=145&h=170","links":[{"url":"http://www.cyscc.gov.tw/chinese/Parliamentary_Detail.aspx?s=114&n=29","note":"議會個人官網"}],"social_media":null,"platform":"一、創造農村改建、營造富麗農村。\n二、積極協助農業品牌、加強行銷、保障收益。\n三、推動老人福利、老農津貼、日間照護服務。\n四、關懷弱勢族群打造幸福鄉里。\n五、堅持最高品質服務、造福鄉里。","param":{"bills_role_statistics":{"total":11,"priproposer":0,"sponsor":0,"cosponsor":11},"suggestions_years":{"count":20,"sum":8154000,"years":[{"count":10,"sum":4154000,"suggest_year":"2015","small_purchase":0},{"count":10,"sum":4000000,"suggest_year":"2016","small_purchase":0}]},"suggestions_associations":[{"count":0,"sum":0,"label":"社區發展協會"},{"count":0,"sum":0,"label":"學會"},{"count":0,"sum":0,"label":"商會"},{"count":0,"sum":0,"label":"公會"},{"count":0,"sum":0,"label":"協進會"},{"count":0,"sum":0,"label":"促進會"},{"count":0,"sum":0,"label":"研習會"},{"count":0,"sum":0,"label":"婦聯會"},{"count":0,"sum":0,"label":"婦女會"},{"count":0,"sum":0,"label":"體育會"},{"count":0,"sum":0,"label":"同心會"},{"count":0,"sum":0,"label":"農會"},{"count":0,"sum":0,"label":"早起會"},{"count":0,"sum":0,"label":"健身會"},{"count":0,"sum":0,"label":"宗親會"},{"count":0,"sum":0,"label":"功德會"},{"count":0,"sum":0,"label":"商業會"},{"count":0,"sum":0,"label":"長青會"},{"count":0,"sum":0,"label":"民眾服務社"},{"count":0,"sum":0,"label":"聯盟"}],"suggestions_piles":[{"count":0,"tokens":"協會|學會|商會|公會|協進會|促進會|研習會|婦聯會|婦女會|體育會|同心會|農會|早起會|健身會|宗親會|功德會|商業會|長青會|民眾服務社|聯盟","sum":0,"label":"協會"},{"count":0,"tokens":"辦公室|辦公處","sum":0,"label":"辦公室"},{"count":0,"tokens":"廟|宮","sum":0,"label":"廟"},{"count":0,"tokens":"警察局|分局","sum":0,"label":"警察局"},{"count":0,"tokens":"消防局|消防隊|分隊|中隊","sum":0,"label":"消防局"},{"count":0,"tokens":"國中|國小","sum":0,"label":"國中、國小"}],"bills_party_diversity":[{"party":"民主進步黨","ratio":0.7157894736842105},{"party":"無黨籍","ratio":0.22105263157894736},{"party":"中國國民黨","ratio":0.06315789473684211}]},"councilor":"a3c3cde7079f4187a1dcc70b31d401e0"}],"uid":"a3c3cde7079f4187a1dcc70b31d401e0","name":"葉和平","birth":null,"former_names":"","identifiers":["葉和平"]},{"url":"http://councils.g0v.tw/api/councilors/1145/","each_terms":[{"url":"http://councils.g0v.tw/api/councilors_terms/3045/","election_year":"2014","name":"陳榮妹","gender":"女","party":"中國國民黨","title":"議員","constituency":9,"county":"彰化縣","district":"居住彰化縣各鄉鎮市之平地原住民","in_office":true,"contact_details":[{"type":"voice","value":"04-7560799","label":"電話"},{"type":"fax","value":"04-7560100","label":"傳真"},{"type":"address","value":"彰化縣和美鎮柑井里15鄰柑竹路214號","label":"地址"},{"type":"email","value":"polodoris2000@yahoo.com.tw","label":"電子信箱"}],"term_start":"2014-12-25","term_end":{"date":"2018-12-25"},"education":"高級中學畢業","experience":"一、彰化縣議會第 16、17屆議員。\n二、彰化縣原住民人文關懷發展協會創會會長。\n三、中國國民黨彰化縣原住民服務工作會會長。\n四、彰化縣婦女會常務理事。\n五、中國國民黨彰化縣黨部委員會委員。","remark":null,"image":"http://www.chcc.gov.tw/df_ufiles/d/s_54%E9%99%B3%E6%A6%AE%E5%A6%B9.jpg","links":[{"url":"http://www.chcc.gov.tw/member/details.aspx?Parser=99,6,40,,,,54","note":"議會個人官網"}],"social_media":null,"platform":"一、建議政府蓋原住民合宜住宅，讓都會區原民鄉親住者有其屋。\n二、制定縣立高中原民學子入學保障名額及免學雜費。\n三、提供優秀原民同胞就學獎金，培養優秀原民學子在體育、藝術、音樂等方面的專業技能。\n四、爭取設立原住民行政科，以利推動原民業務。\n五、督促縣府設立原住民調解委員會，聘任原住民調解委員。\n六、爭取原住民生育津貼、制定醫療補助，解決原民鄉親財務困境。\n七、編定原民職業訓練、大卡車駕駛、土木、水電、船員等等免費輔導証照。","param":{"bills_role_statistics":{"total":33,"priproposer":2,"sponsor":2,"cosponsor":31},"bills_party_diversity":[{"party":"中國國民黨","ratio":0.6865671641791045},{"party":"無黨籍","ratio":0.2417910447761194},{"party":"民主進步黨","ratio":0.07164179104477612}]},"councilor":"96ad1b005d324c8fb6d75ea959441d1b"},{"url":"http://councils.g0v.tw/api/councilors_terms/2071/","election_year":"2009","name":"陳榮妹","gender":"女","party":"","title":"議員","constituency":9,"county":"彰化縣","district":"居住彰化縣各鄉鎮市之平地原住民","in_office":true,"contact_details":[{"type":"phone","value":"04-7560799","label":"電話"},{"type":"fax","value":"04-7560100","label":"傳真"},{"type":"email","value":"polodoris2000@yahoo.com.tw","label":"電子信箱"},{"type":"address","value":"彰化縣和美鎮柑竹路214號","label":"通訊處"}],"term_start":"2009-12-25","term_end":{"date":"2014-12-25"},"education":"高中","experience":"彰化縣議會第16屆議員\n彰化縣議會第17屆議員","remark":null,"image":"http://www.chcc.gov.tw/UpFile/CouncilorPhoto/9001.jpg","links":[{"url":"http://www.chcc.gov.tw/content/list/list01_01.aspx?sid=52","note":"議會個人官網"}],"social_media":null,"platform":"增加原住民建購、修繕住宅費用補貼名額\n輔導原住民參加技術士技能檢定\n監督政府補助辦理各項福利服務\n監督政府補助辦理各項研習活動\n提升都市原住民就業競爭能力，保障基本工作權\n推動族語家庭化及族語師資能力認證\n推動青少年文化成長班，增加課輔及母語學習\n充實活化原住民文物館，營造原民文化傳承","param":{"bills_role_statistics":{"total":21,"priproposer":5,"sponsor":5,"cosponsor":16},"diversity":{"":1.0},"bills_party_diversity":[{"party":"","ratio":1.0}]},"councilor":"96ad1b005d324c8fb6d75ea959441d1b"}],"uid":"96ad1b005d324c8fb6d75ea959441d1b","name":"陳榮妹","birth":"1963-02-10","former_names":"","identifiers":["陳榮妹"]},{"url":"http://councils.g0v.tw/api/councilors/1147/","each_terms":[{"url":"http://councils.g0v.tw/api/councilors_terms/2073/","election_year":"2009","name":"陳一惇","gender":"男","party":"","title":"議員","constituency":8,"county":"彰化縣","district":"芳苑鄉、二林鎮、大城鄉、竹塘鄉","in_office":true,"contact_details":[{"type":"phone","value":"04-8955011","label":"電話"},{"type":"fax","value":"04-8955012","label":"傳真"},{"type":"email","value":"","label":"電子信箱"},{"type":"address","value":"彰化縣二林鎮後厝里太平路一段88巷86號","label":"通訊處"}],"term_start":"2009-12-25","term_end":{"date":"2014-12-25"},"education":"中正國小、二林國中、二林工商\n中州科技大學畢業","experience":"彰化區漁會第7、8、9屆會員代表\n二林青工會會長\n國民黨青年團分團長\n救國團二林團委會會長\n二林鎮仁和宮顧問\n台灣高齡健康休閒發展協會理事\n彰化縣議會第17屆議員\n立法委員鄭汝芬二林區服務處主任\n彰化縣體育會理事\n彰化區漁會第10屆理事\n台灣蔗農事件文化協會常務監事\n大葉大學校友總會第8屆顧問\n二林義消中隊顧問","remark":null,"image":"http://www.chcc.gov.tw/UpFile/CouncilorPhoto/8002.jpg","links":[{"url":"http://www.chcc.gov.tw/content/list/list01_01.aspx?sid=50","note":"議會個人官網"}],"social_media":null,"platform":"關懷弱勢族群\n落實縮短城鄉差距之政策\n落實縣府與地方溝通之橋樑\n極力爭取經費舉辦大型活動，如：二林儒林文化季、王功漁火節與農、漁特產品發表說明會，結合地方文化帶動二林四鄉鎮之觀光產業\n配合融入社區發展之推動\n配合地方所需之基層建設\n爭取農、漁、畜牧業者之權益\n爭取發揮農、漁村新風貌之特色\n爭取協助新移民之教育、生活等問題\n爭取多功能休閒、運動中心","param":{"bills_role_statistics":{"total":15,"priproposer":0,"sponsor":0,"cosponsor":15},"diversity":{"":1.0},"bills_party_diversity":[{"party":"","ratio":1.0}]},"councilor":"79c4460916b84339af1313ad65c5a983"},{"url":"http://councils.g0v.tw/api/councilors_terms/3046/","election_year":"2014","name":"陳一惇","gender":"男","party":"中國國民黨","title":"議員","constituency":8,"county":"彰化縣","district":"芳苑鄉、二林鎮、大城鄉、竹塘鄉","in_office":true,"contact_details":[{"type":"voice","value":"04-8960706","label":"電話"},{"type":"cell","value":"0935-911745","label":"行動"},{"type":"fax","value":"04-8950685","label":"傳真"},{"type":"address","value":"彰化縣二林鎮南光里南安路420號","label":"地址"}],"term_start":"2014-12-25","term_end":{"date":"2018-12-25"},"education":"中州科技大學畢業\n二林工商\n二林國中\n中正國小","experience":"一、彰化縣議會第17屆議員。\n二、二林區拳擊協會理事長\n三、立法委員鄭汝芬二林區服務處主任。\n四、國民黨青年團分團長\n五、彰化縣體育會理事。\n六、彰化區漁會第10屆理事。\n七、台灣蔗農事件文化協會常務監事。\n八、大葉大學校友總會第8屆顧問。\n九、二林義消中隊顧問。\n十、黃金海岸社區聯合發展協會顧問。\n十一、救國團二林團委會會長。\n十二、二林鎮仁和宮顧問。","remark":null,"image":"http://www.chcc.gov.tw/df_ufiles/d/s_53%E9%99%B3%E4%B8%80%E6%83%87.jpg","links":[{"url":"http://www.chcc.gov.tw/member/details.aspx?Parser=99,6,40,,,,53","note":"議會個人官網"},{"url":"https://www.facebook.com/people/%E9%99%B3%E4%B8%80%E6%83%87/100000364294377","note":"個人臉書"}],"social_media":null,"platform":"一、關懷弱勢族群。\n二、落實縮短城鄉差距之政策。\n三、落實縣府與地方溝通之橋梁。\n四、極力爭取經費舉辦大型活動，如：二林儒林文化季、王功漁火節與農、漁特產品發表說明會，結合地方文化帶動二林四鄉鎮之觀光產業。\n五、配合融入社區發展之推動。\n六、配合地方所需之基層建設。\n七、爭取農、漁、畜牧業者之權益。\n八、爭取發揮農、漁村新風貌之特色。\n九、爭取協助新移民之教育、生活等問題。\n十、爭取多功能休閒、運動中心。","param":{"bills_role_statistics":{"total":16,"priproposer":1,"sponsor":1,"cosponsor":15},"bills_party_diversity":[{"party":"中國國民黨","ratio":0.6363636363636364},{"party":"無黨籍","ratio":0.24431818181818182},{"party":"民主進步黨","ratio":0.11931818181818182}]},"councilor":"79c4460916b84339af1313ad65c5a983"}],"uid":"79c4460916b84339af1313ad65c5a983","name":"陳一惇","birth":"1974-11-30","former_names":"","identifiers":["陳一惇"]},{"url":"http://councils.g0v.tw/api/councilors/1798/","each_terms":[{"url":"http://councils.g0v.tw/api/councilors_terms/3056/","election_year":"2014","name":"劉景滄","gender":"男","party":"無黨籍","title":"議員","constituency":6,"county":"彰化縣","district":"社頭鄉、田中鎮、二水鄉","in_office":true,"contact_details":[{"type":"voice","value":"04-8756103","label":"電話"},{"type":"cell","value":"0932-573640","label":"行動"},{"type":"fax","value":"04-8742986","label":"傳真"},{"type":"address","value":"彰化縣田中鎮中正路634號","label":"地址"}],"term_start":"2014-12-25","term_end":{"date":"2018-12-25"},"education":"國立員林家商畢業\n田中國中\n田中國小","experience":"一、彰化縣田中警察志工協進會創會理事長。\n二、彰化縣青工總會副總會長。\n三、彰化縣榮譽觀護人協進會秘書長。\n四、田中鎮後備憲兵聯絡中心創會總幹事、主任。\n五、社頭同濟會會長。\n六、田中青商會副會長。\n七、田中區義警中隊書記。","remark":null,"image":"http://www.chcc.gov.tw/df_ufiles/d/s_42%E5%8A%89%E6%99%AF%E6%BB%84.jpg","links":[{"url":"http://www.chcc.gov.tw/member/details.aspx?Parser=99,6,40,,,,42","note":"議會個人官網"},{"url":"https://www.facebook.com/profile.php?id=100004880701007&fref=ts","note":"個人臉書"}],"social_media":null,"platform":"　　一個稱職的縣議員其責任及權力，是在監督縣政更親民、更廉能，基層建設更進步、更繁榮，民眾的福祉更安全、更有保障。基於這個認知及訴求；景滄將以「理想、專業、熱忱」的態度，更堅持「清白參選、清廉從政」的理想抱負，主張應不分黨派理性嚴格監督縣政，充分反映基層需求，極力爭取地方建設及民眾福祉。特提出下列訴求：\n一、嚴格監督縣政，提高彰化縣政府及彰化縣議會的行政效率，落實照顧老人、婦孺及弱勢族群；加強傷殘之社會福利，照護貧困家庭及單親學童的生活與權益之保障。\n二、營造田中、社頭、二水三鄉鎮成為稻米、織襪、芭樂、白柚的故鄉之固有特色，促進地方產業再造，整體推動農業休閒觀光產業，創造商機及就業機會，為田中區帶來利潤共享。\n三、因應彰化高鐵站的設立，妥善規劃高鐵及台鐵聯外道路的聯絡交通網；建立便捷交通系統及美化生活空間，以帶動田中、社頭、二水三鄉鎮的經濟發展潛力。\n四、鼓勵並輔導田中區三鄉鎮各社區巡邏守望相助隊之成立，並整合後憲、義警、義消、義交及民防等民間交管團體；共同維護田中區三鄉鎮內的交通及治安，為民眾創造一個安全、舒適的生活環境。\n五、全力爭取地方基層建設，提昇教育、科學、文化的設備水準；廣泛推動藝文活動之舉辦，提昇民眾生活內涵及生活品質。\n六、深入基層，傾聽鄉親對地方的需求及建議，為民眾爭取最大的權益及福利。","param":{"bills_role_statistics":{"total":21,"priproposer":0,"sponsor":0,"cosponsor":21},"bills_party_diversity":[{"party":"中國國民黨","ratio":0.6024096385542169},{"party":"無黨籍","ratio":0.30522088353413657},{"party":"民主進步黨","ratio":0.09236947791164658}]},"councilor":"a0df7768a9df43cdbc3f9c988befb803"}],"uid":"a0df7768a9df43cdbc3f9c988befb803","name":"劉景滄","birth":"1970-02-25","former_names":"","identifiers":["劉景滄","劉景滄"]},{"url":"http://councils.g0v.tw/api/councilors/1799/","each_terms":[{"url":"http://councils.g0v.tw/api/councilors_terms/3057/","election_year":"2014","name":"蕭如意","gender":"男","party":"中國國民黨","title":"議員","constituency":6,"county":"彰化縣","district":"社頭鄉、田中鎮、二水鄉","in_office":true,"contact_details":[{"type":"voice","value":"04-8728899","label":"電話"},{"type":"cell","value":"0912-386398","label":"行動"},{"type":"fax","value":"04-8710569","label":"傳真"},{"type":"address","value":"彰化縣社頭鄉東興村2鄰忠孝一路99巷10號","label":"地址"}],"term_start":"2014-12-25","term_end":{"date":"2018-12-25"},"education":"省立永靖高工\n社頭國中\n社頭國小","experience":"一、彰化縣社頭鄉第 15、16 屆鄉長。\n二、彰化縣蕭氏宗親會第6 屆理事長。\n三、彰化縣社頭鄉民代表會第 17 屆代表會主席。\n四、彰化縣社頭鄉民代表會第 16 屆代表。\n五、彰化縣社頭鄉後備憲兵總幹事。\n六、舊社天門宮主任委員。","remark":null,"image":"http://www.chcc.gov.tw/df_ufiles/d/s_41%E8%95%AD%E5%A6%82%E6%84%8F.jpg","links":[{"url":"http://www.chcc.gov.tw/member/details.aspx?Parser=99,6,40,,,,41","note":"議會個人官網"}],"social_media":null,"platform":"一、監督縣政、為民造福。\n二、改善道路、區域排水及整治野溪，確保人民生命財產安全。\n三、加速推動高鐵彰化車站特定區開發計畫，創造就業機會，促進地方繁榮。\n四、推動田頭水觀光休閒及農特產，行銷地方產業。\n五、爭取中小學教育資源、建構優質教學環境。\n六、加強照顧老人、婦女、兒童及弱勢家庭。","param":{"bills_role_statistics":{"total":30,"priproposer":1,"sponsor":1,"cosponsor":29},"bills_party_diversity":[{"party":"中國國民黨","ratio":0.6219931271477663},{"party":"無黨籍","ratio":0.2920962199312715},{"party":"民主進步黨","ratio":0.0859106529209622}]},"councilor":"2647f835b79f462f9723bcf571c3e076"}],"uid":"2647f835b79f462f9723bcf571c3e076","name":"蕭如意","birth":"1955-06-10","former_names":"","identifiers":["蕭如意"]},{"url":"http://councils.g0v.tw/api/councilors/964/","each_terms":[{"url":"http://councils.g0v.tw/api/councilors_terms/1764/","election_year":"1961","name":"唐四明","gender":"","party":"","title":"議員","constituency":5,"county":"新北市","district":"汐止鎮、南港鎮、內湖鄉","in_office":true,"contact_details":null,"term_start":"1961-02-21","term_end":{"date":"1964-02-20"},"education":"師範學校畢業","experience":"公司董事長、經理等職\n臺北縣議會第5屆議員","remark":null,"image":"http://www.ntp.gov.tw/UpFile/CouncilorFile/TTCC0538.jpg","links":[{"url":"http://www.ntp.gov.tw/content/history/history01-5-p.aspx?sid=239","note":"議會個人官網"}],"social_media":null,"platform":"","param":null,"councilor":"ec8109c6b30e421dadf7d442ef8d09bc"}],"uid":"ec8109c6b30e421dadf7d442ef8d09bc","name":"唐四明","birth":null,"former_names":"","identifiers":["唐四明"]},{"url":"http://councils.g0v.tw/api/councilors/965/","each_terms":[{"url":"http://councils.g0v.tw/api/councilors_terms/1766/","election_year":"1961","name":"翁延平","gender":"","party":"","title":"議員","constituency":5,"county":"新北市","district":"汐止鎮、南港鎮、內湖鄉","in_office":true,"contact_details":null,"term_start":"1961-02-21","term_end":{"date":"1964-02-20"},"education":"高級會計專校畢業","experience":"法院書記官\n臺北縣議會第5屆議員","remark":null,"image":"http://www.ntp.gov.tw/UpFile/CouncilorFile/TTCC0537.jpg","links":[{"url":"http://www.ntp.gov.tw/content/history/history01-5-p.aspx?sid=238","note":"議會個人官網"}],"social_media":null,"platform":"","param":null,"councilor":"18a63e5e512b4fb18660c757ca61f1d8"}],"uid":"18a63e5e512b4fb18660c757ca61f1d8","name":"翁延平","birth":null,"former_names":"","identifiers":["翁延平"]},{"url":"http://councils.g0v.tw/api/councilors/1122/","each_terms":[{"url":"http://councils.g0v.tw/api/councilors_terms/2048/","election_year":"2009","name":"楊政誠","gender":"","party":"中國國民黨","title":"議員","constituency":8,"county":"宜蘭縣","district":"冬山","in_office":true,"contact_details":[{"type":"address","value":"冬山鄉冬山路5段359號7樓","label":"服務處所"},{"type":"voice","value":"9591629","label":"服務處所電話"}],"term_start":"2009-12-25","term_end":{"date":"2014-12-25"},"education":"國立中興大學法律系畢業","experience":"宜蘭縣議會第十七屆議員。\n一、宜蘭縣議會第9、10、11、12、13、14、15、16屆議員\n二、宜蘭縣政府財政處處長\n三、宜蘭縣體育會桌球委員會主任委員\n四、中華民國就業服務協會理事\n考試院關務暨稅務人員乙等特考及格\n財政部財稅人員訓練所法務班結業","remark":null,"image":"http://www.ilcc.gov.tw/pictures/people/A1724.JPG","links":[{"url":"http://www.ilcc.gov.tw/Html/H_05/H_0501.asp?GoOut=&pic=8&clique=KMT&User_id=A1724","note":"議會個人官網"}],"social_media":null,"platform":"政誠連任八屆縣議員，始終如一\n堅持理念：\n一、強力議員監督，使政府施政更有效率。\n二、全方位議會監督，使政治更加清明。\n堅持議員原則：\n一、專業專職是樹立議員典範\n二、服務社會是累積功德\n三、理想建設是向歷史交待。一切以民眾權益為先，以縣政建設為重。\n本次競選政見如下：\n一、請縣政府加速招商引資，增加就業。\n二、爭取普設監視系統，維護治安\n三、請縣政府加速執行八年八百億方案，整治冬山河系。\n四、爭取加速冬山河河域觀光景點開發。\n五、爭取加速開發冬山鄉清溝村九連埤、武淵村水火同源遊樂區\n六、促請縣政府儘速完成順安都市計劃第二次通盤檢討。\n七、羅東都市計劃群英保護區儘速檢討開發\n八、請政府加速完成眷村改建\n九、維護農魚、勞工、老人、婦幼、榮民、低收入戶、殘障之福利及權益\n十、繼續爭取遷建冬山鄉公所、戶政事務所、警察分駐所、消防隊成為冬山\n行政中心\n十一、建議政府加速完成蘭陽平原鐵路高架\n十二、爭取北宜直線鐵路興建","param":{"bills_role_statistics":{"total":115,"priproposer":67,"sponsor":69,"cosponsor":46},"diversity":{"中國國民黨":0.6127054977054975,"民主進步黨":0.2913639384227618,"無黨籍":0.09593056387174032},"bills_party_diversity":[{"party":"中國國民黨","ratio":0.5818965517241379},{"party":"民主進步黨","ratio":0.3125},{"party":"無黨籍","ratio":0.10560344827586207}]},"councilor":"c04387b13aef4463a59f05ceb23ae624"},{"url":"http://councils.g0v.tw/api/councilors_terms/11571/","election_year":"2014","name":"楊政誠","gender":"男","party":"中國國民黨","title":null,"constituency":8,"county":"宜蘭縣","district":"冬山","in_office":false,"contact_details":null,"term_start":"2014-12-25","term_end":{"date":"2016-08-13","judicial_links":"","reason":"病逝","ref":"","replacement":""},"education":null,"experience":null,"remark":null,"image":"","links":null,"social_media":null,"platform":"","param":{"attendance_statistics":{"absent":14,"total":167},"bills_role_statistics":{"total":58,"priproposer":15,"sponsor":15,"cosponsor":43},"bills_party_diversity":[{"party":"中國國民黨","ratio":0.4642233856893543},{"party":"民主進步黨","ratio":0.28970331588132636},{"party":"在野問政聯盟","ratio":0.13612565445026178},{"party":"無黨籍","ratio":0.1099476439790576}]},"councilor":"c04387b13aef4463a59f05ceb23ae624"}],"uid":"c04387b13aef4463a59f05ceb23ae624","name":"楊政誠","birth":null,"former_names":"","identifiers":["楊政誠"]}]}