{"count":1904,"next":"http://councils.g0v.tw/api/councilors/?page=149","previous":"http://councils.g0v.tw/api/councilors/?page=147","results":[{"url":"http://councils.g0v.tw/api/councilors/1124/","each_terms":[{"url":"http://councils.g0v.tw/api/councilors_terms/2050/","election_year":"2009","name":"邱素梅","gender":"","party":"無黨籍","title":"議員","constituency":8,"county":"宜蘭縣","district":"冬山","in_office":true,"contact_details":[{"type":"address","value":"冬山鄉美和路1段689巷99號","label":"服務處所"},{"type":"voice","value":"9589957","label":"服務處所電話"}],"term_start":"2009-12-25","term_end":{"date":"2014-12-25"},"education":"空中商專","experience":"宜蘭縣議會第十七屆議員。\n立委陳定南、陳金德助選員\n縣議員游祥德助選員\n順安國小家長會副會長\n鄉民代表江柏村助理\n宜蘭縣體育會西式划船委員會顧問\n宜蘭縣冬山鄉福林慈善協會總幹事\n邱素梅代書事務所負責人","remark":null,"image":"http://www.ilcc.gov.tw/pictures/people/A1726.JPG","links":[{"url":"http://www.ilcc.gov.tw/Html/H_05/H_0501.asp?GoOut=&pic=8&clique=&User_id=A1726","note":"議會個人官網"}],"social_media":null,"platform":"一、「愛心、細心」關懷校園教育，保障婦幼、殘障人士及老人福利\n二、督促地方自治條例，重視交通改善，還路於民\n三、監督基層建設進度，反映社區民眾心聲\n四、結合文化創意概念，推動休閒觀光產業","param":{"bills_role_statistics":{"total":158,"priproposer":10,"sponsor":11,"cosponsor":147},"diversity":{"中國國民黨":0.3712562023402795,"民主進步黨":0.380679340250655,"無黨籍":0.2480644574090655},"bills_party_diversity":[{"party":"民主進步黨","ratio":0.39619985925404644},{"party":"中國國民黨","ratio":0.38986629134412387},{"party":"無黨籍","ratio":0.2139338494018297}]},"councilor":"5b983af445254579984556580eb72abf"}],"uid":"5b983af445254579984556580eb72abf","name":"邱素梅","birth":null,"former_names":"","identifiers":["邱素梅"]},{"url":"http://councils.g0v.tw/api/councilors/1208/","each_terms":[{"url":"http://councils.g0v.tw/api/councilors_terms/2134/","election_year":"2009","name":"徐景文","gender":"","party":"","title":"議員","constituency":7,"county":"桃園縣","district":"中壢市","in_office":true,"contact_details":[{"type":"email","value":"tycca039@tycc.gov.tw","label":"EMAIL"},{"type":"address","value":"中壢市中央里六鄰中台路38號","label":"服務處"},{"type":"voice","value":"425-9001","label":"電話"},{"type":"fax","value":"425-8615","label":"傳真"}],"term_start":"2009-12-25","term_end":{"date":"2014-12-25"},"education":"觀音國小\n新街國小\n興南國中\n健行工專\n元智大學管研所碩士","experience":"民進黨全國黨代表（現任）\n民進黨中壢市黨部評議委員\n中壢青商會2000年會長\n崇友實業研發部主任","remark":null,"image":"http://www.tycc.gov.tw/file%5Cperson%5Capp%5Ca634641657353269888%E5%BE%90%E6%99%AF%E6%96%87%E8%AD%B0%E5%93%A1.jpg","links":[{"url":"http://www.tycc.gov.tw/page.aspx?wtp=1&wnd=204&id=65","note":"議會個人官網"},{"url":"http://www.facebook.com/profile.php?id=100000258577253&ref=ffa","note":"臉書"}],"social_media":null,"platform":"1. 監督警政勤務，改善社會治安\n2. 爭取國中、小學營養午餐補助，減輕家長負擔。\n3. 加速開發高鐵青埔站區，帶動中壢繁榮。\n4. 爭取地主權業，督促縣府以公有之非公用地，交換未徵收之私有既成道路，或公共設\n施保留地。","param":null,"councilor":"1c37778972fc428f9b177faab39c05bf"}],"uid":"1c37778972fc428f9b177faab39c05bf","name":"徐景文","birth":null,"former_names":"","identifiers":["徐景文"]},{"url":"http://councils.g0v.tw/api/councilors/1371/","each_terms":[{"url":"http://councils.g0v.tw/api/councilors_terms/2297/","election_year":"2009","name":"劉敬祥","gender":"男","party":"","title":"","constituency":1,"county":"嘉義縣","district":"太保市、水上鄉、鹿草鄉","in_office":true,"contact_details":[{"type":"phone","value":"05-2605052 ","label":"電話"},{"type":"address","value":"嘉義縣水上鄉柳鄉村柳子林１２３號 ","label":"通訊處"},{"type":"email","value":"","label":"電子信箱"}],"term_start":"2009-12-25","term_end":{"date":"2014-12-25"},"education":"東吳高工畢 ","experience":"(一)  嘉義縣議會第十六屆議員。\n(二)  嘉義縣防災協會理事長。\n(三)  水上鄉柳鄉村第十七屆村長。 ","remark":null,"image":"http://www.cyscc.gov.tw/template/DisplaySmallPicture.ashx?p=/Upload/Parliamentary/2/634462652302872220.bmp&w=145&h=170","links":[{"url":"http://www.cyscc.gov.tw/chinese/Parliamentary_Detail.aspx?s=2&n=29","note":"議會個人官網"}],"social_media":null,"platform":"(一)為民出力。\n(二)監督縣政。\n(三)加強弱勢扶助。\n(四)捍衛兒童婦女老人福利。\n(五)督促教育品質提昇。 ","param":{"suggestions_years":{"count":70,"sum":36684000,"years":[{"count":1,"sum":1050000,"suggest_year":"2011","small_purchase":0},{"count":19,"sum":10789000,"suggest_year":"2012","small_purchase":4},{"count":20,"sum":11847200,"suggest_year":"2013","small_purchase":6},{"count":30,"sum":12997800,"suggest_year":"2014","small_purchase":7}]},"diversity":{"":1.0},"bills_role_statistics":{"total":35,"priproposer":14,"sponsor":14,"cosponsor":21},"suggestions_associations":[{"count":0,"sum":0,"label":"社區發展協會"},{"count":0,"sum":0,"label":"學會"},{"count":0,"sum":0,"label":"商會"},{"count":0,"sum":0,"label":"公會"},{"count":0,"sum":0,"label":"協進會"},{"count":0,"sum":0,"label":"促進會"},{"count":0,"sum":0,"label":"研習會"},{"count":0,"sum":0,"label":"婦聯會"},{"count":0,"sum":0,"label":"婦女會"},{"count":0,"sum":0,"label":"體育會"},{"count":0,"sum":0,"label":"同心會"},{"count":0,"sum":0,"label":"農會"},{"count":0,"sum":0,"label":"早起會"},{"count":0,"sum":0,"label":"健身會"},{"count":0,"sum":0,"label":"宗親會"},{"count":0,"sum":0,"label":"功德會"},{"count":0,"sum":0,"label":"商業會"},{"count":0,"sum":0,"label":"長青會"},{"count":0,"sum":0,"label":"民眾服務社"},{"count":0,"sum":0,"label":"聯盟"}],"bills_party_diversity":[{"party":"","ratio":1.0}],"suggestions_piles":[{"count":5,"tokens":"廟|宮","sum":3460000,"label":"廟"},{"count":6,"tokens":"國中|國小","sum":3221200,"label":"國中、國小"},{"count":0,"tokens":"協會|學會|商會|公會|協進會|促進會|研習會|婦聯會|婦女會|體育會|同心會|農會|早起會|健身會|宗親會|功德會|商業會|長青會|民眾服務社|聯盟","sum":0,"label":"協會"},{"count":0,"tokens":"辦公室|辦公處","sum":0,"label":"辦公室"},{"count":0,"tokens":"警察局|分局","sum":0,"label":"警察局"},{"count":0,"tokens":"消防局|消防隊|分隊|中隊","sum":0,"label":"消防局"}]},"councilor":"bdc5f582e7344d7998f01eff282536f7"}],"uid":"bdc5f582e7344d7998f01eff282536f7","name":"劉敬祥","birth":null,"former_names":"","identifiers":["劉敬祥","劉敬祥"]},{"url":"http://councils.g0v.tw/api/councilors/1373/","each_terms":[{"url":"http://councils.g0v.tw/api/councilors_terms/2299/","election_year":"2009","name":"詹家甄","gender":"女","party":"","title":"","constituency":1,"county":"嘉義縣","district":"太保市、水上鄉、鹿草鄉","in_office":true,"contact_details":[{"type":"phone","value":"05-3755581 ","label":"電話"},{"type":"address","value":"嘉義縣鹿草鄉下麻村麻豆店8號 ","label":"通訊處"},{"type":"email","value":"","label":"電子信箱"}],"term_start":"2009-12-25","term_end":{"date":"2014-12-25"},"education":"(一)澳洲昆士蘭科技大學行銷碩士。 ","experience":"(一)嘉義縣議會第17屆議員。\n(二)立法院國會助理\n(三)德商公司經理。\n(四)吳鳳科技大學講師。\n ","remark":null,"image":"http://www.cyscc.gov.tw/template/DisplaySmallPicture.ashx?p=/Upload/Parliamentary/1/634462652176791247.bmp&w=145&h=170","links":[{"url":"http://www.cyscc.gov.tw/chinese/Parliamentary_Detail.aspx?s=1&n=29","note":"議會個人官網"}],"social_media":null,"platform":"詹家甄議員~年輕人的代言人~\n(一)把關人民口袋，縣府財政赤字，負債嚴重，避免其濫用經費，赤字持續惡化。\n(二)讓年輕人留在家(嘉)，持續督促鹿草馬稠後產業園區開發進度，提昇就業率。\n(三)維護婦幼權益，提案生育津貼提高至每胎至少六千元、國中小營養午餐免費。\n(四)維護教師權益，保障學童就學品質。\n(五)關懷弱勢團體，落實無障礙空間規劃，促使嘉義成為一個友善觀光農業大縣。\n ","param":{"bills_role_statistics":{"total":21,"priproposer":9,"sponsor":9,"cosponsor":12},"diversity":{"":1.0},"bills_party_diversity":[{"party":"","ratio":1.0}]},"councilor":"dd4a036681a54f0aa84b59f43585233a"}],"uid":"dd4a036681a54f0aa84b59f43585233a","name":"詹家甄","birth":null,"former_names":"","identifiers":["詹家甄"]},{"url":"http://councils.g0v.tw/api/councilors/1375/","each_terms":[{"url":"http://councils.g0v.tw/api/councilors_terms/2301/","election_year":"2009","name":"黃嘉寬","gender":"男","party":"","title":"","constituency":2,"county":"嘉義縣","district":"民雄鄉、新港鄉","in_office":true,"contact_details":[{"type":"phone","value":"05-2261111 ","label":"電話"},{"type":"address","value":"嘉義縣民雄鄉西安村民溪路28號 ","label":"通訊處"},{"type":"email","value":"","label":"電子信箱"}],"term_start":"2009-12-25","term_end":{"date":"2014-12-25"},"education":"(一)東榮國小畢業。\n(二)協同中學高中畢業。 ","experience":"(一)嘉義縣體育會理事長〈現任〉。\n(二)嘉義縣道安促進會理事長〈現任〉。\n(三)嘉義縣政府顧問〈現任〉。\n(四)嘉義縣義消總隊雙福分隊長〈現任〉。\n(五)民雄鄉東榮國小家長會長。\n(六)民雄國中家長會長。\n(七)民雄鄉鎮北村村長。\n(八)民雄鄉鄉民代表。\n(九)嘉義縣第１４、１５屆議員。\n(十)稻江科技暨管理學院肄業。 ","remark":null,"image":"http://www.cyscc.gov.tw/template/DisplaySmallPicture.ashx?p=/Upload/Parliamentary/18/634535105449663334.bmp&w=145&h=170","links":[{"url":"http://www.cyscc.gov.tw/chinese/Parliamentary_Detail.aspx?s=18&n=29","note":"議會個人官網"}],"social_media":null,"platform":" ","param":{"suggestions_years":{"count":42,"sum":34072900,"years":[{"count":4,"sum":4490000,"suggest_year":"2011","small_purchase":1},{"count":15,"sum":9849900,"suggest_year":"2012","small_purchase":0},{"count":12,"sum":12888000,"suggest_year":"2013","small_purchase":0},{"count":11,"sum":6845000,"suggest_year":"2014","small_purchase":0}]},"diversity":{"":1.0},"bills_role_statistics":{"total":16,"priproposer":9,"sponsor":9,"cosponsor":7},"suggestions_associations":[{"count":0,"sum":0,"label":"社區發展協會"},{"count":0,"sum":0,"label":"學會"},{"count":0,"sum":0,"label":"商會"},{"count":0,"sum":0,"label":"公會"},{"count":0,"sum":0,"label":"協進會"},{"count":0,"sum":0,"label":"促進會"},{"count":0,"sum":0,"label":"研習會"},{"count":0,"sum":0,"label":"婦聯會"},{"count":0,"sum":0,"label":"婦女會"},{"count":0,"sum":0,"label":"體育會"},{"count":0,"sum":0,"label":"同心會"},{"count":0,"sum":0,"label":"農會"},{"count":0,"sum":0,"label":"早起會"},{"count":0,"sum":0,"label":"健身會"},{"count":0,"sum":0,"label":"宗親會"},{"count":0,"sum":0,"label":"功德會"},{"count":0,"sum":0,"label":"商業會"},{"count":0,"sum":0,"label":"長青會"},{"count":0,"sum":0,"label":"民眾服務社"},{"count":0,"sum":0,"label":"聯盟"}],"bills_party_diversity":[{"party":"","ratio":1.0}],"suggestions_piles":[{"count":2,"tokens":"廟|宮","sum":2688000,"label":"廟"},{"count":0,"tokens":"協會|學會|商會|公會|協進會|促進會|研習會|婦聯會|婦女會|體育會|同心會|農會|早起會|健身會|宗親會|功德會|商業會|長青會|民眾服務社|聯盟","sum":0,"label":"協會"},{"count":0,"tokens":"辦公室|辦公處","sum":0,"label":"辦公室"},{"count":0,"tokens":"警察局|分局","sum":0,"label":"警察局"},{"count":0,"tokens":"消防局|消防隊|分隊|中隊","sum":0,"label":"消防局"},{"count":0,"tokens":"國中|國小","sum":0,"label":"國中、國小"}]},"councilor":"a36c5e1b0c924b97bea92b4a7f7ba6d1"}],"uid":"a36c5e1b0c924b97bea92b4a7f7ba6d1","name":"黃嘉寬","birth":null,"former_names":"","identifiers":["黄嘉寬","黃嘉寬"]},{"url":"http://councils.g0v.tw/api/councilors/1382/","each_terms":[{"url":"http://councils.g0v.tw/api/councilors_terms/2308/","election_year":"2009","name":"鄭俊亨","gender":"男","party":"中國國民黨","title":"","constituency":2,"county":"嘉義市","district":"西區","in_office":true,"contact_details":[{"type":"address","value":"嘉義市建成街65號","label":"通訊處"},{"type":"voice","value":"05-2855570　　","label":"電話"}],"term_start":"2009-12-25","term_end":{"date":"2014-12-25"},"education":"大同國小\n國立嘉工\n大同技術學院財稅科畢業。","experience":"嘉義市議會代理議長、副議長\n市議員六屆\n西區調解委員會主席，三屆\n中華羽球協會常務理事\n嘉義市羽球委員會主委\n嘉義家扶中心主委\n大同技術學院校友總會副理事長\n嘉義市文化基金會董事\n嘉義市建築投資公會及嘉義市蘭潭同濟會首席顧問\n嘉義市生命線協會、市政府馬上辦中心、文化局等志工資歷計50年","remark":null,"image":"http://www.cycc.gov.tw/files/b/%E9%84%AD%E4%BF%8A%E4%BA%A8%281%29.jpg","links":[{"url":"http://www.cycc.gov.tw/form1/index-2.asp?m=99&m1=4&m2=15&mode=2&id=17","note":"議會個人官網"}],"social_media":null,"platform":"1.督促政府崇尚法制建設和諧安寧的社會\n2.妥善支配各項預算落實地方各項建設\n3.全面檢討法令制度期能配合時代之進步與社會之繁榮充分發揮政府之功能\n4.提升政府效率引進企業化管理要求市府落實市民導向之服務觀念、數字化評估市政執行績效\n5.加速推動湖仔內及北港路兩側（世賢路以西）區段徵收促進地方發展\n6.重視勞工及攤販問題，定期召開座談會雙向溝通以解決生活環境及提升品質市容\n7.全心專業理性清廉為民服務作為政府與市民之橋樑，克盡言責作為政府之諍友","param":{"bills_role_statistics":{"total":29,"priproposer":6,"sponsor":6,"cosponsor":23},"suggestions_piles":[{"count":0,"tokens":"協會|學會|商會|公會|協進會|促進會|研習會|婦聯會|婦女會|體育會|同心會|農會|早起會|健身會|宗親會|功德會|商業會|長青會|民眾服務社|聯盟","sum":0,"label":"協會"},{"count":0,"tokens":"辦公室|辦公處","sum":0,"label":"辦公室"},{"count":0,"tokens":"廟|宮","sum":0,"label":"廟"},{"count":0,"tokens":"警察局|分局","sum":0,"label":"警察局"},{"count":0,"tokens":"消防局|消防隊|分隊|中隊","sum":0,"label":"消防局"},{"count":0,"tokens":"國中|國小","sum":0,"label":"國中、國小"}],"suggestions_associations":[{"count":0,"sum":0,"label":"社區發展協會"},{"count":0,"sum":0,"label":"學會"},{"count":0,"sum":0,"label":"商會"},{"count":0,"sum":0,"label":"公會"},{"count":0,"sum":0,"label":"協進會"},{"count":0,"sum":0,"label":"促進會"},{"count":0,"sum":0,"label":"研習會"},{"count":0,"sum":0,"label":"婦聯會"},{"count":0,"sum":0,"label":"婦女會"},{"count":0,"sum":0,"label":"體育會"},{"count":0,"sum":0,"label":"同心會"},{"count":0,"sum":0,"label":"農會"},{"count":0,"sum":0,"label":"早起會"},{"count":0,"sum":0,"label":"健身會"},{"count":0,"sum":0,"label":"宗親會"},{"count":0,"sum":0,"label":"功德會"},{"count":0,"sum":0,"label":"商業會"},{"count":0,"sum":0,"label":"長青會"},{"count":0,"sum":0,"label":"民眾服務社"},{"count":0,"sum":0,"label":"聯盟"}],"diversity":{"中國國民黨":0.35895151163913847,"民主進步黨":0.07196464792813678,"臺灣團結聯盟":0.01947503139186709,"無黨籍":0.5496088090408577},"suggestions_years":{"count":1,"sum":1149000,"years":[{"count":1,"sum":1149000,"suggest_year":"2012","small_purchase":0}]}},"councilor":"26e9aeaeb2ce4e1093c449d466128bb9"}],"uid":"26e9aeaeb2ce4e1093c449d466128bb9","name":"鄭俊亨","birth":null,"former_names":"","identifiers":["鄭俊亨"]},{"url":"http://councils.g0v.tw/api/councilors/1397/","each_terms":[{"url":"http://councils.g0v.tw/api/councilors_terms/2323/","election_year":"2009","name":"邱芳欽","gender":"男","party":"無黨籍","title":"","constituency":1,"county":"嘉義市","district":"東區","in_office":true,"contact_details":[{"type":"address","value":"嘉義市大雅路二段418號","label":"通訊處"},{"type":"voice","value":"05-2813636　　","label":"電話"}],"term_start":"2009-12-25","term_end":{"date":"2014-12-25"},"education":"嘉義市宣信國小\n玉山國中\n仁義高中畢業。","experience":"歷任桃城國際獅子會會長、興華中學家長會會長、嘉義市殘障服務協會顧問、湖內里上帝廟榮譽主任委員、財團法人天后宮管理委員會顧問、九天殿共義堂榮譽主任委員、嘉義市邱丘姓宗親會第十屆理事長、嘉義市議會第六屆議員，嘉義市議會第七屆副議長，現任嘉義市議會第八屆副議長。\n","remark":null,"image":"http://www.cycc.gov.tw/files/b/%E9%82%B1%E8%8A%B3%E6%AC%BD.jpg","links":[{"url":"http://www.cycc.gov.tw/form1/index-2.asp?m=99&m1=4&m2=15&mode=1&id=1","note":"議會個人官網"}],"social_media":null,"platform":"一、繼續秉持清廉問政風格，不收受任何禮物紅包，嚴以律己，為全體市民善盡民代職責\n二、嚴格為市民預算把關，妥善支配各項經費，當用則用，當省則省\n三、建議市府全面開闢八米以下預定道路，先舉債後回收，暢通全市道路\n並持續改善排水系統，注重溝渠暢通\n四、對於道路溝渠的挖掘修繕，嚴格執行品質的驗收和維護，居住和行的便利安全確保無虞\n五、社會福利妥善照顧弱勢和失業民眾，審查認定和發放，在時效上不得拖延\n六、國中小教科書、營養午餐，全數由政府補助，並隨時抽查品質，嚴格督促\n七、督促市府繼續開發休閒場所，加強原有休閒設施之維護，落實綠美化全市各角落，朝向最適合居住、消費、美麗城市的目標努力\n八、督促市府落實民眾權益申請、申訴之單一窗口，減少民眾往返奔波\n九、協助推動文化活動，加強文化資產的保存維護，增進本市文化氣息","param":{"bills_role_statistics":{"total":27,"priproposer":6,"sponsor":6,"cosponsor":21},"diversity":{"中國國民黨":0.33068783068783075,"民主進步黨":0.06410934744268076,"臺灣團結聯盟":0.017195767195767195,"無黨籍":0.5880070546737214}},"councilor":"5b67ff9db98a4e39860fae6a6545d814"}],"uid":"5b67ff9db98a4e39860fae6a6545d814","name":"邱芳欽","birth":null,"former_names":"","identifiers":["邱芳欽"]},{"url":"http://councils.g0v.tw/api/councilors/1399/","each_terms":[{"url":"http://councils.g0v.tw/api/councilors_terms/2325/","election_year":"2009","name":"林哲凌","gender":"","party":"民主進步黨","title":"","constituency":6,"county":"雲林縣","district":"北港鎮、水林鄉、口湖鄉","in_office":true,"contact_details":[{"type":"voice","lines[i]":"電話","value":"05-7895889"},{"type":"fax","lines[i]":"傳真","value":"05-7894810"},{"type":"address","lines[i]":"通訊處","value":"口湖鄉湖東村中正路1段197號"},{"type":"email","lines[i]":"電子信箱","value":"jerry.lin1963@gmail.com"}],"term_start":"2009-12-25","term_end":{"date":"2014-12-25"},"education":"口湖國小、輔仁中學、國立台北工專。","experience":"民進黨雲林縣黨部第八屆執行委員、2001年參選口湖鄉長、雲林縣水林造福愛心慈善會理事長、民進黨第十三屆全國黨代表、第十六屆雲林縣議員。","remark":null,"image":"http://www.ylcc.gov.tw/images/6-1.jpg","links":[{"url":"http://www.ylcc.gov.tw/index.php?inner=member_precinct6","note":"議會個人官網"}],"social_media":null,"platform":"","param":{"bills_role_statistics":{"total":2,"priproposer":1,"sponsor":2,"cosponsor":0},"suggestions_piles":[{"count":5,"tokens":"國中|國小","sum":700000,"label":"國中、國小"},{"count":1,"tokens":"廟|宮","sum":500000,"label":"廟"},{"count":0,"tokens":"協會|學會|商會|公會|協進會|促進會|研習會|婦聯會|婦女會|體育會|同心會|農會|早起會|健身會|宗親會|功德會|商業會|長青會|民眾服務社|聯盟","sum":0,"label":"協會"},{"count":0,"tokens":"辦公室|辦公處","sum":0,"label":"辦公室"},{"count":0,"tokens":"警察局|分局","sum":0,"label":"警察局"},{"count":0,"tokens":"消防局|消防隊|分隊|中隊","sum":0,"label":"消防局"}],"suggestions_associations":[{"count":0,"sum":0,"label":"社區發展協會"},{"count":0,"sum":0,"label":"學會"},{"count":0,"sum":0,"label":"商會"},{"count":0,"sum":0,"label":"公會"},{"count":0,"sum":0,"label":"協進會"},{"count":0,"sum":0,"label":"促進會"},{"count":0,"sum":0,"label":"研習會"},{"count":0,"sum":0,"label":"婦聯會"},{"count":0,"sum":0,"label":"婦女會"},{"count":0,"sum":0,"label":"體育會"},{"count":0,"sum":0,"label":"同心會"},{"count":0,"sum":0,"label":"農會"},{"count":0,"sum":0,"label":"早起會"},{"count":0,"sum":0,"label":"健身會"},{"count":0,"sum":0,"label":"宗親會"},{"count":0,"sum":0,"label":"功德會"},{"count":0,"sum":0,"label":"商業會"},{"count":0,"sum":0,"label":"長青會"},{"count":0,"sum":0,"label":"民眾服務社"},{"count":0,"sum":0,"label":"聯盟"}],"diversity":{"":0.125,"中國國民黨":0.0,"民主進步黨":0.875,"臺灣團結聯盟":0.0,"無黨籍":0.0},"suggestions_years":{"count":6,"sum":1200000,"years":[{"count":2,"sum":700000,"suggest_year":"2012","small_purchase":0},{"count":4,"sum":500000,"suggest_year":"2014","small_purchase":3}]}},"councilor":"23512854ecb2499db9f3338906784035"},{"url":"http://councils.g0v.tw/api/councilors_terms/12207/","election_year":"2014","name":"林哲凌","gender":"男","party":"民主進步黨","title":null,"constituency":6,"county":"雲林縣","district":"北港鎮、水林鄉、口湖鄉","in_office":false,"contact_details":null,"term_start":"2014-12-25","term_end":{"date":"2016-09-11","judicial_links":"","reason":"請辭，就任鄉長","ref":"","replacement":""},"education":null,"experience":null,"remark":null,"image":"","links":null,"social_media":null,"platform":"","param":{"bills_role_statistics":{"total":4,"priproposer":1,"sponsor":1,"cosponsor":3},"suggestions_years":{"count":9,"sum":1094500,"years":[{"count":5,"sum":598000,"suggest_year":"2015","small_purchase":2},{"count":4,"sum":496500,"suggest_year":"2016","small_purchase":3}]},"suggestions_associations":[{"count":0,"sum":0,"label":"社區發展協會"},{"count":0,"sum":0,"label":"學會"},{"count":0,"sum":0,"label":"商會"},{"count":0,"sum":0,"label":"公會"},{"count":0,"sum":0,"label":"協進會"},{"count":0,"sum":0,"label":"促進會"},{"count":0,"sum":0,"label":"研習會"},{"count":0,"sum":0,"label":"婦聯會"},{"count":0,"sum":0,"label":"婦女會"},{"count":0,"sum":0,"label":"體育會"},{"count":0,"sum":0,"label":"同心會"},{"count":0,"sum":0,"label":"農會"},{"count":0,"sum":0,"label":"早起會"},{"count":0,"sum":0,"label":"健身會"},{"count":0,"sum":0,"label":"宗親會"},{"count":0,"sum":0,"label":"功德會"},{"count":0,"sum":0,"label":"商業會"},{"count":0,"sum":0,"label":"長青會"},{"count":0,"sum":0,"label":"民眾服務社"},{"count":0,"sum":0,"label":"聯盟"}],"suggestions_piles":[{"count":8,"tokens":"國中|國小","sum":997000,"label":"國中、國小"},{"count":0,"tokens":"協會|學會|商會|公會|協進會|促進會|研習會|婦聯會|婦女會|體育會|同心會|農會|早起會|健身會|宗親會|功德會|商業會|長青會|民眾服務社|聯盟","sum":0,"label":"協會"},{"count":0,"tokens":"辦公室|辦公處","sum":0,"label":"辦公室"},{"count":0,"tokens":"廟|宮","sum":0,"label":"廟"},{"count":0,"tokens":"警察局|分局","sum":0,"label":"警察局"},{"count":0,"tokens":"消防局|消防隊|分隊|中隊","sum":0,"label":"消防局"}],"bills_party_diversity":[{"party":"無黨籍","ratio":0.463768115942029},{"party":"民主進步黨","ratio":0.391304347826087},{"party":"中國國民黨","ratio":0.13043478260869565},{"party":"臺灣團結聯盟","ratio":0.014492753623188406}]},"councilor":"23512854ecb2499db9f3338906784035"}],"uid":"23512854ecb2499db9f3338906784035","name":"林哲凌","birth":null,"former_names":"","identifiers":["林哲凌","林哲凌"]},{"url":"http://councils.g0v.tw/api/councilors/1508/","each_terms":[{"url":"http://councils.g0v.tw/api/councilors_terms/3445/","election_year":"2014","name":"劉水復","gender":"男","party":"無黨籍","title":"議員","constituency":4,"county":"屏東縣","district":"萬丹鄉、新園鄉、東港鎮","in_office":true,"contact_details":[{"type":"voice","value":"08-8350643","label":"電話"},{"type":"address","value":"屏東縣新園鄉共和村公正路117巷15號","label":"聯絡處"}],"term_start":"2014-12-25","term_end":{"date":"2018-12-25"},"education":null,"experience":null,"remark":null,"image":"http://www.ptcc.gov.tw/upload/upimage/fdd4db1e-8cda-3045-feae-806a4db9baab-S.jpg","links":[{"url":"http://www.ptcc.gov.tw/?Page=PersionalDetail&Guid=fdd4db1e-8cda-3045-feae-806a4db9baab","note":"議會個人官網"}],"social_media":null,"platform":"小檔案\n出生：1956年\n經歷：屏東縣議會第13、14、15、16、17屆議員\n屏東縣議會第17屆副議長\n新園鄉民代表會第12、13、14屆代表\n劉議員是本會連五屆的資深議員，終年短褲、POLO衫是他獨有的裝扮，被視為最容易與人打成一片的親民表徵，可以很麻吉的民意代表，所以本屆六連霸成功是意料中之事。\n劉議員總以「民眾的小事就是自己的大事」自我期許，屏東縣是農業縣，縣民平均收入不如大都會，所以這幾年的經濟不景氣、物價飛漲、就業機會不多等，縣民感受最深，即便只是「柴米油鹽醬醋茶」簡單的開門七件事，都是重要的民生問題。所以積極招商，創造就業機會應是縣政府當務之急。\n本屆劉議員問政的目標：\n一、堅持專業、效率、全方位的服務。\n二、協助農漁民爭取經費補助，設立農漁產品集散中心，增加農漁民收入。\n三、兩性平權，提高婦女就業機會。\n四、建議縣府落實兒童與青少年生活輔導與教育，照顧弱勢族群。\n五、爭取老人福利，讓長輩們擁有健康安全的生活環境。\n六、督促政府辦理「新移民」融入教育。","param":{"suggestions_years":{"count":240,"sum":11276000,"years":[{"count":118,"sum":5472000,"suggest_year":"2015","small_purchase":114},{"count":122,"sum":5804000,"suggest_year":"2016","small_purchase":119}]},"suggestions_associations":[{"count":30,"sum":848000,"label":"社區發展協會"},{"count":12,"sum":240000,"label":"協進會"},{"count":7,"sum":230000,"label":"農會"},{"count":5,"sum":120000,"label":"體育會"},{"count":3,"sum":60000,"label":"促進會"},{"count":2,"sum":40000,"label":"研習會"},{"count":1,"sum":20000,"label":"婦女會"},{"count":0,"sum":0,"label":"學會"},{"count":0,"sum":0,"label":"商會"},{"count":0,"sum":0,"label":"公會"},{"count":0,"sum":0,"label":"婦聯會"},{"count":0,"sum":0,"label":"同心會"},{"count":0,"sum":0,"label":"早起會"},{"count":0,"sum":0,"label":"健身會"},{"count":0,"sum":0,"label":"宗親會"},{"count":0,"sum":0,"label":"功德會"},{"count":0,"sum":0,"label":"商業會"},{"count":0,"sum":0,"label":"長青會"},{"count":0,"sum":0,"label":"民眾服務社"},{"count":0,"sum":0,"label":"聯盟"}],"suggestions_piles":[{"count":136,"tokens":"協會|學會|商會|公會|協進會|促進會|研習會|婦聯會|婦女會|體育會|同心會|農會|早起會|健身會|宗親會|功德會|商業會|長青會|民眾服務社|聯盟","sum":3947000,"label":"協會"},{"count":21,"tokens":"廟|宮","sum":1095000,"label":"廟"},{"count":9,"tokens":"警察局|分局","sum":554000,"label":"警察局"},{"count":20,"tokens":"國中|國小","sum":415000,"label":"國中、國小"},{"count":9,"tokens":"消防局|消防隊|分隊|中隊","sum":200000,"label":"消防局"},{"count":0,"tokens":"辦公室|辦公處","sum":0,"label":"辦公室"}],"bills_party_diversity":null},"councilor":"0172577ab5784fc19b56ab2c1cec58a5"},{"url":"http://councils.g0v.tw/api/councilors_terms/2434/","election_year":"2009","name":"劉水復","gender":"男","party":"無黨籍","title":"","constituency":4,"county":"屏東縣","district":"萬丹鄉、新園鄉、東港鎮","in_office":true,"contact_details":[{"type":"address","value":"屏東縣新園鄉93248共和村公正路117巷15號","label":"通訊處"},{"type":"voice","value":"08-8350643","label":"電話"}],"term_start":"2009-12-25","term_end":{"date":"2014-12-25"},"education":null,"experience":null,"remark":null,"image":"http://www.ptcc.gov.tw/upload/upimage/926580bf-6716-7306-1606-4083110da13c-S.jpg","links":[{"url":"http://www.ptcc.gov.tw/?Page=PersionalDetail&Guid=1d6f0efe-1cc0-858b-50e8-696921c6ad3d","note":"議會個人官網"}],"social_media":null,"platform":"一、爭取高雄捷區延伸新園、東港。\n二、有效落實教及化、關懷弱勢族群教育。\n三、爭取自來水全面普及設立。\n四、督促政府加強河川整治。\n五、結合各社區發展協會特色,使萬丹、新園、東港地區網路更密集。\n六、促進產業升級化、建立萬丹、新園、東港共同生活圈，提昇三地共榮的居住品質。","param":{"suggestions_years":{"count":761,"sum":53067500,"years":[{"count":220,"sum":11356000,"suggest_year":"2011","small_purchase":210},{"count":183,"sum":11338000,"suggest_year":"2012","small_purchase":174},{"count":159,"sum":18147500,"suggest_year":"2013","small_purchase":150},{"count":199,"sum":12226000,"suggest_year":"2014","small_purchase":190}]},"suggestions_associations":[{"count":100,"sum":2292000,"label":"社區發展協會"},{"count":48,"sum":1345000,"label":"農會"},{"count":18,"sum":605000,"label":"體育會"},{"count":22,"sum":550000,"label":"協進會"},{"count":12,"sum":340000,"label":"促進會"},{"count":6,"sum":143000,"label":"婦女會"},{"count":3,"sum":110000,"label":"公會"},{"count":4,"sum":80000,"label":"研習會"},{"count":2,"sum":40000,"label":"民眾服務社"},{"count":2,"sum":40000,"label":"聯盟"},{"count":1,"sum":20000,"label":"宗親會"},{"count":1,"sum":20000,"label":"功德會"},{"count":0,"sum":0,"label":"學會"},{"count":0,"sum":0,"label":"商會"},{"count":0,"sum":0,"label":"婦聯會"},{"count":0,"sum":0,"label":"同心會"},{"count":0,"sum":0,"label":"早起會"},{"count":0,"sum":0,"label":"健身會"},{"count":0,"sum":0,"label":"商業會"},{"count":0,"sum":0,"label":"長青會"}],"suggestions_piles":[{"count":418,"tokens":"協會|學會|商會|公會|協進會|促進會|研習會|婦聯會|婦女會|體育會|同心會|農會|早起會|健身會|宗親會|功德會|商業會|長青會|民眾服務社|聯盟","sum":11798000,"label":"協會"},{"count":56,"tokens":"廟|宮","sum":3288000,"label":"廟"},{"count":54,"tokens":"國中|國小","sum":2106000,"label":"國中、國小"},{"count":17,"tokens":"警察局|分局","sum":1263000,"label":"警察局"},{"count":33,"tokens":"消防局|消防隊|分隊|中隊","sum":735000,"label":"消防局"},{"count":0,"tokens":"辦公室|辦公處","sum":0,"label":"辦公室"}]},"councilor":"0172577ab5784fc19b56ab2c1cec58a5"}],"uid":"0172577ab5784fc19b56ab2c1cec58a5","name":"劉水復","birth":null,"former_names":"","identifiers":["劉水復","劉水復"]},{"url":"http://councils.g0v.tw/api/councilors/1511/","each_terms":[{"url":"http://councils.g0v.tw/api/councilors_terms/2437/","election_year":"2009","name":"鄭寶川","gender":"男","party":"無黨籍","title":"","constituency":4,"county":"屏東縣","district":"萬丹鄉、新園鄉、東港鎮","in_office":true,"contact_details":[{"type":"address","value":"屏東縣萬丹鄉92844寶厝村中興路2段599號","label":"通訊處"},{"type":"voice","value":"08-7776578","label":"電話"}],"term_start":"2009-12-25","term_end":{"date":"2014-12-25"},"education":null,"experience":null,"remark":null,"image":"http://www.ptcc.gov.tw/upload/upimage/456f6284-f68c-6a6a-8f80-2387f684e265-S.jpg","links":[{"url":"http://www.ptcc.gov.tw/?Page=PersionalDetail&Guid=19b5fb0e-e03b-e01b-73b4-9f171c941a69","note":"議會個人官網"}],"social_media":null,"platform":"一、爭取補助早日完成鄉鎮區域性排水系統，解決鄉民淹水之苦。\n二、爭取補助早日完成萬丹鄉全面供應自來水。\n三、爭取補助鄉鎮區域性公立老人安養中心。\n四、爭取補助興建區域性公立幼稚園。\n五、爭取補助青少年運動休閒場所。\n六、爭取補助保障農漁產品價格，改善農漁村生活。","param":{"suggestions_years":{"count":327,"sum":40318000,"years":[{"count":82,"sum":4072000,"suggest_year":"2011","small_purchase":78},{"count":84,"sum":5179000,"suggest_year":"2012","small_purchase":80},{"count":70,"sum":4865000,"suggest_year":"2013","small_purchase":66},{"count":91,"sum":26202000,"suggest_year":"2014","small_purchase":85}]},"suggestions_associations":[{"count":78,"sum":1778000,"label":"社區發展協會"},{"count":6,"sum":1480000,"label":"農會"},{"count":7,"sum":219000,"label":"學會"},{"count":3,"sum":138000,"label":"體育會"},{"count":5,"sum":130000,"label":"促進會"},{"count":2,"sum":40000,"label":"研習會"},{"count":2,"sum":40000,"label":"民眾服務社"},{"count":1,"sum":20000,"label":"協進會"},{"count":0,"sum":0,"label":"商會"},{"count":0,"sum":0,"label":"公會"},{"count":0,"sum":0,"label":"婦聯會"},{"count":0,"sum":0,"label":"婦女會"},{"count":0,"sum":0,"label":"同心會"},{"count":0,"sum":0,"label":"早起會"},{"count":0,"sum":0,"label":"健身會"},{"count":0,"sum":0,"label":"宗親會"},{"count":0,"sum":0,"label":"功德會"},{"count":0,"sum":0,"label":"商業會"},{"count":0,"sum":0,"label":"長青會"},{"count":0,"sum":0,"label":"聯盟"}],"suggestions_piles":[{"count":42,"tokens":"國中|國小","sum":22737000,"label":"國中、國小"},{"count":185,"tokens":"協會|學會|商會|公會|協進會|促進會|研習會|婦聯會|婦女會|體育會|同心會|農會|早起會|健身會|宗親會|功德會|商業會|長青會|民眾服務社|聯盟","sum":6556000,"label":"協會"},{"count":12,"tokens":"廟|宮","sum":2150000,"label":"廟"},{"count":9,"tokens":"消防局|消防隊|分隊|中隊","sum":366000,"label":"消防局"},{"count":8,"tokens":"警察局|分局","sum":311000,"label":"警察局"},{"count":0,"tokens":"辦公室|辦公處","sum":0,"label":"辦公室"}]},"councilor":"6e476d54c9d741cebcf91a26ac0a3f6e"},{"url":"http://councils.g0v.tw/api/councilors_terms/3446/","election_year":"2014","name":"鄭寶川","gender":"男","party":"無黨籍","title":"議員","constituency":4,"county":"屏東縣","district":"萬丹鄉、新園鄉、東港鎮","in_office":true,"contact_details":[{"type":"voice","value":"08-7776578","label":"電話"},{"type":"address","value":"屏東縣萬丹鄉寶厝村中興路2段599號","label":"聯絡處"}],"term_start":"2014-12-25","term_end":{"date":"2018-12-25"},"education":null,"experience":null,"remark":null,"image":"http://www.ptcc.gov.tw/upload/upimage/642a7c8e-b232-d93a-3993-fd3573655602-S.jpg","links":[{"url":"http://www.ptcc.gov.tw/?Page=PersionalDetail&Guid=642a7c8e-b232-d93a-3993-fd3573655602","note":"議會個人官網"}],"social_media":null,"platform":"小檔案\n出生：1951年\n經歷：屏東縣議會第14、15、17屆議員\n鄭議員是本會資深議員，雖然之中曾中斷四年，但並未與基層脫節，重新接上資歷後，本屆再連任成功，看得出鄭議員堅毅的個性，以「做就對了」期勉自己勇於向前的話。\n歷經幾次颱風的侵襲，暴露縣內許多鄉鎮的道路基礎不良、排水系統的通水斷面不足及河床疏浚工作不確實。未來，縣政府應更嚴格監督道路與排水系統的工程品質，更注意防洪設計，平時河床的疏浚工作也要落實，才能在大雨來時，發揮疏洪效果，降低颱風可能造成的損失，確保縣民在每一次的風雨災來臨時，不必擔心受怕。\n本屆鄭議員問政的目標：\n一、爭取補助整修鄉鎮村里道路排水系統，確保生活品質。\n二、爭取補助興建鄉鎮區域性公立老人安養中心和公立幼稚園。\n三、爭取補助照顧弱勢家庭和外籍配偶。\n四、爭取補助興建青少年運動休閒場所。\n五、爭取補助保障農漁產品價格，改善農漁村生活。\n六、爭取補助早日完成萬丹鄉設立完全高中。","param":{"suggestions_years":{"count":191,"sum":11423000,"years":[{"count":102,"sum":5829000,"suggest_year":"2015","small_purchase":97},{"count":89,"sum":5594000,"suggest_year":"2016","small_purchase":84}]},"suggestions_associations":[{"count":45,"sum":1197000,"label":"社區發展協會"},{"count":3,"sum":535000,"label":"農會"},{"count":3,"sum":214000,"label":"學會"},{"count":3,"sum":60000,"label":"促進會"},{"count":0,"sum":0,"label":"商會"},{"count":0,"sum":0,"label":"公會"},{"count":0,"sum":0,"label":"協進會"},{"count":0,"sum":0,"label":"研習會"},{"count":0,"sum":0,"label":"婦聯會"},{"count":0,"sum":0,"label":"婦女會"},{"count":0,"sum":0,"label":"體育會"},{"count":0,"sum":0,"label":"同心會"},{"count":0,"sum":0,"label":"早起會"},{"count":0,"sum":0,"label":"健身會"},{"count":0,"sum":0,"label":"宗親會"},{"count":0,"sum":0,"label":"功德會"},{"count":0,"sum":0,"label":"商業會"},{"count":0,"sum":0,"label":"長青會"},{"count":0,"sum":0,"label":"民眾服務社"},{"count":0,"sum":0,"label":"聯盟"}],"suggestions_piles":[{"count":114,"tokens":"協會|學會|商會|公會|協進會|促進會|研習會|婦聯會|婦女會|體育會|同心會|農會|早起會|健身會|宗親會|功德會|商業會|長青會|民眾服務社|聯盟","sum":3665000,"label":"協會"},{"count":12,"tokens":"國中|國小","sum":545000,"label":"國中、國小"},{"count":6,"tokens":"消防局|消防隊|分隊|中隊","sum":309000,"label":"消防局"},{"count":4,"tokens":"警察局|分局","sum":183000,"label":"警察局"},{"count":5,"tokens":"廟|宮","sum":178000,"label":"廟"},{"count":1,"tokens":"辦公室|辦公處","sum":98000,"label":"辦公室"}],"bills_party_diversity":null},"councilor":"6e476d54c9d741cebcf91a26ac0a3f6e"}],"uid":"6e476d54c9d741cebcf91a26ac0a3f6e","name":"鄭寶川","birth":null,"former_names":"","identifiers":["鄭寳川","鄭寶川"]}]}