{"count":1904,"next":"http://councils.g0v.tw/api/councilors/?page=16","previous":"http://councils.g0v.tw/api/councilors/?page=14","results":[{"url":"http://councils.g0v.tw/api/councilors/247/","each_terms":[{"url":"http://councils.g0v.tw/api/councilors_terms/482/","election_year":"1981","name":"林鴻基","gender":"男","party":"中國國民黨","title":"議員","constituency":null,"county":"臺北市","district":"","in_office":true,"contact_details":null,"term_start":"1981-12-25","term_end":{"date":"1985-12-25"},"education":"開南商工高級部畢業、國立政治大學成本會計班結業、戰地黨務幹訓班結業。","experience":"臺北市會計學會理事、內湖國中家長會會長、指南客運公司協理、內湖區排球委員會主任委員、西北獅子會財委會召集人。","remark":"","image":"http://www.tcc.gov.tw/../upload/photo/%E6%9E%97%E9%B4%BB%E5%9F%BA12.jpg","links":[{"url":"http://www.tcc.gov.tw/Councilor_Content_All.aspx?s=2150&d=371204&n=%E6%9E%97%E9%B4%BB%E5%9F%BA","note":"議會個人官網"}],"social_media":null,"platform":"","param":null,"councilor":"0ca01f49a7454543adc4adbfb501d059"}],"uid":"0ca01f49a7454543adc4adbfb501d059","name":"林鴻基","birth":"1937-12-04","former_names":"","identifiers":["林鴻基","林鴻基"]},{"url":"http://councils.g0v.tw/api/councilors/248/","each_terms":[{"url":"http://councils.g0v.tw/api/councilors_terms/533/","election_year":"1977","name":"林利錟","gender":"男","party":"中國國民黨","title":"議員","constituency":null,"county":"臺北市","district":"","in_office":true,"contact_details":null,"term_start":"1977-12-25","term_end":{"date":"1981-12-25"},"education":"中央警官學校正科十八期畢業、政治作戰學校第一期畢業、香港廣僑學院經濟系畢業。","experience":"中央黨部幹事、中學教員。","remark":"","image":"http://www.tcc.gov.tw/../upload/photo/%E6%9E%97%E5%88%A9%E9%8C%9F11.jpg","links":[{"url":"http://www.tcc.gov.tw/Councilor_Content_All.aspx?s=2210&d=261019&n=%E6%9E%97%E5%88%A9%E9%8C%9F","note":"議會個人官網"}],"social_media":null,"platform":"","param":null,"councilor":"0d24f69217444f08b3a69745e44e811b"},{"url":"http://councils.g0v.tw/api/councilors_terms/629/","election_year":"1969","name":"林利錟","gender":"男","party":"中國國民黨","title":"議員","constituency":null,"county":"臺北市","district":"","in_office":true,"contact_details":null,"term_start":"1969-12-25","term_end":{"date":"1973-12-25"},"education":"中央警官學校正科十八期、政工幹校一期","experience":"教員、科員、組員。","remark":"","image":"http://www.tcc.gov.tw/../upload/photo/%E6%9E%97%E5%88%A9%E9%8C%9F09.jpg","links":[{"url":"http://www.tcc.gov.tw/Councilor_Content_All.aspx?s=1609&d=261019&n=%E6%9E%97%E5%88%A9%E9%8C%9F","note":"議會個人官網"}],"social_media":null,"platform":"","param":null,"councilor":"0d24f69217444f08b3a69745e44e811b"},{"url":"http://councils.g0v.tw/api/councilors_terms/582/","election_year":"1973","name":"林利錟","gender":"男","party":"中國國民黨","title":"議員","constituency":null,"county":"臺北市","district":"","in_office":true,"contact_details":null,"term_start":"1973-12-25","term_end":{"date":"1977-12-25"},"education":"政工幹部學校第一期畢業、香港廣僑學院經濟系畢業。","experience":"彰化中學教員、臺北市第一屆議會議員。","remark":"","image":"http://www.tcc.gov.tw/../upload/photo/%E6%9E%97%E5%88%A9%E9%8C%9F10.jpg","links":[{"url":"http://www.tcc.gov.tw/Councilor_Content_All.aspx?s=2225&d=261019&n=%E6%9E%97%E5%88%A9%E9%8C%9F","note":"議會個人官網"}],"social_media":null,"platform":"","param":null,"councilor":"0d24f69217444f08b3a69745e44e811b"},{"url":"http://councils.g0v.tw/api/councilors_terms/485/","election_year":"1981","name":"林利錟","gender":"男","party":"中國國民黨","title":"議員","constituency":null,"county":"臺北市","district":"","in_office":true,"contact_details":null,"term_start":"1981-12-25","term_end":{"date":"1985-12-25"},"education":"中央警官學校正科十八期畢業、政治作戰學校第一期畢業、香港廣僑學院經濟系畢業。","experience":"中央黨部幹事、臺北市直轄市議會第一、二、三屆議員、臺北市黨部候補委員、市議會黨團書記、彰化中學教師、文化大學兼課、伊利、仁廉企業公司董事長。","remark":"","image":"http://www.tcc.gov.tw/../upload/photo/%E6%9E%97%E5%88%A9%E9%8C%9F12.jpg","links":[{"url":"http://www.tcc.gov.tw/Councilor_Content_All.aspx?s=2149&d=261019&n=%E6%9E%97%E5%88%A9%E9%8C%9F","note":"議會個人官網"}],"social_media":null,"platform":"","param":null,"councilor":"0d24f69217444f08b3a69745e44e811b"}],"uid":"0d24f69217444f08b3a69745e44e811b","name":"林利錟","birth":"1926-10-19","former_names":"","identifiers":["林利錟","林利錟"]},{"url":"http://councils.g0v.tw/api/councilors/497/","each_terms":[{"url":"http://councils.g0v.tw/api/councilors_terms/843/","election_year":"1973","name":"謝隆盛","gender":"","party":"","title":"議員","constituency":4,"county":"新北市","district":"三重市","in_office":true,"contact_details":null,"term_start":"1973-05-01","term_end":{"date":"1977-12-29"},"education":"大同工學院\n美國太平洋學院經濟學博士","experience":"第2屆國大代表\n大同公司秘書\n三重市民代表\n東海中學教師\n空軍運輸官\n臺北縣田徑委員會主任委員\n宏國建設公司經理\n四海工專董事長\n國民大會代表主席團主席\n四海工專校長\n中國國民黨中央委員會組織工作會副主任\n臺灣省教育會理事長\n臺北縣議會第8、9屆議員\n*民國95年11月歿","remark":null,"image":"http://www.ntp.gov.tw/UpFile/CouncilorFile/TTCC0830.jpg","links":[{"url":"http://www.ntp.gov.tw/content/history/history01-5-p.aspx?sid=311","note":"議會個人官網"}],"social_media":null,"platform":"","param":null,"councilor":"c6ff54ac1739405098763e176706e55a"},{"url":"http://councils.g0v.tw/api/councilors_terms/934/","election_year":"1977","name":"謝隆盛","gender":"","party":"","title":"議員","constituency":3,"county":"新北市","district":"三重市、新莊鎮、泰山鄉、五股鄉、蘆洲鄉、林口鄉","in_office":true,"contact_details":null,"term_start":"1977-12-30","term_end":{"date":"1982-02-28"},"education":"大同工學院\n美國太平洋學院經濟學博士","experience":"第2屆國大代表\n大同公司秘書\n三重市民代表\n東海中學教師\n空軍運輸官\n臺北縣田徑委員會主任委員\n宏國建設公司經理\n四海工專董事長\n國民大會代表主席團主席\n四海工專校長\n中國國民黨中央委員會組織工作會副主任\n臺灣省教育會理事長\n臺北縣議會第8、9屆議員\n*民國95年11月歿","remark":null,"image":"http://www.ntp.gov.tw/UpFile/CouncilorFile/TTCC0830.jpg","links":[{"url":"http://www.ntp.gov.tw/content/history/history01-5-p.aspx?sid=311","note":"議會個人官網"}],"social_media":null,"platform":"","param":null,"councilor":"c6ff54ac1739405098763e176706e55a"}],"uid":"c6ff54ac1739405098763e176706e55a","name":"謝隆盛","birth":null,"former_names":"","identifiers":["謝隆盛"]},{"url":"http://councils.g0v.tw/api/councilors/498/","each_terms":[{"url":"http://councils.g0v.tw/api/councilors_terms/844/","election_year":"1973","name":"廖金順","gender":"","party":"","title":"議員","constituency":1,"county":"新北市","district":"板橋市、中和鄉、永和鎮、土城鄉","in_office":true,"contact_details":null,"term_start":"1973-05-01","term_end":{"date":"1977-12-29"},"education":"板橋國小\n板橋中學\n三極高工\n師範大學\n師範大學\n日本產業大學","experience":"鎮民代表會副主席\n義警大隊督導\n板橋國際扶輪社第9屆社長\n北縣工業會理事\n板橋市農會顧問\n板橋鎮調解會主席\n中小學家長會會長\n國大代表\n臺北縣議會第8、9屆議員","remark":null,"image":"http://www.ntp.gov.tw/UpFile/CouncilorFile/TTCC0809.jpg","links":[{"url":"http://www.ntp.gov.tw/content/history/history01-5-p.aspx?sid=301","note":"議會個人官網"}],"social_media":null,"platform":"","param":null,"councilor":"36b02654940d45f7b8f6d67a97ce1421"},{"url":"http://councils.g0v.tw/api/councilors_terms/948/","election_year":"1977","name":"廖金順","gender":"","party":"","title":"議員","constituency":1,"county":"新北市","district":"板橋市、中和鄉、永和鎮、土城鄉","in_office":true,"contact_details":null,"term_start":"1977-12-30","term_end":{"date":"1982-02-28"},"education":"板橋國小\n板橋中學\n三極高工\n師範大學\n師範大學\n日本產業大學","experience":"鎮民代表會副主席\n義警大隊督導\n板橋國際扶輪社第9屆社長\n北縣工業會理事\n板橋市農會顧問\n板橋鎮調解會主席\n中小學家長會會長\n國大代表\n臺北縣議會第8、9屆議員","remark":null,"image":"http://www.ntp.gov.tw/UpFile/CouncilorFile/TTCC0809.jpg","links":[{"url":"http://www.ntp.gov.tw/content/history/history01-5-p.aspx?sid=301","note":"議會個人官網"}],"social_media":null,"platform":"","param":null,"councilor":"36b02654940d45f7b8f6d67a97ce1421"}],"uid":"36b02654940d45f7b8f6d67a97ce1421","name":"廖金順","birth":null,"former_names":"","identifiers":["廖金順"]},{"url":"http://councils.g0v.tw/api/councilors/141/","each_terms":[{"url":"http://councils.g0v.tw/api/councilors_terms/149/","election_year":"2006","name":"蔣乃辛","gender":"男","party":"中國國民黨","title":"議員","constituency":null,"county":"臺北市","district":"","in_office":false,"contact_details":null,"term_start":"2006-12-25","term_end":{"date":"2009-04-06","reason":"民國98年4月6日起任職立法委員"},"education":"大同大學事業經營研究所碩士、政大公企中心會計班、企經班結業。","experience":"台北市勞工檢查所檢查員。台北市政府新建工程處幫工程司。台北市第四、五、六、七、八、九屆市議員。消費者文教基金會公共政策委員。台北市勞資關係協會常務理事。台北市家庭扶助中心兒童保護委員會副主任委員。江蘇同鄉會理事。政治大學校友會理事。","remark":"民國98年4月6日起任職立法委員","image":"http://www.tcc.gov.tw/../upload/photo/%E8%94%A3%E4%B9%83%E8%BE%9B181.jpg","links":[{"url":"http://www.tcc.gov.tw/Councilor_Content_All.aspx?s=2301&d=480924&n=%E8%94%A3%E4%B9%83%E8%BE%9B","note":"議會個人官網"}],"social_media":null,"platform":"","param":null,"councilor":"9db6f02b37e148a5adc52e492638bb26"},{"url":"http://councils.g0v.tw/api/councilors_terms/200/","election_year":"2002","name":"蔣乃辛","gender":"男","party":"中國國民黨","title":"議員","constituency":null,"county":"臺北市","district":"","in_office":true,"contact_details":null,"term_start":"2002-12-25","term_end":{"date":"2006-12-25"},"education":"大同大學事業經營研究所碩士、政大公企中心會計班、企經班結業。","experience":"臺北市勞工檢查所檢查員。臺北市政府新建工程處幫工程司。臺北市直轄市議會第四、五、六、七、八屆議員。消費者文教基金會公共政策委員。臺北市勞資關係協會常務理事。臺北市家庭扶助中心兒童保護委員會副主任委員。江蘇同鄉會理事。政治大學校友會理事。大同大學講師。","remark":"","image":"http://www.tcc.gov.tw/../upload/photo/%E8%94%A3%E4%B9%83%E8%BE%9B17.bmp","links":[{"url":"http://www.tcc.gov.tw/Councilor_Content_All.aspx?s=1964&d=480924&n=%E8%94%A3%E4%B9%83%E8%BE%9B","note":"議會個人官網"}],"social_media":null,"platform":"","param":null,"councilor":"9db6f02b37e148a5adc52e492638bb26"},{"url":"http://councils.g0v.tw/api/councilors_terms/455/","election_year":"1981","name":"蔣乃辛","gender":"男","party":"中國國民黨","title":"議員","constituency":null,"county":"臺北市","district":"","in_office":true,"contact_details":null,"term_start":"1981-12-25","term_end":{"date":"1985-12-25"},"education":"大同工學院畢業。","experience":"臺北市工礦檢查所檢查員、金山彩色印刷公司主任、臺北市政府工務局新建工程處幫工程司。","remark":"","image":"http://www.tcc.gov.tw/../upload/photo/%E8%94%A3%E4%B9%83%E8%BE%9B12.jpg","links":[{"url":"http://www.tcc.gov.tw/Councilor_Content_All.aspx?s=1956&d=470624&n=%E8%94%A3%E4%B9%83%E8%BE%9B","note":"議會個人官網"}],"social_media":null,"platform":"","param":null,"councilor":"9db6f02b37e148a5adc52e492638bb26"},{"url":"http://councils.g0v.tw/api/councilors_terms/256/","election_year":"1998","name":"蔣乃辛","gender":"男","party":"中國國民黨","title":"議員","constituency":null,"county":"臺北市","district":"","in_office":true,"contact_details":null,"term_start":"1998-12-25","term_end":{"date":"2002-12-25"},"education":"大同大學事業經營研究所碩士、政大公企中心會計班、企經班結業。","experience":"臺北市勞工檢查所檢查員。臺北市政府新建工程處幫工程師。臺北市直轄市議會第四、五、六、七屆議員。消費者文教基金會公共政策委員會委員。臺北市勞資關係協會常務理事。大同工學院講師。金華國中、小學家長會榮譽會長。臺北市家庭扶助中心兒童保護委員會副主任委員。江蘇同鄉會理事。","remark":"","image":"http://www.tcc.gov.tw/../upload/photo/%E8%94%A3%E4%B9%83%E8%BE%9B16.jpg","links":[{"url":"http://www.tcc.gov.tw/Councilor_Content_All.aspx?s=1583&d=480924&n=%E8%94%A3%E4%B9%83%E8%BE%9B","note":"議會個人官網"}],"social_media":null,"platform":"","param":null,"councilor":"9db6f02b37e148a5adc52e492638bb26"},{"url":"http://councils.g0v.tw/api/councilors_terms/304/","election_year":"1994","name":"蔣乃辛","gender":"男","party":"中國國民黨","title":"議員","constituency":null,"county":"臺北市","district":"","in_office":true,"contact_details":null,"term_start":"1994-12-25","term_end":{"date":"1998-12-25"},"education":"大同工學院事業經營研究所碩士、政治大學公企中心會計班、企經班結業、革命實踐研究院結業。","experience":"臺北市勞工檢查所檢查員。臺北市政府工務局新建工程處幫工程司。臺北市直轄市議會第四、五、六屆議員。中華民國消費者文教基金會公共政策委員會委員。臺北市勞資關係協會常務理事。臺北市家庭扶助中心兒童保護委員會副主任委員。臺北市江蘇同鄉會理事。大同工學院講師。","remark":"","image":"http://www.tcc.gov.tw/../upload/photo/%E8%94%A3%E4%B9%83%E8%BE%9B15.jpg","links":[{"url":"http://www.tcc.gov.tw/Councilor_Content_All.aspx?s=1642&d=470624&n=%E8%94%A3%E4%B9%83%E8%BE%9B","note":"議會個人官網"}],"social_media":null,"platform":"","param":null,"councilor":"9db6f02b37e148a5adc52e492638bb26"},{"url":"http://councils.g0v.tw/api/councilors_terms/355/","election_year":"1989","name":"蔣乃辛","gender":"男","party":"中國國民黨","title":"議員","constituency":null,"county":"臺北市","district":"","in_office":true,"contact_details":null,"term_start":"1989-12-25","term_end":{"date":"1994-12-25"},"education":"大同大學事業經營研究所碩士、政大公企中心會計班、企經班結業。","experience":"臺北市勞工檢查所檢查員、臺北市政府新建工程處幫工程司、臺北市直轄市議會第四、五屆議員。","remark":"","image":"http://www.tcc.gov.tw/../upload/photo/%E8%94%A3%E4%B9%83%E8%BE%9B14.jpg","links":[{"url":"http://www.tcc.gov.tw/Councilor_Content_All.aspx?s=1494&d=470624&n=%E8%94%A3%E4%B9%83%E8%BE%9B","note":"議會個人官網"}],"social_media":null,"platform":"","param":null,"councilor":"9db6f02b37e148a5adc52e492638bb26"},{"url":"http://councils.g0v.tw/api/councilors_terms/405/","election_year":"1985","name":"蔣乃辛","gender":"男","party":"中國國民黨","title":"議員","constituency":null,"county":"臺北市","district":"","in_office":true,"contact_details":null,"term_start":"1985-12-25","term_end":{"date":"1989-12-25"},"education":"大同大學工學院畢業、政治大學公企中心會計班、企經班結業、革命實踐研究所講習班47期結業。","experience":"臺北市工礦檢查所檢查員、臺北市政府工務局新建工程處幫工程司、臺北市直轄市議會第四屆議員。","remark":"","image":"http://www.tcc.gov.tw/../upload/photo/%E8%94%A3%E4%B9%83%E8%BE%9B13.jpg","links":[{"url":"http://www.tcc.gov.tw/Councilor_Content_All.aspx?s=2107&d=470624&n=%E8%94%A3%E4%B9%83%E8%BE%9B","note":"議會個人官網"}],"social_media":null,"platform":"","param":null,"councilor":"9db6f02b37e148a5adc52e492638bb26"}],"uid":"9db6f02b37e148a5adc52e492638bb26","name":"蔣乃辛","birth":"1948-09-24","former_names":"","identifiers":["蔣乃辛"]},{"url":"http://councils.g0v.tw/api/councilors/433/","each_terms":[{"url":"http://councils.g0v.tw/api/councilors_terms/771/","election_year":"2010","name":"朱信強","gender":"","party":"無黨籍","title":"議員","constituency":1,"county":"高雄市","district":"桃源區、那瑪夏區、甲仙區、六龜區、杉林區、內門區、旗山區、美濃區、茂林區","in_office":false,"contact_details":[{"type":"voice","value":"6810035","label":"傳真"},{"type":"fax","value":"6822106","label":"傳真"},{"type":"address","value":"843美濃區成功路171號","label":"通訊處"}],"term_start":"2010-12-25","term_end":{"date":"2012-06-21","reason":""},"education":"龍山國小、龍肚國中、旗美商工、東方技術學院（二專）、空中大學法政系法律組","experience":"（一）美濃鎮農十四、十五屆理事長\n（二）警察局旗山分局警友會副主任\n（三）美濃義消顧問團團長\n（四）高雄縣導覽協會榮譽顧問\n（五）廣林愛心慈善會顧問\n（六）美濃後備軍人協會顧問\n（七）高雄縣救難協會顧問","remark":"(已解職101.6.21)","image":"http://www.kcc.gov.tw/Upload/PeriodMembers/0701002.jpg","links":[{"url":"http://www.kcc.gov.tw/PeriodMembers/Introduction.aspx?KeyID=2","note":"議會個人官網"}],"social_media":null,"platform":"堅持在地本土認同，發展幸福農村，農村是我們的家，也是我們成長的故鄉。在地本土化是我們認同的根本，發展幸福農村是我們追求的目標。不論耕作的農民，小生意的服務業者，文化產業的藝術家，或是盡守本分的公教人員，都要生活幸福。\n第（一）發展綠色農業、輔導安全、無毒又養生的生態耕作模式，強化消費者對農產品信心。\n第（二）活絡產銷物流，廣設都會假日農產市集，公部門及學校優先採購在地農產品。結合都會休閒旅遊與農村產業交流，並進一步爭取擴大外銷市場。\n第（三）健全拍賣制度，比照台北果菜市場，成立高雄果菜市場拍賣制度，維護合理農產銷售價格。\n第（四）農業低利貸款，賡續辦理農業低利貸款，簡化行政手續及徵信，要求增加回鄉創業，弱勢團體，農村婦女，災區重建等貸款優惠。\n第（五）保障社會福利，65歲以上老人每年定期免費健檢，廣設老人休閒兼護理中心，並提供外籍或單親媽媽行政及法律諮詢服務。\n第（六）農村整體規劃，輔導聚落保存，文化祭典，生態旅遊辦理，尤其重視農村水圳灌排系統，農水路景觀及維護規劃等農村基礎建設。\n第（七）協助災區重建，要求以政策全方位的面向，災民意願為主體的立場，支持災區的重建與產業的復原。最後阿強與鄉親共同疼惜家園、捍衛鄉土，建立幸福農村。","param":{"bills_role_statistics":{"total":106,"priproposer":16,"sponsor":16,"cosponsor":90},"diversity":{"中國國民黨":0.43647798742138344,"民主進步黨":0.11320754716981127,"親民黨":0.014465408805031445,"無黨籍":0.43584905660377377},"suggestions_years":{"count":65,"sum":17798619,"years":[{"count":42,"sum":11679619,"suggest_year":"2011","small_purchase":17},{"count":23,"sum":6119000,"suggest_year":"2012","small_purchase":0}]},"attendance_statistics":{"absent":4,"total":157},"suggestions_associations":[{"count":6,"sum":666000,"label":"社區發展協會"},{"count":0,"sum":0,"label":"學會"},{"count":0,"sum":0,"label":"商會"},{"count":0,"sum":0,"label":"公會"},{"count":0,"sum":0,"label":"協進會"},{"count":0,"sum":0,"label":"促進會"},{"count":0,"sum":0,"label":"研習會"},{"count":0,"sum":0,"label":"婦聯會"},{"count":0,"sum":0,"label":"婦女會"},{"count":0,"sum":0,"label":"體育會"},{"count":0,"sum":0,"label":"同心會"},{"count":0,"sum":0,"label":"農會"},{"count":0,"sum":0,"label":"早起會"},{"count":0,"sum":0,"label":"健身會"},{"count":0,"sum":0,"label":"宗親會"},{"count":0,"sum":0,"label":"功德會"},{"count":0,"sum":0,"label":"商業會"},{"count":0,"sum":0,"label":"長青會"},{"count":0,"sum":0,"label":"民眾服務社"},{"count":0,"sum":0,"label":"聯盟"}],"bills_party_diversity":null,"suggestions_piles":[{"count":17,"tokens":"警察局|分局","sum":4205930,"label":"警察局"},{"count":14,"tokens":"國中|國小","sum":2538593,"label":"國中、國小"},{"count":6,"tokens":"協會|學會|商會|公會|協進會|促進會|研習會|婦聯會|婦女會|體育會|同心會|農會|早起會|健身會|宗親會|功德會|商業會|長青會|民眾服務社|聯盟","sum":666000,"label":"協會"},{"count":2,"tokens":"辦公室|辦公處","sum":331830,"label":"辦公室"},{"count":0,"tokens":"廟|宮","sum":0,"label":"廟"},{"count":0,"tokens":"消防局|消防隊|分隊|中隊","sum":0,"label":"消防局"}]},"councilor":"33774794c139463a9b64d14fd389715c"}],"uid":"33774794c139463a9b64d14fd389715c","name":"朱信強","birth":null,"former_names":"","identifiers":["朱信強"]},{"url":"http://councils.g0v.tw/api/councilors/225/","each_terms":[{"url":"http://councils.g0v.tw/api/councilors_terms/412/","election_year":"1985","name":"馮定國","gender":"男","party":"中國國民黨","title":"議員","constituency":null,"county":"臺北市","district":"","in_office":true,"contact_details":null,"term_start":"1985-12-25","term_end":{"date":"1989-12-25"},"education":"臺中一中畢業、建國中學畢業、文化大學經濟系畢業、加拿大蒙特婁麥基爾大學企管研究所、紐約大學電腦碩士、博士班研究。","experience":"加拿大IBM系統分析師、文化大學應數系主任、中央、工技學院、輔大、中原講師、救國團臺北市大安、城中龍山團務委員顧問。","remark":"","image":"http://www.tcc.gov.tw/../upload/photo/%E9%A6%AE%E5%AE%9A%E5%9C%8B13.jpg","links":[{"url":"http://www.tcc.gov.tw/Councilor_Content_All.aspx?s=1426&d=500924&n=%E9%A6%AE%E5%AE%9A%E5%9C%8B","note":"議會個人官網"}],"social_media":null,"platform":"","param":null,"councilor":"b1610ee3f0284278ba833802c58c1856"}],"uid":"b1610ee3f0284278ba833802c58c1856","name":"馮定國","birth":"1950-09-24","former_names":"","identifiers":["馮定國"]},{"url":"http://councils.g0v.tw/api/councilors/226/","each_terms":[{"url":"http://councils.g0v.tw/api/councilors_terms/416/","election_year":"1985","name":"陳俊源","gender":"男","party":"中國國民黨","title":"議員","constituency":null,"county":"臺北市","district":"","in_office":true,"contact_details":null,"term_start":"1985-12-25","term_end":{"date":"1989-12-25"},"education":"清江國小畢業、北投國中畢業、成功高中畢業、國立中興大學法律系畢業。","experience":"北投國際青商會社區發展委員會副主委、中華民國觀護協會臺北分會會員、臺北市體育會跆拳道委員會委員。","remark":"","image":"http://www.tcc.gov.tw/../upload/photo/%E9%99%B3%E4%BF%8A%E6%BA%9013.jpg","links":[{"url":"http://www.tcc.gov.tw/Councilor_Content_All.aspx?s=2142&d=560713&n=%E9%99%B3%E4%BF%8A%E6%BA%90","note":"議會個人官網"}],"social_media":null,"platform":"","param":null,"councilor":"b602e62933f747d69e164fccfc5f1c05"}],"uid":"b602e62933f747d69e164fccfc5f1c05","name":"陳俊源","birth":"1956-07-13","former_names":"","identifiers":["陳俊源"]},{"url":"http://councils.g0v.tw/api/councilors/143/","each_terms":[{"url":"http://councils.g0v.tw/api/councilors_terms/159/","election_year":"2006","name":"陳嘉銘","gender":"男","party":"臺灣團結聯盟","title":"議員","constituency":null,"county":"臺北市","district":"","in_office":true,"contact_details":null,"term_start":"2006-12-25","term_end":{"date":"2010-12-25"},"education":"田中國小、員林中學、建國中學、高雄醫學大學醫科畢業","experience":"署立台北醫院城區分院（原鐵路醫院）外科醫師十年、陳嘉銘診所院長、一般外科專科醫師、台北市醫師公會會員、外科醫學會會員、台灣醫界聯盟會員、基層醫療協會會員、彰化同鄉會會員、台北市中北獅子會會員、台北市紅十字會義勇救生隊榮譽隊長、台北市議會第七、八、九屆議員","remark":"","image":"http://www.tcc.gov.tw/../upload/photo/%E9%99%B3%E5%98%89%E9%8A%98.jpg","links":[{"url":"http://www.tcc.gov.tw/Councilor_Content_All.aspx?s=2308&d=620502&n=%E9%99%B3%E5%98%89%E9%8A%98","note":"議會個人官網"}],"social_media":null,"platform":"","param":null,"councilor":"1ac2c0c6bf2848cc93b6cb918c356417"},{"url":"http://councils.g0v.tw/api/councilors_terms/212/","election_year":"2002","name":"陳嘉銘","gender":"男","party":"民主進步黨","title":"議員","constituency":null,"county":"臺北市","district":"","in_office":true,"contact_details":null,"term_start":"2002-12-25","term_end":{"date":"2006-12-25"},"education":"田中國小、員林初中、建國中學、高雄醫學大學醫科畢業。","experience":"臺北鐵路醫院外科醫師10年、 一般外科專科醫師、臺灣醫界聯盟會員、臺北市醫師公會會員、臺北市基層醫療協會會員、100行動聯盟廢惡法運動(91’)、反核四運動(94’)；臺灣加入聯合國運動(93’)、彰化同鄉會會員、紅十字會水上安全大隊醫療顧問、陳嘉銘診所院長、臺北市直轄市議會第七、八屆議員。","remark":"","image":"http://www.tcc.gov.tw/../upload/photo/%E9%99%B3%E5%98%89%E9%8A%9817.bmp","links":[{"url":"http://www.tcc.gov.tw/Councilor_Content_All.aspx?s=1515&d=490502&n=%E9%99%B3%E5%98%89%E9%8A%98","note":"議會個人官網"}],"social_media":null,"platform":"","param":null,"councilor":"1ac2c0c6bf2848cc93b6cb918c356417"},{"url":"http://councils.g0v.tw/api/councilors_terms/264/","election_year":"1998","name":"陳嘉銘","gender":"男","party":"民主進步黨","title":"議員","constituency":null,"county":"臺北市","district":"","in_office":true,"contact_details":null,"term_start":"1998-12-25","term_end":{"date":"2002-12-25"},"education":"田中國小、員林初中、建國中學、高雄醫學大學醫科畢業。","experience":"臺北鐵路醫院、外科醫師十年。外科醫學會。壹班外科專科醫師。臺灣醫界聯盟會員。基層醫療協會會員。彰化同鄉會會員。紅十字會水上安全服務大隊醫療顧問。一００行動反閱兵。廢惡法運動、臺灣加入聯合國運動、反核四運動。臺北市直轄市議會第七屆議員。","remark":"","image":"http://www.tcc.gov.tw/../upload/photo/%E9%99%B3%E5%98%89%E9%8A%9816.jpg","links":[{"url":"http://www.tcc.gov.tw/Councilor_Content_All.aspx?s=1887&d=490502&n=%E9%99%B3%E5%98%89%E9%8A%98","note":"議會個人官網"}],"social_media":null,"platform":"","param":null,"councilor":"1ac2c0c6bf2848cc93b6cb918c356417"},{"url":"http://councils.g0v.tw/api/councilors_terms/314/","election_year":"1994","name":"陳嘉銘","gender":"男","party":"民主進步黨","title":"議員","constituency":null,"county":"臺北市","district":"","in_office":true,"contact_details":null,"term_start":"1994-12-25","term_end":{"date":"1998-12-25"},"education":"建國中學畢業、高雄醫學院醫科畢業。","experience":"臺北鐵路醫院外科醫師、外科醫學會專科醫生、臺灣醫界聯盟會員、100行動聯盟反閱兵廢惡法運動(91’)、臺灣加入聯合國運動(93’)、反核四運動(94’)、華中地區發展委員會委員。彰化同鄉會會員、中北國際獅子會會員、陳外科診所院長、(刪除台北市第七八屆議員、紅十字會水上安全大隊醫療顧問)。","remark":"","image":"http://www.tcc.gov.tw/../upload/photo/%E9%99%B3%E5%98%89%E9%8A%9815.jpg","links":[{"url":"http://www.tcc.gov.tw/Councilor_Content_All.aspx?s=1734&d=490502&n=%E9%99%B3%E5%98%89%E9%8A%98","note":"議會個人官網"}],"social_media":null,"platform":"","param":null,"councilor":"1ac2c0c6bf2848cc93b6cb918c356417"}],"uid":"1ac2c0c6bf2848cc93b6cb918c356417","name":"陳嘉銘","birth":"1962-05-02","former_names":"","identifiers":["陳嘉銘"]},{"url":"http://councils.g0v.tw/api/councilors/1632/","each_terms":[{"url":"http://councils.g0v.tw/api/councilors_terms/2558/","election_year":"2009","name":"溫志強","gender":"","party":"","title":"","constituency":5,"county":"苗栗縣","district":"頭份鎮、南庄鄉、三灣鄉","in_office":true,"contact_details":null,"term_start":"2009-12-25","term_end":{"date":"2014-12-25"},"education":null,"experience":null,"remark":null,"image":"http://www.mcc.gov.tw/admin/upload/small_news_201003131649560.jpg","links":[{"url":"http://www.mcc.gov.tw/imgtxt_list.php?menu=27&typeid=42&typeid2=670","note":"議會個人官網"}],"social_media":null,"platform":"","param":null,"councilor":"cef53397b3ca49ff9e1b616c313e933e"}],"uid":"cef53397b3ca49ff9e1b616c313e933e","name":"溫志強","birth":null,"former_names":"","identifiers":["温志強","溫志強"]}]}