{"count":1904,"next":"http://councils.g0v.tw/api/councilors/?page=159","previous":"http://councils.g0v.tw/api/councilors/?page=157","results":[{"url":"http://councils.g0v.tw/api/councilors/1757/","each_terms":[{"url":"http://councils.g0v.tw/api/councilors_terms/2950/","election_year":"2014","name":"張清照","gender":"男","party":"中國國民黨","title":"副議長","constituency":2,"county":"臺中市","district":"清水區、梧棲區、沙鹿區","in_office":true,"contact_details":[{"type":"email","value":"ccz@tccc.gov.tw","label":"E-mail"}],"term_start":"2014-12-25","term_end":{"date":"2018-12-25"},"education":"•大秀國小\n•清水國中\n•清水高中\n•逢甲大學會計系肄業","experience":"•餘慶堂興業股份有限公司董事\n•前臺中市議長張清堂特助","remark":null,"image":"http://www.tccc.gov.tw/Conn/ConnThumb.asp?F=176_4.jpg&P=Pic\\Councillor&U=1&LW=200&LH=259","links":[{"url":"http://www.tccc.gov.tw/wb_introduction02.asp?cno=176&zno=12","note":"議會個人官網"},{"url":"http://www.facebook.com/cctccz","note":"社群網站"}],"social_media":null,"platform":"1.廣納民意，做好監督市政之職責，以確保民眾之權益。\n2.嚴格監督市府，提昇行政效率，落實各項便民政策。\n3.協助地方基層建設，以均衡城鄉發展。\n4.照顧弱勢族群，協助推展良好的社會福利政策。\n5.積極推動中科招商，擴大增加就業機會。\n6.督促臺中港早日成為兩岸直航中心，以繁榮地方。\n7.爭取臺中港區公有土地儘速開發處理。","param":{"bills_role_statistics":{"total":16,"priproposer":5,"sponsor":6,"cosponsor":10},"suggestions_years":{"count":49,"sum":62757215,"years":[{"count":23,"sum":54089000,"suggest_year":"2015","small_purchase":0},{"count":26,"sum":8668215,"suggest_year":"2016","small_purchase":14}]},"suggestions_associations":[{"count":0,"sum":0,"label":"社區發展協會"},{"count":0,"sum":0,"label":"學會"},{"count":0,"sum":0,"label":"商會"},{"count":0,"sum":0,"label":"公會"},{"count":0,"sum":0,"label":"協進會"},{"count":0,"sum":0,"label":"促進會"},{"count":0,"sum":0,"label":"研習會"},{"count":0,"sum":0,"label":"婦聯會"},{"count":0,"sum":0,"label":"婦女會"},{"count":0,"sum":0,"label":"體育會"},{"count":0,"sum":0,"label":"同心會"},{"count":0,"sum":0,"label":"農會"},{"count":0,"sum":0,"label":"早起會"},{"count":0,"sum":0,"label":"健身會"},{"count":0,"sum":0,"label":"宗親會"},{"count":0,"sum":0,"label":"功德會"},{"count":0,"sum":0,"label":"商業會"},{"count":0,"sum":0,"label":"長青會"},{"count":0,"sum":0,"label":"民眾服務社"},{"count":0,"sum":0,"label":"聯盟"}],"suggestions_piles":[{"count":0,"tokens":"協會|學會|商會|公會|協進會|促進會|研習會|婦聯會|婦女會|體育會|同心會|農會|早起會|健身會|宗親會|功德會|商業會|長青會|民眾服務社|聯盟","sum":0,"label":"協會"},{"count":0,"tokens":"辦公室|辦公處","sum":0,"label":"辦公室"},{"count":0,"tokens":"廟|宮","sum":0,"label":"廟"},{"count":0,"tokens":"警察局|分局","sum":0,"label":"警察局"},{"count":0,"tokens":"消防局|消防隊|分隊|中隊","sum":0,"label":"消防局"},{"count":0,"tokens":"國中|國小","sum":0,"label":"國中、國小"}],"bills_party_diversity":[{"party":"中國國民黨","ratio":0.8404255319148937},{"party":"民主進步黨","ratio":0.0851063829787234},{"party":"無黨籍","ratio":0.07446808510638298}]},"councilor":"cb572e1b19db4e8196bba7745dfdd61f"}],"uid":"cb572e1b19db4e8196bba7745dfdd61f","name":"張清照","birth":null,"former_names":"","identifiers":["張清照"]},{"url":"http://councils.g0v.tw/api/councilors/1642/","each_terms":[{"url":"http://councils.g0v.tw/api/councilors_terms/2568/","election_year":"2009","name":"劉寶鈴","gender":"","party":"","title":"","constituency":3,"county":"苗栗縣","district":"通霄鎮、苑裡鎮","in_office":true,"contact_details":null,"term_start":"2009-12-25","term_end":{"date":"2014-12-25"},"education":null,"experience":null,"remark":null,"image":"http://www.mcc.gov.tw/admin/upload/small_news_201003131641150.jpg","links":[{"url":"http://www.mcc.gov.tw/imgtxt_list.php?menu=27&typeid=42&typeid2=668","note":"議會個人官網"}],"social_media":null,"platform":"","param":null,"councilor":"c2498f7875084667a551aa354ca7dbc8"},{"url":"http://councils.g0v.tw/api/councilors_terms/2848/","election_year":"2014","name":"劉寶鈴","gender":"女","party":"無黨籍","title":"議員","constituency":3,"county":"苗栗縣","district":"通霄鎮、苑裡鎮","in_office":true,"contact_details":[{"type":"address","value":"360苗栗縣苗栗市玉華里玉清路351號","label":"服務處"},{"type":"voice","value":"037-862651","label":"連絡電話"}],"term_start":"2014-12-25","term_end":{"date":"2018-12-25"},"education":"苗栗高中畢業","experience":"第17屆苗栗縣議員","remark":null,"image":"http://www.mcc.gov.tw/admin/upload/small_twgov_img_201511220016341.jpg","links":[{"url":"http://www.mcc.gov.tw/imgtxt_list.php?menu=2568&typeid=2580&typeid2=2601","note":"議會個人官網"}],"social_media":null,"platform":"","param":{"bills_role_statistics":{"total":66,"priproposer":13,"sponsor":13,"cosponsor":53},"bills_party_diversity":[{"party":"無黨籍","ratio":0.5422343324250681},{"party":"中國國民黨","ratio":0.3678474114441417},{"party":"民主進步黨","ratio":0.08991825613079019}]},"councilor":"c2498f7875084667a551aa354ca7dbc8"}],"uid":"c2498f7875084667a551aa354ca7dbc8","name":"劉寶鈴","birth":null,"former_names":"","identifiers":["劉寶鈴","劉寳鈴","劉寶鈴","劉寳鈴"]},{"url":"http://councils.g0v.tw/api/councilors/1453/","each_terms":[{"url":"http://councils.g0v.tw/api/councilors_terms/2612/","election_year":"2014","name":"游祥耀","gender":"男","party":"民主進步黨","title":"議員","constituency":3,"county":"基隆市","district":"仁愛區","in_office":true,"contact_details":[{"type":"address","value":"基隆市仁二路105號","label":"服務處"},{"type":"voice","value":"(02) 2422-3632","label":"連絡電話"},{"type":"fax","value":"(02) 2423-5446","label":"傳真號碼"}],"term_start":"2014-12-25","term_end":{"date":"2018-12-24"},"education":null,"experience":"","remark":null,"image":"http://www.kmc.gov.tw/images/website/others/km09.jpg","links":[{"url":"http://www.kmc.gov.tw/members/118-member9","note":"議會個人官網"}],"social_media":null,"platform":"","param":{"suggestions_years":{"count":6,"sum":2613667,"years":[{"count":4,"sum":1664667,"suggest_year":"2015","small_purchase":1},{"count":2,"sum":949000,"suggest_year":"2016","small_purchase":0}]},"bills_role_statistics":{"total":11,"priproposer":1,"sponsor":7,"cosponsor":4},"attendance_statistics":{"absent":0,"total":66},"suggestions_associations":[{"count":0,"sum":0,"label":"社區發展協會"},{"count":0,"sum":0,"label":"學會"},{"count":0,"sum":0,"label":"商會"},{"count":0,"sum":0,"label":"公會"},{"count":0,"sum":0,"label":"協進會"},{"count":0,"sum":0,"label":"促進會"},{"count":0,"sum":0,"label":"研習會"},{"count":0,"sum":0,"label":"婦聯會"},{"count":0,"sum":0,"label":"婦女會"},{"count":0,"sum":0,"label":"體育會"},{"count":0,"sum":0,"label":"同心會"},{"count":0,"sum":0,"label":"農會"},{"count":0,"sum":0,"label":"早起會"},{"count":0,"sum":0,"label":"健身會"},{"count":0,"sum":0,"label":"宗親會"},{"count":0,"sum":0,"label":"功德會"},{"count":0,"sum":0,"label":"商業會"},{"count":0,"sum":0,"label":"長青會"},{"count":0,"sum":0,"label":"民眾服務社"},{"count":0,"sum":0,"label":"聯盟"}],"bills_party_diversity":[{"party":"民主進步黨","ratio":0.4411764705882353},{"party":"中國國民黨","ratio":0.29411764705882354},{"party":"無黨籍","ratio":0.13725490196078433},{"party":"親民黨","ratio":0.11764705882352941},{"party":"民國黨","ratio":0.00980392156862745}],"suggestions_piles":[{"count":5,"tokens":"國中|國小","sum":1843667,"label":"國中、國小"},{"count":0,"tokens":"協會|學會|商會|公會|協進會|促進會|研習會|婦聯會|婦女會|體育會|同心會|農會|早起會|健身會|宗親會|功德會|商業會|長青會|民眾服務社|聯盟","sum":0,"label":"協會"},{"count":0,"tokens":"辦公室|辦公處","sum":0,"label":"辦公室"},{"count":0,"tokens":"廟|宮","sum":0,"label":"廟"},{"count":0,"tokens":"警察局|分局","sum":0,"label":"警察局"},{"count":0,"tokens":"消防局|消防隊|分隊|中隊","sum":0,"label":"消防局"}]},"councilor":"766eb9d9ed92433e96e6dec8f6ef069a"},{"url":"http://councils.g0v.tw/api/councilors_terms/2379/","election_year":"2009","name":"游祥耀","gender":"男","party":"民主進步黨","title":"","constituency":3,"county":"基隆市","district":"仁愛區","in_office":true,"contact_details":[{"type":"email","value":"15701@kmc.gov.tw","label":"電子信箱"},{"type":"voice","value":"(02) 2422-3632","label":"電話"},{"type":"fax","value":"(02) 2423-5446","label":"傳真"},{"type":"address","value":"基隆市仁二路105號","label":"通訊處"}],"term_start":"2009-12-25","term_end":{"date":"2014-12-25"},"education":"．文化大學經濟系","experience":"．基隆市議會十四、十五、十六、屆議員\n．民進黨基隆市第八屆主委\n．基隆市中藥公會常務理事\n．基隆宜蘭同鄉會理事\n．基隆市愛四路夜市管理委員會顧問\n．基隆市議會建設小組召集人","remark":null,"image":"http://www.kmc.gov.tw/kmcii/images/councillor_09.gif","links":[{"url":"http://www.kmc.gov.tw/KMCII/coun_info_9.aspx","note":"議會個人官網"}],"social_media":null,"platform":"．制憲正名建立台灣共和國。\n．監督市政杜絕貪污，落實民生基礎建設，改善市民生活品質。\n．振興服務性產業，增加政府觀光投資。\n．善用海洋資源，提生休憩及水產附加價值。\n．加速港市合一，以利港市共存共榮。\n．促請市府爭取輕軌捷運貫市區。\n．促請政府減免賦稅，刺激投資意願。\n．引進優質產業，讓經濟發展與生態環境保護並重。\n．推動雙語教育及電腦基礎教學， 培養學童現代化知識及國際化競爭力。\n．落實鄉土教學， 建立正確的國家意識。\n","param":{"suggestions_years":{"count":4,"sum":3520125,"years":[{"count":4,"sum":3520125,"suggest_year":"2014","small_purchase":0}]},"suggestions_associations":[{"count":0,"sum":0,"label":"社區發展協會"},{"count":0,"sum":0,"label":"學會"},{"count":0,"sum":0,"label":"商會"},{"count":0,"sum":0,"label":"公會"},{"count":0,"sum":0,"label":"協進會"},{"count":0,"sum":0,"label":"促進會"},{"count":0,"sum":0,"label":"研習會"},{"count":0,"sum":0,"label":"婦聯會"},{"count":0,"sum":0,"label":"婦女會"},{"count":0,"sum":0,"label":"體育會"},{"count":0,"sum":0,"label":"同心會"},{"count":0,"sum":0,"label":"農會"},{"count":0,"sum":0,"label":"早起會"},{"count":0,"sum":0,"label":"健身會"},{"count":0,"sum":0,"label":"宗親會"},{"count":0,"sum":0,"label":"功德會"},{"count":0,"sum":0,"label":"商業會"},{"count":0,"sum":0,"label":"長青會"},{"count":0,"sum":0,"label":"民眾服務社"},{"count":0,"sum":0,"label":"聯盟"}],"suggestions_piles":[{"count":4,"tokens":"國中|國小","sum":3520125,"label":"國中、國小"},{"count":0,"tokens":"協會|學會|商會|公會|協進會|促進會|研習會|婦聯會|婦女會|體育會|同心會|農會|早起會|健身會|宗親會|功德會|商業會|長青會|民眾服務社|聯盟","sum":0,"label":"協會"},{"count":0,"tokens":"辦公室|辦公處","sum":0,"label":"辦公室"},{"count":0,"tokens":"廟|宮","sum":0,"label":"廟"},{"count":0,"tokens":"警察局|分局","sum":0,"label":"警察局"},{"count":0,"tokens":"消防局|消防隊|分隊|中隊","sum":0,"label":"消防局"}]},"councilor":"766eb9d9ed92433e96e6dec8f6ef069a"}],"uid":"766eb9d9ed92433e96e6dec8f6ef069a","name":"游祥耀","birth":"1952-10-18","former_names":"","identifiers":["游祥耀"]},{"url":"http://councils.g0v.tw/api/councilors/1664/","each_terms":[{"url":"http://councils.g0v.tw/api/councilors_terms/2614/","election_year":"2014","name":"連恩典","gender":"男","party":"無黨籍","title":"議員","constituency":6,"county":"基隆市","district":"暖暖區","in_office":true,"contact_details":[{"type":"address","value":"基隆市碇內街25號","label":"服務處"},{"type":"voice","value":"(02) 2457-1006","label":"連絡電話"},{"type":"fax","value":"(02) 2457-1006","label":"傳真號碼"}],"term_start":"2014-12-25","term_end":{"date":"2018-12-24"},"education":null,"experience":"","remark":null,"image":"http://www.kmc.gov.tw/images/website/others/km25.jpg","links":[{"url":"http://www.kmc.gov.tw/members/133-member25","note":"議會個人官網"}],"social_media":null,"platform":"","param":{"suggestions_years":{"count":12,"sum":1038000,"years":[{"count":7,"sum":661000,"suggest_year":"2015","small_purchase":7},{"count":5,"sum":377000,"suggest_year":"2016","small_purchase":4}]},"bills_role_statistics":{"total":49,"priproposer":1,"sponsor":31,"cosponsor":18},"attendance_statistics":{"absent":0,"total":66},"suggestions_associations":[{"count":0,"sum":0,"label":"社區發展協會"},{"count":0,"sum":0,"label":"學會"},{"count":0,"sum":0,"label":"商會"},{"count":0,"sum":0,"label":"公會"},{"count":0,"sum":0,"label":"協進會"},{"count":0,"sum":0,"label":"促進會"},{"count":0,"sum":0,"label":"研習會"},{"count":0,"sum":0,"label":"婦聯會"},{"count":0,"sum":0,"label":"婦女會"},{"count":0,"sum":0,"label":"體育會"},{"count":0,"sum":0,"label":"同心會"},{"count":0,"sum":0,"label":"農會"},{"count":0,"sum":0,"label":"早起會"},{"count":0,"sum":0,"label":"健身會"},{"count":0,"sum":0,"label":"宗親會"},{"count":0,"sum":0,"label":"功德會"},{"count":0,"sum":0,"label":"商業會"},{"count":0,"sum":0,"label":"長青會"},{"count":0,"sum":0,"label":"民眾服務社"},{"count":0,"sum":0,"label":"聯盟"}],"bills_party_diversity":[{"party":"中國國民黨","ratio":0.5902004454342984},{"party":"無黨籍","ratio":0.18930957683741648},{"party":"親民黨","ratio":0.10467706013363029},{"party":"民主進步黨","ratio":0.10244988864142539},{"party":"民國黨","ratio":0.013363028953229399}],"suggestions_piles":[{"count":8,"tokens":"國中|國小","sum":748000,"label":"國中、國小"},{"count":1,"tokens":"辦公室|辦公處","sum":98000,"label":"辦公室"},{"count":1,"tokens":"警察局|分局","sum":95000,"label":"警察局"},{"count":0,"tokens":"協會|學會|商會|公會|協進會|促進會|研習會|婦聯會|婦女會|體育會|同心會|農會|早起會|健身會|宗親會|功德會|商業會|長青會|民眾服務社|聯盟","sum":0,"label":"協會"},{"count":0,"tokens":"廟|宮","sum":0,"label":"廟"},{"count":0,"tokens":"消防局|消防隊|分隊|中隊","sum":0,"label":"消防局"}]},"councilor":"aa1c97405d5144ff9c972215f7e4b1cf"}],"uid":"aa1c97405d5144ff9c972215f7e4b1cf","name":"連恩典","birth":"1958-11-04","former_names":"","identifiers":["連恩典"]},{"url":"http://councils.g0v.tw/api/councilors/1104/","each_terms":[{"url":"http://councils.g0v.tw/api/councilors_terms/2029/","election_year":"2009","name":"林水金","gender":"","party":"民主進步黨","title":"議員","constituency":5,"county":"宜蘭縣","district":"壯圍","in_office":true,"contact_details":[{"type":"address","value":"壯圍鄉東港村壯濱路1段188號","label":"服務處所"},{"type":"voice","value":"9382266","label":"服務處所電話"}],"term_start":"2009-12-25","term_end":{"date":"2014-12-25"},"education":"","experience":"宜蘭縣議會第十七屆議員。\n一、壯圍鄉第十二、十三、十四、十五、十六屆鄉民代表。\n二、壯圍鄉第十四屆鄉民代表會主席。\n三、宜蘭縣議會第十五、十六屆議員。\n四、宜蘭縣議會第十五屆民進黨黨團執行長、幹事長。\n五、現任宜蘭縣議會議員。","remark":null,"image":"http://www.ilcc.gov.tw/pictures/people/A1713.JPG","links":[{"url":"http://www.ilcc.gov.tw/Html/H_05/H_0501.asp?GoOut=&pic=5&clique=DDP&User_id=A1713","note":"議會個人官網"}],"social_media":null,"platform":"一、關懷弱勢團體，加強地方建設，全力投入服務鄉民。\n二、強力監督政府施政效能、防堵濫權、公器私用、浪費資源。\n三、以鄉民利益為優先，不分黨派，肯做第一。\n四、爭取各社團及休閒農業發展活動，社區建設之經費。\n五、以認真、打拼、實在、誠懇、踏實服務地方，並協助各低收入戶爭取福\n利為目標。\n六、爭取道路安全施設，以增進行車安全順暢。\n七、爭取壯圍堤防加固整修保障鄉民生命財產安全。\n八、爭取A、B東西向聯絡道延伸至壯圍濱海公路。\n九、爭取開發壯圍遊憩區。\n十、爭取美福大排、壯東第一大排、十三股大排河道整修設置抽水站，改善\n水患之苦。\n十一、已爭取美福大排一億二仟萬元，核撥計劃中，並持續爭取各種設施之\n經費，如上項之大型工程、抽水站工程…等等。","param":{"bills_role_statistics":{"total":146,"priproposer":9,"sponsor":9,"cosponsor":137},"diversity":{"中國國民黨":0.35355903046986864,"民主進步黨":0.520742101396221,"無黨籍":0.12569886813391015},"bills_party_diversity":[{"party":"民主進步黨","ratio":0.5030769230769231},{"party":"中國國民黨","ratio":0.3630769230769231},{"party":"無黨籍","ratio":0.13384615384615384}]},"councilor":"bd650bff66264cb9a09a1b6c93cb2ded"}],"uid":"bd650bff66264cb9a09a1b6c93cb2ded","name":"林水金","birth":null,"former_names":"","identifiers":["林水金","林水金"]},{"url":"http://councils.g0v.tw/api/councilors/1107/","each_terms":[{"url":"http://councils.g0v.tw/api/councilors_terms/2033/","election_year":"2009","name":"林朝旺","gender":"","party":"中國國民黨","title":"議員","constituency":7,"county":"宜蘭縣","district":"五結","in_office":true,"contact_details":[{"type":"address","value":"五結鄉五結中路3段651號","label":"服務處所"},{"type":"voice","value":"9657028","label":"服務處所電話"}],"term_start":"2009-12-25","term_end":{"date":"2014-12-25"},"education":"五結初級中學","experience":"宜蘭縣議會第十七屆議員。\n五結民眾服務社理事長。\n五結鄉二三四結社巡守隊大隊長。\n興中國中獎學基金會副主委。\n二結社區發展協會理事。\n五結鄉民代表會主席\n五結鄉兵役協會主任委員\n五結鄉體育會理事長\n學進國小家長會會長\n學進國小文教基金會董事長\n五結國際獅子會會長\n國民黨五結鄉黨部常委","remark":null,"image":"http://www.ilcc.gov.tw/pictures/people/A1722.JPG","links":[{"url":"http://www.ilcc.gov.tw/Html/H_05/H_0501.asp?GoOut=&pic=7&clique=KMT&User_id=A1722","note":"議會個人官網"}],"social_media":null,"platform":"朝旺出身農家寒門，為人處事耿直、腳踏實地。自從擔任鄉民代表、主席及\n兩屆議員期間，深入基層，充分瞭解民間疾苦與需要；「好央叫」、「央有\n路」，基層走透透，服務做夠夠。懇請鄉親一秉過去對朝旺的疼愛，繼續牽\n成，讓朝旺有機會繼續為大家服務「為民服務，一通電話，即刻辦理」。我\n的參選政見：\n做好為民服務工作，發揮監督縣政功能。督促縣府確實加強排水防洪工作，\n有效整治河川之排水，確保鄉民生命財產。重視社會福利，扶助弱勢，落實\n社會公平正義。推動社區營造暨健全各類社團、志工福利：並協助各社區發\n展協會舉辦各類凝聚社區共識之活動，發揮社區組織功能，提升社區居民生\n活品質。爭取建設經費，擴展建設、繁榮五結鄉。加強重視義勇消防、守望\n相助、環保義工、愛心志工等熱心義務團體，充實應有設備，強化基本訓\n練，保障應有權益。積極爭取興建北宜鐵路高架化。","param":{"bills_role_statistics":{"total":61,"priproposer":0,"sponsor":1,"cosponsor":60},"diversity":{"中國國民黨":0.5985753650536262,"民主進步黨":0.276862677367153,"無黨籍":0.12456195757922103},"bills_party_diversity":[{"party":"中國國民黨","ratio":0.5664451827242525},{"party":"民主進步黨","ratio":0.3089700996677741},{"party":"無黨籍","ratio":0.12458471760797342}]},"councilor":"87ef6b25105048ee90d303efb961a79f"}],"uid":"87ef6b25105048ee90d303efb961a79f","name":"林朝旺","birth":null,"former_names":"","identifiers":["林朝旺","林朝旺"]},{"url":"http://councils.g0v.tw/api/councilors/1108/","each_terms":[{"url":"http://councils.g0v.tw/api/councilors_terms/2034/","election_year":"2009","name":"李志鏞","gender":"","party":"中國國民黨","title":"議員","constituency":9,"county":"宜蘭縣","district":"三星","in_office":true,"contact_details":[{"type":"address","value":"三星鄉三星路4段387號","label":"服務處所"},{"type":"voice","value":"9892154","label":"服務處所電話"}],"term_start":"2009-12-25","term_end":{"date":"2014-12-25"},"education":"復興工商專科學校(現蘭陽技術學院)畢業","experience":"宜蘭縣議會第十七屆議員。\n文化大學監工主任班結業\n宜蘭縣議員\n三星鄉民代表\n三星義警中隊中隊長\n三星警察之友會顧問團團長\n大隱守望相助隊、三星體育委員會顧問\n三星國小國中、憲明國小家長會顧問\n三星、憲明國小愛心媽媽工作隊顧問\n三星獅子會、青工會會長\n國際青年商會會長","remark":null,"image":"http://www.ilcc.gov.tw/pictures/people/A1727.JPG","links":[{"url":"http://www.ilcc.gov.tw/Html/H_05/H_0501.asp?GoOut=&pic=9&clique=KMT&User_id=A1727","note":"議會個人官網"}],"social_media":null,"platform":"一、推動全縣中小學假日圖書館全面開放以提昇學生閱讀興趣；並推動各校\n寒暑假辦理營隊活動，以充實學生吸取課外常識。\n二、爭取於社區活動中心充實休閒器材以利活化社區休閒功能。\n三、爭取北宜高速公路交流道延伸連接196線；台2庚線交流道連接泰雅大\n橋，打通三星交通命脈，帶動三星整體觀光休閒農業發展。\n四、加速推動清水地熱BOT案盡速開發。以利提升三星觀光產業國際化。\n五、持續重視推動有機農業，提昇建立全國知名度農產品品牌，並開發全國\n行銷管道。\n六、定期對全縣山坡保育及排水實施檢查，以確保鄉親生命財產安全。\n七、爭取鄉村重劃區段排水及道路優先施設以保障居民生活品質。","param":{"bills_role_statistics":{"total":170,"priproposer":13,"sponsor":13,"cosponsor":157},"diversity":{"中國國民黨":0.6121342728030706,"民主進步黨":0.2547631790588767,"無黨籍":0.13310254813805275},"bills_party_diversity":[{"party":"中國國民黨","ratio":0.5794947994056464},{"party":"民主進步黨","ratio":0.287518573551263},{"party":"無黨籍","ratio":0.13298662704309064}]},"councilor":"b1d68c01192644729343aeb9a346545a"}],"uid":"b1d68c01192644729343aeb9a346545a","name":"李志鏞","birth":null,"former_names":"","identifiers":["李志鏞","李志鏞"]},{"url":"http://councils.g0v.tw/api/councilors/1109/","each_terms":[{"url":"http://councils.g0v.tw/api/councilors_terms/2035/","election_year":"2009","name":"簡德旺","gender":"","party":"民主進步黨","title":"議員","constituency":9,"county":"宜蘭縣","district":"三星","in_office":true,"contact_details":[{"type":"address","value":"三星鄉上將路2段456號","label":"服務處所"},{"type":"voice","value":"9530296","label":"服務處所電話"}],"term_start":"2009-12-25","term_end":{"date":"2014-12-25"},"education":"羅東中學肄業","experience":"宜蘭縣議會第十七屆議員。\n三星鄉民代表會第17、18屆副主席\n三星鄉民代表會第15、16屆代表\n三星鄉尾塹社區發展協會第2屆理事長\n三星鄉調解委員會第27、28屆調解委員\n清洲良安宮總幹事\n2004年總統大選陳水扁總統三星後援會會長\n張川田立法委員選舉三星後援會會長\n陳文昌議員選舉競選總部總幹事\n劉守成縣長選舉三星後援會委員\n陳定南縣長選舉三星後援會委員\n民主進步黨宜蘭縣黨代表\n宜蘭縣議會第17屆議員選舉三星鄉選區民主進步黨提名候選人","remark":null,"image":"http://www.ilcc.gov.tw/pictures/people/A1728.JPG","links":[{"url":"http://www.ilcc.gov.tw/Html/H_05/H_0501.asp?GoOut=&pic=9&clique=DDP&User_id=A1728","note":"議會個人官網"}],"social_media":null,"platform":"一、專業理性問政，嚴格審查預算，強力監督宜蘭縣政府。\n二、爭取國道5號二結聯絡道及山腳觀光道路興建工程，建立完善交通網路，\n促進本鄉觀光休閒及農特產業之發展。\n三、配合爭取經費，儘速興建安農溪南岸自行車步道工程。\n四、協助鄉公所爭取蘭陽溪南岸快速道路興建工程。\n五、爭取天送埤五分仔火車站設置輕軌鐵道，帶動地方觀光發展。\n六、配合鄉公所推動生態有機村之發展，開創農業新藍海。\n七、爭取經費，建立「三星米」認證標章，提昇本鄉優質稻米知名度，讓\n「三星米」成為本鄉農特產品的第5寶。\n八、反映鄉民心聲，要求經濟部水利署重新評估水資源保護區之規劃範圍，\n避免影響鄉民權益。\n九、爭取第一河川局辦理蘭陽溪提防加固工程，確保民眾生命財產安全。\n十、深入基層，反映民意，善盡民意代表職責。","param":{"bills_role_statistics":{"total":157,"priproposer":18,"sponsor":18,"cosponsor":139},"diversity":{"中國國民黨":0.3160281554713533,"民主進步黨":0.5863436217001935,"無黨籍":0.09762822282845375},"bills_party_diversity":[{"party":"民主進步黨","ratio":0.5384068278805121},{"party":"中國國民黨","ratio":0.3435277382645804},{"party":"無黨籍","ratio":0.11806543385490754}]},"councilor":"184b38b2783d442b9bad39f37798ead4"}],"uid":"184b38b2783d442b9bad39f37798ead4","name":"簡德旺","birth":null,"former_names":"","identifiers":["簡德旺"]},{"url":"http://councils.g0v.tw/api/councilors/1607/","each_terms":[{"url":"http://councils.g0v.tw/api/councilors_terms/2533/","election_year":"2009","name":"楊應雄","gender":"","party":"中國國民黨","title":"","constituency":null,"county":"金門縣","district":"","in_office":true,"contact_details":[{"type":"address","value":"金門縣金沙鎮國中路11號","label":"地址"},{"type":"voice","value":"（082）353198","label":"電話"}],"term_start":"2009-12-25","term_end":{"date":"2014-12-25"},"education":"金沙國小\n金沙國中\n金門高中\n輔仁大學經濟系畢業\n廈門大學工商管理碩士\n高雄市金門同鄉會理事長\n金門縣旅遊發展協會理事長\n金門縣慢速壘球運動委員會主任委員\n金門縣總工會顧問\n金門縣後備憲兵協會顧問\n金門酒廠產業工會顧問","experience":"高雄市金門同鄉會理事長\n金門縣旅遊發展協會理事長\n金門縣慢速壘球運動委員會主任委員\n金門縣總工會顧問\n金門縣後備憲兵協會顧問\n金門酒廠產業工會顧問","remark":null,"image":"http://www.kmcc.gov.tw/images/men/m_14.jpg","links":[{"url":"http://www.kmcc.gov.tw/men/05-014.htm","note":"議會個人官網"}],"social_media":null,"platform":"監督縣政規劃，發展金門經濟，提升社會福利。\n監督縣政建設，落實東西半島，區域均衡發展。\n反應民意輿論，全力協助鄉親，排紛解難。\n督促金酒擴大投資，創造金門青年永續就業機會。\n推動產業多元發展，觀光教育產業優勢先行\n推動兩岸交流，掌握產業商機，農畜有機產品，走向大陸市場。","param":{"suggestions_years":{"count":4,"sum":3000000,"years":[{"count":4,"sum":3000000,"suggest_year":"2012","small_purchase":0}]},"suggestions_associations":[{"count":0,"sum":0,"label":"社區發展協會"},{"count":0,"sum":0,"label":"學會"},{"count":0,"sum":0,"label":"商會"},{"count":0,"sum":0,"label":"公會"},{"count":0,"sum":0,"label":"協進會"},{"count":0,"sum":0,"label":"促進會"},{"count":0,"sum":0,"label":"研習會"},{"count":0,"sum":0,"label":"婦聯會"},{"count":0,"sum":0,"label":"婦女會"},{"count":0,"sum":0,"label":"體育會"},{"count":0,"sum":0,"label":"同心會"},{"count":0,"sum":0,"label":"農會"},{"count":0,"sum":0,"label":"早起會"},{"count":0,"sum":0,"label":"健身會"},{"count":0,"sum":0,"label":"宗親會"},{"count":0,"sum":0,"label":"功德會"},{"count":0,"sum":0,"label":"商業會"},{"count":0,"sum":0,"label":"長青會"},{"count":0,"sum":0,"label":"民眾服務社"},{"count":0,"sum":0,"label":"聯盟"}],"suggestions_piles":[{"count":0,"tokens":"協會|學會|商會|公會|協進會|促進會|研習會|婦聯會|婦女會|體育會|同心會|農會|早起會|健身會|宗親會|功德會|商業會|長青會|民眾服務社|聯盟","sum":0,"label":"協會"},{"count":0,"tokens":"辦公室|辦公處","sum":0,"label":"辦公室"},{"count":0,"tokens":"廟|宮","sum":0,"label":"廟"},{"count":0,"tokens":"警察局|分局","sum":0,"label":"警察局"},{"count":0,"tokens":"消防局|消防隊|分隊|中隊","sum":0,"label":"消防局"},{"count":0,"tokens":"國中|國小","sum":0,"label":"國中、國小"}]},"councilor":"67b00e4846c1471384826f2e605eaa8d"}],"uid":"67b00e4846c1471384826f2e605eaa8d","name":"楊應雄","birth":null,"former_names":"","identifiers":["楊應雄"]},{"url":"http://councils.g0v.tw/api/councilors/1609/","each_terms":[{"url":"http://councils.g0v.tw/api/councilors_terms/2535/","election_year":"2009","name":"林孫全","gender":"","party":"中國國民黨","title":"","constituency":null,"county":"金門縣","district":"","in_office":true,"contact_details":[{"type":"address","value":"金門縣金城鎮古城里金門城72-1號","label":"地址"},{"type":"voice","value":"（082）323939","label":"電話"}],"term_start":"2009-12-25","term_end":{"date":"2014-12-25"},"education":"金門縣古城國小、台北縣永和國中\n永昇不繡鋼有限公司負責人\n桃園縣金門同鄉會理事。","experience":"永昇不繡鋼有限公司負責人\n桃園縣金門同鄉會理事。","remark":null,"image":"http://www.kmcc.gov.tw/images/men/m_12.jpg","links":[{"url":"http://www.kmcc.gov.tw/men/05-012.htm","note":"議會個人官網"}],"social_media":null,"platform":"建構「優質生活圈」、營造「快樂」新金門。\n全力監督政府提昇公共工程品質。\n打破官僚陋習，監督公僕良規。\n專業問政，服務縣民是我的大事。\n建設金門成為免稅島-打造優質精品，免稅購物天堂。\n督促縣府研訂優惠的獎勵投資條例，以利招商引資，增加鄉親就業機會。\n協助爭取弱勢族群，殘障朋友及家庭遭受急難貧困者的就業機會及社會福利照顧。\n監督金酒公司產銷制度化，透明化，以創新績效，增加縣庫收入，保障鄉親福利。\n積極爭取興建金門-烈嶼大橋。","param":{"suggestions_years":{"count":20,"sum":8600060,"years":[{"count":3,"sum":2670900,"suggest_year":"2012","small_purchase":1},{"count":7,"sum":2936450,"suggest_year":"2013","small_purchase":1},{"count":10,"sum":2992710,"suggest_year":"2014","small_purchase":4}]},"suggestions_associations":[{"count":3,"sum":577510,"label":"社區發展協會"},{"count":0,"sum":0,"label":"學會"},{"count":0,"sum":0,"label":"商會"},{"count":0,"sum":0,"label":"公會"},{"count":0,"sum":0,"label":"協進會"},{"count":0,"sum":0,"label":"促進會"},{"count":0,"sum":0,"label":"研習會"},{"count":0,"sum":0,"label":"婦聯會"},{"count":0,"sum":0,"label":"婦女會"},{"count":0,"sum":0,"label":"體育會"},{"count":0,"sum":0,"label":"同心會"},{"count":0,"sum":0,"label":"農會"},{"count":0,"sum":0,"label":"早起會"},{"count":0,"sum":0,"label":"健身會"},{"count":0,"sum":0,"label":"宗親會"},{"count":0,"sum":0,"label":"功德會"},{"count":0,"sum":0,"label":"商業會"},{"count":0,"sum":0,"label":"長青會"},{"count":0,"sum":0,"label":"民眾服務社"},{"count":0,"sum":0,"label":"聯盟"}],"suggestions_piles":[{"count":3,"tokens":"協會|學會|商會|公會|協進會|促進會|研習會|婦聯會|婦女會|體育會|同心會|農會|早起會|健身會|宗親會|功德會|商業會|長青會|民眾服務社|聯盟","sum":577510,"label":"協會"},{"count":3,"tokens":"廟|宮","sum":570800,"label":"廟"},{"count":2,"tokens":"辦公室|辦公處","sum":192000,"label":"辦公室"},{"count":0,"tokens":"警察局|分局","sum":0,"label":"警察局"},{"count":0,"tokens":"消防局|消防隊|分隊|中隊","sum":0,"label":"消防局"},{"count":0,"tokens":"國中|國小","sum":0,"label":"國中、國小"}]},"councilor":"b13ebf58337e43d3bcc88e26b3db345a"},{"url":"http://councils.g0v.tw/api/councilors_terms/12173/","election_year":"2014","name":"林孫全","gender":"男","party":"中國國民黨","title":null,"constituency":1,"county":"金門縣","district":"金城鎮、金寧鄉、烏坵鄉","in_office":false,"contact_details":null,"term_start":"2014-12-25","term_end":{"date":"2015-09-01","judicial_links":"","reason":"當選無效","ref":"http://www.cec.gov.tw/central/cms/bulletin/17614","replacement":"許建中"},"education":null,"experience":null,"remark":null,"image":"","links":null,"social_media":null,"platform":"","param":{"suggestions_years":{"count":7,"sum":2977252,"years":[{"count":7,"sum":2977252,"suggest_year":"2015","small_purchase":5}]},"suggestions_associations":[{"count":4,"sum":381052,"label":"社區發展協會"},{"count":0,"sum":0,"label":"學會"},{"count":0,"sum":0,"label":"商會"},{"count":0,"sum":0,"label":"公會"},{"count":0,"sum":0,"label":"協進會"},{"count":0,"sum":0,"label":"促進會"},{"count":0,"sum":0,"label":"研習會"},{"count":0,"sum":0,"label":"婦聯會"},{"count":0,"sum":0,"label":"婦女會"},{"count":0,"sum":0,"label":"體育會"},{"count":0,"sum":0,"label":"同心會"},{"count":0,"sum":0,"label":"農會"},{"count":0,"sum":0,"label":"早起會"},{"count":0,"sum":0,"label":"健身會"},{"count":0,"sum":0,"label":"宗親會"},{"count":0,"sum":0,"label":"功德會"},{"count":0,"sum":0,"label":"商業會"},{"count":0,"sum":0,"label":"長青會"},{"count":0,"sum":0,"label":"民眾服務社"},{"count":0,"sum":0,"label":"聯盟"}],"suggestions_piles":[{"count":4,"tokens":"協會|學會|商會|公會|協進會|促進會|研習會|婦聯會|婦女會|體育會|同心會|農會|早起會|健身會|宗親會|功德會|商業會|長青會|民眾服務社|聯盟","sum":381052,"label":"協會"},{"count":0,"tokens":"辦公室|辦公處","sum":0,"label":"辦公室"},{"count":0,"tokens":"廟|宮","sum":0,"label":"廟"},{"count":0,"tokens":"警察局|分局","sum":0,"label":"警察局"},{"count":0,"tokens":"消防局|消防隊|分隊|中隊","sum":0,"label":"消防局"},{"count":0,"tokens":"國中|國小","sum":0,"label":"國中、國小"}],"bills_party_diversity":null},"councilor":"b13ebf58337e43d3bcc88e26b3db345a"}],"uid":"b13ebf58337e43d3bcc88e26b3db345a","name":"林孫全","birth":null,"former_names":"","identifiers":["林孫全","林孫全"]}]}