{"count":1904,"next":"http://councils.g0v.tw/api/councilors/?page=160","previous":"http://councils.g0v.tw/api/councilors/?page=158","results":[{"url":"http://councils.g0v.tw/api/councilors/1611/","each_terms":[{"url":"http://councils.g0v.tw/api/councilors_terms/2537/","election_year":"2009","name":"許燕道","gender":"","party":"無黨籍","title":"","constituency":null,"county":"金門縣","district":"","in_office":true,"contact_details":[{"type":"address","value":"金門縣金城鎮民族路13號","label":"地址"},{"type":"voice","value":"（082）372122","label":"電話"}],"term_start":"2009-12-25","term_end":{"date":"2014-12-25"},"education":"金門高職畢業\n金門縣議會第四屆議員","experience":"金門縣議會第四屆議員","remark":null,"image":"http://www.kmcc.gov.tw/images/men/m_11.jpg","links":[{"url":"http://www.kmcc.gov.tw/men/05-011.htm","note":"議會個人官網"}],"social_media":null,"platform":"推動觀光建設，建立地區永續發展的觀光願景。\n關懷弱勢族群，增加就業機會，落實社會救助與福利。\n督促縣府兩岸政策，結合資源，創造地區經濟發展。","param":{"suggestions_years":{"count":10,"sum":11372774,"years":[{"count":3,"sum":3000000,"suggest_year":"2012","small_purchase":0},{"count":3,"sum":2843017,"suggest_year":"2013","small_purchase":0},{"count":4,"sum":5529757,"suggest_year":"2014","small_purchase":0}]},"suggestions_associations":[{"count":0,"sum":0,"label":"社區發展協會"},{"count":0,"sum":0,"label":"學會"},{"count":0,"sum":0,"label":"商會"},{"count":0,"sum":0,"label":"公會"},{"count":0,"sum":0,"label":"協進會"},{"count":0,"sum":0,"label":"促進會"},{"count":0,"sum":0,"label":"研習會"},{"count":0,"sum":0,"label":"婦聯會"},{"count":0,"sum":0,"label":"婦女會"},{"count":0,"sum":0,"label":"體育會"},{"count":0,"sum":0,"label":"同心會"},{"count":0,"sum":0,"label":"農會"},{"count":0,"sum":0,"label":"早起會"},{"count":0,"sum":0,"label":"健身會"},{"count":0,"sum":0,"label":"宗親會"},{"count":0,"sum":0,"label":"功德會"},{"count":0,"sum":0,"label":"商業會"},{"count":0,"sum":0,"label":"長青會"},{"count":0,"sum":0,"label":"民眾服務社"},{"count":0,"sum":0,"label":"聯盟"}],"suggestions_piles":[{"count":4,"tokens":"國中|國小","sum":5529757,"label":"國中、國小"},{"count":0,"tokens":"協會|學會|商會|公會|協進會|促進會|研習會|婦聯會|婦女會|體育會|同心會|農會|早起會|健身會|宗親會|功德會|商業會|長青會|民眾服務社|聯盟","sum":0,"label":"協會"},{"count":0,"tokens":"辦公室|辦公處","sum":0,"label":"辦公室"},{"count":0,"tokens":"廟|宮","sum":0,"label":"廟"},{"count":0,"tokens":"警察局|分局","sum":0,"label":"警察局"},{"count":0,"tokens":"消防局|消防隊|分隊|中隊","sum":0,"label":"消防局"}]},"councilor":"d85b39a6cf9a4f05928934c58f24adbf"}],"uid":"d85b39a6cf9a4f05928934c58f24adbf","name":"許燕道","birth":null,"former_names":"","identifiers":["許燕道"]},{"url":"http://councils.g0v.tw/api/councilors/627/","each_terms":[{"url":"http://councils.g0v.tw/api/councilors_terms/1100/","election_year":"1990","name":"葉正森","gender":"","party":"","title":"議員","constituency":6,"county":"新北市","district":"新莊市、泰山鄉、五股鄉、林口鄉","in_office":true,"contact_details":null,"term_start":"1990-03-01","term_end":{"date":"1994-02-28"},"education":"新莊國小\n新莊國中\n力行高中","experience":"臺北縣議會第16屆縣議員\n新莊市民代表會主席。\n當選64，67年度好人好事代表。\n新莊民眾服務社理事長。\n新莊國小家長會副會長。\n北縣太極拳新莊分會長。\n北縣葉氏宗親會理事長。\n新莊市文象會顧問。\n新莊市慈刑府主任委員。\n新莊武聖廟二百五十週年籌備主任委員。\n北縣義消總隊長。\n現任縣議員。\n美國夏威夷大學企管研究。","remark":null,"image":"http://www.ntp.gov.tw/UpFile/CouncilorFile/TTCC1249.jpg","links":[{"url":"http://www.ntp.gov.tw/content/history/history01-5-p.aspx?sid=441","note":"議會個人官網"}],"social_media":null,"platform":"","param":null,"councilor":"acc0c9759a0f4265993839c42f2e124a"},{"url":"http://councils.g0v.tw/api/councilors_terms/1169/","election_year":"1994","name":"葉正森","gender":"","party":"","title":"議員","constituency":6,"county":"新北市","district":"新莊市、泰山鄉、五股鄉、林口鄉","in_office":true,"contact_details":null,"term_start":"1994-03-01","term_end":{"date":"1998-02-28"},"education":"新莊國小\n新莊國中\n力行高中","experience":"臺北縣議會第16屆縣議員\n新莊市民代表會主席。\n當選64，67年度好人好事代表。\n新莊民眾服務社理事長。\n新莊國小家長會副會長。\n北縣太極拳新莊分會長。\n北縣葉氏宗親會理事長。\n新莊市文象會顧問。\n新莊市慈刑府主任委員。\n新莊武聖廟二百五十週年籌備主任委員。\n北縣義消總隊長。\n現任縣議員。\n美國夏威夷大學企管研究。","remark":null,"image":"http://www.ntp.gov.tw/UpFile/CouncilorFile/TTCC1249.jpg","links":[{"url":"http://www.ntp.gov.tw/content/history/history01-5-p.aspx?sid=441","note":"議會個人官網"}],"social_media":null,"platform":"","param":null,"councilor":"acc0c9759a0f4265993839c42f2e124a"},{"url":"http://councils.g0v.tw/api/councilors_terms/1231/","election_year":"1998","name":"葉正森","gender":"","party":"","title":"議員","constituency":6,"county":"新北市","district":"新莊市、泰山鄉、五股鄉、林口鄉","in_office":true,"contact_details":null,"term_start":"1998-03-01","term_end":{"date":"2002-02-28"},"education":"新莊國小\n新莊國中\n力行高中","experience":"臺北縣議會第16屆縣議員\n新莊市民代表會主席。\n當選64，67年度好人好事代表。\n新莊民眾服務社理事長。\n新莊國小家長會副會長。\n北縣太極拳新莊分會長。\n北縣葉氏宗親會理事長。\n新莊市文象會顧問。\n新莊市慈刑府主任委員。\n新莊武聖廟二百五十週年籌備主任委員。\n北縣義消總隊長。\n現任縣議員。\n美國夏威夷大學企管研究。","remark":null,"image":"http://www.ntp.gov.tw/UpFile/CouncilorFile/TTCC1249.jpg","links":[{"url":"http://www.ntp.gov.tw/content/history/history01-5-p.aspx?sid=441","note":"議會個人官網"}],"social_media":null,"platform":"","param":null,"councilor":"acc0c9759a0f4265993839c42f2e124a"},{"url":"http://councils.g0v.tw/api/councilors_terms/1356/","election_year":"2006","name":"葉正森","gender":"","party":"","title":"議員","constituency":6,"county":"新北市","district":"新莊市、泰山鄉、五股鄉、林口鄉","in_office":true,"contact_details":null,"term_start":"2006-03-01","term_end":{"date":"2010-12-24"},"education":"新莊國小\n新莊國中\n力行高中","experience":"臺北縣議會第16屆縣議員\n新莊市民代表會主席。\n當選64，67年度好人好事代表。\n新莊民眾服務社理事長。\n新莊國小家長會副會長。\n北縣太極拳新莊分會長。\n北縣葉氏宗親會理事長。\n新莊市文象會顧問。\n新莊市慈刑府主任委員。\n新莊武聖廟二百五十週年籌備主任委員。\n北縣義消總隊長。\n現任縣議員。\n美國夏威夷大學企管研究。","remark":null,"image":"http://www.ntp.gov.tw/UpFile/CouncilorFile/TTCC1249.jpg","links":[{"url":"http://www.ntp.gov.tw/content/history/history01-5-p.aspx?sid=441","note":"議會個人官網"}],"social_media":null,"platform":"","param":null,"councilor":"acc0c9759a0f4265993839c42f2e124a"}],"uid":"acc0c9759a0f4265993839c42f2e124a","name":"葉正森","birth":null,"former_names":"","identifiers":["葉正森"]},{"url":"http://councils.g0v.tw/api/councilors/629/","each_terms":[{"url":"http://councils.g0v.tw/api/councilors_terms/1102/","election_year":"1990","name":"陳建財","gender":"","party":"","title":"議員","constituency":6,"county":"新北市","district":"新莊市、泰山鄉、五股鄉、林口鄉","in_office":true,"contact_details":null,"term_start":"1990-03-01","term_end":{"date":"1994-02-28"},"education":"林口國小畢\n醒吾中學畢\n臺灣軍管區後幹班194期結業","experience":"臺北縣議會第12屆議員\n巨霸電機公司業務副理\n林口國小家長會常務委員\n林口鄉第13屆鄉民代表\n林口青商會會員","remark":null,"image":"http://www.ntp.gov.tw/UpFile/CouncilorFile/TTCC1247.jpg","links":[{"url":"http://www.ntp.gov.tw/content/history/history01-5-p.aspx?sid=439","note":"議會個人官網"}],"social_media":null,"platform":"","param":null,"councilor":"f00093c9cc664628992769aec34e6fcb"}],"uid":"f00093c9cc664628992769aec34e6fcb","name":"陳建財","birth":null,"former_names":"","identifiers":["陳建財"]},{"url":"http://councils.g0v.tw/api/councilors/630/","each_terms":[{"url":"http://councils.g0v.tw/api/councilors_terms/1103/","election_year":"1990","name":"柯文興","gender":"","party":"","title":"議員","constituency":6,"county":"新北市","district":"新莊市、泰山鄉、五股鄉、林口鄉","in_office":true,"contact_details":null,"term_start":"1990-03-01","term_end":{"date":"1994-02-28"},"education":"國泰國小畢\n新莊國中\n豫章工商\n軍管區後幹班97期結業","experience":"臺北縣議會第12屆議員\n新莊市第1、2屆丹鳳里里長\n丹鳳社區理事長\n丹鳳國小家長會長\n臺北縣警察局新莊分局福營義警幹事\n新莊市後備軍人轉輔導組長\n新莊市第3屆市民代表會副主席","remark":null,"image":"http://www.ntp.gov.tw/UpFile/CouncilorFile/TTCC1248.jpg","links":[{"url":"http://www.ntp.gov.tw/content/history/history01-5-p.aspx?sid=440","note":"議會個人官網"}],"social_media":null,"platform":"","param":null,"councilor":"be8cb7eaa1834933b708f7885fdf5566"}],"uid":"be8cb7eaa1834933b708f7885fdf5566","name":"柯文興","birth":null,"former_names":"","identifiers":["柯文興"]},{"url":"http://councils.g0v.tw/api/councilors/631/","each_terms":[{"url":"http://councils.g0v.tw/api/councilors_terms/1104/","election_year":"1990","name":"林重信","gender":"","party":"","title":"議員","constituency":6,"county":"新北市","district":"新莊市、泰山鄉、五股鄉、林口鄉","in_office":true,"contact_details":null,"term_start":"1990-03-01","term_end":{"date":"1994-02-28"},"education":"新莊國小畢業","experience":"臺北縣議會第12、13、14屆議員\n新莊市第2屆市民代表\n第3屆市民代表會主席\n中華民國賽鴿協會理事\n新莊分局中港義警分隊長\n新莊市中港福德祠主任委員\n新莊市公所兵役協會主任委員\n新莊市公所都市計畫委員","remark":null,"image":"http://www.ntp.gov.tw/UpFile/CouncilorFile/TTCC1246.jpg","links":[{"url":"http://www.ntp.gov.tw/content/history/history01-5-p.aspx?sid=438","note":"議會個人官網"}],"social_media":null,"platform":"","param":null,"councilor":"456b957877a349abadda7079cb1265da"},{"url":"http://councils.g0v.tw/api/councilors_terms/1163/","election_year":"1994","name":"林重信","gender":"","party":"","title":"議員","constituency":6,"county":"新北市","district":"新莊市、泰山鄉、五股鄉、林口鄉","in_office":true,"contact_details":null,"term_start":"1994-03-01","term_end":{"date":"1998-02-28"},"education":"新莊國小畢業","experience":"臺北縣議會第12、13、14屆議員\n新莊市第2屆市民代表\n第3屆市民代表會主席\n中華民國賽鴿協會理事\n新莊分局中港義警分隊長\n新莊市中港福德祠主任委員\n新莊市公所兵役協會主任委員\n新莊市公所都市計畫委員","remark":null,"image":"http://www.ntp.gov.tw/UpFile/CouncilorFile/TTCC1246.jpg","links":[{"url":"http://www.ntp.gov.tw/content/history/history01-5-p.aspx?sid=438","note":"議會個人官網"}],"social_media":null,"platform":"","param":null,"councilor":"456b957877a349abadda7079cb1265da"},{"url":"http://councils.g0v.tw/api/councilors_terms/1229/","election_year":"1998","name":"林重信","gender":"","party":"","title":"議員","constituency":6,"county":"新北市","district":"新莊市、泰山鄉、五股鄉、林口鄉","in_office":true,"contact_details":null,"term_start":"1998-03-01","term_end":{"date":"2002-02-28"},"education":"新莊國小畢業","experience":"臺北縣議會第12、13、14屆議員\n新莊市第2屆市民代表\n第3屆市民代表會主席\n中華民國賽鴿協會理事\n新莊分局中港義警分隊長\n新莊市中港福德祠主任委員\n新莊市公所兵役協會主任委員\n新莊市公所都市計畫委員","remark":null,"image":"http://www.ntp.gov.tw/UpFile/CouncilorFile/TTCC1246.jpg","links":[{"url":"http://www.ntp.gov.tw/content/history/history01-5-p.aspx?sid=438","note":"議會個人官網"}],"social_media":null,"platform":"","param":null,"councilor":"456b957877a349abadda7079cb1265da"}],"uid":"456b957877a349abadda7079cb1265da","name":"林重信","birth":null,"former_names":"","identifiers":["林重信","林重信"]},{"url":"http://councils.g0v.tw/api/councilors/632/","each_terms":[{"url":"http://councils.g0v.tw/api/councilors_terms/1105/","election_year":"1990","name":"林義一","gender":"","party":"","title":"議員","constituency":6,"county":"新北市","district":"新莊市、泰山鄉、五股鄉、林口鄉","in_office":true,"contact_details":null,"term_start":"1990-03-01","term_end":{"date":"1994-02-28"},"education":"省立臺北高商畢業","experience":"臺北縣議會第12、13、14、15屆議員\n五股鄉興珍村村長3屆\n五股鄉體育會理事長\n財團法人林阿仁慈善基金會董事長\n五股鄉社區總體營造促進會理事長\n五股鄉興珍社區發展協會理事長\n臺北縣交通義勇警察蘆洲中隊顧問","remark":null,"image":"http://www.ntp.gov.tw/UpFile/CouncilorFile/TTCC1245.jpg","links":[{"url":"http://www.ntp.gov.tw/content/history/history01-5-p.aspx?sid=437","note":"議會個人官網"}],"social_media":null,"platform":"","param":null,"councilor":"74b802ec7a944433833a9a0c787ac4f0"},{"url":"http://councils.g0v.tw/api/councilors_terms/1167/","election_year":"1994","name":"林義一","gender":"","party":"","title":"議員","constituency":6,"county":"新北市","district":"新莊市、泰山鄉、五股鄉、林口鄉","in_office":true,"contact_details":null,"term_start":"1994-03-01","term_end":{"date":"1998-02-28"},"education":"省立臺北高商畢業","experience":"臺北縣議會第12、13、14、15屆議員\n五股鄉興珍村村長3屆\n五股鄉體育會理事長\n財團法人林阿仁慈善基金會董事長\n五股鄉社區總體營造促進會理事長\n五股鄉興珍社區發展協會理事長\n臺北縣交通義勇警察蘆洲中隊顧問","remark":null,"image":"http://www.ntp.gov.tw/UpFile/CouncilorFile/TTCC1245.jpg","links":[{"url":"http://www.ntp.gov.tw/content/history/history01-5-p.aspx?sid=437","note":"議會個人官網"}],"social_media":null,"platform":"","param":null,"councilor":"74b802ec7a944433833a9a0c787ac4f0"},{"url":"http://councils.g0v.tw/api/councilors_terms/1232/","election_year":"1998","name":"林義一","gender":"","party":"","title":"議員","constituency":6,"county":"新北市","district":"新莊市、泰山鄉、五股鄉、林口鄉","in_office":true,"contact_details":null,"term_start":"1998-03-01","term_end":{"date":"2002-02-28"},"education":"省立臺北高商畢業","experience":"臺北縣議會第12、13、14、15屆議員\n五股鄉興珍村村長3屆\n五股鄉體育會理事長\n財團法人林阿仁慈善基金會董事長\n五股鄉社區總體營造促進會理事長\n五股鄉興珍社區發展協會理事長\n臺北縣交通義勇警察蘆洲中隊顧問","remark":null,"image":"http://www.ntp.gov.tw/UpFile/CouncilorFile/TTCC1245.jpg","links":[{"url":"http://www.ntp.gov.tw/content/history/history01-5-p.aspx?sid=437","note":"議會個人官網"}],"social_media":null,"platform":"","param":null,"councilor":"74b802ec7a944433833a9a0c787ac4f0"},{"url":"http://councils.g0v.tw/api/councilors_terms/1300/","election_year":"2002","name":"林義一","gender":"","party":"","title":"議員","constituency":6,"county":"新北市","district":"新莊市、泰山鄉、五股鄉、林口鄉","in_office":true,"contact_details":null,"term_start":"2002-03-01","term_end":{"date":"2006-02-28"},"education":"省立臺北高商畢業","experience":"臺北縣議會第12、13、14、15屆議員\n五股鄉興珍村村長3屆\n五股鄉體育會理事長\n財團法人林阿仁慈善基金會董事長\n五股鄉社區總體營造促進會理事長\n五股鄉興珍社區發展協會理事長\n臺北縣交通義勇警察蘆洲中隊顧問","remark":null,"image":"http://www.ntp.gov.tw/UpFile/CouncilorFile/TTCC1245.jpg","links":[{"url":"http://www.ntp.gov.tw/content/history/history01-5-p.aspx?sid=437","note":"議會個人官網"}],"social_media":null,"platform":"","param":null,"councilor":"74b802ec7a944433833a9a0c787ac4f0"}],"uid":"74b802ec7a944433833a9a0c787ac4f0","name":"林義一","birth":null,"former_names":"","identifiers":["林義一","林義一"]},{"url":"http://councils.g0v.tw/api/councilors/633/","each_terms":[{"url":"http://councils.g0v.tw/api/councilors_terms/1107/","election_year":"1990","name":"許炳崑","gender":"","party":"","title":"議員","constituency":6,"county":"新北市","district":"新莊市、泰山鄉、五股鄉、林口鄉","in_office":true,"contact_details":null,"term_start":"1990-03-01","term_end":{"date":"1994-02-28"},"education":"樹林國小\n樹林國中畢業\n華夏工業專科學校建築工程科畢業\n國立臺灣大學政治研究所行政領導班結業","experience":"臺北縣議會第12、13、14、15屆議員\n臺北縣勞資爭議仲裁委員\n泰山高中\n永龍文教基金會董事\n臺北縣慢速壘球委員會副主任委員\n臺北縣義警大隊新莊中隊副中隊長\n臺北縣警察之友會新莊市副主任\n臺灣更生保護會更生輔導員\n新莊市後備軍人輔導中心主任","remark":null,"image":"http://www.ntp.gov.tw/UpFile/CouncilorFile/TTCC1243.jpg","links":[{"url":"http://www.ntp.gov.tw/content/history/history01-5-p.aspx?sid=436","note":"議會個人官網"}],"social_media":null,"platform":"","param":null,"councilor":"babcf9fc868245efb5aa8142296aeb9a"},{"url":"http://councils.g0v.tw/api/councilors_terms/1170/","election_year":"1994","name":"許炳崑","gender":"","party":"","title":"議員","constituency":6,"county":"新北市","district":"新莊市、泰山鄉、五股鄉、林口鄉","in_office":true,"contact_details":null,"term_start":"1994-03-01","term_end":{"date":"1998-02-28"},"education":"樹林國小\n樹林國中畢業\n華夏工業專科學校建築工程科畢業\n國立臺灣大學政治研究所行政領導班結業","experience":"臺北縣議會第12、13、14、15屆議員\n臺北縣勞資爭議仲裁委員\n泰山高中\n永龍文教基金會董事\n臺北縣慢速壘球委員會副主任委員\n臺北縣義警大隊新莊中隊副中隊長\n臺北縣警察之友會新莊市副主任\n臺灣更生保護會更生輔導員\n新莊市後備軍人輔導中心主任","remark":null,"image":"http://www.ntp.gov.tw/UpFile/CouncilorFile/TTCC1243.jpg","links":[{"url":"http://www.ntp.gov.tw/content/history/history01-5-p.aspx?sid=436","note":"議會個人官網"}],"social_media":null,"platform":"","param":null,"councilor":"babcf9fc868245efb5aa8142296aeb9a"},{"url":"http://councils.g0v.tw/api/councilors_terms/1237/","election_year":"1998","name":"許炳崑","gender":"","party":"","title":"議員","constituency":6,"county":"新北市","district":"新莊市、泰山鄉、五股鄉、林口鄉","in_office":true,"contact_details":null,"term_start":"1998-03-01","term_end":{"date":"2002-02-28"},"education":"樹林國小\n樹林國中畢業\n華夏工業專科學校建築工程科畢業\n國立臺灣大學政治研究所行政領導班結業","experience":"臺北縣議會第12、13、14、15屆議員\n臺北縣勞資爭議仲裁委員\n泰山高中\n永龍文教基金會董事\n臺北縣慢速壘球委員會副主任委員\n臺北縣義警大隊新莊中隊副中隊長\n臺北縣警察之友會新莊市副主任\n臺灣更生保護會更生輔導員\n新莊市後備軍人輔導中心主任","remark":null,"image":"http://www.ntp.gov.tw/UpFile/CouncilorFile/TTCC1243.jpg","links":[{"url":"http://www.ntp.gov.tw/content/history/history01-5-p.aspx?sid=436","note":"議會個人官網"}],"social_media":null,"platform":"","param":null,"councilor":"babcf9fc868245efb5aa8142296aeb9a"},{"url":"http://councils.g0v.tw/api/councilors_terms/1297/","election_year":"2002","name":"許炳崑","gender":"","party":"","title":"議員","constituency":6,"county":"新北市","district":"新莊市、泰山鄉、五股鄉、林口鄉","in_office":true,"contact_details":null,"term_start":"2002-03-01","term_end":{"date":"2006-02-28"},"education":"樹林國小\n樹林國中畢業\n華夏工業專科學校建築工程科畢業\n國立臺灣大學政治研究所行政領導班結業","experience":"臺北縣議會第12、13、14、15屆議員\n臺北縣勞資爭議仲裁委員\n泰山高中\n永龍文教基金會董事\n臺北縣慢速壘球委員會副主任委員\n臺北縣義警大隊新莊中隊副中隊長\n臺北縣警察之友會新莊市副主任\n臺灣更生保護會更生輔導員\n新莊市後備軍人輔導中心主任","remark":null,"image":"http://www.ntp.gov.tw/UpFile/CouncilorFile/TTCC1243.jpg","links":[{"url":"http://www.ntp.gov.tw/content/history/history01-5-p.aspx?sid=436","note":"議會個人官網"}],"social_media":null,"platform":"","param":null,"councilor":"babcf9fc868245efb5aa8142296aeb9a"}],"uid":"babcf9fc868245efb5aa8142296aeb9a","name":"許炳崑","birth":null,"former_names":"","identifiers":["許炳崑"]},{"url":"http://councils.g0v.tw/api/councilors/634/","each_terms":[{"url":"http://councils.g0v.tw/api/councilors_terms/1108/","election_year":"1990","name":"李俊民","gender":"","party":"","title":"議員","constituency":6,"county":"新北市","district":"新莊市、泰山鄉、五股鄉、林口鄉","in_office":true,"contact_details":null,"term_start":"1990-03-01","term_end":{"date":"1994-02-28"},"education":"國立中興大學經濟系畢\n軍管區後幹班132期結業","experience":"臺北縣議會第12屆議員\n泰山鄉公所財政課員\n泰山鄉租佃委員\n新莊分局義刑副分隊長\n中國國民黨臺北縣第11區黨部委員\n泰山鄉農會理事長\n泰山鄉後備軍人輔導中心主任\n泰山鄉農會理事長\n後備憲兵泰山聯絡組長\n泰山國際獅子會副會長\n新莊分局義刑副分隊長\n泰山鄉租佃委員","remark":null,"image":"http://www.ntp.gov.tw/UpFile/CouncilorFile/TTCC1242.jpg","links":[{"url":"http://www.ntp.gov.tw/content/history/history01-5-p.aspx?sid=435","note":"議會個人官網"}],"social_media":null,"platform":"","param":null,"councilor":"091dad6954f84c5297b36c8f5abfc827"}],"uid":"091dad6954f84c5297b36c8f5abfc827","name":"李俊民","birth":null,"former_names":"","identifiers":["李俊民","李俊民"]},{"url":"http://councils.g0v.tw/api/councilors/636/","each_terms":[{"url":"http://councils.g0v.tw/api/councilors_terms/1111/","election_year":"1990","name":"邵松雄","gender":"","party":"","title":"議員","constituency":5,"county":"新北市","district":"三重市、蘆洲鄉","in_office":true,"contact_details":null,"term_start":"1990-03-01","term_end":{"date":"1994-02-28"},"education":"二重國小\n師大附中\n東海高中\n私立有恆建築函授\n私立國際法商函授","experience":"臺北縣議會第12屆議員\n全國武道委員會四段教務師範\n臺北縣國術委員會副主任委員\n臺北跆拳道委員會副主任委員\n臺北縣明志國中家長會長\n三重市中山國際獅子會常務監事\n臺北縣三重市重陽義消分隊創隊分隊長\n三重市柔道委員會主任委員\n三重市健行登山會名譽主任委員\n三重市忠義宮管理委員會主任委員\n三重市通明宮管理委員會主任委員\n三重市太平柔道館館長\n邵氏宗親會理事長＝創會連任理事長\n臺北縣消防協會理事長\n臺灣省保齡球協會委員\n臺北縣柔道委員會主任委員\n臺北縣保齡球委員會副主任委員\n蓮霧關係企業總負責人\n臺灣省柔道五段教練證\n臺北縣警察局三重義務警察中隊指導員\n三重市太明宮主任委員\n三重慈華慈惠宮名譽副主任委員","remark":null,"image":"http://www.ntp.gov.tw/UpFile/CouncilorFile/TTCC1239.jpg","links":[{"url":"http://www.ntp.gov.tw/content/history/history01-5-p.aspx?sid=433","note":"議會個人官網"}],"social_media":null,"platform":"","param":null,"councilor":"def16dee289745f9b84f2ff019c5b57f"}],"uid":"def16dee289745f9b84f2ff019c5b57f","name":"邵松雄","birth":null,"former_names":"","identifiers":["邵松雄"]},{"url":"http://councils.g0v.tw/api/councilors/637/","each_terms":[{"url":"http://councils.g0v.tw/api/councilors_terms/1112/","election_year":"1990","name":"蔡憲輝","gender":"","party":"","title":"議員","constituency":5,"county":"新北市","district":"三重市、蘆洲鄉","in_office":true,"contact_details":null,"term_start":"1990-03-01","term_end":{"date":"1994-02-28"},"education":"淡水國小\n市立大同中學\n師大附中\n輔任大學法律系","experience":"臺北縣議會第12、13屆議員\n民進黨臺北縣黨部執行委員\n民進黨第2屆全國黨員代表\n尤清服務處法律顧問\n民進黨三重市黨部黨務顧問\n民進黨臺北縣黨部選舉對策委員會常務委員\n民進黨臺北縣黨部入黨審查委員會召集人\n大眾法律醫療聯合服務中心主持人","remark":null,"image":"http://www.ntp.gov.tw/UpFile/CouncilorFile/TTCC1238.jpg","links":[{"url":"http://www.ntp.gov.tw/content/history/history01-5-p.aspx?sid=432","note":"議會個人官網"}],"social_media":null,"platform":"","param":null,"councilor":"e357e9475b7a4b62bed63c25a0393781"},{"url":"http://councils.g0v.tw/api/councilors_terms/1177/","election_year":"1994","name":"蔡憲輝","gender":"","party":"","title":"議員","constituency":5,"county":"新北市","district":"三重市、蘆洲鄉","in_office":true,"contact_details":null,"term_start":"1994-03-01","term_end":{"date":"1998-02-28"},"education":"淡水國小\n市立大同中學\n師大附中\n輔任大學法律系","experience":"臺北縣議會第12、13屆議員\n民進黨臺北縣黨部執行委員\n民進黨第2屆全國黨員代表\n尤清服務處法律顧問\n民進黨三重市黨部黨務顧問\n民進黨臺北縣黨部選舉對策委員會常務委員\n民進黨臺北縣黨部入黨審查委員會召集人\n大眾法律醫療聯合服務中心主持人","remark":null,"image":"http://www.ntp.gov.tw/UpFile/CouncilorFile/TTCC1238.jpg","links":[{"url":"http://www.ntp.gov.tw/content/history/history01-5-p.aspx?sid=432","note":"議會個人官網"}],"social_media":null,"platform":"","param":null,"councilor":"e357e9475b7a4b62bed63c25a0393781"}],"uid":"e357e9475b7a4b62bed63c25a0393781","name":"蔡憲輝","birth":null,"former_names":"","identifiers":["蔡憲輝"]}]}