{"count":1904,"next":"http://councils.g0v.tw/api/councilors/?page=17","previous":"http://councils.g0v.tw/api/councilors/?page=15","results":[{"url":"http://councils.g0v.tw/api/councilors/649/","each_terms":[{"url":"http://councils.g0v.tw/api/councilors_terms/1138/","election_year":"1990","name":"邱垂益","gender":"","party":"","title":"議員","constituency":2,"county":"新北市","district":"中和市","in_office":true,"contact_details":null,"term_start":"1990-03-01","term_end":{"date":"1994-02-28"},"education":"光華商職畢","experience":"中和市市長\n臺北縣議會第12、13、14、15屆議員\n臺北縣議會北臺灣問政會執行長、會長\n兵役協會中和分會常務理事\n國民黨中和市黨部常委\n中和都市計劃委員\n臺北縣黨部社會工作委員\n臺北縣松柏福利協進會理事長\n臺北縣青溪協會理事長","remark":null,"image":"http://www.ntp.gov.tw/UpFile/CouncilorFile/TTCC1213.jpg","links":[{"url":"http://www.ntp.gov.tw/content/history/history01-5-p.aspx?sid=420","note":"議會個人官網"}],"social_media":null,"platform":"","param":null,"councilor":"29c58c4b50e7467b96bbd02576845637"},{"url":"http://councils.g0v.tw/api/councilors_terms/1197/","election_year":"1994","name":"邱垂益","gender":"","party":"","title":"議員","constituency":2,"county":"新北市","district":"中和市","in_office":true,"contact_details":null,"term_start":"1994-03-01","term_end":{"date":"1998-02-28"},"education":"光華商職畢","experience":"中和市市長\n臺北縣議會第12、13、14、15屆議員\n臺北縣議會北臺灣問政會執行長、會長\n兵役協會中和分會常務理事\n國民黨中和市黨部常委\n中和都市計劃委員\n臺北縣黨部社會工作委員\n臺北縣松柏福利協進會理事長\n臺北縣青溪協會理事長","remark":null,"image":"http://www.ntp.gov.tw/UpFile/CouncilorFile/TTCC1213.jpg","links":[{"url":"http://www.ntp.gov.tw/content/history/history01-5-p.aspx?sid=420","note":"議會個人官網"}],"social_media":null,"platform":"","param":null,"councilor":"29c58c4b50e7467b96bbd02576845637"},{"url":"http://councils.g0v.tw/api/councilors_terms/1263/","election_year":"1998","name":"邱垂益","gender":"","party":"","title":"議員","constituency":2,"county":"新北市","district":"中和市","in_office":true,"contact_details":null,"term_start":"1998-03-01","term_end":{"date":"2002-02-28"},"education":"光華商職畢","experience":"中和市市長\n臺北縣議會第12、13、14、15屆議員\n臺北縣議會北臺灣問政會執行長、會長\n兵役協會中和分會常務理事\n國民黨中和市黨部常委\n中和都市計劃委員\n臺北縣黨部社會工作委員\n臺北縣松柏福利協進會理事長\n臺北縣青溪協會理事長","remark":null,"image":"http://www.ntp.gov.tw/UpFile/CouncilorFile/TTCC1213.jpg","links":[{"url":"http://www.ntp.gov.tw/content/history/history01-5-p.aspx?sid=420","note":"議會個人官網"}],"social_media":null,"platform":"","param":null,"councilor":"29c58c4b50e7467b96bbd02576845637"},{"url":"http://councils.g0v.tw/api/councilors_terms/1327/","election_year":"2002","name":"邱垂益","gender":"","party":"","title":"議員","constituency":2,"county":"新北市","district":"中和市","in_office":true,"contact_details":null,"term_start":"2002-03-01","term_end":{"date":"2006-02-28"},"education":"光華商職畢","experience":"中和市市長\n臺北縣議會第12、13、14、15屆議員\n臺北縣議會北臺灣問政會執行長、會長\n兵役協會中和分會常務理事\n國民黨中和市黨部常委\n中和都市計劃委員\n臺北縣黨部社會工作委員\n臺北縣松柏福利協進會理事長\n臺北縣青溪協會理事長","remark":null,"image":"http://www.ntp.gov.tw/UpFile/CouncilorFile/TTCC1213.jpg","links":[{"url":"http://www.ntp.gov.tw/content/history/history01-5-p.aspx?sid=420","note":"議會個人官網"}],"social_media":null,"platform":"","param":null,"councilor":"29c58c4b50e7467b96bbd02576845637"}],"uid":"29c58c4b50e7467b96bbd02576845637","name":"邱垂益","birth":null,"former_names":"","identifiers":["邱垂益"]},{"url":"http://councils.g0v.tw/api/councilors/967/","each_terms":[{"url":"http://councils.g0v.tw/api/councilors_terms/1771/","election_year":"1961","name":"張進福","gender":"","party":"","title":"議員","constituency":4,"county":"新北市","district":"淡水鎮、三芝鄉、石門鄉、八里鄉","in_office":true,"contact_details":null,"term_start":"1961-02-21","term_end":{"date":"1964-02-20"},"education":"八里國校畢\n淡水高等學校","experience":"八里鄉第5屆鄉里代表\n臺北縣淡水漁會常務監事\n臺灣省漁會常務監事\n全民健康保健中心檢查召集人\n臺北縣議會第5屆議員","remark":null,"image":"http://www.ntp.gov.tw/UpFile/CouncilorFile/TTCC0532.jpg","links":[{"url":"http://www.ntp.gov.tw/content/history/history01-5-p.aspx?sid=236","note":"議會個人官網"}],"social_media":null,"platform":"","param":null,"councilor":"58796f6dd48f4d49be491c7000f41223"}],"uid":"58796f6dd48f4d49be491c7000f41223","name":"張進福","birth":null,"former_names":"","identifiers":["張進褔","張進福"]},{"url":"http://councils.g0v.tw/api/councilors/761/","each_terms":[{"url":"http://councils.g0v.tw/api/councilors_terms/1411/","election_year":"1946","name":"李火寶","gender":"","party":"","title":"議員","constituency":null,"county":"新北市","district":"","in_office":true,"contact_details":null,"term_start":"1946-04-15","term_end":{"date":"1950-12-31"},"education":"","experience":"\n教員\n*補蕭阿乖缺","remark":null,"image":"http://www.ntp.gov.tw/UpFile/CouncilorFile/TTCC0064.jpg","links":[{"url":"http://www.ntp.gov.tw/content/history/history01-5-p.aspx?sid=64","note":"議會個人官網"}],"social_media":null,"platform":"","param":null,"councilor":"fa06a349516642ae9b5a40c0c1565205"}],"uid":"fa06a349516642ae9b5a40c0c1565205","name":"李火寶","birth":null,"former_names":"","identifiers":["李火寳","李火寳","李火寶","李火寶"]},{"url":"http://councils.g0v.tw/api/councilors/224/","each_terms":[{"url":"http://councils.g0v.tw/api/councilors_terms/408/","election_year":"1985","name":"趙少康","gender":"男","party":"中國國民黨","title":"議員","constituency":null,"county":"臺北市","district":"","in_office":false,"contact_details":null,"term_start":"1985-12-25","term_end":{"date":"1989-12-25","reason":"原為國民黨，其後加入新黨。1993年8月與王建、郁慕明等人成立新黨。"},"education":"臺大農業工程系畢業、美國南卡州立克雷蒙遜大學污染控制碩士、美國管理學會高級管理研究班結業。","experience":"中央研究院訪問學人、臺北市直轄市議會第四屆議員。","remark":"原為國民黨，其後加入新黨。1993年8月與王建、郁慕明等人成立新黨。","image":"http://www.tcc.gov.tw/../upload/photo/%E8%B6%99%E5%B0%91%E5%BA%B713.jpg","links":[{"url":"http://www.tcc.gov.tw/Councilor_Content_All.aspx?s=2103&d=501116&n=%E8%B6%99%E5%B0%91%E5%BA%B7","note":"議會個人官網"}],"social_media":null,"platform":"","param":null,"councilor":"539e0b058409425fa56a9236ffa814eb"},{"url":"http://councils.g0v.tw/api/councilors_terms/458/","election_year":"1981","name":"趙少康","gender":"男","party":"中國國民黨","title":"議員","constituency":null,"county":"臺北市","district":"","in_office":false,"contact_details":null,"term_start":"1981-12-25","term_end":{"date":"1985-12-25","reason":"原為國民黨，其後加入新黨。1993年8月與王建、郁慕明等人成立新黨。"},"education":"臺灣大學農業工程學系畢業、美國南卡羅來那州立克雷蒙遜大學機械工程研究所碩士、美國管理學會紐約總部高級管理研究班結業。","experience":"臺灣大學農機工程學系副教授、中央研究訪問學人、翠柏公司總工程師、美國克雷蒙遜大學機械工程研究所研究助理、經濟部國貿局專員。","remark":"原為國民黨，其後加入新黨。1993年8月與王建、郁慕明等人成立新黨。","image":"http://www.tcc.gov.tw/../upload/photo/%E8%B6%99%E5%B0%91%E5%BA%B712.jpg","links":[{"url":"http://www.tcc.gov.tw/Councilor_Content_All.aspx?s=1613&d=501116&n=%E8%B6%99%E5%B0%91%E5%BA%B7","note":"議會個人官網"}],"social_media":null,"platform":"","param":null,"councilor":"539e0b058409425fa56a9236ffa814eb"}],"uid":"539e0b058409425fa56a9236ffa814eb","name":"趙少康","birth":"1950-11-16","former_names":"","identifiers":["趙少康"]},{"url":"http://councils.g0v.tw/api/councilors/199/","each_terms":[{"url":"http://councils.g0v.tw/api/councilors_terms/615/","election_year":"1969","name":"陳健治","gender":"男","party":"中國國民黨","title":"議員","constituency":null,"county":"臺北市","district":"","in_office":true,"contact_details":null,"term_start":"1969-12-25","term_end":{"date":"1973-12-25"},"education":"國立政治大學會計系。","experience":"幹事。","remark":"","image":"http://www.tcc.gov.tw/../upload/photo/%E9%99%B3%E5%81%A5%E6%B2%BB09.jpg","links":[{"url":"http://www.tcc.gov.tw/Councilor_Content_All.aspx?s=1582&d=440125&n=%E9%99%B3%E5%81%A5%E6%B2%BB","note":"議會個人官網"}],"social_media":null,"platform":"","param":null,"councilor":"ac330e755b39451eafa4309a096958a0"},{"url":"http://councils.g0v.tw/api/councilors_terms/348/","election_year":"1994","name":"陳健治","gender":"男","party":"中國國民黨","title":"議長","constituency":null,"county":"臺北市","district":"","in_office":false,"contact_details":null,"term_start":"1994-12-25","term_end":{"date":"1998-12-25","reason":"其後轉任第4、5屆不分區立法委員，並擔任國民黨組發會主委。"},"education":"內湖國小、成淵初中、大同中學、建國中學、政治大學會計系畢業、美國密蘇里州立東北大人類資源管理碩士。","experience":"臺北市直轄市議會第一、二、三屆議員、臺北市直轄市議會第四、五屆副議長、臺北市直轄市議會第五、六屆議長、臺北市議會黨團副書記八年、中國國民黨臺北市委員會委員、中國國民黨中央常務委員。","remark":"其後轉任第4、5屆不分區立法委員，並擔任國民黨組發會主委。","image":"http://www.tcc.gov.tw/../upload/photo/%E9%99%B3%E5%81%A5%E6%B2%BB15.jpg","links":[{"url":"http://www.tcc.gov.tw/Councilor_Content_All.aspx?s=1715&d=440125&n=%E9%99%B3%E5%81%A5%E6%B2%BB","note":"議會個人官網"}],"social_media":null,"platform":"","param":null,"councilor":"ac330e755b39451eafa4309a096958a0"},{"url":"http://councils.g0v.tw/api/councilors_terms/398/","election_year":"1989","name":"陳健治","gender":"男","party":"中國國民黨","title":"議長","constituency":null,"county":"臺北市","district":"","in_office":true,"contact_details":null,"term_start":"1989-12-25","term_end":{"date":"1994-12-25"},"education":"內湖國小、成淵初中、建國高中、政治大學學士、美國密蘇里州立東北大學碩士。","experience":"臺北市直轄市議會第一、二、三屆議員、臺北市直轄市議會第四、五屆副議長、臺北市直轄市第五屆議長。","remark":"","image":"http://www.tcc.gov.tw/../upload/photo/%E9%99%B3%E5%81%A5%E6%B2%BB14.jpg","links":[{"url":"http://www.tcc.gov.tw/Councilor_Content_All.aspx?s=1386&d=440125&n=%E9%99%B3%E5%81%A5%E6%B2%BB","note":"議會個人官網"}],"social_media":null,"platform":"","param":null,"councilor":"ac330e755b39451eafa4309a096958a0"},{"url":"http://councils.g0v.tw/api/councilors_terms/447/","election_year":"1985","name":"陳健治","gender":"男","party":"中國國民黨","title":"副議長","constituency":null,"county":"臺北市","district":"","in_office":true,"contact_details":null,"term_start":"1985-12-25","term_end":{"date":"1989-12-25"},"education":"內湖國小、成淵初中、建國中學、政治大學、美國密蘇里州立東北大學碩士。","experience":"臺北市直轄市議會第一、二、三屆議員、第四屆副議長。","remark":"","image":"http://www.tcc.gov.tw/../upload/photo/%E9%99%B3%E5%81%A5%E6%B2%BB13.jpg","links":[{"url":"http://www.tcc.gov.tw/Councilor_Content_All.aspx?s=1969&d=440125&n=%E9%99%B3%E5%81%A5%E6%B2%BB","note":"議會個人官網"}],"social_media":null,"platform":"","param":null,"councilor":"ac330e755b39451eafa4309a096958a0"},{"url":"http://councils.g0v.tw/api/councilors_terms/497/","election_year":"1981","name":"陳健治","gender":"男","party":"中國國民黨","title":"副議長","constituency":null,"county":"臺北市","district":"","in_office":false,"contact_details":null,"term_start":"1981-12-25","term_end":{"date":"1985-12-25","reason":"第四屆獲選為副議長。"},"education":"內湖國小畢業、成淵初中畢業、建國高中畢業、國立政治大學畢業。","experience":"臺北市直轄市議會第一、二、三屆市議員、中國國民黨臺北市委員會第三、四屆委員、內湖區後備軍人輔導組長、內湖義消區團長、內湖義警中隊長。","remark":"第四屆獲選為副議長。","image":"http://www.tcc.gov.tw/../upload/photo/%E9%99%B3%E5%81%A5%E6%B2%BB12.jpg","links":[{"url":"http://www.tcc.gov.tw/Councilor_Content_All.aspx?s=2167&d=440125&n=%E9%99%B3%E5%81%A5%E6%B2%BB","note":"議會個人官網"}],"social_media":null,"platform":"","param":null,"councilor":"ac330e755b39451eafa4309a096958a0"},{"url":"http://councils.g0v.tw/api/councilors_terms/516/","election_year":"1977","name":"陳健治","gender":"男","party":"中國國民黨","title":"議員","constituency":null,"county":"臺北市","district":"","in_office":true,"contact_details":null,"term_start":"1977-12-25","term_end":{"date":"1981-12-25"},"education":"內湖國小畢業、成淵初中畢業、建國高中畢業、政治大學畢業。","experience":"臺北市第一、二屆市議員、中國國民黨臺北市委員會第三、四屆委員。","remark":"","image":"http://www.tcc.gov.tw/../upload/photo/%E9%99%B3%E5%81%A5%E6%B2%BB11.jpg","links":[{"url":"http://www.tcc.gov.tw/Councilor_Content_All.aspx?s=1974&d=440125&n=%E9%99%B3%E5%81%A5%E6%B2%BB","note":"議會個人官網"}],"social_media":null,"platform":"","param":null,"councilor":"ac330e755b39451eafa4309a096958a0"},{"url":"http://councils.g0v.tw/api/councilors_terms/564/","election_year":"1973","name":"陳健治","gender":"男","party":"中國國民黨","title":"議員","constituency":null,"county":"臺北市","district":"","in_office":true,"contact_details":null,"term_start":"1973-12-25","term_end":{"date":"1977-12-25"},"education":"國立政治大學畢業。","experience":"臺北市第一屆議會議員。","remark":"","image":"http://www.tcc.gov.tw/../upload/photo/%E9%99%B3%E5%81%A5%E6%B2%BB10.jpg","links":[{"url":"http://www.tcc.gov.tw/Councilor_Content_All.aspx?s=2117&d=440125&n=%E9%99%B3%E5%81%A5%E6%B2%BB","note":"議會個人官網"}],"social_media":null,"platform":"","param":null,"councilor":"ac330e755b39451eafa4309a096958a0"}],"uid":"ac330e755b39451eafa4309a096958a0","name":"陳健治","birth":"1944-01-25","former_names":"","identifiers":["陳健治"]},{"url":"http://councils.g0v.tw/api/councilors/200/","each_terms":[{"url":"http://councils.g0v.tw/api/councilors_terms/349/","election_year":"1989","name":"闕河淵","gender":"男","party":"中國國民黨","title":"議員","constituency":null,"county":"臺北市","district":"","in_office":false,"contact_details":null,"term_start":"1989-12-25","term_end":{"date":"1994-04-01","reason":"83年4月1日任內轉任臺北市政府捷運局副局長。"},"education":"南港國小、大同初中、建國高中畢業、臺灣大學理學士、理學碩士、美國德倫大學工程科學博士。","experience":"榮民工程處幫工程司、臺北市政捷運工程局簡派正工程師、臺灣大學兼任副教授。","remark":"83年4月1日任內轉任臺北市政府捷運局副局長。","image":"http://www.tcc.gov.tw/../upload/photo/%E9%97%95%E6%B2%B3%E6%B7%B514.jpg","links":[{"url":"http://www.tcc.gov.tw/Councilor_Content_All.aspx?s=1650&d=530830&n=%E9%97%95%E6%B2%B3%E6%B7%B5","note":"議會個人官網"}],"social_media":null,"platform":"","param":null,"councilor":"c21f71cd3cf2481ab0269fe1c146c9df"}],"uid":"c21f71cd3cf2481ab0269fe1c146c9df","name":"闕河淵","birth":"1953-08-30","former_names":"","identifiers":["闕河淵"]},{"url":"http://councils.g0v.tw/api/councilors/221/","each_terms":[{"url":"http://councils.g0v.tw/api/councilors_terms/403/","election_year":"1985","name":"謝長廷","gender":"男","party":"民主進步黨","title":"議員","constituency":null,"county":"臺北市","district":"","in_office":true,"contact_details":null,"term_start":"1985-12-25","term_end":{"date":"1989-12-25"},"education":"臺大法律系、日本京都大學博士課程結業、五十八年律師高等考試第一名及格、五十九年司法官特種考試及格。","experience":"律師、臺北平民法律服務中心主任、中國比較法學會理監事、雙溪啟智文教基金會董事、關懷雜誌社社長、臺灣民主雜誌社發行人、臺北市直轄市議會第四屆議員。","remark":"","image":"http://www.tcc.gov.tw/../upload/photo/%E8%AC%9D%E9%95%B7%E5%BB%B713.jpg","links":[{"url":"http://www.tcc.gov.tw/Councilor_Content_All.aspx?s=1469&d=460518&n=%E8%AC%9D%E9%95%B7%E5%BB%B7","note":"議會個人官網"}],"social_media":null,"platform":"","param":null,"councilor":"429b9636b08343268361919f3cba40cc"},{"url":"http://councils.g0v.tw/api/councilors_terms/451/","election_year":"1981","name":"謝長廷","gender":"男","party":"無黨籍","title":"議員","constituency":null,"county":"臺北市","district":"","in_office":true,"contact_details":null,"term_start":"1981-12-25","term_end":{"date":"1985-12-25"},"education":"國立臺灣大學法律系畢業、日本京都大學法學碩士、日本京都大學博士課程研究、五八年律師高等考試及格、司法官特種考試及格。","experience":"臺北平民法律服務中心主任、中國比較法學會秘書長、關懷雜誌社社長。","remark":"","image":"http://www.tcc.gov.tw/../upload/photo/%E8%AC%9D%E9%95%B7%E5%BB%B712.jpg","links":[{"url":"http://www.tcc.gov.tw/Councilor_Content_All.aspx?s=1762&d=460518&n=%E8%AC%9D%E9%95%B7%E5%BB%B7","note":"議會個人官網"}],"social_media":null,"platform":"","param":null,"councilor":"429b9636b08343268361919f3cba40cc"}],"uid":"429b9636b08343268361919f3cba40cc","name":"謝長廷","birth":"1946-05-18","former_names":"","identifiers":["謝長廷"]},{"url":"http://councils.g0v.tw/api/councilors/1635/","each_terms":[{"url":"http://councils.g0v.tw/api/councilors_terms/2561/","election_year":"2009","name":"蔡平偉","gender":"","party":"","title":"","constituency":4,"county":"苗栗縣","district":"竹南鎮、後龍鎮、造橋鄉","in_office":true,"contact_details":null,"term_start":"2009-12-25","term_end":{"date":"2014-12-25"},"education":null,"experience":null,"remark":null,"image":"http://www.mcc.gov.tw/admin/upload/small_news_201003131644360.jpg","links":[{"url":"http://www.mcc.gov.tw/imgtxt_list.php?menu=27&typeid=42&typeid2=669","note":"議會個人官網"}],"social_media":null,"platform":"","param":null,"councilor":"f3f7f0a7d79848eea204990b385fcef4"}],"uid":"f3f7f0a7d79848eea204990b385fcef4","name":"蔡平偉","birth":null,"former_names":"","identifiers":["蔡平偉"]},{"url":"http://councils.g0v.tw/api/councilors/983/","each_terms":[{"url":"http://councils.g0v.tw/api/councilors_terms/1849/","election_year":"1964","name":"林家曲","gender":"","party":"","title":"議員","constituency":3,"county":"新北市","district":"新莊鎮、蘆洲鄉、五股鄉、泰山鄉、林口鄉","in_office":true,"contact_details":null,"term_start":"1964-02-21","term_end":{"date":"1968-02-20"},"education":"空軍軍官學校氣象班畢","experience":"排長\n連長\n營長\n指揮部輔導長\n新莊市後備軍人輔導中心主任\n臺北縣團管區發展委員\n省商會常務理事\n二重關係企業公司總經理\n臺北縣團管區顧問\n臺北縣汽車貨運商業公會理事長\n臺北縣議會第6屆議員\n民國101年4月21日歿","remark":null,"image":"http://www.ntp.gov.tw/UpFile/CouncilorFile/TTCC0617.jpg","links":[{"url":"http://www.ntp.gov.tw/content/history/history01-5-p.aspx?sid=257","note":"議會個人官網"}],"social_media":null,"platform":"","param":null,"councilor":"0f3d51d3be954477b8558f5efcdb99ce"}],"uid":"0f3d51d3be954477b8558f5efcdb99ce","name":"林家曲","birth":null,"former_names":"","identifiers":["林家曲","林家曲"]},{"url":"http://councils.g0v.tw/api/councilors/499/","each_terms":[{"url":"http://councils.g0v.tw/api/councilors_terms/846/","election_year":"1973","name":"曾義尚","gender":"","party":"","title":"議員","constituency":1,"county":"新北市","district":"板橋市、中和鄉、永和鎮、土城鄉","in_office":true,"contact_details":null,"term_start":"1973-05-01","term_end":{"date":"1977-12-29"},"education":"私立光華商職畢\n復興商工高級職業學校畢業","experience":"神輪機車有限公司董事長\n永和扶輪社第10屆社長\n私立慈航中學董事長\n永和鎮第3、4屆鎮民代表\n永和市調解委員\n臺北縣議會第8、9屆議員","remark":null,"image":"http://www.ntp.gov.tw/UpFile/CouncilorFile/TTCC0807.jpg","links":[{"url":"http://www.ntp.gov.tw/content/history/history01-5-p.aspx?sid=300","note":"議會個人官網"}],"social_media":null,"platform":"","param":null,"councilor":"9a7fc4d6059245858afd9d24732f37a0"},{"url":"http://councils.g0v.tw/api/councilors_terms/949/","election_year":"1977","name":"曾義尚","gender":"","party":"","title":"議員","constituency":1,"county":"新北市","district":"板橋市、中和鄉、永和鎮、土城鄉","in_office":true,"contact_details":null,"term_start":"1977-12-30","term_end":{"date":"1982-02-28"},"education":"私立光華商職畢\n復興商工高級職業學校畢業","experience":"神輪機車有限公司董事長\n永和扶輪社第10屆社長\n私立慈航中學董事長\n永和鎮第3、4屆鎮民代表\n永和市調解委員\n臺北縣議會第8、9屆議員","remark":null,"image":"http://www.ntp.gov.tw/UpFile/CouncilorFile/TTCC0807.jpg","links":[{"url":"http://www.ntp.gov.tw/content/history/history01-5-p.aspx?sid=300","note":"議會個人官網"}],"social_media":null,"platform":"","param":null,"councilor":"9a7fc4d6059245858afd9d24732f37a0"}],"uid":"9a7fc4d6059245858afd9d24732f37a0","name":"曾義尚","birth":null,"former_names":"","identifiers":["曾義尚","曽義尚"]}]}