{"count":1904,"next":"http://councils.g0v.tw/api/councilors/?page=167","previous":"http://councils.g0v.tw/api/councilors/?page=165","results":[{"url":"http://councils.g0v.tw/api/councilors/1396/","each_terms":[{"url":"http://councils.g0v.tw/api/councilors_terms/3081/","election_year":"2014","name":"張榮藏","gender":"男","party":"中國國民黨","title":"議員","constituency":1,"county":"嘉義市","district":"東區","in_office":true,"contact_details":[{"type":"voice","value":"0916851289","label":"電話"},{"type":"voice","value":"05-2781192","label":"電話"},{"type":"fax","value":"05-2780676","label":"傳真"},{"type":"address","value":"嘉義市共和路131號5樓2","label":"地址"}],"term_start":"2014-12-25","term_end":{"date":"2018-12-25"},"education":"考試院乙等人事行政特考及格、乙等普通行政特考及格、政戰大學部政治學系、文化大學政治學研究所、革命實踐研究院","experience":"總幹事、主任委員、總經理、董事長、名譽理事長、。嘉義市議會第一、二、四、五、六、七、八屆市議員。","remark":null,"image":"http://www.cycc.gov.tw/files/b/%B1i%BAa%C2%C3%281%29.jpg","links":[{"url":"http://www.cycc.gov.tw/form1/index-2.asp?m=99&m1=4&m2=15&mode=1&id=2","note":"議會個人官網"}],"social_media":null,"platform":"","param":{"bills_role_statistics":{"total":134,"priproposer":6,"sponsor":6,"cosponsor":128},"bills_party_diversity":[{"party":"無黨籍","ratio":0.42758620689655175},{"party":"中國國民黨","ratio":0.2949602122015915},{"party":"民主進步黨","ratio":0.2312997347480106},{"party":"臺灣團結聯盟","ratio":0.046153846153846156}]},"councilor":"60a652da77e0463fb584f4930f5ae192"},{"url":"http://councils.g0v.tw/api/councilors_terms/2322/","election_year":"2009","name":"張榮藏","gender":"男","party":"無黨籍","title":"","constituency":1,"county":"嘉義市","district":"東區","in_office":true,"contact_details":[{"type":"address","value":"嘉義市共和路131號5樓2","label":"通訊處"},{"type":"voice","value":"0916851289、05-2781192　　","label":"電話"},{"type":"fax","value":"05-2780676　　","label":"傳真"}],"term_start":"2009-12-25","term_end":{"date":"2014-12-25"},"education":"考試院乙等人事行政特考及格、乙等普通行政特考及格、政戰大學部政治學系、文化大學政治學研究所、革命實踐研究院\n","experience":"總幹事、主任委員、總經理、董事長、名譽理事長、。嘉義市議會第一、二、四、五、六、七、八屆市議員。\n","remark":null,"image":"http://www.cycc.gov.tw/files/b/%E5%BC%B5%E6%A6%AE%E8%97%8F%281%29.jpg","links":[{"url":"http://www.cycc.gov.tw/form1/index-2.asp?m=99&m1=4&m2=15&mode=1&id=2","note":"議會個人官網"}],"social_media":null,"platform":"一、秉持清廉問政、專職為民服務、真實反映民意、堅守民代職責\n二、全力配合市府向中央爭取建設經費，俾以地方繁榮進步\n三、督促市府社會福利優先，妥善照顧老人、兒童、婦女、勞工、攤販、身心障礙弱勢族群權益\n四、從寬編列教育文化預算、改善師資、設備、環境及早日落實小班教學，提升教學品質\n五、督促市府儘速闢建全市八米道路計畫巷道，以利人車通行，俾以保障市民生命財產安全\n六、督促市府加強社會治安維護，充實警用器材及配備，普設監視系統，以提高破案效率\n七、督促市府加強與鄰近縣市觀光資源結合，提供觀光產業，建構對外交通網路，打造嘉義市為雲嘉南觀光休閒旅遊中心","param":{"bills_role_statistics":{"total":23,"priproposer":2,"sponsor":2,"cosponsor":21},"diversity":{"中國國民黨":0.3096633119651023,"民主進步黨":0.07337809959293334,"臺灣團結聯盟":0.029770669796245246,"無黨籍":0.5871879186457193}},"councilor":"60a652da77e0463fb584f4930f5ae192"}],"uid":"60a652da77e0463fb584f4930f5ae192","name":"張榮藏","birth":null,"former_names":"","identifiers":["張榮藏"]},{"url":"http://councils.g0v.tw/api/councilors/1398/","each_terms":[{"url":"http://councils.g0v.tw/api/councilors_terms/3084/","election_year":"2014","name":"蔡永泉","gender":"男","party":"臺灣團結聯盟","title":"議員","constituency":1,"county":"嘉義市","district":"東區","in_office":true,"contact_details":[{"type":"voice","value":"05-2765487","label":"電話"},{"type":"address","value":"嘉義市東區民樂街34號","label":"地址"}],"term_start":"2014-12-25","term_end":{"date":"2018-12-25"},"education":"","experience":"","remark":null,"image":"http://www.cycc.gov.tw/files/b/%BD%B2%A5%C3%ACu%281%29.jpg","links":[{"url":"http://www.cycc.gov.tw/form1/index-2.asp?m=99&m1=4&m2=15&mode=1&id=4","note":"議會個人官網"}],"social_media":null,"platform":"","param":{"bills_role_statistics":{"total":172,"priproposer":14,"sponsor":18,"cosponsor":154},"bills_party_diversity":[{"party":"無黨籍","ratio":0.42105263157894735},{"party":"民主進步黨","ratio":0.26652631578947367},{"party":"中國國民黨","ratio":0.24},{"party":"臺灣團結聯盟","ratio":0.07242105263157894}]},"councilor":"18f41ccdc3e54823bdf0a2ef8eca60df"},{"url":"http://councils.g0v.tw/api/councilors_terms/2324/","election_year":"2009","name":"蔡永泉","gender":"男","party":"臺灣團結聯盟","title":"","constituency":1,"county":"嘉義市","district":"東區","in_office":true,"contact_details":[{"type":"address","value":"嘉義市東區民樂街34號","label":"通訊處"},{"type":"voice","value":"05-2765487　　","label":"電話"}],"term_start":"2009-12-25","term_end":{"date":"2014-12-25"},"education":"1.大同國小\n2.輔仁初、高中\n3.淡江大學英國語文學系","experience":"輔仁中學英文教師\n第七屆市議員\n蘭潭國小家長會長\n嘉義市李友會長\n若竹文教基金董事\n台聯市黨部主委\n南華大學哲學研究所肄業","remark":null,"image":"http://www.cycc.gov.tw/files/b/%E8%94%A1%E6%B0%B8%E6%B3%89%281%29.jpg","links":[{"url":"http://www.cycc.gov.tw/form1/index-2.asp?m=99&m1=4&m2=15&mode=1&id=4","note":"議會個人官網"}],"social_media":null,"platform":"1.嚴格監督公共工程品質、社絕浪費公帑，以平息民怨、民怒\n2.推行本市成腳踏車城市，以節能減碳\n3.監督市政府重視古蹟，古蹟修護應「修舊如舊，尊重原味」，避免成為古蹟殺手\n4.督促市府重視吸引產業，創造就業機會，留住本市人材，以免年青人離鄉背井\n5.學校教育著重培養守法與良好習慣及鍛練健全體魄\n養成閱讀嗜好及建立閱讀技巧\n6.重視有益教、學的軟體設備\n塑造良好英語學習環境，為與世界接軌奠基\n7.督促市府重視並實質鼓勵藝文活動，使「繪畫藝術」之城市名實一致","param":{"bills_role_statistics":{"total":28,"priproposer":2,"sponsor":2,"cosponsor":26},"diversity":{"中國國民黨":0.286211530066572,"民主進步黨":0.25831908520984154,"臺灣團結聯盟":0.12293803885190437,"無黨籍":0.33253134587168204}},"councilor":"18f41ccdc3e54823bdf0a2ef8eca60df"}],"uid":"18f41ccdc3e54823bdf0a2ef8eca60df","name":"蔡永泉","birth":null,"former_names":"","identifiers":["蔡永泉"]},{"url":"http://councils.g0v.tw/api/councilors/1816/","each_terms":[{"url":"http://councils.g0v.tw/api/councilors_terms/3086/","election_year":"2014","name":"黃盈智","gender":"男","party":"民主進步黨","title":"議員","constituency":1,"county":"嘉義市","district":"東區","in_office":true,"contact_details":[{"type":"address","value":"嘉義市東區博愛路一段50號","label":"地址"}],"term_start":"2014-12-25","term_end":{"date":"2018-12-25"},"education":"美國加州亞格斯大學國貿博士","experience":"民視電視公司財務專員,北門警友站顧問,慶安鋼鐵股份有限公司總經理","remark":null,"image":"http://www.cycc.gov.tw/files/b/%B6%C0%AC%D5%B4%BC.jpg","links":[{"url":"http://www.cycc.gov.tw/form1/index-2.asp?m=99&m1=4&m2=15&mode=1&id=30","note":"議會個人官網"}],"social_media":null,"platform":"","param":{"bills_role_statistics":{"total":236,"priproposer":10,"sponsor":10,"cosponsor":226},"bills_party_diversity":[{"party":"無黨籍","ratio":0.42236842105263156},{"party":"民主進步黨","ratio":0.29177631578947366},{"party":"中國國民黨","ratio":0.24177631578947367},{"party":"臺灣團結聯盟","ratio":0.04407894736842105}]},"councilor":"c338a0b560df4881ae58864b80d583f9"}],"uid":"c338a0b560df4881ae58864b80d583f9","name":"黃盈智","birth":null,"former_names":"","identifiers":["黃盈智","黄盈智"]},{"url":"http://councils.g0v.tw/api/councilors/1813/","each_terms":[{"url":"http://councils.g0v.tw/api/councilors_terms/3080/","election_year":"2014","name":"郭文居","gender":"男","party":"中國國民黨","title":"議員","constituency":1,"county":"嘉義市","district":"東區","in_office":true,"contact_details":[{"type":"address","value":"嘉義市東區長竹里4鄰大雅路二段433巷51號","label":"地址"}],"term_start":"2014-12-25","term_end":{"date":"2018-12-25"},"education":"國立中正大學社會科學院戰略暨國際事務研究所戰略暨國家安全碩士學位","experience":"嘉義市東區長竹里里長,嘉義市東區長竹里社區發展協會理事長,立法委員吳育仁嘉義市東區主任,統一獅職棒隊投手,嘉南勇士職棒隊投手","remark":null,"image":"http://www.cycc.gov.tw/files/b/%B3%A2%A4%E5%A9%7E.jpg","links":[{"url":"http://www.cycc.gov.tw/form1/index-2.asp?m=99&m1=4&m2=15&mode=1&id=28","note":"議會個人官網"}],"social_media":null,"platform":"","param":{"bills_role_statistics":{"total":139,"priproposer":0,"sponsor":0,"cosponsor":139},"bills_party_diversity":[{"party":"無黨籍","ratio":0.4166244298023315},{"party":"中國國民黨","ratio":0.2843385707045109},{"party":"民主進步黨","ratio":0.25646224024328435},{"party":"臺灣團結聯盟","ratio":0.04257475924987329}]},"councilor":"fb435e01f59440fba4f16b700e1adfe0"}],"uid":"fb435e01f59440fba4f16b700e1adfe0","name":"郭文居","birth":null,"former_names":"","identifiers":["郭文居"]},{"url":"http://councils.g0v.tw/api/councilors/1384/","each_terms":[{"url":"http://councils.g0v.tw/api/councilors_terms/2310/","election_year":"2009","name":"李忠曆","gender":"男","party":"無黨籍","title":"","constituency":2,"county":"嘉義市","district":"西區","in_office":true,"contact_details":[{"type":"address","value":"嘉義市玉康路353號","label":"通訊處"},{"type":"voice","value":"05-2351690　　","label":"電話"}],"term_start":"2009-12-25","term_end":{"date":"2014-12-25"},"education":"垂楊國小\n大業國中\n嘉義高工附設進修補習學校。","experience":"純一營造廠有限公司負責人\n皇綺營造有限公司負責人\n石庫瀝青工業股份有限公司總經理\n上井加油站有限公司總經理\n民雄分局北斗派出所警友站站長\n嘉義縣加油站公會候補監事\n長榮派出所警友站站長\n北斗派出所榮譽站長。","remark":null,"image":"http://www.cycc.gov.tw/files/b/we001.JPG","links":[{"url":"http://www.cycc.gov.tw/form1/index-2.asp?m=99&m1=4&m2=15&mode=2&id=12","note":"議會個人官網"}],"social_media":null,"platform":"一、河川整治，排水系統應流暢，嚴防水災\n二、市區消防栓配合道路拓寬，需普遍設置以備應急，降低火災損失\n三、建立社區守望相助，提昇生活安定\n四、拓寬計劃道路，活絡交通，規劃森林鐵路美化市區創造商機\n五、檢討土地使用現況，變更地目受惠全體市民，並促進鐵路東西新市鎮藍圖，策劃共同管線地下化，更新市區環境\n六、全面推動小學附設公立幼稚園，減輕市民沉重負擔\n七、興建長青活動園區使老人有所休閒活動，提昇青年就業問題\n八、檢討市政府預算編列是否合理，全力推動重點建設\n九、開闢財源，鼓勵外資，整合規劃，配合民代爭取中央補助\n十、全市民相扶相持急難救助，增進社會安祥、快樂","param":{"bills_role_statistics":{"total":32,"priproposer":1,"sponsor":1,"cosponsor":31},"diversity":{"中國國民黨":0.29354024753840935,"民主進步黨":0.30054556860623044,"臺灣團結聯盟":0.08222356177319409,"無黨籍":0.32369062208216626}},"councilor":"64ad4b0042ad49179b2d430e2e03f49a"},{"url":"http://councils.g0v.tw/api/councilors_terms/3090/","election_year":"2014","name":"李忠曆","gender":"男","party":"無黨籍","title":"議員","constituency":2,"county":"嘉義市","district":"西區","in_office":true,"contact_details":[{"type":"voice","value":"05-2351690","label":"電話"},{"type":"address","value":"嘉義市新民路886號之2","label":"地址"}],"term_start":"2014-12-25","term_end":{"date":"2018-12-25"},"education":"","experience":"","remark":null,"image":"http://www.cycc.gov.tw/files/b/we001.JPG","links":[{"url":"http://www.cycc.gov.tw/form1/index-2.asp?m=99&m1=4&m2=15&mode=2&id=12","note":"議會個人官網"}],"social_media":null,"platform":"","param":{"bills_role_statistics":{"total":168,"priproposer":2,"sponsor":2,"cosponsor":166},"bills_party_diversity":[{"party":"無黨籍","ratio":0.444648598989435},{"party":"民主進步黨","ratio":0.28938906752411575},{"party":"中國國民黨","ratio":0.2140560404225999},{"party":"臺灣團結聯盟","ratio":0.051906293063849335}]},"councilor":"64ad4b0042ad49179b2d430e2e03f49a"}],"uid":"64ad4b0042ad49179b2d430e2e03f49a","name":"李忠曆","birth":null,"former_names":"","identifiers":["李忠曆","李忠曆"]},{"url":"http://councils.g0v.tw/api/councilors/1820/","each_terms":[{"url":"http://councils.g0v.tw/api/councilors_terms/3100/","election_year":"2014","name":"陳姿妏","gender":"女","party":"無黨籍","title":"議員","constituency":2,"county":"嘉義市","district":"西區","in_office":true,"contact_details":[{"type":"address","value":"嘉義市西區垂楊里上海路358號","label":"地址"}],"term_start":"2014-12-25","term_end":{"date":"2018-12-25"},"education":"大同技術學院運動健康與休閒系","experience":"國立嘉義大學體育與健康休閒研究所,嘉義市義消總隊副團長,嘉義市紅十字會顧問,嘉義市餐飲職業工會顧問","remark":null,"image":"http://www.cycc.gov.tw/files/b/%B3%AF%AB%BA%CA%B9.jpg","links":[{"url":"http://www.cycc.gov.tw/form1/index-2.asp?m=99&m1=4&m2=15&mode=2&id=34","note":"議會個人官網"}],"social_media":null,"platform":"","param":{"bills_role_statistics":{"total":212,"priproposer":7,"sponsor":7,"cosponsor":205},"bills_party_diversity":[{"party":"無黨籍","ratio":0.435778175313059},{"party":"民主進步黨","ratio":0.28336314847942756},{"party":"中國國民黨","ratio":0.23828264758497317},{"party":"臺灣團結聯盟","ratio":0.04257602862254025}]},"councilor":"729c3d7b5b924c7caf35ecee91bfd859"}],"uid":"729c3d7b5b924c7caf35ecee91bfd859","name":"陳姿妏","birth":null,"former_names":"","identifiers":["陳姿妏"]},{"url":"http://councils.g0v.tw/api/councilors/1379/","each_terms":[{"url":"http://councils.g0v.tw/api/councilors_terms/3102/","election_year":"2014","name":"張秀華","gender":"女","party":"中國國民黨","title":"議員","constituency":2,"county":"嘉義市","district":"西區","in_office":true,"contact_details":[{"type":"email","value":"q2383258@yahoo.com.tw","label":"E-mail"},{"type":"voice","value":"05-2311918","label":"電話"},{"type":"fax","value":"05-2318789","label":"傳真"},{"type":"address","value":"嘉義市自由路121號","label":"地址"}],"term_start":"2014-12-25","term_end":{"date":"2018-12-25"},"education":"國立台灣體育學院碩士","experience":"嘉鳳獅子會第八屆會長、國際獅子會300DI區區策顧問、體育會顧問、中正大學基金會顧問、嘉義市鳳凰志工大隊顧問、嘉義市警察志工第一中隊中隊長、世明慈惠堂副主任委員、嘉義市工業會顧問、國際佛光會嘉太分會顧問、家庭扶助基金會顧問、財團法人國立中正大學學術基金會顧問、嘉義市張簡姓宗親會顧問、嘉義市議會第六、七、八屆議員","remark":null,"image":"http://www.cycc.gov.tw/files/b/%B1i%A8q%B5%D8%281%29.jpg","links":[{"url":"http://www.cycc.gov.tw/form1/index-2.asp?m=99&m1=4&m2=15&mode=2&id=22","note":"議會個人官網"}],"social_media":null,"platform":"","param":{"bills_role_statistics":{"total":193,"priproposer":41,"sponsor":41,"cosponsor":152},"bills_party_diversity":[{"party":"無黨籍","ratio":0.42275810097965333},{"party":"中國國民黨","ratio":0.2807083647324793},{"party":"民主進步黨","ratio":0.25470987189148453},{"party":"臺灣團結聯盟","ratio":0.04182366239638282}]},"councilor":"23b4ec24d66e4faea88d46830ef91c1e"},{"url":"http://councils.g0v.tw/api/councilors_terms/2305/","election_year":"2009","name":"張秀華","gender":"女","party":"中國國民黨","title":"","constituency":2,"county":"嘉義市","district":"西區","in_office":true,"contact_details":[{"type":"address","value":"嘉義市自由路121號","label":"通訊處"},{"type":"voice","value":"05-2311918　　","label":"電話"},{"type":"fax","value":"05-2318789　　","label":"傳真"}],"term_start":"2009-12-25","term_end":{"date":"2014-12-25"},"education":"國立台灣體育學院碩士\n","experience":"嘉鳳獅子會第八屆會長、國際獅子會300DI區區策顧問、體育會顧問、中正大學基金會顧問、嘉義市鳳凰志工大隊顧問、嘉義市警察志工第一中隊中隊長、世明慈惠堂副主任委員、嘉義市工業會顧問、國際佛光會嘉太分會顧問、家庭扶助基金會顧問、財團法人國立中正大學學術基金會顧問、嘉義市張簡姓宗親會顧問、嘉義市議會第六、七、八屆議員\n","remark":null,"image":"http://www.cycc.gov.tw/files/b/%E5%BC%B5%E7%A7%80%E8%8F%AF%281%29.jpg","links":[{"url":"http://www.cycc.gov.tw/form1/index-2.asp?m=99&m1=4&m2=15&mode=2&id=22","note":"議會個人官網"}],"social_media":null,"platform":"一、遵守民主憲政，國家利益至上，全民利益優惠\n二、絕不循黨派之私而犧牲全體市民利益，也絕不考慮個人的利害得失而有違民意的期待和託付\n三、提昇議會問政水準，跳脫老議會文化的巢臼，真正落實民意基礎，充分發揮議事效能\n四、理性專業問政，嚴格監督市政，不循私枉法，不怠忽職守\n五、苦民之所苦，急民之所急，不推諉，不卸責，矢志為嘉義市民犧牲奉獻到底\n六、推動市府善加利用嘉義特色發展觀光事業，藉以吸引更多外客樂意到嘉義市觀光消費，不僅可促進嘉義市經濟繁榮，也可替市府帶來更多的稅收\n七、督促政府重視地方教育，利用有限的教育資源全力提昇地方教育文化品質\n八、推動婦幼福利政策，落實照顧弱勢團體，尤其獨居老人都能得到妥善的照顧\n九、重視社區老人休閒娛樂及假日親子活動，督促市府作完善的規劃設施\n十、推動社區守望相助，加強警民合作共同打擊犯罪，給市民一個平安快樂生活環境\n十一、督促市府相關單位徹底整頓改善交通亂象，帶給市民一個清淨安祥的生活空間\n十二、配合市府振興地方經濟方案，全力挽救日益嚴重的失業問題\n十三、重視基層勞動的生活品質，為貧窮社區爭取更多的地方建設經費，為低收入家庭爭取更多的生活補助\n十四、結合民間社會團體從事各項公益活動，為嘉義市民多盡一份心力","param":{"bills_role_statistics":{"total":39,"priproposer":4,"sponsor":4,"cosponsor":35},"suggestions_piles":[{"count":0,"tokens":"協會|學會|商會|公會|協進會|促進會|研習會|婦聯會|婦女會|體育會|同心會|農會|早起會|健身會|宗親會|功德會|商業會|長青會|民眾服務社|聯盟","sum":0,"label":"協會"},{"count":0,"tokens":"辦公室|辦公處","sum":0,"label":"辦公室"},{"count":0,"tokens":"廟|宮","sum":0,"label":"廟"},{"count":0,"tokens":"警察局|分局","sum":0,"label":"警察局"},{"count":0,"tokens":"消防局|消防隊|分隊|中隊","sum":0,"label":"消防局"},{"count":0,"tokens":"國中|國小","sum":0,"label":"國中、國小"}],"suggestions_associations":[{"count":0,"sum":0,"label":"社區發展協會"},{"count":0,"sum":0,"label":"學會"},{"count":0,"sum":0,"label":"商會"},{"count":0,"sum":0,"label":"公會"},{"count":0,"sum":0,"label":"協進會"},{"count":0,"sum":0,"label":"促進會"},{"count":0,"sum":0,"label":"研習會"},{"count":0,"sum":0,"label":"婦聯會"},{"count":0,"sum":0,"label":"婦女會"},{"count":0,"sum":0,"label":"體育會"},{"count":0,"sum":0,"label":"同心會"},{"count":0,"sum":0,"label":"農會"},{"count":0,"sum":0,"label":"早起會"},{"count":0,"sum":0,"label":"健身會"},{"count":0,"sum":0,"label":"宗親會"},{"count":0,"sum":0,"label":"功德會"},{"count":0,"sum":0,"label":"商業會"},{"count":0,"sum":0,"label":"長青會"},{"count":0,"sum":0,"label":"民眾服務社"},{"count":0,"sum":0,"label":"聯盟"}],"diversity":{"中國國民黨":0.385902931491167,"民主進步黨":0.25046244605068135,"臺灣團結聯盟":0.05857067768832474,"無黨籍":0.30506394476982707},"suggestions_years":{"count":4,"sum":4882333,"years":[{"count":4,"sum":4882333,"suggest_year":"2012","small_purchase":0}]}},"councilor":"23b4ec24d66e4faea88d46830ef91c1e"}],"uid":"23b4ec24d66e4faea88d46830ef91c1e","name":"張秀華","birth":null,"former_names":"","identifiers":["張秀華"]},{"url":"http://councils.g0v.tw/api/councilors/1377/","each_terms":[{"url":"http://councils.g0v.tw/api/councilors_terms/2303/","election_year":"2009","name":"王美惠","gender":"女","party":"民主進步黨","title":"","constituency":2,"county":"嘉義市","district":"西區","in_office":true,"contact_details":[{"type":"address","value":"嘉義市新榮路162號","label":"通訊處"},{"type":"voice","value":"05-2222259　　","label":"電話"}],"term_start":"2009-12-25","term_end":{"date":"2014-12-25"},"education":"國立嘉義高中畢業。","experience":"1.國立嘉義大學肄業\n2.現任嘉義市議員\n3.民主進步黨全國黨代表\n4.嘉義市扁友會後援會副總幹事\n5.陳水扁活力旺後援會副總幹事\n6.511臺灣正名運動嘉義代表\n7.前市議員江熙哲（江總）服務處主任","remark":null,"image":"http://www.cycc.gov.tw/files/b/%E7%8E%8B%E7%BE%8E%E6%83%A0%281%29.jpg","links":[{"url":"http://www.cycc.gov.tw/form1/index-2.asp?m=99&m1=4&m2=15&mode=2&id=24","note":"議會個人官網"}],"social_media":null,"platform":"「監督市政，為民服務」。","param":{"bills_role_statistics":{"total":38,"priproposer":6,"sponsor":7,"cosponsor":31},"diversity":{"中國國民黨":0.32485469466893635,"民主進步黨":0.3178988581078364,"臺灣團結聯盟":0.05070497098360875,"無黨籍":0.3065414762396187}},"councilor":"eef060bfc7a941e7a6ee169169e28d91"},{"url":"http://councils.g0v.tw/api/councilors_terms/3099/","election_year":"2014","name":"王美惠","gender":"女","party":"民主進步黨","title":"議員","constituency":2,"county":"嘉義市","district":"西區","in_office":true,"contact_details":[{"type":"voice","value":"05-2222259","label":"電話"},{"type":"address","value":"嘉義市新榮路162號","label":"地址"}],"term_start":"2014-12-25","term_end":{"date":"2018-12-25"},"education":"","experience":"","remark":null,"image":"http://www.cycc.gov.tw/files/b/%A4%FD%AC%FC%B4f%281%29.jpg","links":[{"url":"http://www.cycc.gov.tw/form1/index-2.asp?m=99&m1=4&m2=15&mode=2&id=24","note":"議會個人官網"}],"social_media":null,"platform":"","param":{"bills_role_statistics":{"total":268,"priproposer":45,"sponsor":52,"cosponsor":216},"bills_party_diversity":[{"party":"無黨籍","ratio":0.42514285714285716},{"party":"民主進步黨","ratio":0.2774285714285714},{"party":"中國國民黨","ratio":0.254},{"party":"臺灣團結聯盟","ratio":0.04342857142857143}]},"councilor":"eef060bfc7a941e7a6ee169169e28d91"}],"uid":"eef060bfc7a941e7a6ee169169e28d91","name":"王美惠","birth":null,"former_names":"","identifiers":["王美惠"]},{"url":"http://councils.g0v.tw/api/councilors/1376/","each_terms":[{"url":"http://councils.g0v.tw/api/councilors_terms/2302/","election_year":"2009","name":"陳幸枝","gender":"女","party":"民主進步黨","title":"","constituency":2,"county":"嘉義市","district":"西區","in_office":true,"contact_details":[{"type":"address","value":"嘉義市西區新厝里15鄰保安一路120號","label":"通訊處"},{"type":"voice","value":"05-2328228　　","label":"電話"}],"term_start":"2009-12-25","term_end":{"date":"2014-12-25"},"education":"1.立仁高中畢業\n2.北興國中畢業\n3.博愛國小畢業","experience":"一、嘉義市議會議員\n二、嘉義市西區調解委員\n三、民進黨水噹噹嘉義市會長\n四、嘉義市瑜珈推廣協會名譽理事長\n五、任新厝里三屆里長\n六、嘉義市後備憲兵荷松協會梅荷會長\n七、中華民國紅十字會嘉義市副會長\n八、國立嘉義高中家長會副會長\n九、興嘉、世賢國小家長會顧問\n十、正德護生慈善會理事","remark":null,"image":"http://www.cycc.gov.tw/files/b/%E9%99%B3%E5%B9%B8%E6%9E%9D%281%29.jpg","links":[{"url":"http://www.cycc.gov.tw/form1/index-2.asp?m=99&m1=4&m2=15&mode=2&id=23","note":"議會個人官網"}],"social_media":null,"platform":"一、當願深入基層，反映市民疾苦，加強市政監督，全面改善，以提昇本市道路環境空氣品質\n二、督請政府重視婦幼安全，提昇婦女權益\n加強老人、殘障者福利，並建立大型安養中心\n三、積極爭取各國中小在每間教室設置電子白板，減少使用粉筆帶來的污染\n四、配合中央民代爭取國中小學生營養午餐全面免費、造福學子\n五、繼續爭取市府北棟辦公大樓早日興建\n六、繼續爭取在文小三增建50公尺標準游泳池，以便比賽使用\n七、督請市府儘快開發西區生化科技工業園區，以增加市民就業機會，杜絕人口外流，繁榮地方\n八、建請本黨高層人士在西區爭取設立一所高級中學\n九、督請市府早日打通市區死巷道路，以滿足市民行的權利，並加強防災安全系統建立\n十、督請市府全面檢討地下排水系統規劃、加強疏通，並解決低窪地區排水問題，改造居家環境","param":{"bills_role_statistics":{"total":34,"priproposer":2,"sponsor":4,"cosponsor":30},"diversity":{"中國國民黨":0.3113922217728447,"民主進步黨":0.3674135697059573,"臺灣團結聯盟":0.060101634236582324,"無黨籍":0.26109257428461585}},"councilor":"f05d2ac73a3d49a3b1d13f381f5bfe7d"},{"url":"http://councils.g0v.tw/api/councilors_terms/3101/","election_year":"2014","name":"陳幸枝","gender":"女","party":"民主進步黨","title":"議員","constituency":2,"county":"嘉義市","district":"西區","in_office":true,"contact_details":[{"type":"voice","value":"05-2328228","label":"電話"},{"type":"address","value":"嘉義市西區新厝里15鄰保安一路120號","label":"地址"}],"term_start":"2014-12-25","term_end":{"date":"2018-12-25"},"education":"","experience":"","remark":null,"image":"http://www.cycc.gov.tw/files/b/%B3%AF%A9%AF%AAK%281%29.jpg","links":[{"url":"http://www.cycc.gov.tw/form1/index-2.asp?m=99&m1=4&m2=15&mode=2&id=23","note":"議會個人官網"}],"social_media":null,"platform":"","param":{"bills_role_statistics":{"total":210,"priproposer":16,"sponsor":16,"cosponsor":194},"bills_party_diversity":[{"party":"無黨籍","ratio":0.42548596112311016},{"party":"民主進步黨","ratio":0.2980561555075594},{"party":"中國國民黨","ratio":0.23290136789056876},{"party":"臺灣團結聯盟","ratio":0.0435565154787617}]},"councilor":"f05d2ac73a3d49a3b1d13f381f5bfe7d"}],"uid":"f05d2ac73a3d49a3b1d13f381f5bfe7d","name":"陳幸枝","birth":null,"former_names":"","identifiers":["陳幸枝"]},{"url":"http://councils.g0v.tw/api/councilors/1821/","each_terms":[{"url":"http://councils.g0v.tw/api/councilors_terms/3103/","election_year":"2014","name":"林緗亭","gender":"女","party":"民主進步黨","title":"議員","constituency":1,"county":"嘉義縣","district":"太保市、水上鄉、鹿草鄉","in_office":true,"contact_details":[{"type":"voice","value":"05-260-0553","label":"電話"},{"type":"address","value":"嘉義縣水上鄉龍德村4鄰十一指厝103號","label":"通訊處"}],"term_start":"2014-12-25","term_end":{"date":"2018-12-25"},"education":"1國立中正大學政治學碩士畢業。\n2世新大學法律系畢業。\n3宏仁女中。\n4興華國中。\n5水上國小。","experience":"1嘉義縣小英之友會執行秘書。\n2立法委員林國慶國會辦公室主任。\n3嘉義縣文化觀光局科員。\n4凱達格蘭學校國家發展策略班。\n5「水上人家＠幸福嘉人」FB社團管理人。\n6嘉義縣林氏宗親會發展委員。","remark":"","image":"http://www.cyscc.gov.tw/template/DisplaySmallPicture.ashx?p=/Upload/Parliamentary/87/635560518920105053.jpg&w=145&h=170","links":[{"url":"http://www.cyscc.gov.tw/chinese/Parliamentary_Detail.aspx?s=87&n=29","note":"議會個人官網"}],"social_media":null,"platform":"23.5  幸福政見\n2  大承諾：\n清廉問政、不貪不取\n用心服務、絕不作秀\n3  大訴求：\n讓水上、太保、鹿草成為全嘉義縣最擁有社福力及經濟力的鄉鎮\n超越黨派、不分藍綠、嘉義優先\n公民視野、監督縣政\n5  大主張：\n好幸福-推展安家護老支援服務，嘉義老人有保護；推動社會救助，落實照顧弱勢族群。\n好安心-推動「食在安心」在嘉新品牌，讓消費者放心買，安心吃。\n好居嘉-改善農村公共設施，營造田園城市幸福居嘉好環境。\n好農易-推動精緻農業於休閒觀光產業，再創農業新世代。\n好賺嘉-鼓勵青年返鄉就業，爭取開創青、壯年創業獎補助。","param":{"bills_role_statistics":{"total":108,"priproposer":31,"sponsor":32,"cosponsor":76},"suggestions_years":{"count":27,"sum":13474875,"years":[{"count":18,"sum":6480000,"suggest_year":"2015","small_purchase":2},{"count":9,"sum":6994875,"suggest_year":"2016","small_purchase":1}]},"suggestions_associations":[{"count":0,"sum":0,"label":"社區發展協會"},{"count":0,"sum":0,"label":"學會"},{"count":0,"sum":0,"label":"商會"},{"count":0,"sum":0,"label":"公會"},{"count":0,"sum":0,"label":"協進會"},{"count":0,"sum":0,"label":"促進會"},{"count":0,"sum":0,"label":"研習會"},{"count":0,"sum":0,"label":"婦聯會"},{"count":0,"sum":0,"label":"婦女會"},{"count":0,"sum":0,"label":"體育會"},{"count":0,"sum":0,"label":"同心會"},{"count":0,"sum":0,"label":"農會"},{"count":0,"sum":0,"label":"早起會"},{"count":0,"sum":0,"label":"健身會"},{"count":0,"sum":0,"label":"宗親會"},{"count":0,"sum":0,"label":"功德會"},{"count":0,"sum":0,"label":"商業會"},{"count":0,"sum":0,"label":"長青會"},{"count":0,"sum":0,"label":"民眾服務社"},{"count":0,"sum":0,"label":"聯盟"}],"suggestions_piles":[{"count":3,"tokens":"廟|宮","sum":380000,"label":"廟"},{"count":0,"tokens":"協會|學會|商會|公會|協進會|促進會|研習會|婦聯會|婦女會|體育會|同心會|農會|早起會|健身會|宗親會|功德會|商業會|長青會|民眾服務社|聯盟","sum":0,"label":"協會"},{"count":0,"tokens":"辦公室|辦公處","sum":0,"label":"辦公室"},{"count":0,"tokens":"警察局|分局","sum":0,"label":"警察局"},{"count":0,"tokens":"消防局|消防隊|分隊|中隊","sum":0,"label":"消防局"},{"count":0,"tokens":"國中|國小","sum":0,"label":"國中、國小"}],"bills_party_diversity":[{"party":"民主進步黨","ratio":0.5307820299500832},{"party":"無黨籍","ratio":0.4509151414309484},{"party":"中國國民黨","ratio":0.013311148086522463},{"party":"","ratio":0.004991680532445923}]},"councilor":"dd98791a63b84a07bff49da0cb7f700c"}],"uid":"dd98791a63b84a07bff49da0cb7f700c","name":"林緗亭","birth":null,"former_names":"","identifiers":["林緗亭","林緗亭"]}]}