{"count":1904,"next":"http://councils.g0v.tw/api/councilors/?page=170","previous":"http://councils.g0v.tw/api/councilors/?page=168","results":[{"url":"http://councils.g0v.tw/api/councilors/547/","each_terms":[{"url":"http://councils.g0v.tw/api/councilors_terms/940/","election_year":"1977","name":"劉寬明","gender":"","party":"","title":"議員","constituency":2,"county":"新北市","district":"樹林鎮、鶯歌鎮、三峽鎮","in_office":true,"contact_details":null,"term_start":"1977-12-30","term_end":{"date":"1982-02-28"},"education":"樹林國小畢業\n樹林國中畢業\n醒吾商專觀光事業科\n國防管理學校（預官２１期）\n後幹班８２期","experience":"樹林鎮兵役協會常務委員\n三峽分局義消中隊顧問\n樹林鎮調解委員會委員\n樹林鎮第10、11屆鎮長\n台北縣議會第9、10屆議員\n救國團樹林團委會委員\n樹林國中家長會長\n民國95年1月25日歿","remark":null,"image":"http://www.ntp.gov.tw/UpFile/CouncilorFile/TTCC0922.jpg","links":[{"url":"http://www.ntp.gov.tw/content/history/history01-5-p.aspx?sid=334","note":"議會個人官網"}],"social_media":null,"platform":"","param":null,"councilor":"d8a7b8979c904aa29eec477444207306"},{"url":"http://councils.g0v.tw/api/councilors_terms/1058/","election_year":"1982","name":"劉寬明","gender":"","party":"","title":"議員","constituency":3,"county":"新北市","district":"樹林鎮、鶯歌鎮、三峽鎮","in_office":true,"contact_details":null,"term_start":"1982-03-01","term_end":{"date":"1986-02-28"},"education":"樹林國小畢業\n樹林國中畢業\n醒吾商專觀光事業科\n國防管理學校（預官２１期）\n後幹班８２期","experience":"樹林鎮兵役協會常務委員\n三峽分局義消中隊顧問\n樹林鎮調解委員會委員\n樹林鎮第10、11屆鎮長\n台北縣議會第9、10屆議員\n救國團樹林團委會委員\n樹林國中家長會長\n民國95年1月25日歿","remark":null,"image":"http://www.ntp.gov.tw/UpFile/CouncilorFile/TTCC0922.jpg","links":[{"url":"http://www.ntp.gov.tw/content/history/history01-5-p.aspx?sid=334","note":"議會個人官網"}],"social_media":null,"platform":"","param":null,"councilor":"d8a7b8979c904aa29eec477444207306"}],"uid":"d8a7b8979c904aa29eec477444207306","name":"劉寬明","birth":null,"former_names":"","identifiers":["劉寬明","劉寬明"]},{"url":"http://councils.g0v.tw/api/councilors/518/","each_terms":[{"url":"http://councils.g0v.tw/api/councilors_terms/875/","election_year":"1968","name":"胡彩鳳","gender":"","party":"","title":"議員","constituency":3,"county":"新北市","district":"新莊鎮、蘆洲鄉、五股鄉、泰山鄉、林口鄉","in_office":true,"contact_details":null,"term_start":"1968-02-21","term_end":{"date":"1973-04-30"},"education":"私立純德女中畢業\n革命實踐研究院結業","experience":"泰山鄉民代表會第六屆副主席\n台北縣婦女會常務理事\n泰山鄉民眾服務分社理事長\n中國國民黨11區黨部常委\n泰山戲院負責人\n臺北縣議會第6、7屆議員\n*民國91年3月14日歿","remark":null,"image":"http://www.ntp.gov.tw/UpFile/CouncilorFile/TTCC0620.jpg","links":[{"url":"http://www.ntp.gov.tw/content/history/history01-5-p.aspx?sid=258","note":"議會個人官網"}],"social_media":null,"platform":"","param":null,"councilor":"6af49d8096964d73b837cb25090567a9"},{"url":"http://councils.g0v.tw/api/councilors_terms/1844/","election_year":"1964","name":"胡彩鳳","gender":"","party":"","title":"議員","constituency":3,"county":"新北市","district":"新莊鎮、蘆洲鄉、五股鄉、泰山鄉、林口鄉","in_office":true,"contact_details":null,"term_start":"1964-02-21","term_end":{"date":"1968-02-20"},"education":"私立純德女中畢業\n革命實踐研究院結業","experience":"泰山鄉民代表會第六屆副主席\n台北縣婦女會常務理事\n泰山鄉民眾服務分社理事長\n中國國民黨11區黨部常委\n泰山戲院負責人\n臺北縣議會第6、7屆議員\n*民國91年3月14日歿","remark":null,"image":"http://www.ntp.gov.tw/UpFile/CouncilorFile/TTCC0620.jpg","links":[{"url":"http://www.ntp.gov.tw/content/history/history01-5-p.aspx?sid=258","note":"議會個人官網"}],"social_media":null,"platform":"","param":null,"councilor":"6af49d8096964d73b837cb25090567a9"}],"uid":"6af49d8096964d73b837cb25090567a9","name":"胡彩鳳","birth":null,"former_names":"","identifiers":["胡彩鳯","胡彩鳳"]},{"url":"http://councils.g0v.tw/api/councilors/519/","each_terms":[{"url":"http://councils.g0v.tw/api/councilors_terms/876/","election_year":"1968","name":"白再益","gender":"","party":"","title":"議員","constituency":4,"county":"新北市","district":"三重市","in_office":true,"contact_details":null,"term_start":"1968-02-21","term_end":{"date":"1973-04-30"},"education":"日本航空機材工科學校畢","experience":"三重鎮民代表\n三重兵役協會委員\n三重貧民施醫審查會委員\n三重民防隊指揮員、顧問\n三重鎮三光國校家長會顧問\n新莊區民防隊三重埔中隊指導員\n興亞機器廠顧問\n私立遠東汽車補習班主任\n旭興機電廠經理\n臺北縣議會第4、6、7屆議員","remark":null,"image":"http://www.ntp.gov.tw/UpFile/CouncilorFile/TTCC0431.jpg","links":[{"url":"http://www.ntp.gov.tw/content/history/history01-5-p.aspx?sid=202","note":"議會個人官網"}],"social_media":null,"platform":"","param":null,"councilor":"6bfcb85eba1f4f728d9ef1b54e97425f"},{"url":"http://councils.g0v.tw/api/councilors_terms/1709/","election_year":"1958","name":"白再益","gender":"","party":"","title":"議員","constituency":3,"county":"新北市","district":"新莊鎮、泰山鄉、三重鎮、五股鄉、林口鄉、蘆洲鄉","in_office":true,"contact_details":null,"term_start":"1958-02-21","term_end":{"date":"1961-02-20"},"education":"日本航空機材工科學校畢","experience":"三重鎮民代表\n三重兵役協會委員\n三重貧民施醫審查會委員\n三重民防隊指揮員、顧問\n三重鎮三光國校家長會顧問\n新莊區民防隊三重埔中隊指導員\n興亞機器廠顧問\n私立遠東汽車補習班主任\n旭興機電廠經理\n臺北縣議會第4、6、7屆議員","remark":null,"image":"http://www.ntp.gov.tw/UpFile/CouncilorFile/TTCC0431.jpg","links":[{"url":"http://www.ntp.gov.tw/content/history/history01-5-p.aspx?sid=202","note":"議會個人官網"}],"social_media":null,"platform":"","param":null,"councilor":"6bfcb85eba1f4f728d9ef1b54e97425f"},{"url":"http://councils.g0v.tw/api/councilors_terms/1838/","election_year":"1964","name":"白再益","gender":"","party":"","title":"議員","constituency":4,"county":"新北市","district":"三重市","in_office":true,"contact_details":null,"term_start":"1964-02-21","term_end":{"date":"1968-02-20"},"education":"日本航空機材工科學校畢","experience":"三重鎮民代表\n三重兵役協會委員\n三重貧民施醫審查會委員\n三重民防隊指揮員、顧問\n三重鎮三光國校家長會顧問\n新莊區民防隊三重埔中隊指導員\n興亞機器廠顧問\n私立遠東汽車補習班主任\n旭興機電廠經理\n臺北縣議會第4、6、7屆議員","remark":null,"image":"http://www.ntp.gov.tw/UpFile/CouncilorFile/TTCC0431.jpg","links":[{"url":"http://www.ntp.gov.tw/content/history/history01-5-p.aspx?sid=202","note":"議會個人官網"}],"social_media":null,"platform":"","param":null,"councilor":"6bfcb85eba1f4f728d9ef1b54e97425f"}],"uid":"6bfcb85eba1f4f728d9ef1b54e97425f","name":"白再益","birth":null,"former_names":"","identifiers":["白再益"]},{"url":"http://councils.g0v.tw/api/councilors/548/","each_terms":[{"url":"http://councils.g0v.tw/api/councilors_terms/941/","election_year":"1977","name":"曾憲坤","gender":"","party":"","title":"議員","constituency":1,"county":"新北市","district":"板橋市、中和鄉、永和鎮、土城鄉","in_office":true,"contact_details":null,"term_start":"1977-12-30","term_end":{"date":"1982-02-28"},"education":"湖南長沙私立三一小學畢\n湖南私立周南女中初畢\n湖南私立周南女中高畢\n臺灣省立臺北師專肄\n省立屏東師範輔導區國衛生導師講習班結業\n省訓團民族精神教育業務講習班結業","experience":"後方醫院政指室幹事\n軍政部附設四維小學第9分校訓育主任\n小弟小學訓育主任\n軍械保養團軍需\n雲南昆明聖光小學教員\n鳳山鎮誠正國小訓導課長\n第5、6屆鎮民代表\n臺灣省教育會理事、監事\n臺北縣私立及人國小輔導室主任\n女童軍分會理事\n臺北縣議會第9屆議員","remark":null,"image":"http://www.ntp.gov.tw/UpFile/CouncilorFile/TTCC0921.jpg","links":[{"url":"http://www.ntp.gov.tw/content/history/history01-5-p.aspx?sid=333","note":"議會個人官網"}],"social_media":null,"platform":"","param":null,"councilor":"a71a508fd636425d91c3d954319036e1"}],"uid":"a71a508fd636425d91c3d954319036e1","name":"曾憲坤","birth":null,"former_names":"","identifiers":["曽憲坤","曾憲坤"]},{"url":"http://councils.g0v.tw/api/councilors/549/","each_terms":[{"url":"http://councils.g0v.tw/api/councilors_terms/943/","election_year":"1977","name":"胡炫","gender":"","party":"","title":"議員","constituency":1,"county":"新北市","district":"板橋市、中和鄉、永和鎮、土城鄉","in_office":true,"contact_details":null,"term_start":"1977-12-30","term_end":{"date":"1982-02-28"},"education":"陸軍軍官學校第１３期畢業\n國立臺灣大學法律系畢業","experience":"排連營長\n副團長\n師參謀長\n政治主任\n教官\n教員\n工專講師\n自治會長\n公論雜誌發行人\n臺北縣議會第9屆議員","remark":null,"image":"http://www.ntp.gov.tw/UpFile/CouncilorFile/TTCC0919.jpg","links":[{"url":"http://www.ntp.gov.tw/content/history/history01-5-p.aspx?sid=332","note":"議會個人官網"}],"social_media":null,"platform":"","param":null,"councilor":"81b618afd36b4562a14b1513f48dc5e4"}],"uid":"81b618afd36b4562a14b1513f48dc5e4","name":"胡炫","birth":null,"former_names":"","identifiers":["胡炫"]},{"url":"http://councils.g0v.tw/api/councilors/550/","each_terms":[{"url":"http://councils.g0v.tw/api/councilors_terms/944/","election_year":"1977","name":"劉克","gender":"","party":"","title":"議員","constituency":1,"county":"新北市","district":"板橋市、中和鄉、永和鎮、土城鄉","in_office":true,"contact_details":null,"term_start":"1977-12-30","term_end":{"date":"1982-02-28"},"education":"河南省立鎮平工業專科學校肄業\n陸軍軍官學校１６期步科畢業\n陸軍步兵學校高期班１１期畢業\n陸軍指揮參謀大學正１２期畢業","experience":"連、營、副團長及國防部參謀\n臺灣省議員\n國民黨中央委員\n臺北縣議會第9、10屆議員","remark":null,"image":"http://www.ntp.gov.tw/UpFile/CouncilorFile/TTCC0918.jpg","links":[{"url":"http://www.ntp.gov.tw/content/history/history01-5-p.aspx?sid=331","note":"議會個人官網"}],"social_media":null,"platform":"","param":null,"councilor":"40929acc0fd74cb4b7007253e17024ba"},{"url":"http://councils.g0v.tw/api/councilors_terms/1080/","election_year":"1982","name":"劉克","gender":"","party":"","title":"議員","constituency":1,"county":"新北市","district":"板橋市、土城鄉","in_office":true,"contact_details":null,"term_start":"1982-03-01","term_end":{"date":"1986-02-28"},"education":"河南省立鎮平工業專科學校肄業\n陸軍軍官學校１６期步科畢業\n陸軍步兵學校高期班１１期畢業\n陸軍指揮參謀大學正１２期畢業","experience":"連、營、副團長及國防部參謀\n臺灣省議員\n國民黨中央委員\n臺北縣議會第9、10屆議員","remark":null,"image":"http://www.ntp.gov.tw/UpFile/CouncilorFile/TTCC0918.jpg","links":[{"url":"http://www.ntp.gov.tw/content/history/history01-5-p.aspx?sid=331","note":"議會個人官網"}],"social_media":null,"platform":"","param":null,"councilor":"40929acc0fd74cb4b7007253e17024ba"}],"uid":"40929acc0fd74cb4b7007253e17024ba","name":"劉克","birth":null,"former_names":"","identifiers":["劉克","劉克"]},{"url":"http://councils.g0v.tw/api/councilors/551/","each_terms":[{"url":"http://councils.g0v.tw/api/councilors_terms/945/","election_year":"1977","name":"鍾國英","gender":"","party":"","title":"議員","constituency":1,"county":"新北市","district":"板橋市、中和鄉、永和鎮、土城鄉","in_office":true,"contact_details":null,"term_start":"1977-12-30","term_end":{"date":"1982-02-28"},"education":"臺大法律系\n黨幹班1期\n憲兵29期進修\n幹校政治系法學士","experience":"國民黨區級黨部常務委員\n政戰參謀官\n黨部評議委員\n警察局民防顧問\n世界大同促進會創始人兼執行長\n臺北縣議會第9屆議員\n「鐘聲評論」之發行人兼社長","remark":null,"image":"http://www.ntp.gov.tw/UpFile/CouncilorFile/TTCC0917.jpg","links":[{"url":"http://www.ntp.gov.tw/content/history/history01-5-p.aspx?sid=330","note":"議會個人官網"}],"social_media":null,"platform":"","param":null,"councilor":"2282a2efb15a486b95e94b5da0d16ec7"}],"uid":"2282a2efb15a486b95e94b5da0d16ec7","name":"鍾國英","birth":null,"former_names":"","identifiers":["鍾國英"]},{"url":"http://councils.g0v.tw/api/councilors/724/","each_terms":[{"url":"http://councils.g0v.tw/api/councilors_terms/1329/","election_year":"2002","name":"呂世喜","gender":"","party":"","title":"議員","constituency":3,"county":"新北市","district":"永和市","in_office":true,"contact_details":null,"term_start":"2002-03-01","term_end":{"date":"2006-02-28"},"education":"秀朗國小\n永和國中\n崇實高工","experience":"臺北縣議會第15屆議員\n永和代表會代表\n秀朗國小家長副長會\n頂溪國小顧問\n網溪國小顧問\n秀山國小顧問\n雲林同鄉會顧問\n臺北縣自閉症協會顧問\n中華民國關懷義工協會顧問\n國際同濟永和分會公共主委\n國際青商會行政特助","remark":null,"image":"http://www.ntp.gov.tw/UpFile/CouncilorFile/TTCC1517.jpg","links":[{"url":"http://www.ntp.gov.tw/content/history/history01-5-p.aspx?sid=507","note":"議會個人官網"}],"social_media":null,"platform":"","param":null,"councilor":"dc04a2b0285f4f819353d9fd01560b6d"}],"uid":"dc04a2b0285f4f819353d9fd01560b6d","name":"呂世喜","birth":null,"former_names":"","identifiers":["呂世喜"]},{"url":"http://councils.g0v.tw/api/councilors/727/","each_terms":[{"url":"http://councils.g0v.tw/api/councilors_terms/1339/","election_year":"2002","name":"李淑華","gender":"","party":"","title":"議員","constituency":1,"county":"新北市","district":"板橋市","in_office":true,"contact_details":null,"term_start":"2002-03-01","term_end":{"date":"2006-02-28"},"education":"江翠國小\n江翠國中\n稻江商職\n中興大學公共行政研究班","experience":"臺北縣議會第15屆議員\n板橋市第7、8屆市民代表\n中華民國第2屆中國媽媽\n中國媽媽最佳機智獎\n臺北縣韻律操推廣協會理事長\n海山高中家長委員\n國小代課老師\n板橋市兵役委員會委員\n救國團臺北縣工商青年社會服務隊第二隊召集人\n宋楚瑜總統大選板橋市後援會總幹事","remark":null,"image":"http://www.ntp.gov.tw/UpFile/CouncilorFile/TTCC1503.jpg","links":[{"url":"http://www.ntp.gov.tw/content/history/history01-5-p.aspx?sid=503","note":"議會個人官網"}],"social_media":null,"platform":"","param":null,"councilor":"c52e6640c068493094f8d3d5f9129463"}],"uid":"c52e6640c068493094f8d3d5f9129463","name":"李淑華","birth":null,"former_names":"","identifiers":["李淑華","李淑華"]},{"url":"http://councils.g0v.tw/api/councilors/728/","each_terms":[{"url":"http://councils.g0v.tw/api/councilors_terms/1342/","election_year":"2006","name":"忠仁‧達祿斯","gender":"","party":"","title":"議員","constituency":11,"county":"新北市","district":"平地原住民","in_office":true,"contact_details":null,"term_start":"2006-03-01","term_end":{"date":"2010-12-24"},"education":"台北市立體育專科學校畢業\n私立輔仁大學體育學系畢業","experience":"國家級壘球教練\n遠東區軟式少棒賽冠軍教練\n全國原住民族運動會台北縣代表隊總教練\n教育部第一期棒球專任教練\n臺灣基督長老教會丹鳳教會長老\n台北縣模範教師\n台北縣土城/清水/義學國中教師\n台北縣泰山鄉模範青年\n台北縣議會北台灣問政會執行長\n台北縣第16屆議員\n台北縣原住民體育發展協會理事長","remark":null,"image":"http://www.ntp.gov.tw/UpFile/CouncilorFile/TTCC1664.jpg","links":[{"url":"http://www.ntp.gov.tw/content/history/history01-5-p.aspx?sid=563","note":"議會個人官網"}],"social_media":null,"platform":"","param":null,"councilor":"30b520379af24144a077e891ae00e0fe"},{"url":"http://councils.g0v.tw/api/councilors_terms/1883/","election_year":"2010","name":"忠仁‧達祿斯","gender":"","party":"中國國民黨","title":"議員","constituency":11,"county":"新北市","district":"平地原住民","in_office":true,"contact_details":[{"type":"voice","value":"02-26756543","label":"電話"},{"type":"fax","value":"02-26758676","label":"傳真"},{"type":"address","value":"22072新北市板橋區溪城路63號","label":"通訊處"},{"type":"email","value":"talud0127@ntp.gov.tw","label":"E-mail"}],"term_start":"2010-12-25","term_end":{"date":"2014-12-24"},"education":"台北市立體育專科學校畢業\n私立輔仁大學體育學系畢業","experience":"國家級壘球教練\n遠東區軟式少棒賽冠軍教練\n全國原住民族運動會台北縣代表隊總教練\n教育部第一期棒球專任教練\n臺灣基督長老教會丹鳳教會長老\n台北縣模範教師\n台北縣土城/清水/義學國中教師\n台北縣泰山鄉模範青年\n台北縣議會北台灣問政會執行長\n台北縣第16屆議員\n台北縣原住民體育發展協會理事長","remark":null,"image":"http://www.ntp.gov.tw/UpFile/CouncilorFile/TTCC1664.jpg","links":[{"url":"http://www.ntp.gov.tw/content/list/list01-1-03-1.aspx?sid=563&cid=178","note":"議會個人官網"}],"social_media":null,"platform":"免費原住民長者裝置假牙\n免費原住民長者健康檢查\n免費原住民長者居家供餐\n免費原住民兒童托育\n免費原住民社會住宅（借住）\n免費原住民家用國民電腦每戶１台\n免費原住民學生電子書包每人１台\n補助原住民每人2000元購置傳統服飾\n補助原住民每月500元交通費\n補助原住民低價租住社會住宅\n原住民優先就業：保障法定就業機會並限制外勞比例\n原住民自立工場：廣開馬上就業機會並結合藝術觀光\n原住民文化園區：增加在地就業機會並保留傳統文化\n原住民學生免費運動訓練及社團活動\n原住民學生免費每月1本課外讀物","param":{"attendance_statistics":{"absent":19,"total":124},"bills_role_statistics":{"total":119,"priproposer":45,"sponsor":50,"cosponsor":69},"diversity":{"中國國民黨":0.8670812774480131,"無黨團結聯盟":0.036311040741988564,"民主進步黨":0.09599431421494939,"無黨籍":0.0006133675950486295},"bills_party_diversity":[{"party":"中國國民黨","ratio":0.6532867946480512},{"party":"民主進步黨","ratio":0.2786503781268179},{"party":"無黨團結聯盟","ratio":0.04304828388598022},{"party":"無黨籍","ratio":0.02152414194299011},{"party":"臺灣團結聯盟","ratio":0.0034904013961605585}]},"councilor":"30b520379af24144a077e891ae00e0fe"}],"uid":"30b520379af24144a077e891ae00e0fe","name":"忠仁‧達祿斯","birth":null,"former_names":"","identifiers":["忠仁‧達祿斯","忠仁達祿斯"]}]}