{"count":1904,"next":"http://councils.g0v.tw/api/councilors/?page=18","previous":"http://councils.g0v.tw/api/councilors/?page=16","results":[{"url":"http://councils.g0v.tw/api/councilors/500/","each_terms":[{"url":"http://councils.g0v.tw/api/councilors_terms/847/","election_year":"1968","name":"黃世溨","gender":"","party":"","title":"議員","constituency":8,"county":"新北市","district":"新店鎮、深坑鄉、石碇鄉、坪林鄉、烏來鄉山地鄉","in_office":true,"contact_details":null,"term_start":"1968-02-21","term_end":{"date":"1973-04-30"},"education":"深坑國小畢\n省立宜蘭高農４年結業\n特考民３９年乙級鄉鎮幹部人員考試及格","experience":"石碇國小教員\n石碇鄉公所民政課長\n深坑鄉公所秘書\n深坑鄉鄉長\n臺北縣議會第7屆議員\n民國101年1月29日歿","remark":null,"image":"http://www.ntp.gov.tw/UpFile/CouncilorFile/TTCC0753.jpg","links":[{"url":"http://www.ntp.gov.tw/content/history/history01-5-p.aspx?sid=294","note":"議會個人官網"}],"social_media":null,"platform":"","param":null,"councilor":"87c181fa86744898ad38e898ccc78028"}],"uid":"87c181fa86744898ad38e898ccc78028","name":"黃世溨","birth":null,"former_names":"","identifiers":["黄世溨","黃世溨"]},{"url":"http://councils.g0v.tw/api/councilors/501/","each_terms":[{"url":"http://councils.g0v.tw/api/councilors_terms/848/","election_year":"1973","name":"林延湯","gender":"","party":"","title":"議員","constituency":1,"county":"新北市","district":"板橋市、中和鄉、永和鎮、土城鄉","in_office":true,"contact_details":null,"term_start":"1973-05-01","term_end":{"date":"1977-12-29"},"education":"日据板橋國小（加高等科一年）\n淡江中學\n省立大甲高中\n日本近畿大學法律系畢","experience":"板橋市市民代表\n臺灣省建築同業工會常務理事\n板橋扶輪社社長\n臺北縣議會第7、8、9屆議員","remark":null,"image":"http://www.ntp.gov.tw/UpFile/CouncilorFile/TTCC0709.jpg","links":[{"url":"http://www.ntp.gov.tw/content/history/history01-5-p.aspx?sid=279","note":"議會個人官網"}],"social_media":null,"platform":"","param":null,"councilor":"5b11e78748aa4c61ad772b4a102f1a2c"},{"url":"http://councils.g0v.tw/api/councilors_terms/891/","election_year":"1968","name":"林延湯","gender":"","party":"","title":"議員","constituency":1,"county":"新北市","district":"板橋鎮、中和鄉、永和鎮、土城鄉","in_office":true,"contact_details":null,"term_start":"1968-02-21","term_end":{"date":"1973-04-30"},"education":"日据板橋國小（加高等科一年）\n淡江中學\n省立大甲高中\n日本近畿大學法律系畢","experience":"板橋市市民代表\n臺灣省建築同業工會常務理事\n板橋扶輪社社長\n臺北縣議會第7、8、9屆議員","remark":null,"image":"http://www.ntp.gov.tw/UpFile/CouncilorFile/TTCC0709.jpg","links":[{"url":"http://www.ntp.gov.tw/content/history/history01-5-p.aspx?sid=279","note":"議會個人官網"}],"social_media":null,"platform":"","param":null,"councilor":"5b11e78748aa4c61ad772b4a102f1a2c"},{"url":"http://councils.g0v.tw/api/councilors_terms/951/","election_year":"1977","name":"林延湯","gender":"","party":"","title":"議員","constituency":1,"county":"新北市","district":"板橋市、中和鄉、永和鎮、土城鄉","in_office":true,"contact_details":null,"term_start":"1977-12-30","term_end":{"date":"1982-02-28"},"education":"日据板橋國小（加高等科一年）\n淡江中學\n省立大甲高中\n日本近畿大學法律系畢","experience":"板橋市市民代表\n臺灣省建築同業工會常務理事\n板橋扶輪社社長\n臺北縣議會第7、8、9屆議員","remark":null,"image":"http://www.ntp.gov.tw/UpFile/CouncilorFile/TTCC0709.jpg","links":[{"url":"http://www.ntp.gov.tw/content/history/history01-5-p.aspx?sid=279","note":"議會個人官網"}],"social_media":null,"platform":"","param":null,"councilor":"5b11e78748aa4c61ad772b4a102f1a2c"}],"uid":"5b11e78748aa4c61ad772b4a102f1a2c","name":"林延湯","birth":null,"former_names":"","identifiers":["林延湯","林延湯"]},{"url":"http://councils.g0v.tw/api/councilors/927/","each_terms":[{"url":"http://councils.g0v.tw/api/councilors_terms/1659/","election_year":"1955","name":"黃春榜","gender":"","party":"","title":"議員","constituency":1,"county":"新北市","district":"板橋鎮、中和鄉、土城鄉","in_office":true,"contact_details":null,"term_start":"1955-01-16","term_end":{"date":"1958-02-20"},"education":"板橋公學校\n革命實踐研究院地方自治第１期結業","experience":"板橋社後里里長\n板橋鎮民代表\n板橋鎮民代表會主席\n板橋鎮調解委員會委員\n臺北縣議會第3屆議員\n財團法人大觀書社董事\n臺北縣黃氏宗親會理事長\n板橋老人會常務理事\n民國86年9月歿","remark":null,"image":"http://www.ntp.gov.tw/UpFile/CouncilorFile/TTCC0302.jpg","links":[{"url":"http://www.ntp.gov.tw/content/history/history01-5-p.aspx?sid=155","note":"議會個人官網"}],"social_media":null,"platform":"","param":null,"councilor":"6dc9650025cd498f9d8a8a7dde7a1e02"}],"uid":"6dc9650025cd498f9d8a8a7dde7a1e02","name":"黃春榜","birth":null,"former_names":"","identifiers":["黃春榜","黄春榜"]},{"url":"http://councils.g0v.tw/api/councilors/928/","each_terms":[{"url":"http://councils.g0v.tw/api/councilors_terms/1660/","election_year":"1955","name":"郭川上","gender":"","party":"","title":"議員","constituency":1,"county":"新北市","district":"板橋鎮、中和鄉、土城鄉","in_office":true,"contact_details":null,"term_start":"1955-01-16","term_end":{"date":"1958-02-20"},"education":"國校高等科","experience":"板橋鎮產業金庫會計\n合作金庫西門支庫經理\n臺北縣銀行公會理事\n世界郭氏宗親會理事\n獅子會全國300區副監督\n臺北縣議會第3、4屆議員","remark":null,"image":"http://www.ntp.gov.tw/UpFile/CouncilorFile/TTCC0301.jpg","links":[{"url":"http://www.ntp.gov.tw/content/history/history01-5-p.aspx?sid=154","note":"議會個人官網"}],"social_media":null,"platform":"","param":null,"councilor":"946ae596f98e49f0b55c3e26dc8394f3"},{"url":"http://councils.g0v.tw/api/councilors_terms/1734/","election_year":"1958","name":"郭川上","gender":"","party":"","title":"議員","constituency":1,"county":"新北市","district":"板橋鎮、中和鄉、土城鄉","in_office":true,"contact_details":null,"term_start":"1958-02-21","term_end":{"date":"1961-02-20"},"education":"國校高等科","experience":"板橋鎮產業金庫會計\n合作金庫西門支庫經理\n臺北縣銀行公會理事\n世界郭氏宗親會理事\n獅子會全國300區副監督\n臺北縣議會第3、4屆議員","remark":null,"image":"http://www.ntp.gov.tw/UpFile/CouncilorFile/TTCC0301.jpg","links":[{"url":"http://www.ntp.gov.tw/content/history/history01-5-p.aspx?sid=154","note":"議會個人官網"}],"social_media":null,"platform":"","param":null,"councilor":"946ae596f98e49f0b55c3e26dc8394f3"}],"uid":"946ae596f98e49f0b55c3e26dc8394f3","name":"郭川上","birth":null,"former_names":"","identifiers":["郭川上"]},{"url":"http://councils.g0v.tw/api/councilors/930/","each_terms":[{"url":"http://councils.g0v.tw/api/councilors_terms/1666/","election_year":"1958","name":"高張先進","gender":"","party":"","title":"議員","constituency":9,"county":"新北市","district":"新店鎮、景美鎮、木柵鄉、深坑鄉、石碇鄉、坪林鄉","in_office":true,"contact_details":null,"term_start":"1958-02-21","term_end":{"date":"1961-02-20"},"education":"國校畢業","experience":"臺北縣議會第4屆議員\n里長\n鄉民代表\n第4、5屆景美鎮長\n第1屆景美區區長\n民國86年歿","remark":null,"image":"http://www.ntp.gov.tw/UpFile/CouncilorFile/TTCC0473.jpg","links":[{"url":"http://www.ntp.gov.tw/content/history/history01-5-p.aspx?sid=223","note":"議會個人官網"}],"social_media":null,"platform":"","param":null,"councilor":"9c3e59b088d940678d6db5b5da62ba38"}],"uid":"9c3e59b088d940678d6db5b5da62ba38","name":"高張先進","birth":null,"former_names":"","identifiers":["高張先進"]},{"url":"http://councils.g0v.tw/api/councilors/1169/","each_terms":[{"url":"http://councils.g0v.tw/api/councilors_terms/2095/","election_year":"2009","name":"陳素月","gender":"女","party":"","title":"議員","constituency":4,"county":"彰化縣","district":"大村鄉、員林鎮、永靖鄉","in_office":true,"contact_details":[{"type":"phone","value":"04-8328552","label":"電話"},{"type":"fax","value":"04-8353414","label":"傳真"},{"type":"email","value":"chensuyueh@yahoo.com.tw","label":"電子信箱"},{"type":"address","value":"員林鎮惠來里惠明街219號","label":"通訊處"}],"term_start":"2009-12-25","term_end":{"date":"2014-12-25"},"education":"僑興國小\n名間國中\n台中女中\n文化大學史學系\n文化大學史學研究所碩士","experience":"彰化縣議會第16屆議員\n國立空中大學講師\n財團法人拓展文教基金會執行長\n立法委員魏明谷國會助理\n民主進步黨第10、11屆全國黨員代表\n彰化縣南投同鄉會總幹事\n彰化縣議會第17屆議員\n員林百果山獅子會2010-2011年度會長","remark":null,"image":"http://www.chcc.gov.tw/UpFile/CouncilorPhoto/4008.jpg","links":[{"url":"http://www.chcc.gov.tw/content/list/list01_01.aspx?sid=26","note":"議會個人官網"}],"social_media":null,"platform":"嚴格審查督促縣府預算之編列，讓有限財源發揮最高建設效益\n關心弱勢族群，確實維護其權益\n關心地方產業發展，協助勞工就業，促進勞資和諧共贏\n監督縣府確實做好排水系統整治，解決水患，保障人民生命財產安全\n敦促縣府積極規劃開發永靖獨鰲公墓\n敦促縣府重視文化資產及古蹟維護，以發揮古蹟之教育及觀光功能\n敦促縣府早日完成八卦山環道（山腳路外環道），帶動大員林區發展\n推動學校社區化，強化校園軟硬體設施，均衡區域發展，提升教育品質\n推動員林鐵路高架化工程如期於民國102年完工，讓員林東西區交通連結暢通，鐵路高架路橋下方規劃多功能停車場、商圈、公園綠地，讓員林都市機能更完善\n推動永靖火車站、大村火車站站區都市開發，建立便捷交通路網，帶動地方發展及繁榮","param":{"bills_role_statistics":{"total":51,"priproposer":8,"sponsor":8,"cosponsor":43},"diversity":{"":1.0},"bills_party_diversity":[{"party":"","ratio":1.0}]},"councilor":"dee0e06668394ddebd888f8ab720a0a0"}],"uid":"dee0e06668394ddebd888f8ab720a0a0","name":"陳素月","birth":"1966-01-18","former_names":"","identifiers":["陳素月"]},{"url":"http://councils.g0v.tw/api/councilors/1170/","each_terms":[{"url":"http://councils.g0v.tw/api/councilors_terms/2096/","election_year":"2009","name":"黃寶隆","gender":"男","party":"","title":"議員","constituency":3,"county":"彰化縣","district":"伸港鄉、線西鄉、和美鎮","in_office":true,"contact_details":[{"type":"phone","value":"","label":"電話"},{"type":"fax","value":"04-7587282","label":"傳真"},{"type":"email","value":"disney.mimi@msa.hinet.net","label":"電子信箱"},{"type":"address","value":"彰化縣線西鄉寓埔村中央路2段340號","label":"通訊處"}],"term_start":"2009-12-25","term_end":{"date":"2014-12-25"},"education":"線西國小\n線西國中","experience":"線西鄉第14屆鄉民代表\n線西鄉民防中隊副中隊長\n線西電氣工程行\n彰化縣議會第17屆議員","remark":null,"image":"http://www.chcc.gov.tw/UpFile/CouncilorPhoto/3001.jpg","links":[{"url":"http://www.chcc.gov.tw/content/list/list01_01.aspx?sid=25","note":"議會個人官網"}],"social_media":null,"platform":"確實照顧弱勢團體\n監督縣政府工程施工品質\n推動農業改良昇級\n重視婦女權力，提昇婦女生活品質\n扶助婦女參與藝文文化成長\n加速彰濱工業區發展","param":{"bills_role_statistics":{"total":41,"priproposer":10,"sponsor":10,"cosponsor":31},"diversity":{"":1.0},"bills_party_diversity":[{"party":"","ratio":1.0}]},"councilor":"5a01a837a4fd495787b97dc75ace0e5c"}],"uid":"5a01a837a4fd495787b97dc75ace0e5c","name":"黃寶隆","birth":"1961-06-26","former_names":"","identifiers":["黄寳隆","黃寶隆","黃寳隆","黄寶隆"]},{"url":"http://councils.g0v.tw/api/councilors/1171/","each_terms":[{"url":"http://councils.g0v.tw/api/councilors_terms/2097/","election_year":"2009","name":"陳錦玉","gender":"女","party":"","title":"議員","constituency":3,"county":"彰化縣","district":"伸港鄉、線西鄉、和美鎮","in_office":true,"contact_details":[{"type":"phone","value":"04-7570892","label":"電話"},{"type":"fax","value":"04-7562384","label":"傳真"},{"type":"email","value":"","label":"電子信箱"},{"type":"address","value":"彰化縣和美鎮彰美路四段56號(原址對面)","label":"通訊處"}],"term_start":"2009-12-25","term_end":{"date":"2014-12-25"},"education":"初中畢業","experience":"彰化縣議會第13、14、15、16屆議員\n彰化縣工商婦女會和美分會會長\n彰化縣議會第17屆議員","remark":null,"image":"http://www.chcc.gov.tw/UpFile/CouncilorPhoto/3002.jpg","links":[{"url":"http://www.chcc.gov.tw/content/list/list01_01.aspx?sid=24","note":"議會個人官網"}],"social_media":null,"platform":"落實關懷獨居老人，保護幼童及婦女安全\n推動污水下水道系統及污水處理之設立\n重視環保，改善道路排水工程，以利住家環境，提升生活品質\n促成織傘博物館設立\n爭取增設運動休閒設施，以達全民運動推展，使人人健康\n爭取經費加強道路、社區監視系統、讓百姓安心、安全、無傷害之生活環境","param":{"bills_role_statistics":{"total":24,"priproposer":4,"sponsor":4,"cosponsor":20},"diversity":{"":1.0},"bills_party_diversity":[{"party":"","ratio":1.0}]},"councilor":"2e7d5d323e614b818c90c9ce79b3371c"}],"uid":"2e7d5d323e614b818c90c9ce79b3371c","name":"陳錦玉","birth":"1953-08-29","former_names":"","identifiers":["陳錦玉"]},{"url":"http://councils.g0v.tw/api/councilors/1175/","each_terms":[{"url":"http://councils.g0v.tw/api/councilors_terms/2101/","election_year":"2009","name":"黃秀芳","gender":"女","party":"","title":"議員","constituency":1,"county":"彰化縣","district":"彰化市、花壇鄉、芬園鄉","in_office":true,"contact_details":[{"type":"phone","value":"04-7280980","label":"電話"},{"type":"fax","value":"04-7281498","label":"傳真"},{"type":"email","value":"smile.fang@msa.hinet.net","label":"電子信箱"},{"type":"address","value":"彰化縣彰化市中正路一段477號","label":"通訊處"}],"term_start":"2009-12-25","term_end":{"date":"2014-12-25"},"education":"靜宜大學外文系 ","experience":"彰化縣議會第16屆議員\n民主進步黨全國黨代表\n關懷文教基金會執行長\n台灣關懷婦女協會理事長\n彰化縣慢速壘球協會理事長\n彰化縣花壇愛心慈善會永久會友\n關懷廣播電台台長\n東海大學人力資源管理班結業\n立委周清玉服務處主任\n彰化縣議會第17屆議員","remark":null,"image":"http://www.chcc.gov.tw/UpFile/CouncilorPhoto/1010.jpg","links":[{"url":"http://www.chcc.gov.tw/content/list/list01_01.aspx?sid=4","note":"議會個人官網"}],"social_media":null,"platform":"監督縣政，發展經濟提昇效率，杜絕浪費\n傾聽民意，虛心受教，真誠待人，積極處事\n發揚志工服務精神，創造健康城市\n推動優質精緻農業，發展地方產業特色\n推動彰化東區擴大都市計畫，加速建設大彰化\n重視老人安養，推動老人長期藥事照護，加強照顧弱勢家庭\n建構八卦山自行車網路，提倡健康休閒旅遊\n建全婦幼安全制度，強化急難救助機制\n促進社區營造，建置健康與安全的社區生活\n充實教育設備，縮短城鄉差距","param":{"bills_role_statistics":{"total":63,"priproposer":16,"sponsor":16,"cosponsor":47},"diversity":{"":1.0},"bills_party_diversity":[{"party":"","ratio":1.0}]},"councilor":"1ba7c76713c440f4bb4f9b7dfc79a4dc"},{"url":"http://councils.g0v.tw/api/councilors_terms/11634/","election_year":"2014","name":"黃秀芳","gender":"女","party":"民主進步黨","title":null,"constituency":1,"county":"彰化縣","district":"彰化市、花壇鄉、芬園鄉","in_office":false,"contact_details":null,"term_start":"2014-12-25","term_end":{"date":"2016-01-31","judicial_links":"","reason":"請辭，就任立委","ref":"","replacement":""},"education":null,"experience":null,"remark":null,"image":"","links":null,"social_media":null,"platform":"","param":{"bills_role_statistics":{"total":22,"priproposer":6,"sponsor":6,"cosponsor":16},"bills_party_diversity":[{"party":"民主進步黨","ratio":0.6275510204081632},{"party":"無黨籍","ratio":0.1989795918367347},{"party":"中國國民黨","ratio":0.17346938775510204}]},"councilor":"1ba7c76713c440f4bb4f9b7dfc79a4dc"}],"uid":"1ba7c76713c440f4bb4f9b7dfc79a4dc","name":"黃秀芳","birth":"1971-11-10","former_names":"","identifiers":["黃秀芳","黄秀芳"]},{"url":"http://councils.g0v.tw/api/councilors/947/","each_terms":[{"url":"http://councils.g0v.tw/api/councilors_terms/1711/","election_year":"1958","name":"葛天璇","gender":"","party":"","title":"議員","constituency":3,"county":"新北市","district":"新莊鎮、泰山鄉、三重鎮、五股鄉、林口鄉、蘆洲鄉","in_office":true,"contact_details":null,"term_start":"1958-02-21","term_end":{"date":"1961-02-20"},"education":"江蘇省立南京女子中學畢業\n中央陸軍軍官學校１５期政治科畢業\n中央警官學校特警班第１期畢業","experience":"陸軍上尉\n政工員\n檢查員\n科員\n中央印製廠婦女輔導委員會委員\n婦女國語識字班副主任\n三重鎮婦聯支會委員\n三重鎮婦女會常務理事\n臺北縣婦女會設計委員\n中央印製廠附設幼稚園園長\n臺北縣議會第4、5屆議員","remark":null,"image":"http://www.ntp.gov.tw/UpFile/CouncilorFile/TTCC0429.jpg","links":[{"url":"http://www.ntp.gov.tw/content/history/history01-5-p.aspx?sid=201","note":"議會個人官網"}],"social_media":null,"platform":"","param":null,"councilor":"a6d85db7ca8844c59f0367f629cecdb2"},{"url":"http://councils.g0v.tw/api/councilors_terms/1777/","election_year":"1961","name":"葛天璇","gender":"","party":"","title":"議員","constituency":3,"county":"新北市","district":"新莊鎮、泰山鄉、三重鎮、五股鄉、蘆洲鄉、林口鄉","in_office":true,"contact_details":null,"term_start":"1961-02-21","term_end":{"date":"1964-02-20"},"education":"江蘇省立南京女子中學畢業\n中央陸軍軍官學校１５期政治科畢業\n中央警官學校特警班第１期畢業","experience":"陸軍上尉\n政工員\n檢查員\n科員\n中央印製廠婦女輔導委員會委員\n婦女國語識字班副主任\n三重鎮婦聯支會委員\n三重鎮婦女會常務理事\n臺北縣婦女會設計委員\n中央印製廠附設幼稚園園長\n臺北縣議會第4、5屆議員","remark":null,"image":"http://www.ntp.gov.tw/UpFile/CouncilorFile/TTCC0429.jpg","links":[{"url":"http://www.ntp.gov.tw/content/history/history01-5-p.aspx?sid=201","note":"議會個人官網"}],"social_media":null,"platform":"","param":null,"councilor":"a6d85db7ca8844c59f0367f629cecdb2"}],"uid":"a6d85db7ca8844c59f0367f629cecdb2","name":"葛天璇","birth":null,"former_names":"","identifiers":["葛天璇"]}]}