{"count":1904,"next":"http://councils.g0v.tw/api/councilors/?page=171","previous":"http://councils.g0v.tw/api/councilors/?page=169","results":[{"url":"http://councils.g0v.tw/api/councilors/729/","each_terms":[{"url":"http://councils.g0v.tw/api/councilors_terms/1346/","election_year":"2006","name":"李欣芳","gender":"","party":"","title":"議員","constituency":10,"county":"新北市","district":"新店市、深坑鄉、石碇鄉、坪林鄉、烏來鄉","in_office":true,"contact_details":null,"term_start":"2006-03-01","term_end":{"date":"2010-12-24"},"education":"新店國小\n文山國中\n育達高職","experience":"新店市3.4.5.6.7屆市民代表\n台北縣新碧獅子會會長\n新店市青商會顧問\n新店義勇消防隊顧問\n台北縣婦女防火宣導隊分隊長\n臺北縣議會第16屆議員\n蘇貞昌縣長競選幹部\n陳水扁總統競選幹部\n謝長廷總統競選幹部\n輔仁大學會計班結業","remark":null,"image":"http://www.ntp.gov.tw/UpFile/CouncilorFile/TTCC1659.jpg","links":[{"url":"http://www.ntp.gov.tw/content/history/history01-5-p.aspx?sid=562","note":"議會個人官網"}],"social_media":null,"platform":"","param":null,"councilor":"0c790b4312b243f7ad598ba8b7f3bb84"}],"uid":"0c790b4312b243f7ad598ba8b7f3bb84","name":"李欣芳","birth":null,"former_names":"","identifiers":["李欣芳","李欣芳"]},{"url":"http://councils.g0v.tw/api/councilors/820/","each_terms":[{"url":"http://councils.g0v.tw/api/councilors_terms/1470/","election_year":"1946","name":"林世南","gender":"","party":"","title":"議員","constituency":null,"county":"新北市","district":"","in_office":true,"contact_details":null,"term_start":"1946-04-15","term_end":{"date":"1950-12-31"},"education":"臺灣商工學校畢業。","experience":"新莊郡代郡守，臺北州議員\n乾元藥行行東\n省參議員(補林日高缺)\n臺灣省公營事業管理委員會主委\n省合作金庫總經理\n臨時省議會第一\n二屆省議員\n省議會第一\n二屆省議員\n縣黨部委員\n爭取設立新莊服務社\n*新莊鎮選出，三十六年六月十八日當選為第二任副議長\n三十七年四月辭，因當選省參議員\n卒於民國54年12月18日","remark":null,"image":"http://www.ntp.gov.tw/UpFile/CouncilorFile/TTCC0004.jpg","links":[{"url":"http://www.ntp.gov.tw/content/history/history01-5-p.aspx?sid=4","note":"議會個人官網"}],"social_media":null,"platform":"","param":null,"councilor":"fdc0a42b0dc445c69a74ed7c431c2bd2"}],"uid":"fdc0a42b0dc445c69a74ed7c431c2bd2","name":"林世南","birth":null,"former_names":"","identifiers":["林世南","林世南"]},{"url":"http://councils.g0v.tw/api/councilors/821/","each_terms":[{"url":"http://councils.g0v.tw/api/councilors_terms/1508/","election_year":"1951","name":"盧阿山","gender":"","party":"","title":"議員","constituency":4,"county":"新北市","district":"淡水鎮、三芝鄉、石門鄉、八里鄉","in_office":true,"contact_details":null,"term_start":"1951-01-04","term_end":{"date":"1953-01-05"},"education":"日據時代日人台灣總督府日語學校師範部","experience":"臺北縣議會第1屆議員\n參議會議長\n商會理事長\n省木材商業同業公會聯合會理事長\n淡水施合發商行社長\n臺北縣民協會理事長\n裕祥股份有限公司董事長\n台灣對日貿易商務代表","remark":null,"image":"http://www.ntp.gov.tw/UpFile/CouncilorFile/TTCC0003.jpg","links":[{"url":"http://www.ntp.gov.tw/content/history/history01-5-p.aspx?sid=3","note":"議會個人官網"}],"social_media":null,"platform":"","param":null,"councilor":"02e32a10f88a4f9ba02b5e36fe8ac164"},{"url":"http://councils.g0v.tw/api/councilors_terms/1471/","election_year":"1946","name":"盧阿山","gender":"","party":"","title":"議員","constituency":null,"county":"新北市","district":"","in_office":true,"contact_details":null,"term_start":"1946-04-15","term_end":{"date":"1950-12-31"},"education":"日據時代日人台灣總督府日語學校師範部","experience":"臺北縣議會第1屆議員\n參議會議長\n商會理事長\n省木材商業同業公會聯合會理事長\n淡水施合發商行社長\n臺北縣民協會理事長\n裕祥股份有限公司董事長\n台灣對日貿易商務代表","remark":null,"image":"http://www.ntp.gov.tw/UpFile/CouncilorFile/TTCC0003.jpg","links":[{"url":"http://www.ntp.gov.tw/content/history/history01-5-p.aspx?sid=3","note":"議會個人官網"}],"social_media":null,"platform":"","param":null,"councilor":"02e32a10f88a4f9ba02b5e36fe8ac164"}],"uid":"02e32a10f88a4f9ba02b5e36fe8ac164","name":"盧阿山","birth":null,"former_names":"","identifiers":["盧阿山"]},{"url":"http://councils.g0v.tw/api/councilors/884/","each_terms":[{"url":"http://councils.g0v.tw/api/councilors_terms/1563/","election_year":"1953","name":"李獻鐘","gender":"","party":"","title":"議員","constituency":4,"county":"新北市","district":"淡水鎮、三芝鄉、石門鄉、八里鄉","in_office":true,"contact_details":null,"term_start":"1953-01-16","term_end":{"date":"1955-01-15"},"education":"國校畢業","experience":"保正\n司法保護委員\n協議會員\n臺北縣租佃委員會\n臺北縣議會第2屆議員\n*民國58年歿","remark":null,"image":"http://www.ntp.gov.tw/UpFile/CouncilorFile/TTCC0230.jpg","links":[{"url":"http://www.ntp.gov.tw/content/history/history01-5-p.aspx?sid=137","note":"議會個人官網"}],"social_media":null,"platform":"","param":null,"councilor":"717cf05ce97a4c9e902e0ef94457921c"}],"uid":"717cf05ce97a4c9e902e0ef94457921c","name":"李獻鐘","birth":null,"former_names":"","identifiers":["李獻鐘","李獻鐘"]},{"url":"http://councils.g0v.tw/api/councilors/885/","each_terms":[{"url":"http://councils.g0v.tw/api/councilors_terms/1566/","election_year":"1953","name":"張增義","gender":"","party":"","title":"議員","constituency":4,"county":"新北市","district":"淡水鎮、三芝鄉、石門鄉、八里鄉","in_office":true,"contact_details":null,"term_start":"1953-01-16","term_end":{"date":"1955-01-15"},"education":"國校畢業","experience":"臺振公司經理\n德發行經理\n臺北縣議會第2屆議員","remark":null,"image":"http://www.ntp.gov.tw/UpFile/CouncilorFile/TTCC0228.jpg","links":[{"url":"http://www.ntp.gov.tw/content/history/history01-5-p.aspx?sid=135","note":"議會個人官網"}],"social_media":null,"platform":"","param":null,"councilor":"f2824e7e7a1e4c33a32fcc997983007d"}],"uid":"f2824e7e7a1e4c33a32fcc997983007d","name":"張增義","birth":null,"former_names":"","identifiers":["張增義"]},{"url":"http://councils.g0v.tw/api/councilors/886/","each_terms":[{"url":"http://councils.g0v.tw/api/councilors_terms/1632/","election_year":"1955","name":"洪金卑","gender":"","party":"","title":"議員","constituency":4,"county":"新北市","district":"淡水鎮、三芝鄉、石門鄉、八里鄉","in_office":true,"contact_details":null,"term_start":"1955-01-16","term_end":{"date":"1958-02-20"},"education":"淡水中學\n馬偕醫院醫師考試及格","experience":"臺北縣議會第2、3屆議員\n淡水水利會委員\n農會理事\n總幹事\n三芝鄉第一任民選鄉長","remark":null,"image":"http://www.ntp.gov.tw/UpFile/CouncilorFile/TTCC0227.jpg","links":[{"url":"http://www.ntp.gov.tw/content/history/history01-5-p.aspx?sid=134","note":"議會個人官網"}],"social_media":null,"platform":"","param":null,"councilor":"d249cee89e494a838188b858638e898f"},{"url":"http://councils.g0v.tw/api/councilors_terms/1567/","election_year":"1953","name":"洪金卑","gender":"","party":"","title":"議員","constituency":4,"county":"新北市","district":"淡水鎮、三芝鄉、石門鄉、八里鄉","in_office":true,"contact_details":null,"term_start":"1953-01-16","term_end":{"date":"1955-01-15"},"education":"淡水中學\n馬偕醫院醫師考試及格","experience":"臺北縣議會第2、3屆議員\n淡水水利會委員\n農會理事\n總幹事\n三芝鄉第一任民選鄉長","remark":null,"image":"http://www.ntp.gov.tw/UpFile/CouncilorFile/TTCC0227.jpg","links":[{"url":"http://www.ntp.gov.tw/content/history/history01-5-p.aspx?sid=134","note":"議會個人官網"}],"social_media":null,"platform":"","param":null,"councilor":"d249cee89e494a838188b858638e898f"}],"uid":"d249cee89e494a838188b858638e898f","name":"洪金卑","birth":null,"former_names":"","identifiers":["洪金卑"]},{"url":"http://councils.g0v.tw/api/councilors/1550/","each_terms":[{"url":"http://councils.g0v.tw/api/councilors_terms/2476/","election_year":"2009","name":"宋賢一","gender":"男","party":"中國國民黨","title":"","constituency":12,"county":"臺東縣","district":"山地原住民（金峰鄉、太麻里鄉）","in_office":true,"contact_details":[{"type":"voice","value":"089-780837","label":"電話"},{"type":"email","value":"s14@taitungcc.gov.tw","label":"E-mail"},{"type":"address","value":"台東縣金峰鄉正興村二鄰28號","label":"地址"}],"term_start":"2009-12-25","term_end":{"date":"2014-12-25"},"education":"一、恆春高中畢。\n二、警察學校畢。","experience":"一、警員、金峰鄉鄉民代表。\n二、救國團金峰鄉團委會會長、後備軍人金峰輔導中心主任、金峰鄉正興社區理事長、金峰鄉民眾服務社理事長。\n三、第十五屆縣議員。\n第十六屆縣議員、臺東縣永續發展學會常務理事、金峰鄉槌球運動協會理事長。","remark":null,"image":"http://www.taitungcc.gov.tw/ourteam/images/12_name01_pic001.jpg","links":[{"url":"http://www.taitungcc.gov.tw/ourteam/13ourteam_detail01.html","note":"議會個人官網"}],"social_media":null,"platform":"一、監督政府落實執行各項為民服務工作。\n二、監督政府合理編列各項預算並達成預期效果。\n三、監督政府維護自然生態工作及傳統文化傳承工作使臺東成為自然生態、傳統文化共生的觀光大縣。\n四、監督政府執行輔導就業及教育工作，以提昇原住民生活品質及競爭力。\n五、監督縣政府推動溫泉產業、休閒產業、農業產銷、文化產業的工作、提昇本線觀光事業水準。\n六、監督縣府持續治理太麻里、金崙溪及本縣各溪流已阻絕水患、維護民眾生命財產安全。\n七、監督政府全力推動治山防洪、森林保育、水土保持以防土石流成災。\n八、監督政府加速完成台二十六線及台九線拓寬、截彎取直、外環道興建等工程以便利臺東交通發展觀光。","param":{"suggestions_years":{"count":108,"sum":13135000,"years":[{"count":51,"sum":6716000,"suggest_year":"2012","small_purchase":39},{"count":16,"sum":2205000,"suggest_year":"2013","small_purchase":12},{"count":41,"sum":4214000,"suggest_year":"2014","small_purchase":38}]},"suggestions_associations":[{"count":9,"sum":1493000,"label":"農會"},{"count":8,"sum":826000,"label":"社區發展協會"},{"count":2,"sum":188000,"label":"學會"},{"count":1,"sum":99000,"label":"民眾服務社"},{"count":1,"sum":56000,"label":"婦女會"},{"count":0,"sum":0,"label":"商會"},{"count":0,"sum":0,"label":"公會"},{"count":0,"sum":0,"label":"協進會"},{"count":0,"sum":0,"label":"促進會"},{"count":0,"sum":0,"label":"研習會"},{"count":0,"sum":0,"label":"婦聯會"},{"count":0,"sum":0,"label":"體育會"},{"count":0,"sum":0,"label":"同心會"},{"count":0,"sum":0,"label":"早起會"},{"count":0,"sum":0,"label":"健身會"},{"count":0,"sum":0,"label":"宗親會"},{"count":0,"sum":0,"label":"功德會"},{"count":0,"sum":0,"label":"商業會"},{"count":0,"sum":0,"label":"長青會"},{"count":0,"sum":0,"label":"聯盟"}],"suggestions_piles":[{"count":32,"tokens":"國中|國小","sum":4724000,"label":"國中、國小"},{"count":24,"tokens":"協會|學會|商會|公會|協進會|促進會|研習會|婦聯會|婦女會|體育會|同心會|農會|早起會|健身會|宗親會|功德會|商業會|長青會|民眾服務社|聯盟","sum":2931000,"label":"協會"},{"count":16,"tokens":"辦公室|辦公處","sum":1856000,"label":"辦公室"},{"count":13,"tokens":"警察局|分局","sum":1286000,"label":"警察局"},{"count":4,"tokens":"消防局|消防隊|分隊|中隊","sum":669000,"label":"消防局"},{"count":0,"tokens":"廟|宮","sum":0,"label":"廟"}],"bills_party_diversity":null},"councilor":"500e0cc635c64f51bd20aff17eeebea6"}],"uid":"500e0cc635c64f51bd20aff17eeebea6","name":"宋賢一","birth":null,"former_names":"","identifiers":["宋賢一"]},{"url":"http://councils.g0v.tw/api/councilors/1555/","each_terms":[{"url":"http://councils.g0v.tw/api/councilors_terms/2481/","election_year":"2009","name":"陳‧藍姆洛","gender":"男","party":"臺灣團結聯盟","title":"","constituency":6,"county":"臺東縣","district":"平地原住民（臺東市）","in_office":true,"contact_details":[{"type":"voice","value":"089-320523","label":"電話"},{"type":"address","value":"台東市豐谷南路329之1號","label":"地址"}],"term_start":"2009-12-25","term_end":{"date":"2014-12-25"},"education":"一、豐榮國小。\n二、長榮中學初中部。\n三、淡江中學初中部。\n四、台灣海洋大學航運管理系肆。","experience":"曾任縣議員","remark":null,"image":"http://www.taitungcc.gov.tw/ourteam/images/06_name02_pic001.jpg","links":[{"url":"http://www.taitungcc.gov.tw/ourteam/07ourteam_detail02.html","note":"議會個人官網"}],"social_media":null,"platform":"一、政府依照憲法及原住民基本法保障原住民權益，尊重其傳統領域，不得姿意頒佈行政命令殘害民族之生存\n與發展。\n二、請政府編列預算培訓原住民專業技能與人材，優先進用原住民使能在地就業，促進地方繁榮。\n三、請政府應加重老人照護與婦幼關懷之社福政策及預算，不能只靠民間社團吃力經營。\n四、設立永久性原住民產業觀光展售中心，促業原住民文化產業發展，增加就業機會，改善經濟環境。\n五、督促縣府儘速辦理解除台東市2519號區外保安林地之編列，以維護原耕作農民之生計。\n六、卑南溪及其兩岸新生地已歸國有財產局，並有農民合法承租，且已納入台東農田水利灌溉系統，\n縣府應徵取農民權益，停繳水利會費。","param":{"suggestions_years":{"count":44,"sum":6460000,"years":[{"count":16,"sum":2388000,"suggest_year":"2012","small_purchase":13},{"count":8,"sum":1369000,"suggest_year":"2013","small_purchase":7},{"count":20,"sum":2703000,"suggest_year":"2014","small_purchase":18}]},"suggestions_associations":[{"count":2,"sum":102000,"label":"社區發展協會"},{"count":0,"sum":0,"label":"學會"},{"count":0,"sum":0,"label":"商會"},{"count":0,"sum":0,"label":"公會"},{"count":0,"sum":0,"label":"協進會"},{"count":0,"sum":0,"label":"促進會"},{"count":0,"sum":0,"label":"研習會"},{"count":0,"sum":0,"label":"婦聯會"},{"count":0,"sum":0,"label":"婦女會"},{"count":0,"sum":0,"label":"體育會"},{"count":0,"sum":0,"label":"同心會"},{"count":0,"sum":0,"label":"農會"},{"count":0,"sum":0,"label":"早起會"},{"count":0,"sum":0,"label":"健身會"},{"count":0,"sum":0,"label":"宗親會"},{"count":0,"sum":0,"label":"功德會"},{"count":0,"sum":0,"label":"商業會"},{"count":0,"sum":0,"label":"長青會"},{"count":0,"sum":0,"label":"民眾服務社"},{"count":0,"sum":0,"label":"聯盟"}],"suggestions_piles":[{"count":26,"tokens":"國中|國小","sum":4314000,"label":"國中、國小"},{"count":3,"tokens":"辦公室|辦公處","sum":164000,"label":"辦公室"},{"count":2,"tokens":"警察局|分局","sum":121000,"label":"警察局"},{"count":2,"tokens":"協會|學會|商會|公會|協進會|促進會|研習會|婦聯會|婦女會|體育會|同心會|農會|早起會|健身會|宗親會|功德會|商業會|長青會|民眾服務社|聯盟","sum":102000,"label":"協會"},{"count":1,"tokens":"消防局|消防隊|分隊|中隊","sum":38000,"label":"消防局"},{"count":0,"tokens":"廟|宮","sum":0,"label":"廟"}],"bills_party_diversity":null},"councilor":"510e9666550d47f5a97f798c0b2c3b63"}],"uid":"510e9666550d47f5a97f798c0b2c3b63","name":"陳‧藍姆洛","birth":null,"former_names":"","identifiers":["陳藍姆洛","陳‧藍姆洛"]},{"url":"http://councils.g0v.tw/api/councilors/1794/","each_terms":[{"url":"http://councils.g0v.tw/api/councilors_terms/3042/","election_year":"2014","name":"黃玉芬","gender":"女","party":"無黨籍","title":"議員","constituency":1,"county":"彰化縣","district":"彰化市、花壇鄉、芬園鄉","in_office":true,"contact_details":[{"type":"voice","value":"04-7617191","label":"電話"},{"type":"cell","value":"0921-362233","label":"行動"},{"type":"fax","value":"04-7617195","label":"傳真"},{"type":"address","value":"彰化縣彰化市辭修路398號","label":"地址"},{"type":"email","value":"nancy362233@hotmail.c","label":"電子信箱"}],"term_start":"2014-12-25","term_end":{"date":"2018-12-25"},"education":"公費留學美國匹茲堡州立大學企業管理碩士畢業\n南開科大企管全校第一名畢業","experience":"一、第17屆彰化市民代表、國立彰商教師、建國科大教師、南開科大教師、嶺東科大教師。\n二、全國爵士鋼琴大賽公費至維也納深造資格。\n三、關懷廣播電台主持長達 10 年經驗。\n四、世界小姐選拔獲最佳人緣獎。\n五、柔道黑帶貳段，代表至日本參賽。\n六、美國中華文化協會 PSU 財務長。\n七、虎頭蜂巢摘除專家，為民除害。","remark":null,"image":"http://www.chcc.gov.tw/df_ufiles/d/s_04%E9%BB%83%E7%8E%89%E8%8A%AC.jpg","links":[{"url":"http://www.chcc.gov.tw/member/details.aspx?Parser=99,6,40,,,,4","note":"議會個人官網"},{"url":"https://zh-cn.facebook.com/pages/%E9%BB%83%E7%8E%89%E8%8A%AC/491176550931779","note":"個人臉書"}],"social_media":null,"platform":"宏觀彰化縣格局、專業、努力不懈的年輕力量！玉芬將以認真熱忱志工的服務精神，以及4年擔任市民代表經驗，落實民意需求，實現大彰化樂活生活圈！\n一、督政財源：推動縣民聯盟監督機制，在全體縣民聯合控管下，監督預算執行，促進縣府廉能團隊與效率。\n二、發展建設：均衡城鄉發展，加強花壇、芬園建設，促使其市區化；同時整合彰化市建設，加速其都市化。監督地方工程品質，確保給予民眾優質居住環境。爭取加速東區都更案開發，保障當地居民權利。\n三、經濟成長：致力推動彰化、花壇、芬園在地產業文化，強力行銷本縣特有產品，促進其發展地方觀光。\n四、社會福利：積極爭取並保障身心障礙者、老人、婦女、幼兒、農民、失業者、低收入戶、新移民之福利，隨時確保弱勢者受到合理的庇護、協助與政府補助。\n五、教育品質：現任國立彰化高商英文教師，以誠懇負責的態度執教，並用無限的耐心、愛心關懷學生；在課程上除了加入更多元的課程設計，教學態度更是用精益求精的理念，進而達到教學創新的目的。如此的善盡職責與認真教學，因此不斷獲得校內同仁們的肯定以及學生們的愛戴！\n六、城市面貌：打造“彰化美食古蹟城”名號，徹底規劃並執行推動觀光發展帶動商機，造福彰化經濟發展。\n七、服務態度：秉持青年精神，理性務實，傾聽民意，於每社區專任一位聯繫人即刻掌握民意落實選民服務。\n八、藝文推廣：成立文創協會，廣推青年創意，文化休閒，生活輔導，結合公藝與公益等，提供全方位顧問團隊提供各年齡族群活動資源與公眾事務協助。\n九、治安加強：全力打擊各項犯罪及增設更多監視系統。","param":{"bills_role_statistics":{"total":37,"priproposer":24,"sponsor":24,"cosponsor":13},"bills_party_diversity":[{"party":"中國國民黨","ratio":0.5},{"party":"無黨籍","ratio":0.3520710059171598},{"party":"民主進步黨","ratio":0.14792899408284024}]},"councilor":"d0ef4c94708d4bb3ab9fc8a689bf4f11"}],"uid":"d0ef4c94708d4bb3ab9fc8a689bf4f11","name":"黃玉芬","birth":"1982-11-10","former_names":"","identifiers":["黄玉芬","黃玉芬"]},{"url":"http://councils.g0v.tw/api/councilors/1795/","each_terms":[{"url":"http://councils.g0v.tw/api/councilors_terms/3043/","election_year":"2014","name":"林世賢","gender":"男","party":"民主進步黨","title":"議員","constituency":1,"county":"彰化縣","district":"彰化市、花壇鄉、芬園鄉","in_office":true,"contact_details":[{"type":"voice","value":"04-7114480","label":"電話"},{"type":"cell","value":"0933-197637","label":"行動"},{"type":"fax","value":"04-7111425","label":"傳真"},{"type":"address","value":"彰化縣彰化市南瑤里9鄰中山路二段46號","label":"地址"},{"type":"email","value":"formosan121@gmail.c","label":"電子信箱"}],"term_start":"2014-12-25","term_end":{"date":"2018-12-25"},"education":"台灣大學政治所碩士在職專班就讀中\n國立屏東農專獸醫科\n精誠高中\n彰化國中\n中山國小","experience":"一、彰化環保聯盟理事長。\n二、賴和文教基金會董事。\n三、彰化醫療界聯盟總幹事。\n四、翁金珠縣政白皮書執筆。\n五、李登輝之友彰化總會長。\n六、彰師大實驗動物管理委員。\n七、彰化縣動物防疫所公務員。\n八、台灣中社理事、環科召集人。\n九、2002年彰化區扁友會總幹事。\n十、2004、2008、2012 年彰化縣醫療界扁友會、長工會、小英之友會等會總幹事。\n十一、國考獸醫師。","remark":null,"image":"http://www.chcc.gov.tw/df_ufiles/d/s_02%E6%9E%97%E4%B8%96%E8%B3%A2.jpg","links":[{"url":"http://www.chcc.gov.tw/member/details.aspx?Parser=99,6,40,,,,2","note":"議會個人官網"},{"url":"https://www.facebook.com/LinShihHsien?fref=ts","note":"個人臉書"}],"social_media":null,"platform":"一、改革十二年國教：十二年國教讓學生、家長無所適從，應全面檢討，促成縣府簡化免試升學辦法。\n二、鐵路高架化，解決彰化市發展困境：彰化鐵路高架後，彰化市東西可貫通，將帶動彰化市商業發展；更遠大發展因採鐵路地下化。\n三、促台化遷廠，彰化將超越台中：台化在彰化核心隘口，妨礙都市發展，台化遷廠後，市民免除空氣汙染，原地可建大巨蛋、大型百貨，縣府將建縣政中心、都會公園等公共空間，是三贏政策。\n四、交流道特定區解編：彰化市高速公路交流道特定區劃定，是錯誤的都市計劃思維，交流道特定區解編後，西區九個里可快速發展，並爭取彰化市西區設立國中。\n五、爭取模具研發中心：五金中小企業是彰化縣產業的重要動脈，要提升彰化縣傳統產業競爭力，重振黑手精神；模具是工業之母，帶動彰化產業發展。\n六、嚴密監督縣政預算：彰化縣政府已舉債257億，世賢一定嚴厲監督縣府預算，避免債留子孫。\n七、無毒精緻農業：農業是彰化縣的核心價值。花壇、芬園發展無毒精緻農業觀光。另外彰化市要設大型集水場，芬園、花壇自來水要全面普及。\n八、友善動物城市：流浪狗數量是城市進步的指標，根除流浪狗產生，在於防止棄養行為，嚴格取締棄養，貫徹植入晶片，建立養寵物認證制度，設立寵物運動專屬公園，推動以認養代替購買，都是友善動物的城市指標。\n九、修正彰化縣食安管理條例:吃的健康，是人人的權利，建立食品履歷，推動地產地銷；重判重罰黑心廠商，違法立即關廠，提高檢舉獎金，嚴格修法並執行，才能根本解決問題。","param":{"bills_role_statistics":{"total":57,"priproposer":29,"sponsor":30,"cosponsor":27},"bills_party_diversity":[{"party":"民主進步黨","ratio":0.5548245614035088},{"party":"中國國民黨","ratio":0.2719298245614035},{"party":"無黨籍","ratio":0.17324561403508773}]},"councilor":"b84a993fd40b49219feff3ca38e626b4"}],"uid":"b84a993fd40b49219feff3ca38e626b4","name":"林世賢","birth":"1959-06-01","former_names":"","identifiers":["林世賢","林世賢"]}]}