{"count":1904,"next":"http://councils.g0v.tw/api/councilors/?page=19","previous":"http://councils.g0v.tw/api/councilors/?page=17","results":[{"url":"http://councils.g0v.tw/api/councilors/948/","each_terms":[{"url":"http://councils.g0v.tw/api/councilors_terms/1713/","election_year":"1958","name":"林阿仁","gender":"","party":"","title":"議員","constituency":3,"county":"新北市","district":"新莊鎮、泰山鄉、三重鎮、五股鄉、林口鄉、蘆洲鄉","in_office":true,"contact_details":null,"term_start":"1958-02-21","term_end":{"date":"1961-02-20"},"education":"二重埔公學校（二重國小）畢","experience":"臺北縣米穀商業同業公會會員代表\n世界林氏宗親會第2屆監事長\n臺灣省林氏宗親會第5屆理事長\n臺北縣議會第4、5屆議員\n中視建設股份有限公司董事長","remark":null,"image":"http://www.ntp.gov.tw/UpFile/CouncilorFile/TTCC0427.jpg","links":[{"url":"http://www.ntp.gov.tw/content/history/history01-5-p.aspx?sid=200","note":"議會個人官網"}],"social_media":null,"platform":"","param":null,"councilor":"9b8e0abbdd134fde804cb5524cce031e"},{"url":"http://councils.g0v.tw/api/councilors_terms/1778/","election_year":"1961","name":"林阿仁","gender":"","party":"","title":"議員","constituency":3,"county":"新北市","district":"新莊鎮、泰山鄉、三重鎮、五股鄉、蘆洲鄉、林口鄉","in_office":true,"contact_details":null,"term_start":"1961-02-21","term_end":{"date":"1964-02-20"},"education":"二重埔公學校（二重國小）畢","experience":"臺北縣米穀商業同業公會會員代表\n世界林氏宗親會第2屆監事長\n臺灣省林氏宗親會第5屆理事長\n臺北縣議會第4、5屆議員\n中視建設股份有限公司董事長","remark":null,"image":"http://www.ntp.gov.tw/UpFile/CouncilorFile/TTCC0427.jpg","links":[{"url":"http://www.ntp.gov.tw/content/history/history01-5-p.aspx?sid=200","note":"議會個人官網"}],"social_media":null,"platform":"","param":null,"councilor":"9b8e0abbdd134fde804cb5524cce031e"}],"uid":"9b8e0abbdd134fde804cb5524cce031e","name":"林阿仁","birth":null,"former_names":"","identifiers":["林阿仁","林阿仁"]},{"url":"http://councils.g0v.tw/api/councilors/949/","each_terms":[{"url":"http://councils.g0v.tw/api/councilors_terms/1716/","election_year":"1958","name":"洪紅毛","gender":"","party":"","title":"議員","constituency":3,"county":"新北市","district":"新莊鎮、泰山鄉、三重鎮、五股鄉、林口鄉、蘆洲鄉","in_office":true,"contact_details":null,"term_start":"1958-02-21","term_end":{"date":"1961-02-20"},"education":"中學畢業","experience":"三重鎮仁德里里長\n報社記者\n三重鎮調解委員會委員\n三重鎮軍勤大隊第二中隊長\n三重鎮貧民施醫審查委員\n重陽橋促進委員會委員\n臺北縣議會第4屆議員\n民國96年3月2日歿","remark":null,"image":"http://www.ntp.gov.tw/UpFile/CouncilorFile/TTCC0424.jpg","links":[{"url":"http://www.ntp.gov.tw/content/history/history01-5-p.aspx?sid=198","note":"議會個人官網"}],"social_media":null,"platform":"","param":null,"councilor":"c920571686a04132b041a6a2e33aeb90"}],"uid":"c920571686a04132b041a6a2e33aeb90","name":"洪紅毛","birth":null,"former_names":"","identifiers":["洪紅毛"]},{"url":"http://councils.g0v.tw/api/councilors/950/","each_terms":[{"url":"http://councils.g0v.tw/api/councilors_terms/1717/","election_year":"1958","name":"林植祺","gender":"","party":"","title":"議員","constituency":3,"county":"新北市","district":"新莊鎮、泰山鄉、三重鎮、五股鄉、林口鄉、蘆洲鄉","in_office":true,"contact_details":null,"term_start":"1958-02-21","term_end":{"date":"1961-02-20"},"education":"三重公學校","experience":"三重鎮農會信用部主任\n三重國校家長會長\n里長\n臺北縣議會第4屆議員\n*85.4.13歿","remark":null,"image":"http://www.ntp.gov.tw/UpFile/CouncilorFile/TTCC0423.jpg","links":[{"url":"http://www.ntp.gov.tw/content/history/history01-5-p.aspx?sid=197","note":"議會個人官網"}],"social_media":null,"platform":"","param":null,"councilor":"8314cb208f0649d6ae6ee6a87ae5f7e3"}],"uid":"8314cb208f0649d6ae6ee6a87ae5f7e3","name":"林植祺","birth":null,"former_names":"","identifiers":["林植祺","林植祺"]},{"url":"http://councils.g0v.tw/api/councilors/283/","each_terms":[{"url":"http://councils.g0v.tw/api/councilors_terms/592/","election_year":"1973","name":"王博文","gender":"男","party":"無黨籍","title":"議員","constituency":null,"county":"臺北市","district":"","in_office":true,"contact_details":null,"term_start":"1973-12-25","term_end":{"date":"1977-12-25"},"education":"國立中興大學法律系畢業","experience":"中國青年反共救國團松山區委員會委員、總幹事，松山區後備軍人輔導組組長、營長。","remark":"","image":"http://www.tcc.gov.tw/../upload/photo/%E7%8E%8B%E5%8D%9A%E6%96%8710.jpg","links":[{"url":"http://www.tcc.gov.tw/Councilor_Content_All.aspx?s=1897&d=380808&n=%E7%8E%8B%E5%8D%9A%E6%96%87","note":"議會個人官網"}],"social_media":null,"platform":"","param":null,"councilor":"c4196f8f862a4739bb7dcef450581b90"}],"uid":"c4196f8f862a4739bb7dcef450581b90","name":"王博文","birth":"1938-08-08","former_names":"","identifiers":["王博文"]},{"url":"http://councils.g0v.tw/api/councilors/1213/","each_terms":[{"url":"http://councils.g0v.tw/api/councilors_terms/2139/","election_year":"2009","name":"黃智銘","gender":"","party":"","title":"議員","constituency":1,"county":"桃園縣","district":"桃園市","in_office":true,"contact_details":[{"type":"email","value":"hjm3356777@yahoo.com.tw","label":"EMAIL"},{"type":"email","value":"tycca008@tycc.gov.tw","label":"EMAIL"},{"type":"address","value":"桃園市永康街36-1號","label":"服務處"},{"type":"voice","value":"333-6666","label":"電話"},{"type":"fax","value":"335-1875","label":"傳真"}],"term_start":"2009-12-25","term_end":{"date":"2014-12-25"},"education":"桃園市成功國小\n省立桃園中學初中部\n中國海專(航海科畢業)\n淡江大學碩士學分班","experience":"桃園縣第12、13、15、16屆縣議員\n桃園市第四、五屆市民代表\n中華民國拳擊代表隊國手、教練\n桃園縣太極拳協會主任委員\n桃園縣元極舞創會會長\n桃園縣集郵協會理事長\n國際青商會虎頭山分會資深會主席\n桃園縣仁愛慈善協進會首席顧問\n桃園縣啟智殘障協會顧問\n桃園市成功國小副會長\n桃園市信用合作社理事\n桃園區黃姓宗親會會長\n中華國際勞務服務協會桃園分會會長","remark":null,"image":"http://www.tycc.gov.tw/file%5Cperson%5Capp%5Ca634641660641599664%E9%BB%83%E6%99%BA%E9%8A%98%E8%AD%B0%E5%93%A1.jpg","links":[{"url":"http://www.tycc.gov.tw/page.aspx?wtp=1&wnd=204&id=41","note":"議會個人官網"},{"url":"http://www.wretch.cc/blog/hjm3356777","note":"部落格"},{"url":"http://www.facebook.com/profile.php?id=100000693856184","note":"臉書"}],"social_media":null,"platform":"","param":null,"councilor":"d740659c1e554f7ebd7999f663e0b815"}],"uid":"d740659c1e554f7ebd7999f663e0b815","name":"黃智銘","birth":null,"former_names":"","identifiers":["黄智銘","黃智銘"]},{"url":"http://councils.g0v.tw/api/councilors/1430/","each_terms":[{"url":"http://councils.g0v.tw/api/councilors_terms/2356/","election_year":"2009","name":"王清貴","gender":"","party":"中國國民黨","title":"","constituency":5,"county":"雲林縣","district":"臺西鄉、麥寮鄉、四湖鄉、東勢鄉","in_office":true,"contact_details":[{"type":"voice","lines[i]":"電話","value":"05-6991536"},{"type":"fax","lines[i]":"傳真","value":"05-6995251"},{"type":"address","lines[i]":"通訊處","value":"東勢鄉昌南村昌南路122之1號"}],"term_start":"2009-12-25","term_end":{"date":"2014-12-25"},"education":null,"experience":"南天宮管理委員會主任委員、國民黨第十區黨部委員、東勢鄉後備軍人輔導中心輔導組長、東勢鄉都市計畫委員、東勢鄉鄉民代表會第11.12屆代表、雲林縣民眾服務站常務理事、議會第12.13.14.15.16屆議員、雲林縣議會第十六屆議員。","remark":null,"image":"http://www.ylcc.gov.tw/images/5-5.jpg","links":[{"url":"http://www.ylcc.gov.tw/index.php?inner=member_precinct5","note":"議會個人官網"}],"social_media":null,"platform":"","param":{"bills_role_statistics":{"total":5,"priproposer":5,"sponsor":5,"cosponsor":0},"suggestions_piles":[{"count":2,"tokens":"警察局|分局","sum":800000,"label":"警察局"},{"count":1,"tokens":"消防局|消防隊|分隊|中隊","sum":400000,"label":"消防局"},{"count":0,"tokens":"協會|學會|商會|公會|協進會|促進會|研習會|婦聯會|婦女會|體育會|同心會|農會|早起會|健身會|宗親會|功德會|商業會|長青會|民眾服務社|聯盟","sum":0,"label":"協會"},{"count":0,"tokens":"辦公室|辦公處","sum":0,"label":"辦公室"},{"count":0,"tokens":"廟|宮","sum":0,"label":"廟"},{"count":0,"tokens":"國中|國小","sum":0,"label":"國中、國小"}],"suggestions_associations":[{"count":0,"sum":0,"label":"社區發展協會"},{"count":0,"sum":0,"label":"學會"},{"count":0,"sum":0,"label":"商會"},{"count":0,"sum":0,"label":"公會"},{"count":0,"sum":0,"label":"協進會"},{"count":0,"sum":0,"label":"促進會"},{"count":0,"sum":0,"label":"研習會"},{"count":0,"sum":0,"label":"婦聯會"},{"count":0,"sum":0,"label":"婦女會"},{"count":0,"sum":0,"label":"體育會"},{"count":0,"sum":0,"label":"同心會"},{"count":0,"sum":0,"label":"農會"},{"count":0,"sum":0,"label":"早起會"},{"count":0,"sum":0,"label":"健身會"},{"count":0,"sum":0,"label":"宗親會"},{"count":0,"sum":0,"label":"功德會"},{"count":0,"sum":0,"label":"商業會"},{"count":0,"sum":0,"label":"長青會"},{"count":0,"sum":0,"label":"民眾服務社"},{"count":0,"sum":0,"label":"聯盟"}],"diversity":{"":0.0,"中國國民黨":1.0,"民主進步黨":0.0,"臺灣團結聯盟":0.0,"無黨籍":0.0},"suggestions_years":{"count":3,"sum":1830000,"years":[{"count":3,"sum":1830000,"suggest_year":"2012","small_purchase":0}]}},"councilor":"c547660d35884b168950b960df63595f"}],"uid":"c547660d35884b168950b960df63595f","name":"王清貴","birth":null,"former_names":"","identifiers":["王清貴"]},{"url":"http://councils.g0v.tw/api/councilors/1478/","each_terms":[{"url":"http://councils.g0v.tw/api/councilors_terms/2404/","election_year":"2009","name":"王景山","gender":"男","party":"中國國民黨","title":"","constituency":2,"county":"屏東縣","district":"里港鄉、高樹鄉、九如鄉、鹽埔鄉、長治鄉、麟洛鄉","in_office":true,"contact_details":[{"type":"address","value":"屏東縣里港鄉里嶺路8號","label":"通訊處"},{"type":"voice","value":"08-7720466","label":"電話"}],"term_start":"2009-12-25","term_end":{"date":"2014-12-25"},"education":null,"experience":null,"remark":null,"image":"http://www.ptcc.gov.tw/upload/upimage/fb0d6189-c0f6-4d47-4306-573e398fa8b2-S.jpg","links":[{"url":"http://www.ptcc.gov.tw/?Page=PersionalDetail&Guid=a14081f2-99af-901a-4d7d-f0e36c5c9cd4","note":"議會個人官網"}],"social_media":null,"platform":"一、更新救災器材現代化。\n二、關心弱勢團體。\n三、關懷單親家庭教育。\n四、重視外籍配偶子女教育。\n五、建議政府對未來老人社會形成的關心及照護。\n六、對農民及農村生活品質的提升。\n七、建議政府因水源水質保護區對農民所造成的損害給於適當的補償或廢止水源水質保護區的限制並做適度的放寬。","param":{"suggestions_years":{"count":461,"sum":20147000,"years":[{"count":121,"sum":5443000,"suggest_year":"2011","small_purchase":113},{"count":121,"sum":5462000,"suggest_year":"2012","small_purchase":117},{"count":100,"sum":4684000,"suggest_year":"2013","small_purchase":95},{"count":119,"sum":4558000,"suggest_year":"2014","small_purchase":115}]},"suggestions_associations":[{"count":117,"sum":2419000,"label":"社區發展協會"},{"count":25,"sum":1055000,"label":"農會"},{"count":13,"sum":556000,"label":"民眾服務社"},{"count":12,"sum":328000,"label":"婦女會"},{"count":7,"sum":175000,"label":"協進會"},{"count":6,"sum":120000,"label":"體育會"},{"count":5,"sum":100000,"label":"宗親會"},{"count":4,"sum":80000,"label":"學會"},{"count":3,"sum":60000,"label":"公會"},{"count":3,"sum":60000,"label":"研習會"},{"count":1,"sum":20000,"label":"商業會"},{"count":0,"sum":0,"label":"商會"},{"count":0,"sum":0,"label":"促進會"},{"count":0,"sum":0,"label":"婦聯會"},{"count":0,"sum":0,"label":"同心會"},{"count":0,"sum":0,"label":"早起會"},{"count":0,"sum":0,"label":"健身會"},{"count":0,"sum":0,"label":"功德會"},{"count":0,"sum":0,"label":"長青會"},{"count":0,"sum":0,"label":"聯盟"}],"suggestions_piles":[{"count":298,"tokens":"協會|學會|商會|公會|協進會|促進會|研習會|婦聯會|婦女會|體育會|同心會|農會|早起會|健身會|宗親會|功德會|商業會|長青會|民眾服務社|聯盟","sum":8467000,"label":"協會"},{"count":32,"tokens":"消防局|消防隊|分隊|中隊","sum":1109000,"label":"消防局"},{"count":22,"tokens":"國中|國小","sum":968000,"label":"國中、國小"},{"count":10,"tokens":"廟|宮","sum":472000,"label":"廟"},{"count":11,"tokens":"警察局|分局","sum":220000,"label":"警察局"},{"count":1,"tokens":"辦公室|辦公處","sum":50000,"label":"辦公室"}]},"councilor":"72dde9e5c3794e6c893e26a35b10f83b"}],"uid":"72dde9e5c3794e6c893e26a35b10f83b","name":"王景山","birth":null,"former_names":"","identifiers":["王景山"]},{"url":"http://councils.g0v.tw/api/councilors/1481/","each_terms":[{"url":"http://councils.g0v.tw/api/councilors_terms/2407/","election_year":"2009","name":"葉明博","gender":"男","party":"中國國民黨","title":"","constituency":2,"county":"屏東縣","district":"里港鄉、高樹鄉、九如鄉、鹽埔鄉、長治鄉、麟洛鄉","in_office":true,"contact_details":[{"type":"address","value":"屏東縣鹽埔鄉90745鹽中村中山路23號","label":"通訊處"},{"type":"voice","value":"08-7931921","label":"電話"}],"term_start":"2009-12-25","term_end":{"date":"2014-12-25"},"education":null,"experience":null,"remark":null,"image":"http://www.ptcc.gov.tw/upload/upimage/f0e2ca64-7cb8-99b1-b955-1631891f7aa5-S.jpg","links":[{"url":"http://www.ptcc.gov.tw/?Page=PersionalDetail&Guid=271ad3c7-b8c9-10cf-62a0-c9ed704a07e1","note":"議會個人官網"}],"social_media":null,"platform":"一、嚴格監督提昇縣府行政、預算、社福、建設之功能效率。\n二、輔導農業轉型升級、設立農產品專業特區，並健全運銷制度，減少中間剝削，提高農民收益。\n三、推動農地改良輔助方案，降低農藥使用提高農產品產量。\n四、地方觀光資源開發，改善交通網及屏縣重南輕北落差。\n五、建立鄉鎮就業資訊服務網站，提高鄉民就業機會。\n六、促成台糖土地開發利用，增加地方稅收及居民就業機會。\n七、推動公辦民營安養中心，健全老人安養功能以妥善照顧。\n八、加強六歲以下幼兒照顧，規劃幼兒教育及醫療補助方案。\n九、尊重女權，保障婦女工作晉升權益，落實兩性平等理念。\n十、推動校園社區化提供休閒場所，提昇社區藝文水準。","param":{"suggestions_years":{"count":382,"sum":19309500,"years":[{"count":102,"sum":4997000,"suggest_year":"2011","small_purchase":97},{"count":105,"sum":4785000,"suggest_year":"2012","small_purchase":99},{"count":68,"sum":3920500,"suggest_year":"2013","small_purchase":63},{"count":107,"sum":5607000,"suggest_year":"2014","small_purchase":102}]},"suggestions_associations":[{"count":138,"sum":3000000,"label":"社區發展協會"},{"count":42,"sum":1245000,"label":"農會"},{"count":14,"sum":590000,"label":"婦女會"},{"count":8,"sum":215000,"label":"民眾服務社"},{"count":3,"sum":160000,"label":"體育會"},{"count":1,"sum":20000,"label":"公會"},{"count":1,"sum":20000,"label":"協進會"},{"count":1,"sum":20000,"label":"研習會"},{"count":0,"sum":0,"label":"學會"},{"count":0,"sum":0,"label":"商會"},{"count":0,"sum":0,"label":"促進會"},{"count":0,"sum":0,"label":"婦聯會"},{"count":0,"sum":0,"label":"同心會"},{"count":0,"sum":0,"label":"早起會"},{"count":0,"sum":0,"label":"健身會"},{"count":0,"sum":0,"label":"宗親會"},{"count":0,"sum":0,"label":"功德會"},{"count":0,"sum":0,"label":"商業會"},{"count":0,"sum":0,"label":"長青會"},{"count":0,"sum":0,"label":"聯盟"}],"suggestions_piles":[{"count":253,"tokens":"協會|學會|商會|公會|協進會|促進會|研習會|婦聯會|婦女會|體育會|同心會|農會|早起會|健身會|宗親會|功德會|商業會|長青會|民眾服務社|聯盟","sum":6561000,"label":"協會"},{"count":10,"tokens":"廟|宮","sum":2198000,"label":"廟"},{"count":11,"tokens":"國中|國小","sum":1415500,"label":"國中、國小"},{"count":14,"tokens":"消防局|消防隊|分隊|中隊","sum":455000,"label":"消防局"},{"count":5,"tokens":"警察局|分局","sum":100000,"label":"警察局"},{"count":0,"tokens":"辦公室|辦公處","sum":0,"label":"辦公室"}]},"councilor":"6a105511c0464dd5a3e801c55e1be52e"}],"uid":"6a105511c0464dd5a3e801c55e1be52e","name":"葉明博","birth":null,"former_names":"","identifiers":["葉明博"]},{"url":"http://councils.g0v.tw/api/councilors/861/","each_terms":[{"url":"http://councils.g0v.tw/api/councilors_terms/1522/","election_year":"1951","name":"李梅樹","gender":"","party":"","title":"議員","constituency":2,"county":"新北市","district":"三峽鎮、鶯歌鎮、樹林鎮","in_office":true,"contact_details":null,"term_start":"1951-01-04","term_end":{"date":"1953-01-05"},"education":"臺北師範學校\n東京美術學校","experience":"三峽庄協議員\n三峽街街長\n三峽鎮第1、2屆鎮民代表會主席\n三峽祖師廟重建主任委員\n中華民國美術協會理事長及師範大學\n文化大學教授\n國立臺灣藝術專科學校美術科主任\n臺北縣議會第1、2、3屆議員\n民國72年2月6日歿","remark":null,"image":"http://www.ntp.gov.tw/UpFile/CouncilorFile/TTCC0111.jpg","links":[{"url":"http://www.ntp.gov.tw/content/history/history01-5-p.aspx?sid=78","note":"議會個人官網"}],"social_media":null,"platform":"","param":null,"councilor":"6b8e964deea0427ba4d15518504f8288"},{"url":"http://councils.g0v.tw/api/councilors_terms/1586/","election_year":"1953","name":"李梅樹","gender":"","party":"","title":"議員","constituency":2,"county":"新北市","district":"三峽鎮、鶯歌鎮、樹林鎮","in_office":true,"contact_details":null,"term_start":"1953-01-16","term_end":{"date":"1955-01-15"},"education":"臺北師範學校\n東京美術學校","experience":"三峽庄協議員\n三峽街街長\n三峽鎮第1、2屆鎮民代表會主席\n三峽祖師廟重建主任委員\n中華民國美術協會理事長及師範大學\n文化大學教授\n國立臺灣藝術專科學校美術科主任\n臺北縣議會第1、2、3屆議員\n民國72年2月6日歿","remark":null,"image":"http://www.ntp.gov.tw/UpFile/CouncilorFile/TTCC0111.jpg","links":[{"url":"http://www.ntp.gov.tw/content/history/history01-5-p.aspx?sid=78","note":"議會個人官網"}],"social_media":null,"platform":"","param":null,"councilor":"6b8e964deea0427ba4d15518504f8288"},{"url":"http://councils.g0v.tw/api/councilors_terms/1648/","election_year":"1955","name":"李梅樹","gender":"","party":"","title":"議員","constituency":2,"county":"新北市","district":"三峽鎮、鶯歌鎮、樹林鎮","in_office":true,"contact_details":null,"term_start":"1955-01-16","term_end":{"date":"1958-02-20"},"education":"臺北師範學校\n東京美術學校","experience":"三峽庄協議員\n三峽街街長\n三峽鎮第1、2屆鎮民代表會主席\n三峽祖師廟重建主任委員\n中華民國美術協會理事長及師範大學\n文化大學教授\n國立臺灣藝術專科學校美術科主任\n臺北縣議會第1、2、3屆議員\n民國72年2月6日歿","remark":null,"image":"http://www.ntp.gov.tw/UpFile/CouncilorFile/TTCC0111.jpg","links":[{"url":"http://www.ntp.gov.tw/content/history/history01-5-p.aspx?sid=78","note":"議會個人官網"}],"social_media":null,"platform":"","param":null,"councilor":"6b8e964deea0427ba4d15518504f8288"}],"uid":"6b8e964deea0427ba4d15518504f8288","name":"李梅樹","birth":null,"former_names":"","identifiers":["李梅樹","李梅樹"]},{"url":"http://councils.g0v.tw/api/councilors/862/","each_terms":[{"url":"http://councils.g0v.tw/api/councilors_terms/1524/","election_year":"1951","name":"鄭金塗","gender":"","party":"","title":"議員","constituency":2,"county":"新北市","district":"三峽鎮、鶯歌鎮、樹林鎮","in_office":true,"contact_details":null,"term_start":"1951-01-04","term_end":{"date":"1953-01-05"},"education":"三峽國民學校畢業。","experience":"臺北縣議會第1屆議員\n保正\n八張里里長\n北縣警民協會保安組長\n永和運輸公司董事長\n*民國49年歿","remark":null,"image":"http://www.ntp.gov.tw/UpFile/CouncilorFile/TTCC0109.jpg","links":[{"url":"http://www.ntp.gov.tw/content/history/history01-5-p.aspx?sid=76","note":"議會個人官網"}],"social_media":null,"platform":"","param":null,"councilor":"c05ba5b0800244adb41dc73eeabdb8a4"}],"uid":"c05ba5b0800244adb41dc73eeabdb8a4","name":"鄭金塗","birth":null,"former_names":"","identifiers":["鄭金塗"]}]}