{"count":1904,"next":"http://councils.g0v.tw/api/councilors/?page=20","previous":"http://councils.g0v.tw/api/councilors/?page=18","results":[{"url":"http://councils.g0v.tw/api/councilors/979/","each_terms":[{"url":"http://councils.g0v.tw/api/councilors_terms/1822/","election_year":"1964","name":"江明勳","gender":"","party":"","title":"議員","constituency":7,"county":"新北市","district":"北投鎮、士林鎮","in_office":true,"contact_details":null,"term_start":"1964-02-21","term_end":{"date":"1968-02-20"},"education":"日本近畿大學\n革命實踐研究院黨政研究班第22期結業\n臺北縣政府土地行政人員考試及格","experience":"陽明山管理局民防指揮部士林防護中隊副中隊長\n陽明山管理局都市計畫委員會委員\n臺灣省第6次全省代表大會代表\n臺北市臨時市議會議員\n臺北縣議會第6屆議員\n*民國79年5月16日歿","remark":null,"image":"http://www.ntp.gov.tw/UpFile/CouncilorFile/TTCC0642.jpg","links":[{"url":"http://www.ntp.gov.tw/content/history/history01-5-p.aspx?sid=268","note":"議會個人官網"}],"social_media":null,"platform":"","param":null,"councilor":"b838cff23145417ab9a3dc0977e63236"}],"uid":"b838cff23145417ab9a3dc0977e63236","name":"江明勳","birth":null,"former_names":"","identifiers":["江明勲","江明勳"]},{"url":"http://councils.g0v.tw/api/councilors/980/","each_terms":[{"url":"http://councils.g0v.tw/api/councilors_terms/1823/","election_year":"1964","name":"陳滿堂","gender":"","party":"","title":"議員","constituency":7,"county":"新北市","district":"北投鎮、士林鎮","in_office":true,"contact_details":null,"term_start":"1964-02-21","term_end":{"date":"1968-02-20"},"education":"臺北師範學校肄業\n省訓團普通行政人員訓練班第1期畢業","experience":"巡佐\n書記\n理事\n鎮民代表\n鎮長\n中國國民黨陽明山黨部委員\n臺北縣議會第6屆議員\n*民國55年4月歿","remark":null,"image":"http://www.ntp.gov.tw/UpFile/CouncilorFile/TTCC0644.jpg","links":[{"url":"http://www.ntp.gov.tw/content/history/history01-5-p.aspx?sid=270","note":"議會個人官網"}],"social_media":null,"platform":"","param":null,"councilor":"a1c93bbcbab648febf638f3b8a5d9e3c"}],"uid":"a1c93bbcbab648febf638f3b8a5d9e3c","name":"陳滿堂","birth":null,"former_names":"","identifiers":["陳滿堂"]},{"url":"http://councils.g0v.tw/api/councilors/981/","each_terms":[{"url":"http://councils.g0v.tw/api/councilors_terms/1825/","election_year":"1964","name":"陳英","gender":"","party":"","title":"議員","constituency":6,"county":"新北市","district":"內湖鄉、南港鎮、汐止鎮、萬里鄉、金山鄉","in_office":true,"contact_details":null,"term_start":"1964-02-21","term_end":{"date":"1968-02-20"},"education":"福建省立福州女子高中","experience":"高雄大樹國小教師\n南港玉成國小教師\n南港鎮婦女會理事長\n鎮民代表\n中心幼稚園創辦人\n臺北市臨時議會議員\n教育會監事\n臺北市社會扶助協會理事長\n臺北市黨部婦女工作委員會委員\n臺北市議會顧問\n臺北縣議會第6屆議員","remark":null,"image":"http://www.ntp.gov.tw/UpFile/CouncilorFile/TTCC0640.jpg","links":[{"url":"http://www.ntp.gov.tw/content/history/history01-5-p.aspx?sid=267","note":"議會個人官網"}],"social_media":null,"platform":"","param":null,"councilor":"5e0414d776ee46aea89573bb4aaf1670"}],"uid":"5e0414d776ee46aea89573bb4aaf1670","name":"陳英","birth":null,"former_names":"","identifiers":["陳英"]},{"url":"http://councils.g0v.tw/api/councilors/1110/","each_terms":[{"url":"http://councils.g0v.tw/api/councilors_terms/2036/","election_year":"2009","name":"簡海樹","gender":"","party":"中國國民黨","title":"議員","constituency":11,"county":"宜蘭縣","district":"山地原住民","in_office":true,"contact_details":[{"type":"address","value":"大同鄉松羅村6鄰松羅南巷110號","label":"服務處所"},{"type":"voice","value":"9802122","label":"服務處所電話"}],"term_start":"2009-12-25","term_end":{"date":"2014-12-25"},"education":"國立師範大學國文系畢","experience":"宜蘭縣議會第十七屆議員。\n國立政治大學教研所結業。\n復興國中教師。\n榮源、大同教導主任。\n大同鄉教育會理事長。\n展望會慈幼委員、主任委員。\n大同鄉團委會會長。\n大同鄉衛促會副主任委員。\n地方法院榮譽觀護人。\n大同鄉崙青會顧問。\n孔文吉立委競選總部大同鄉後援會長。\n總統副總統選舉原鄉召集人。\n三星國小原住民少棒促進會長。\n宜蘭縣議會第16屆議員。","remark":null,"image":"http://www.ilcc.gov.tw/pictures/people/A1732.JPG","links":[{"url":"http://www.ilcc.gov.tw/Html/H_05/H_0501.asp?GoOut=&pic=11&clique=KMT&User_id=A1732","note":"議會個人官網"}],"social_media":null,"platform":"一、堅決捍衛及反對馬告國家公園之設立，要求政府應遵行依據憲法增修條\n文第十條及原住民族基本法第22條之規定落實辦理。\n二、積極爭取「擴大公共建設投資特別條例」及「原住民族基礎建設方案」\n以建設及改善部落道路交通如興建英樂大橋、寒溪大橋；消防與醫療如\n興建設置第二消防分隊（四南部落）及巡迴醫療駐點衛生室修繕工程，\n設備充實以及水利設施、防災治理、生態保育等，打造部落具有文化多\n樣性的特色環境。\n三、積極爭取「農村再生規劃及建設計畫」，以加速部落農村基礎環境改\n善，維護農村生態及產業文化，提升農村居住及人文品質，建設富麗新\n農村之部落。\n四、積極爭取「原住民原居住使用公有土地劃編原住民保留地要點」及「補\n辦漏報增劃編原住民保留地實施計畫」，以安定部落基本生存權，解決\n部落長期以來居住及用地之不足。\n五、積極爭取「村里集會所活動中心興建及修繕專案計畫」，以建設部落生\n活育樂空間，改善基層部落各項公共設施，進而提昇且具有普遍服務之\n功能。\n六、積極爭取「原住民山地鄉殯葬設施改善計畫」，以解決部落公墓長期未\n規劃，過於老舊以及面臨飽和狀態之問題。\n七、積極爭取原鄉學校編列文化及傳承師資人員以及學齡前學童享有學雜費\n全免優渥待遇。\n八、積極爭取規劃鄉道宜51線聯外道路及台七甲線替代道路，並納入觀光軸\n線改善計劃工程。\n九、積極爭取大同鄉唯一室內禮堂，以提供鄉民一處優質各項藝文表演活動\n空間。\n十、積極爭取規劃大同國中校舍改建工程，並核請聖母護專單獨招收兩班原\n住民生。","param":{"bills_role_statistics":{"total":68,"priproposer":10,"sponsor":10,"cosponsor":58},"diversity":{"中國國民黨":0.6724258878417673,"民主進步黨":0.24249744076220206,"無黨籍":0.08507667139603091},"bills_party_diversity":[{"party":"中國國民黨","ratio":0.6018518518518519},{"party":"民主進步黨","ratio":0.29475308641975306},{"party":"無黨籍","ratio":0.10339506172839506}]},"councilor":"1801beaed6714b8398ffd6f8cfd65f8a"}],"uid":"1801beaed6714b8398ffd6f8cfd65f8a","name":"簡海樹","birth":null,"former_names":"","identifiers":["簡海樹"]},{"url":"http://councils.g0v.tw/api/councilors/910/","each_terms":[{"url":"http://councils.g0v.tw/api/councilors_terms/1687/","election_year":"1958","name":"紀皆發","gender":"","party":"","title":"議員","constituency":6,"county":"新北市","district":"北投鎮、士林鎮","in_office":true,"contact_details":null,"term_start":"1958-02-21","term_end":{"date":"1961-02-20"},"education":"國民學校高等科畢業","experience":"士林鎮公所民政股主任\n士林鎮公所戶籍主任\n臺北縣議會第3、4、5屆議員\n*歿於民國51年10月23日","remark":null,"image":"http://www.ntp.gov.tw/UpFile/CouncilorFile/TTCC0344.jpg","links":[{"url":"http://www.ntp.gov.tw/content/history/history01-5-p.aspx?sid=173","note":"議會個人官網"}],"social_media":null,"platform":"","param":null,"councilor":"f8e71c9a20394989ae219914ab79fdf5"},{"url":"http://councils.g0v.tw/api/councilors_terms/1617/","election_year":"1955","name":"紀皆發","gender":"","party":"","title":"議員","constituency":6,"county":"新北市","district":"北投鎮、士林鎮","in_office":true,"contact_details":null,"term_start":"1955-01-16","term_end":{"date":"1958-02-20"},"education":"國民學校高等科畢業","experience":"士林鎮公所民政股主任\n士林鎮公所戶籍主任\n臺北縣議會第3、4、5屆議員\n*歿於民國51年10月23日","remark":null,"image":"http://www.ntp.gov.tw/UpFile/CouncilorFile/TTCC0344.jpg","links":[{"url":"http://www.ntp.gov.tw/content/history/history01-5-p.aspx?sid=173","note":"議會個人官網"}],"social_media":null,"platform":"","param":null,"councilor":"f8e71c9a20394989ae219914ab79fdf5"},{"url":"http://councils.g0v.tw/api/councilors_terms/1762/","election_year":"1961","name":"紀皆發","gender":"","party":"","title":"議員","constituency":6,"county":"新北市","district":"北投鎮、士林鎮","in_office":true,"contact_details":null,"term_start":"1961-02-21","term_end":{"date":"1964-02-20"},"education":"國民學校高等科畢業","experience":"士林鎮公所民政股主任\n士林鎮公所戶籍主任\n臺北縣議會第3、4、5屆議員\n*歿於民國51年10月23日","remark":null,"image":"http://www.ntp.gov.tw/UpFile/CouncilorFile/TTCC0344.jpg","links":[{"url":"http://www.ntp.gov.tw/content/history/history01-5-p.aspx?sid=173","note":"議會個人官網"}],"social_media":null,"platform":"","param":null,"councilor":"f8e71c9a20394989ae219914ab79fdf5"}],"uid":"f8e71c9a20394989ae219914ab79fdf5","name":"紀皆發","birth":null,"former_names":"","identifiers":["紀皆發"]},{"url":"http://councils.g0v.tw/api/councilors/911/","each_terms":[{"url":"http://councils.g0v.tw/api/councilors_terms/1618/","election_year":"1955","name":"祝官民","gender":"","party":"","title":"議員","constituency":6,"county":"新北市","district":"北投鎮、士林鎮","in_office":true,"contact_details":null,"term_start":"1955-01-16","term_end":{"date":"1958-02-20"},"education":"山東省中學畢業","experience":"臺北縣議會第3屆議員","remark":null,"image":"http://www.ntp.gov.tw/UpFile/CouncilorFile/TTCC0343.jpg","links":[{"url":"http://www.ntp.gov.tw/content/history/history01-5-p.aspx?sid=172","note":"議會個人官網"}],"social_media":null,"platform":"","param":null,"councilor":"12c03d1035234fb9907aaecdf60cd707"}],"uid":"12c03d1035234fb9907aaecdf60cd707","name":"祝官民","birth":null,"former_names":"","identifiers":["祝官民"]},{"url":"http://councils.g0v.tw/api/councilors/912/","each_terms":[{"url":"http://councils.g0v.tw/api/councilors_terms/1620/","election_year":"1955","name":"潘何滿","gender":"","party":"","title":"議員","constituency":5,"county":"新北市","district":"汐止鎮、南港鎮、內湖鄉","in_office":true,"contact_details":null,"term_start":"1955-01-16","term_end":{"date":"1958-02-20"},"education":"臺北州立基隆高等女學校","experience":"國校教師\n臺灣省婦女會理事\n臺北縣婦女會常務理事\n臺灣省地方自治協會臺北縣代表\n臺北縣汐止鎮婦女會理事長\n臺北縣議會第3屆議員\n民國94年歿","remark":null,"image":"http://www.ntp.gov.tw/UpFile/CouncilorFile/TTCC0340.jpg","links":[{"url":"http://www.ntp.gov.tw/content/history/history01-5-p.aspx?sid=171","note":"議會個人官網"}],"social_media":null,"platform":"","param":null,"councilor":"3e561b1e06e3489f82d58262f45d27d7"}],"uid":"3e561b1e06e3489f82d58262f45d27d7","name":"潘何滿","birth":null,"former_names":"","identifiers":["潘何滿"]},{"url":"http://councils.g0v.tw/api/councilors/267/","each_terms":[{"url":"http://councils.g0v.tw/api/councilors_terms/530/","election_year":"1977","name":"林鈺祥","gender":"男","party":"中國國民黨","title":"議員","constituency":null,"county":"臺北市","district":"","in_office":true,"contact_details":null,"term_start":"1977-12-25","term_end":{"date":"1981-12-25"},"education":"國立政治大學政治系畢業、美國佛羅里達州州立大學碩士。","experience":"私立東吳大學講師、中區少棒聯盟理事、私立中國文化學院講師、臺北市議會第二屆議員、大安區後備軍人輔導組輔導員、義警大隊督導、消防顧問會顧問、臺北市硬式網球委員會主任委員、中國童子軍理事、團長。","remark":"","image":"http://www.tcc.gov.tw/../upload/photo/%E6%9E%97%E9%88%BA%E7%A5%A511.jpg","links":[{"url":"http://www.tcc.gov.tw/Councilor_Content_All.aspx?s=2234&d=480623&n=%E6%9E%97%E9%88%BA%E7%A5%A5","note":"議會個人官網"}],"social_media":null,"platform":"","param":null,"councilor":"3cd178f9c00f42319217cbf0f3679a52"},{"url":"http://councils.g0v.tw/api/councilors_terms/579/","election_year":"1973","name":"林鈺祥","gender":"男","party":"中國國民黨","title":"議員","constituency":null,"county":"臺北市","district":"","in_office":true,"contact_details":null,"term_start":"1973-12-25","term_end":{"date":"1977-12-25"},"education":"國立政治大學政治系畢業、美國佛羅里達州立大學碩士。","experience":"東吳大學政治系講師、國際教育研究會編審。","remark":"","image":"http://www.tcc.gov.tw/../upload/photo/%E6%9E%97%E9%88%BA%E7%A5%A510.jpg","links":[{"url":"http://www.tcc.gov.tw/Councilor_Content_All.aspx?s=1445&d=480623&n=%E6%9E%97%E9%88%BA%E7%A5%A5","note":"議會個人官網"}],"social_media":null,"platform":"","param":null,"councilor":"3cd178f9c00f42319217cbf0f3679a52"}],"uid":"3cd178f9c00f42319217cbf0f3679a52","name":"林鈺祥","birth":"1948-06-23","former_names":"","identifiers":["林鈺祥","林鈺祥"]},{"url":"http://councils.g0v.tw/api/councilors/252/","each_terms":[{"url":"http://councils.g0v.tw/api/councilors_terms/495/","election_year":"1981","name":"王友祿","gender":"男","party":"中國國民黨","title":"議員","constituency":null,"county":"臺北市","district":"","in_office":true,"contact_details":null,"term_start":"1981-12-25","term_end":{"date":"1985-12-25"},"education":"臺北市國民中學私立舊制學校畢業、戰地政務研究會、革命實踐研究員。","experience":"臺北市黨部委員、評議員、臺北市省轄市議會第三、四、五、六屆暨臨時議會、直轄市議會第一、二、三屆議員、延平區調解委員會委員、臺北市義勇警察大隊大隊附、臺北市市民消防團延平區團長。","remark":"","image":"http://www.tcc.gov.tw/../upload/photo/%E7%8E%8B%E5%8F%8B%E7%A5%BF12.jpg","links":[{"url":"http://www.tcc.gov.tw/Councilor_Content_All.aspx?s=1939&d=240102&n=%E7%8E%8B%E5%8F%8B%E7%A5%BF","note":"議會個人官網"}],"social_media":null,"platform":"","param":null,"councilor":"eaf6f1fc07934a0d8691c00493ef082c"},{"url":"http://councils.g0v.tw/api/councilors_terms/545/","election_year":"1977","name":"王友祿","gender":"男","party":"中國國民黨","title":"議員","constituency":null,"county":"臺北市","district":"","in_office":true,"contact_details":null,"term_start":"1977-12-25","term_end":{"date":"1981-12-25"},"education":"臺北市國民中學私立舊制學校畢業、戰地政務研究會。","experience":"臺北市省轄市議會第三、四、五、六屆暨臨時議會、直轄市議會第一、二屆議員、中國國民黨臺北市黨部委員、會長、理監事、區團長、大隊附。","remark":"","image":"http://www.tcc.gov.tw/../upload/photo/%E7%8E%8B%E5%8F%8B%E7%A5%BF11.jpg","links":[{"url":"http://www.tcc.gov.tw/Councilor_Content_All.aspx?s=1675&d=240102&n=%E7%8E%8B%E5%8F%8B%E7%A5%BF","note":"議會個人官網"}],"social_media":null,"platform":"","param":null,"councilor":"eaf6f1fc07934a0d8691c00493ef082c"},{"url":"http://councils.g0v.tw/api/councilors_terms/594/","election_year":"1973","name":"王友祿","gender":"男","party":"中國國民黨","title":"議員","constituency":null,"county":"臺北市","district":"","in_office":true,"contact_details":null,"term_start":"1973-12-25","term_end":{"date":"1977-12-25"},"education":"臺北市國民中學私立舊制學校畢業","experience":"臺北市議會三、四、五、六屆議員、臺北市臨時市議會議員、臺北市第一屆市議會議員、中國國民黨臺北市黨部委員、土地代書聯誼會會長。","remark":"","image":"http://www.tcc.gov.tw/../upload/photo/%E7%8E%8B%E5%8F%8B%E7%A5%BF10.jpg","links":[{"url":"http://www.tcc.gov.tw/Councilor_Content_All.aspx?s=2205&d=240102&n=%E7%8E%8B%E5%8F%8B%E7%A5%BF","note":"議會個人官網"}],"social_media":null,"platform":"","param":null,"councilor":"eaf6f1fc07934a0d8691c00493ef082c"},{"url":"http://councils.g0v.tw/api/councilors_terms/635/","election_year":"1969","name":"王友祿","gender":"男","party":"中國國民黨","title":"議員","constituency":null,"county":"臺北市","district":"","in_office":true,"contact_details":null,"term_start":"1969-12-25","term_end":{"date":"1973-12-25"},"education":"私立國民中學。","experience":"國民黨臺北市黨部委員、臺北市都市地價評議委員會委員、臺北市不動產評議委員會委員、臺北市省轄市議會第三、四、五、六屆議員、臺北市土地代書聯誼會會長、臺北市都市計畫委員會委員。","remark":"","image":"http://www.tcc.gov.tw/../upload/photo/%E7%8E%8B%E5%8F%8B%E7%A5%BF09.jpg","links":[{"url":"http://www.tcc.gov.tw/Councilor_Content_All.aspx?s=2169&d=240102&n=%E7%8E%8B%E5%8F%8B%E7%A5%BF","note":"議會個人官網"}],"social_media":null,"platform":"","param":null,"councilor":"eaf6f1fc07934a0d8691c00493ef082c"}],"uid":"eaf6f1fc07934a0d8691c00493ef082c","name":"王友祿","birth":"1924-01-02","former_names":"","identifiers":["王友祿"]},{"url":"http://councils.g0v.tw/api/councilors/253/","each_terms":[{"url":"http://councils.g0v.tw/api/councilors_terms/496/","election_year":"1981","name":"于秉溪","gender":"男","party":"中國國民黨","title":"議員","constituency":null,"county":"臺北市","district":"","in_office":true,"contact_details":null,"term_start":"1981-12-25","term_end":{"date":"1985-12-25"},"education":"山東省立醫學專科學校畢業、美國哈佛大學小兒科研究院結業、美國夏威夷大學東西文化中心結業、革命實踐研究院黨政班二十四期結業、日本國立山口大學醫博士、考試院簡任銓定任用資格衛生行政考試及格。","experience":"臺灣省立護專教授、臺灣省立臺北兒童醫院院長、臺灣省立臺北婦幼醫院院長、臺灣省立臺北醫院院長。","remark":"","image":"http://www.tcc.gov.tw/../upload/photo/%E4%BA%8E%E7%A7%89%E6%BA%AA12.jpg","links":[{"url":"http://www.tcc.gov.tw/Councilor_Content_All.aspx?s=2114&d=230927&n=%E4%BA%8E%E7%A7%89%E6%BA%AA","note":"議會個人官網"}],"social_media":null,"platform":"","param":null,"councilor":"80aa973083044f93b0df1f442e1708a2"}],"uid":"80aa973083044f93b0df1f442e1708a2","name":"于秉溪","birth":"1923-09-27","former_names":"","identifiers":["于秉溪"]}]}