{"count":1904,"next":"http://councils.g0v.tw/api/councilors/?page=191","previous":"http://councils.g0v.tw/api/councilors/?page=189","results":[{"url":"http://councils.g0v.tw/api/councilors/78/","each_terms":[{"url":"http://councils.g0v.tw/api/councilors_terms/82/","election_year":"2010","name":"闕枚莎","gender":"女","party":"中國國民黨","title":"議員","constituency":2,"county":"臺北市","district":"內湖區、南港區","in_office":true,"contact_details":[{"type":"email","value":"ca95153@tcc.gov.tw","label":"電子信箱"},{"type":"voice","value":"27297708#50072783-9696","label":"電話"},{"type":"fax","value":"2345-9141、2785-8566","label":"傳真"},{"type":"address","value":"台北市信義區仁愛路四段507號5樓507室、台北市南港區市民大道八段536巷17號","label":"通訊處"}],"term_start":"2010-12-25","term_end":{"date":"2014-12-25"},"education":"美國加州大學Fullerton分校MBA碩士、美國南加州大學（USC）、中山女高、誠正國中、南港國小。","experience":"台北市議員\n國民黨十八全中央常務委員\n國民黨全國青年工作總會總會長\n台北市黨部副主委\n馬、吳全國競選總部發言人\n馬、吳全國競選總部發展部副總監\n馬英九2008LongStay隨行團員\n台北市婦女會理事\n台北市警友會直屬辦公室主任\n任務型國大代表\n英國里茲大學博士研究\n蔡正元立委內湖辦公室主任\n景文技術學院講師\n北台科學技術講師","remark":"","image":"http://www.tcc.gov.tw/../upload/photo/%E9%97%95%E6%9E%9A%E8%8E%8E.jpg","links":[{"url":"http://www.tcc.gov.tw/Councilor_Content.aspx?s=1041","note":"議會個人官網"},{"url":"http://tcc9515.tcc.gov.tw","note":"個人網站"},{"url":"http://www.facebook.com/pages/I-Love-%E9%97%95%E6%9E%9A%E8%8E%8E%E7%B2%89%E7%B5%B2%E5%9C%98/255506127809592","note":"個人網站"}],"social_media":null,"platform":"闕枚莎的港湖下一站幸福規劃\n1.爭取規劃南港六本木特區：要求提高都更獎勵，參考新板特區優惠，融合日本六本木特區創新精神，加快南港都市更新腳步。\n2.爭取規劃南港香榭大道：要求南港車站鐵路地下化後，沿線新生道路仿傚巴黎香榭大道概念，結合展場、咖啡、精品和劇場，帶動地方上的經濟繁榮。\n3.爭取規劃內湖萊茵河：要求市府重視基隆河五分里段整治工程，使港湖民眾不用出國，就能享受有如萊茵河畔般，充滿陽光、咖啡、音樂的河岸美景。\n4.爭取規劃北北基自行車道：全力監督水利處完成內溝溪沿岸腳踏車道與基隆河親水腳踏車道銜接工程，形成橫跨雙北市與基隆河的自行車專用道。\n5.婦幼安全無死角：全面檢視捷運站周邊候車照明設備、監視系統，保護通勤族交通安全，為婦女、兒童照亮回家的路。\n6.好孕好育好福氣：要求增加公立幼托機構，各區里平均分配，並建立彈性托育機制，確實檢驗相關證照，以達「里里有公托、婦女育兒沒負擔」。\n7.國際接軌零距離：爭取試辦國中小校內國際外語村，增加外語運用機會，以實際的生活經驗養成紮實的語言能力。\n8.復康巴士送健康到你家：爭取復康巴士免費到府服務，提供慢性病患者更方便、舒適的照顧。\n9.老吾老以及人之老：建立老人安養中心標準規範，提昇照護醫療品質。","param":{"bills_role_statistics":{"total":55,"priproposer":0,"sponsor":55,"cosponsor":0},"votes_decision_statistics":{"abstain":2,"disagree":45,"not_voting":4,"total":60,"agree":9,"conflict":2},"diversity":{"臺灣團結聯盟":0.017364288169312878,"親民黨":0.018441787872883145,"無黨籍":0.011320974100515307,"中國國民黨":0.6961900269537946,"新黨":0.02293542487079927,"民主進步黨":0.23374749803269473},"suggestions_years":{"count":61,"sum":57984000,"years":[{"count":1,"sum":919000,"suggest_year":"2011","small_purchase":0},{"count":15,"sum":18570667,"suggest_year":"2012","small_purchase":1},{"count":26,"sum":31867000,"suggest_year":"2013","small_purchase":1},{"count":19,"sum":6627333,"suggest_year":"2014","small_purchase":7}]},"attendance_statistics":{"absent":2,"total":131},"suggestions_associations":[{"count":0,"sum":0,"label":"社區發展協會"},{"count":0,"sum":0,"label":"學會"},{"count":0,"sum":0,"label":"商會"},{"count":0,"sum":0,"label":"公會"},{"count":0,"sum":0,"label":"協進會"},{"count":0,"sum":0,"label":"促進會"},{"count":0,"sum":0,"label":"研習會"},{"count":0,"sum":0,"label":"婦聯會"},{"count":0,"sum":0,"label":"婦女會"},{"count":0,"sum":0,"label":"體育會"},{"count":0,"sum":0,"label":"同心會"},{"count":0,"sum":0,"label":"農會"},{"count":0,"sum":0,"label":"早起會"},{"count":0,"sum":0,"label":"健身會"},{"count":0,"sum":0,"label":"宗親會"},{"count":0,"sum":0,"label":"功德會"},{"count":0,"sum":0,"label":"商業會"},{"count":0,"sum":0,"label":"長青會"},{"count":0,"sum":0,"label":"民眾服務社"},{"count":0,"sum":0,"label":"聯盟"}],"bills_party_diversity":[{"party":"中國國民黨","ratio":0.6658415841584159},{"party":"民主進步黨","ratio":0.25495049504950495},{"party":"新黨","ratio":0.024133663366336634},{"party":"親民黨","ratio":0.02042079207920792},{"party":"無黨籍","ratio":0.017945544554455444},{"party":"臺灣團結聯盟","ratio":0.01670792079207921}],"suggestions_piles":[{"count":1,"tokens":"廟|宮","sum":1980000,"label":"廟"},{"count":0,"tokens":"協會|學會|商會|公會|協進會|促進會|研習會|婦聯會|婦女會|體育會|同心會|農會|早起會|健身會|宗親會|功德會|商業會|長青會|民眾服務社|聯盟","sum":0,"label":"協會"},{"count":0,"tokens":"辦公室|辦公處","sum":0,"label":"辦公室"},{"count":0,"tokens":"警察局|分局","sum":0,"label":"警察局"},{"count":0,"tokens":"消防局|消防隊|分隊|中隊","sum":0,"label":"消防局"},{"count":0,"tokens":"國中|國小","sum":0,"label":"國中、國小"}]},"councilor":"6719c21671f645378ba3d52e4ab50985"},{"url":"http://councils.g0v.tw/api/councilors_terms/2766/","election_year":"2014","name":"闕枚莎","gender":"女","party":"中國國民黨","title":"議員","constituency":2,"county":"臺北市","district":"內湖區、南港區","in_office":true,"contact_details":[{"type":"voice","value":"87806441","label":"電話"},{"type":"voice","value":"27297708#5007、5107","label":"電話"},{"type":"email","value":"ca95153@tcc.gov.tw","label":"電子信箱"},{"type":"fax","value":"23459141","label":"傳真"},{"type":"address","value":"台北市信義區仁愛路四段507號5樓507室、台北市南港區市民大道八段536巷17號","label":"通訊處"}],"term_start":"2014-12-25","term_end":{"date":"2018-12-24"},"education":"南港國小\n誠正國中\n中山女高\n美國南加州大學USC\n美國加州大學Fullerton分校MBA碩士","experience":"第10、11屆臺北市議員\n臺北市婦女會理事\n臺北市南港區婦女會理事長\n臺北市真善美生活促進會理事長\n臺北市警友會直屬辦公室主任\n臺北市議員黨團副書記長\n中國國民黨全國青年工作總會總會長","remark":"","image":"http://www.tcc.gov.tw/../upload/Councilor/2352/4%E9%97%95%E6%9E%9A%E8%8E%8E2.jpg","links":[{"url":"http://www.tcc.gov.tw/Councilor_Content.aspx?s=2352","note":"議會個人官網"},{"url":"http://tcc9515.tcc.gov.twhttp://www.facebook.com/pages/I-Love-%E9%97%95%E6%9E%9A%E8%8E%8E%E7%B2%89%E7%B5%B2%E5%9C%98/255506127809592","note":"個人網站"}],"social_media":null,"platform":"台北要進步，需要用心深耕的市議員！枚莎八年來腳踏實地，就是要讓大家在台北生活的每一步，能夠更舒適、更安心！隨著港\n湖發展越來越繁榮，枚莎推動白石湖休閒觀光農業區、南港桂花香榭大道與大湖生態公園改造、內溝溪美化整治，希望讓忙碌工\n作的港湖好朋友們，也能有悠閒放鬆的休憩景點；瞭解婦幼與長者需要備受呵護關懷，枚莎成功爭取國小學童每週一瓶免費牛\n奶、第一座親子美育數位圖書館設立、捷運哺集乳室服務電話增設、台北市立聯合醫院系統電子病歷建置、爭取首都警察與消防\n職務加給。枚莎相信細心觀察市民需求、努力推動貼心政策，就是讓大家更幸福的保證！枚莎願意用一步一腳印的汗水，讓大家\n看到溫柔而堅定的力量！未來，枚莎持續推動增設公立幼兒園與長者樂齡班、增建內湖自行車吊橋、興建台北首座客家義民廟、\n試辦三總、榮總與市立聯合醫院的院際電子病歷整合、試辦捷運板南線親子優先車廂、增設第二座狗狗運動公園。枚莎是努力認\n真的好議員，希望讓台北成為每個人成長、安養的幸福城市！讓內湖萊茵河，南港六本木的榮景加速落實！","param":{"suggestions_years":{"count":37,"sum":20213000,"years":[{"count":19,"sum":8310200,"suggest_year":"2015","small_purchase":10},{"count":18,"sum":11902800,"suggest_year":"2016","small_purchase":2}]},"votes_decision_statistics":{"abstain":0,"disagree":5,"not_voting":8,"total":23,"agree":10,"conflict":1},"bills_role_statistics":{"total":67,"priproposer":1,"sponsor":67,"cosponsor":0},"attendance_statistics":{"absent":8,"total":93},"suggestions_associations":[{"count":0,"sum":0,"label":"社區發展協會"},{"count":0,"sum":0,"label":"學會"},{"count":0,"sum":0,"label":"商會"},{"count":0,"sum":0,"label":"公會"},{"count":0,"sum":0,"label":"協進會"},{"count":0,"sum":0,"label":"促進會"},{"count":0,"sum":0,"label":"研習會"},{"count":0,"sum":0,"label":"婦聯會"},{"count":0,"sum":0,"label":"婦女會"},{"count":0,"sum":0,"label":"體育會"},{"count":0,"sum":0,"label":"同心會"},{"count":0,"sum":0,"label":"農會"},{"count":0,"sum":0,"label":"早起會"},{"count":0,"sum":0,"label":"健身會"},{"count":0,"sum":0,"label":"宗親會"},{"count":0,"sum":0,"label":"功德會"},{"count":0,"sum":0,"label":"商業會"},{"count":0,"sum":0,"label":"長青會"},{"count":0,"sum":0,"label":"民眾服務社"},{"count":0,"sum":0,"label":"聯盟"}],"bills_party_diversity":[{"party":"中國國民黨","ratio":0.6298472385428907},{"party":"民主進步黨","ratio":0.25381903642773207},{"party":"無黨籍","ratio":0.035840188014101056},{"party":"新黨","ratio":0.03466509988249119},{"party":"親民黨","ratio":0.017038777908343124},{"party":"民國黨","ratio":0.015863689776733254},{"party":"臺灣團結聯盟","ratio":0.012925969447708578}],"suggestions_piles":[{"count":2,"tokens":"國中|國小","sum":220000,"label":"國中、國小"},{"count":0,"tokens":"協會|學會|商會|公會|協進會|促進會|研習會|婦聯會|婦女會|體育會|同心會|農會|早起會|健身會|宗親會|功德會|商業會|長青會|民眾服務社|聯盟","sum":0,"label":"協會"},{"count":0,"tokens":"辦公室|辦公處","sum":0,"label":"辦公室"},{"count":0,"tokens":"廟|宮","sum":0,"label":"廟"},{"count":0,"tokens":"警察局|分局","sum":0,"label":"警察局"},{"count":0,"tokens":"消防局|消防隊|分隊|中隊","sum":0,"label":"消防局"}]},"councilor":"6719c21671f645378ba3d52e4ab50985"},{"url":"http://councils.g0v.tw/api/councilors_terms/144/","election_year":"2006","name":"闕枚莎","gender":"女","party":"中國國民黨","title":"議員","constituency":null,"county":"臺北市","district":"","in_office":true,"contact_details":null,"term_start":"2006-12-25","term_end":{"date":"2010-12-25"},"education":"英國里茲大學博士研究、美國加州大學Fullerton（MBA）碩士、美國南加州大學USC、中興大學法商學院（肄）、中山女高、誠正國中、南港國小。","experience":"國民大會代表，國民黨青年團藍鵲分團長，馬英九競選黨主席婦女挺馬後援會副主任委員，台北市婦女會理事，南港區婦女會理事長，蔡正元立委內湖辦公室主任，台北市議員謝英美辦公室主任，北台、景文技術學院講師","remark":"","image":"http://www.tcc.gov.tw/../upload/photo/%E9%97%95%E6%9E%9A%E8%8E%8E.JPG","links":[{"url":"http://www.tcc.gov.tw/Councilor_Content_All.aspx?s=2277&d=720405&n=%E9%97%95%E6%9E%9A%E8%8E%8E","note":"議會個人官網"}],"social_media":null,"platform":"","param":null,"councilor":"6719c21671f645378ba3d52e4ab50985"}],"uid":"6719c21671f645378ba3d52e4ab50985","name":"闕枚莎","birth":"1972-04-05","former_names":"","identifiers":["闕枚莎"]},{"url":"http://councils.g0v.tw/api/councilors/90/","each_terms":[{"url":"http://councils.g0v.tw/api/councilors_terms/155/","election_year":"2006","name":"黃珊珊","gender":"女","party":"親民黨","title":"議員","constituency":null,"county":"臺北市","district":"","in_office":true,"contact_details":null,"term_start":"2006-12-25","term_end":{"date":"2010-12-25"},"education":"北一女中、台灣大學法律系、交通大學科技法律研究所。","experience":"81年律師高考及格，遠一國際法律事務所律師，2004總統大選連宋律師團律師，親民黨台北市議會黨團召集人，台北市教師會法律顧問，第八、九屆台北市議員","remark":"","image":"http://www.tcc.gov.tw/../upload/photo/%E9%BB%83%E7%8F%8A%E7%8F%8A.jpg","links":[{"url":"http://www.tcc.gov.tw/Councilor_Content_All.aspx?s=2287&d=691018&n=%E9%BB%83%E7%8F%8A%E7%8F%8A","note":"議會個人官網"}],"social_media":null,"platform":"","param":null,"councilor":"c09ee00d7321467cbc3b0ea80750efd0"},{"url":"http://councils.g0v.tw/api/councilors_terms/2767/","election_year":"2014","name":"黃珊珊","gender":"女","party":"親民黨","title":"議員","constituency":2,"county":"臺北市","district":"內湖區、南港區","in_office":true,"contact_details":[{"type":"voice","value":"87806403","label":"電話"},{"type":"voice","value":"27297708#7046、7146","label":"電話"},{"type":"email","value":"tcc8706@tcc.gov.tw","label":"電子信箱"},{"type":"fax","value":"23459103","label":"傳真"},{"type":"address","value":"台北市內湖區成功路三段133號2樓","label":"通訊處"}],"term_start":"2014-12-25","term_end":{"date":"2018-12-24"},"education":"臺北市立第一女子高級中學\n台灣大學法律系畢業","experience":"81年律師高考及格\n執業律師\n中華民國動物福利環保協進會理事長\n財團法人青年之愛文教基金會董事長\n第8、9、10、11屆臺北市議員","remark":"","image":"http://www.tcc.gov.tw/../upload/Councilor/2348/3%E9%BB%83%E7%8F%8A%E7%8F%8A2.jpg","links":[{"url":"http://www.tcc.gov.tw/Councilor_Content.aspx?s=2348","note":"議會個人官網"},{"url":"http://tcc8706.tcc.gov.twhttp://www.super33.idv.tw/","note":"個人網站"}],"social_media":null,"platform":"珊珊謝謝你\n1.堅持理性問政、紮實服務。\n你的信任，是珊珊16年來持續每週義務法律諮詢服務及社區巡迴服務最大的動力。\n照顧法律弱勢市民的理念及行動，從未間歇！16年不打烊的專業服務，是珊珊不變的承諾！\n2.減輕父母負擔、減緩少子化衝擊。\n持續督促市府增設公立幼兒園班級數，將少子化減班後閒置國小空間有效利用改設公立幼兒園，並廣設三歲專班及二歲專班，減輕父母負擔。\n3.推動內湖焚化廠除役，轉型為生態公園。堅決反對殯儀館遷址南港舊庄。\n台北市垃圾減量有成，使用年限最長的內湖焚化廠應逐步除役，現地規劃為生態環保公園。\n內湖垃圾山清除後及南港舊庄山豬窟掩埋場應逐年復育作為綠地，不得再作為其他鄰避設施使用。\n4.內湖區都市計畫通盤檢討，現有住戶權益不受影響。\n內湖區都市計畫通盤檢討中，數十年來不合理的「山限區」劃設影響現有居民權益，要求市府訂出通案處理原則，保障既有住戶重建及都市更新的權利。\n5.督促捷運汐止民生線103年底報行政院核定，104年台北市路段動工。\n捷運汐止民生線已完成雙北聯席會議，督促103年底報行政院核定，104年於台北市內路段正式動工，帶動灣仔地區及東湖地區發展。\n6.反對12年國教繁複不公，要求簡化考試及分發流程。\n102年率先提醒市府作文比序優於標示將造成「高分低就」亂象。持續要求103學年度簡化考試及分發流程，7月中旬前完成分發作業，讓家長及學生安心，還給學生完整的暑假。","param":{"suggestions_years":{"count":19,"sum":36948200,"years":[{"count":13,"sum":22508200,"suggest_year":"2015","small_purchase":2},{"count":6,"sum":14440000,"suggest_year":"2016","small_purchase":0}]},"votes_decision_statistics":{"abstain":1,"disagree":6,"not_voting":4,"total":23,"agree":12,"conflict":0},"bills_role_statistics":{"total":40,"priproposer":2,"sponsor":40,"cosponsor":0},"attendance_statistics":{"absent":12,"total":93},"suggestions_associations":[{"count":0,"sum":0,"label":"社區發展協會"},{"count":0,"sum":0,"label":"學會"},{"count":0,"sum":0,"label":"商會"},{"count":0,"sum":0,"label":"公會"},{"count":0,"sum":0,"label":"協進會"},{"count":0,"sum":0,"label":"促進會"},{"count":0,"sum":0,"label":"研習會"},{"count":0,"sum":0,"label":"婦聯會"},{"count":0,"sum":0,"label":"婦女會"},{"count":0,"sum":0,"label":"體育會"},{"count":0,"sum":0,"label":"同心會"},{"count":0,"sum":0,"label":"農會"},{"count":0,"sum":0,"label":"早起會"},{"count":0,"sum":0,"label":"健身會"},{"count":0,"sum":0,"label":"宗親會"},{"count":0,"sum":0,"label":"功德會"},{"count":0,"sum":0,"label":"商業會"},{"count":0,"sum":0,"label":"長青會"},{"count":0,"sum":0,"label":"民眾服務社"},{"count":0,"sum":0,"label":"聯盟"}],"bills_party_diversity":[{"party":"民主進步黨","ratio":0.41409691629955947},{"party":"中國國民黨","ratio":0.40969162995594716},{"party":"親民黨","ratio":0.053744493392070485},{"party":"無黨籍","ratio":0.05110132158590308},{"party":"新黨","ratio":0.028193832599118944},{"party":"臺灣團結聯盟","ratio":0.022026431718061675},{"party":"民國黨","ratio":0.021145374449339206}],"suggestions_piles":[{"count":1,"tokens":"消防局|消防隊|分隊|中隊","sum":2312000,"label":"消防局"},{"count":1,"tokens":"國中|國小","sum":2312000,"label":"國中、國小"},{"count":0,"tokens":"協會|學會|商會|公會|協進會|促進會|研習會|婦聯會|婦女會|體育會|同心會|農會|早起會|健身會|宗親會|功德會|商業會|長青會|民眾服務社|聯盟","sum":0,"label":"協會"},{"count":0,"tokens":"辦公室|辦公處","sum":0,"label":"辦公室"},{"count":0,"tokens":"廟|宮","sum":0,"label":"廟"},{"count":0,"tokens":"警察局|分局","sum":0,"label":"警察局"}]},"councilor":"c09ee00d7321467cbc3b0ea80750efd0"},{"url":"http://councils.g0v.tw/api/councilors_terms/206/","election_year":"2002","name":"黃珊珊","gender":"女","party":"親民黨","title":"議員","constituency":null,"county":"臺北市","district":"","in_office":true,"contact_details":null,"term_start":"2002-12-25","term_end":{"date":"2006-12-25"},"education":"北一女中、臺灣大學法律系八十一年畢業、八十一年律師高考及格。","experience":"八十一年執業律師、一日志工協會發起人、臺北市教師會法律顧問、中華民國動物福利環保協進會志工、東湖獅子會獅友、梅林社會關懷協會副理事長、愛盲文教基金會董事、臺北市直轄市議會第八屆議員。","remark":"","image":"http://www.tcc.gov.tw/../upload/photo/%E7%AC%AC%E4%B9%9D%E5%B1%86%E9%BB%83%E7%8F%8A%E7%8F%8A008.jpg","links":[{"url":"http://www.tcc.gov.tw/Councilor_Content_All.aspx?s=1859&d=691018&n=%E9%BB%83%E7%8F%8A%E7%8F%8A","note":"議會個人官網"}],"social_media":null,"platform":"","param":null,"councilor":"c09ee00d7321467cbc3b0ea80750efd0"},{"url":"http://councils.g0v.tw/api/councilors_terms/260/","election_year":"1998","name":"黃珊珊","gender":"女","party":"親民黨","title":"議員","constituency":null,"county":"臺北市","district":"","in_office":true,"contact_details":null,"term_start":"1998-12-25","term_end":{"date":"2002-12-25"},"education":"鳳山市曹公國小、鳳西國中、臺北市立第一女子高級中學、臺灣大學法律系","experience":"力鼎律師事務所副所長。律師高考及格。基隆市立法委員何聖隆服務處義務法律服務五年。專利代理人。世聯國際專利商標事務所負責人。汐止鎮公所、新莊市公所法律顧問。進輪汽車及幸福華城管理委員會等數十家公司法律顧問。","remark":"","image":"http://www.tcc.gov.tw/../upload/photo/%E9%BB%83%E7%8F%8A%E7%8F%8A16.bmp","links":[{"url":"http://www.tcc.gov.tw/Councilor_Content_All.aspx?s=1742&d=691018&n=%E9%BB%83%E7%8F%8A%E7%8F%8A","note":"議會個人官網"}],"social_media":null,"platform":"","param":null,"councilor":"c09ee00d7321467cbc3b0ea80750efd0"},{"url":"http://councils.g0v.tw/api/councilors_terms/94/","election_year":"2010","name":"黃珊珊","gender":"女","party":"親民黨","title":"議員","constituency":2,"county":"臺北市","district":"內湖區、南港區","in_office":true,"contact_details":[{"type":"email","value":"tcc8706@tcc.gov.tw","label":"電子信箱"},{"type":"voice","value":"2793665627297708#7046、7146","label":"電話"},{"type":"fax","value":"23459103","label":"傳真"},{"type":"address","value":"台北市內湖區成功路三段133號2樓","label":"通訊處"}],"term_start":"2010-12-25","term_end":{"date":"2014-12-25"},"education":"北一女中畢業、台灣大學法律系81年畢業。","experience":"81年律師高考及格、台北市教師會法律顧問、社團法人中華民國動物福利環保協進會理事長、財團法人青年之愛文教基金會董事長、第八、九、十屆台北市議員。","remark":"","image":"http://www.tcc.gov.tw/../upload/photo/%E9%BB%83%E7%8F%8A%E7%8F%8A.jpg","links":[{"url":"http://www.tcc.gov.tw/Councilor_Content.aspx?s=1040","note":"議會個人官網"},{"url":"http://www.super33.idv.tw/","note":"個人網站"}],"social_media":null,"platform":"1.堅持理性問政、紮實服務：\n　持續舉辦義務法律諮詢服務及社區巡迴服務，照顧法律弱勢市民的理念及行動從未間歇！12年來從不中斷的專業服務，是珊珊不變的承諾。\n2.讓父母安心、讓子女不擔心：\n　幼托合一，增加生育補助、育兒津貼以及安親補助。增加老人醫療及安養照顧經費。\n3.讓弱勢受保護：\n　堅持社會福利預算不縮水、保障婦幼安全及兩性平權。\n4.推動市民出租國宅，解決高房價問題：\n　有效利用市產，於每個行政區興建平價國民出租住宅，以低於市價出租。\n5.都市更新、港湖整體起飛：\n　推動都市更新，全面檢討容積率，讓港湖地區整體平衡發展，拉近新舊社區差距！串聯內科及南軟科技走廊，全面改善周圍交通及生活機能。\n6.讓天空與基隆河更乾淨：\n　因應2010垃圾零掩埋、垃圾減量有成，推動內湖焚化廠關爐，打造基隆河岸光廊。\n7.讓內湖交通更順暢：\n　督促捷運汐止民生線進度，帶動灣仔及東湖地區發展。\n8.讓南港成為台北後花園：\n　嚴格監督202兵工廠都市計劃變更案，保留生態綠地，平衡南港地區發展。\n9.讓老師專心、讓家長安心：\n　學校教育專業化，教師甄選公開透明化，推動「小班不減班」，解決流浪教師問題。\n10.珊珊的認真，你看得見，要讓認真的珊珊被看見。","param":{"bills_role_statistics":{"total":49,"priproposer":2,"sponsor":49,"cosponsor":0},"votes_decision_statistics":{"abstain":15,"disagree":8,"not_voting":24,"total":60,"agree":13,"conflict":0},"diversity":{"臺灣團結聯盟":0.038921573131520275,"親民黨":0.07756059939172981,"無黨籍":0.028791154763715073,"中國國民黨":0.41582371827320874,"新黨":0.019056847261123666,"民主進步黨":0.41984610717870235},"suggestions_years":{"count":21,"sum":29947000,"years":[{"count":3,"sum":1079000,"suggest_year":"2012","small_purchase":0},{"count":11,"sum":17624000,"suggest_year":"2013","small_purchase":1},{"count":7,"sum":11244000,"suggest_year":"2014","small_purchase":2}]},"attendance_statistics":{"absent":6,"total":131},"suggestions_associations":[{"count":0,"sum":0,"label":"社區發展協會"},{"count":0,"sum":0,"label":"學會"},{"count":0,"sum":0,"label":"商會"},{"count":0,"sum":0,"label":"公會"},{"count":0,"sum":0,"label":"協進會"},{"count":0,"sum":0,"label":"促進會"},{"count":0,"sum":0,"label":"研習會"},{"count":0,"sum":0,"label":"婦聯會"},{"count":0,"sum":0,"label":"婦女會"},{"count":0,"sum":0,"label":"體育會"},{"count":0,"sum":0,"label":"同心會"},{"count":0,"sum":0,"label":"農會"},{"count":0,"sum":0,"label":"早起會"},{"count":0,"sum":0,"label":"健身會"},{"count":0,"sum":0,"label":"宗親會"},{"count":0,"sum":0,"label":"功德會"},{"count":0,"sum":0,"label":"商業會"},{"count":0,"sum":0,"label":"長青會"},{"count":0,"sum":0,"label":"民眾服務社"},{"count":0,"sum":0,"label":"聯盟"}],"bills_party_diversity":[{"party":"中國國民黨","ratio":0.43654434250764523},{"party":"民主進步黨","ratio":0.42507645259938837},{"party":"親民黨","ratio":0.05963302752293578},{"party":"無黨籍","ratio":0.028287461773700305},{"party":"臺灣團結聯盟","ratio":0.027522935779816515},{"party":"新黨","ratio":0.022935779816513763}],"suggestions_piles":[{"count":2,"tokens":"國中|國小","sum":7490500,"label":"國中、國小"},{"count":0,"tokens":"協會|學會|商會|公會|協進會|促進會|研習會|婦聯會|婦女會|體育會|同心會|農會|早起會|健身會|宗親會|功德會|商業會|長青會|民眾服務社|聯盟","sum":0,"label":"協會"},{"count":0,"tokens":"辦公室|辦公處","sum":0,"label":"辦公室"},{"count":0,"tokens":"廟|宮","sum":0,"label":"廟"},{"count":0,"tokens":"警察局|分局","sum":0,"label":"警察局"},{"count":0,"tokens":"消防局|消防隊|分隊|中隊","sum":0,"label":"消防局"}]},"councilor":"c09ee00d7321467cbc3b0ea80750efd0"}],"uid":"c09ee00d7321467cbc3b0ea80750efd0","name":"黃珊珊","birth":"1969-10-18","former_names":"","identifiers":["黃珊珊","黄珊珊"]},{"url":"http://councils.g0v.tw/api/councilors/21198/","each_terms":[{"url":"http://councils.g0v.tw/api/councilors_terms/11648/","election_year":"2014","name":"施性鍾","gender":"男","party":"中國國民黨","title":"","constituency":2,"county":"彰化縣","district":"鹿港鎮、福興鄉、秀水鄉","in_office":false,"contact_details":null,"term_start":"2014-12-25","term_end":{"date":"2015-12-08","judicial_links":"","reason":"當選無效","ref":"http://www.cec.gov.tw/central/cms/bulletin/7796","replacement":"楊竣程"},"education":null,"experience":null,"remark":null,"image":"","links":null,"social_media":null,"platform":"","param":{"bills_role_statistics":{"total":6,"priproposer":0,"sponsor":0,"cosponsor":6},"bills_party_diversity":[{"party":"中國國民黨","ratio":0.6470588235294118},{"party":"無黨籍","ratio":0.2647058823529412},{"party":"民主進步黨","ratio":0.08823529411764706}]},"councilor":"4370cc6b4a5b451e839a08998041ca4c"}],"uid":"4370cc6b4a5b451e839a08998041ca4c","name":"施性鍾","birth":"1952-01-01","former_names":"","identifiers":["施性鍾"]},{"url":"http://councils.g0v.tw/api/councilors/21199/","each_terms":[{"url":"http://councils.g0v.tw/api/councilors_terms/11653/","election_year":"2014","name":"郭國賓","gender":"男","party":"無黨籍","title":"","constituency":2,"county":"彰化縣","district":"鹿港鎮、福興鄉、秀水鄉","in_office":false,"contact_details":null,"term_start":"2014-12-25","term_end":{"date":"2016-02-04","judicial_links":"","reason":"當選無效","ref":"","replacement":""},"education":null,"experience":null,"remark":null,"image":"","links":null,"social_media":null,"platform":"","param":{"bills_role_statistics":{"total":23,"priproposer":5,"sponsor":5,"cosponsor":18},"bills_party_diversity":[{"party":"中國國民黨","ratio":0.5688888888888889},{"party":"無黨籍","ratio":0.3377777777777778},{"party":"民主進步黨","ratio":0.09333333333333334}]},"councilor":"05d2c843a0d540779d1441daebbe2f62"}],"uid":"05d2c843a0d540779d1441daebbe2f62","name":"郭國賓","birth":"1966-01-01","former_names":"","identifiers":["郭國賓"]},{"url":"http://councils.g0v.tw/api/councilors/21200/","each_terms":[{"url":"http://councils.g0v.tw/api/councilors_terms/11844/","election_year":"2014","name":"袁明星","gender":"男","party":"民主進步黨","title":"","constituency":7,"county":"桃園市","district":"中壢市","in_office":false,"contact_details":null,"term_start":"2014-12-25","term_end":{"date":"2016-03-28","judicial_links":"","reason":"病逝","ref":"","replacement":""},"education":null,"experience":null,"remark":null,"image":"","links":null,"social_media":null,"platform":"","param":{"suggestions_years":{"count":21,"sum":11934974,"years":[{"count":17,"sum":9959000,"suggest_year":"2015","small_purchase":2},{"count":4,"sum":1975974,"suggest_year":"2016","small_purchase":0}]},"bills_role_statistics":{"total":16,"priproposer":2,"sponsor":2,"cosponsor":14},"attendance_statistics":{"absent":0,"total":71},"suggestions_associations":[{"count":0,"sum":0,"label":"社區發展協會"},{"count":0,"sum":0,"label":"學會"},{"count":0,"sum":0,"label":"商會"},{"count":0,"sum":0,"label":"公會"},{"count":0,"sum":0,"label":"協進會"},{"count":0,"sum":0,"label":"促進會"},{"count":0,"sum":0,"label":"研習會"},{"count":0,"sum":0,"label":"婦聯會"},{"count":0,"sum":0,"label":"婦女會"},{"count":0,"sum":0,"label":"體育會"},{"count":0,"sum":0,"label":"同心會"},{"count":0,"sum":0,"label":"農會"},{"count":0,"sum":0,"label":"早起會"},{"count":0,"sum":0,"label":"健身會"},{"count":0,"sum":0,"label":"宗親會"},{"count":0,"sum":0,"label":"功德會"},{"count":0,"sum":0,"label":"商業會"},{"count":0,"sum":0,"label":"長青會"},{"count":0,"sum":0,"label":"民眾服務社"},{"count":0,"sum":0,"label":"聯盟"}],"bills_party_diversity":[{"party":"民主進步黨","ratio":0.967741935483871},{"party":"無黨團結聯盟","ratio":0.016129032258064516},{"party":"中國國民黨","ratio":0.016129032258064516}],"suggestions_piles":[{"count":8,"tokens":"國中|國小","sum":5854000,"label":"國中、國小"},{"count":10,"tokens":"辦公室|辦公處","sum":4182000,"label":"辦公室"},{"count":4,"tokens":"警察局|分局","sum":1585592,"label":"警察局"},{"count":1,"tokens":"消防局|消防隊|分隊|中隊","sum":495382,"label":"消防局"},{"count":0,"tokens":"協會|學會|商會|公會|協進會|促進會|研習會|婦聯會|婦女會|體育會|同心會|農會|早起會|健身會|宗親會|功德會|商業會|長青會|民眾服務社|聯盟","sum":0,"label":"協會"},{"count":0,"tokens":"廟|宮","sum":0,"label":"廟"}]},"councilor":"f89eb970d02a4f8ca2b818eb4299a98a"}],"uid":"f89eb970d02a4f8ca2b818eb4299a98a","name":"袁明星","birth":"1962-01-01","former_names":"","identifiers":["袁明星"]},{"url":"http://councils.g0v.tw/api/councilors/21201/","each_terms":[{"url":"http://councils.g0v.tw/api/councilors_terms/11860/","election_year":"2014","name":"郭榮宗","gender":"男","party":"民主進步黨","title":"","constituency":12,"county":"桃園市","district":"觀音鄉","in_office":false,"contact_details":null,"term_start":"2014-12-25","term_end":{"date":"2015-08-24","judicial_links":"","reason":"請辭，當選無效","ref":"","replacement":"吳宗憲"},"education":null,"experience":null,"remark":null,"image":"","links":null,"social_media":null,"platform":"","param":{"attendance_statistics":{"absent":0,"total":59},"bills_role_statistics":{"total":50,"priproposer":18,"sponsor":18,"cosponsor":32},"bills_party_diversity":[{"party":"民主進步黨","ratio":0.8082191780821918},{"party":"中國國民黨","ratio":0.182648401826484},{"party":"綠黨","ratio":0.0091324200913242}]},"councilor":"87766fb6fbbc488b8f7b61f9ceeefc6b"}],"uid":"87766fb6fbbc488b8f7b61f9ceeefc6b","name":"郭榮宗","birth":"1954-01-01","former_names":"","identifiers":["郭榮宗"]},{"url":"http://councils.g0v.tw/api/councilors/21202/","each_terms":[{"url":"http://councils.g0v.tw/api/councilors_terms/12049/","election_year":"2014","name":"李全教","gender":"男","party":"中國國民黨","title":"","constituency":8,"county":"臺南市","district":"楠西、南化、玉井、左鎮區","in_office":false,"contact_details":null,"term_start":"2014-12-25","term_end":{"date":"2016-08-30","judicial_links":"","reason":"當選無效","ref":"http://www.cec.gov.tw/central/cms/bulletin/25031","replacement":"王峻潭"},"education":null,"experience":null,"remark":null,"image":"","links":null,"social_media":null,"platform":"","param":{"suggestions_years":{"count":13,"sum":6483000,"years":[{"count":13,"sum":6483000,"suggest_year":"2015","small_purchase":1}]},"bills_role_statistics":{"total":6,"priproposer":5,"sponsor":5,"cosponsor":1},"attendance_statistics":{"absent":58,"total":210},"suggestions_associations":[{"count":0,"sum":0,"label":"社區發展協會"},{"count":0,"sum":0,"label":"學會"},{"count":0,"sum":0,"label":"商會"},{"count":0,"sum":0,"label":"公會"},{"count":0,"sum":0,"label":"協進會"},{"count":0,"sum":0,"label":"促進會"},{"count":0,"sum":0,"label":"研習會"},{"count":0,"sum":0,"label":"婦聯會"},{"count":0,"sum":0,"label":"婦女會"},{"count":0,"sum":0,"label":"體育會"},{"count":0,"sum":0,"label":"同心會"},{"count":0,"sum":0,"label":"農會"},{"count":0,"sum":0,"label":"早起會"},{"count":0,"sum":0,"label":"健身會"},{"count":0,"sum":0,"label":"宗親會"},{"count":0,"sum":0,"label":"功德會"},{"count":0,"sum":0,"label":"商業會"},{"count":0,"sum":0,"label":"長青會"},{"count":0,"sum":0,"label":"民眾服務社"},{"count":0,"sum":0,"label":"聯盟"}],"bills_party_diversity":[{"party":"中國國民黨","ratio":0.7692307692307693},{"party":"無黨籍","ratio":0.23076923076923078}],"suggestions_piles":[{"count":0,"tokens":"協會|學會|商會|公會|協進會|促進會|研習會|婦聯會|婦女會|體育會|同心會|農會|早起會|健身會|宗親會|功德會|商業會|長青會|民眾服務社|聯盟","sum":0,"label":"協會"},{"count":0,"tokens":"辦公室|辦公處","sum":0,"label":"辦公室"},{"count":0,"tokens":"廟|宮","sum":0,"label":"廟"},{"count":0,"tokens":"警察局|分局","sum":0,"label":"警察局"},{"count":0,"tokens":"消防局|消防隊|分隊|中隊","sum":0,"label":"消防局"},{"count":0,"tokens":"國中|國小","sum":0,"label":"國中、國小"}]},"councilor":"1220c7fa2a3f4008a1e99c69119327e4"}],"uid":"1220c7fa2a3f4008a1e99c69119327e4","name":"李全教","birth":"1960-01-01","former_names":"","identifiers":["李全教","李全教"]},{"url":"http://councils.g0v.tw/api/councilors/21203/","each_terms":[{"url":"http://councils.g0v.tw/api/councilors_terms/12072/","election_year":"2014","name":"張順成","gender":"男","party":"無黨籍","title":"","constituency":12,"county":"臺東縣","district":"居住海端鄉及鹿野鄉、關山鎮、池上2鄉之山地原住民","in_office":false,"contact_details":null,"term_start":"2014-12-25","term_end":{"date":"2015-11-27","judicial_links":"","reason":"當選無效","ref":"","replacement":""},"education":null,"experience":null,"remark":null,"image":"","links":null,"social_media":null,"platform":"","param":{"bills_role_statistics":{"total":12,"priproposer":7,"sponsor":7,"cosponsor":5},"suggestions_years":{"count":21,"sum":1900800,"years":[{"count":21,"sum":1900800,"suggest_year":"2015","small_purchase":19}]},"suggestions_associations":[{"count":0,"sum":0,"label":"社區發展協會"},{"count":0,"sum":0,"label":"學會"},{"count":0,"sum":0,"label":"商會"},{"count":0,"sum":0,"label":"公會"},{"count":0,"sum":0,"label":"協進會"},{"count":0,"sum":0,"label":"促進會"},{"count":0,"sum":0,"label":"研習會"},{"count":0,"sum":0,"label":"婦聯會"},{"count":0,"sum":0,"label":"婦女會"},{"count":0,"sum":0,"label":"體育會"},{"count":0,"sum":0,"label":"同心會"},{"count":0,"sum":0,"label":"農會"},{"count":0,"sum":0,"label":"早起會"},{"count":0,"sum":0,"label":"健身會"},{"count":0,"sum":0,"label":"宗親會"},{"count":0,"sum":0,"label":"功德會"},{"count":0,"sum":0,"label":"商業會"},{"count":0,"sum":0,"label":"長青會"},{"count":0,"sum":0,"label":"民眾服務社"},{"count":0,"sum":0,"label":"聯盟"}],"suggestions_piles":[{"count":7,"tokens":"國中|國小","sum":634000,"label":"國中、國小"},{"count":4,"tokens":"辦公室|辦公處","sum":251000,"label":"辦公室"},{"count":2,"tokens":"消防局|消防隊|分隊|中隊","sum":147000,"label":"消防局"},{"count":1,"tokens":"協會|學會|商會|公會|協進會|促進會|研習會|婦聯會|婦女會|體育會|同心會|農會|早起會|健身會|宗親會|功德會|商業會|長青會|民眾服務社|聯盟","sum":95000,"label":"協會"},{"count":1,"tokens":"警察局|分局","sum":65000,"label":"警察局"},{"count":0,"tokens":"廟|宮","sum":0,"label":"廟"}],"bills_party_diversity":[{"party":"中國國民黨","ratio":0.7333333333333333},{"party":"無黨籍","ratio":0.26666666666666666}]},"councilor":"09a6428b5f554eb1a6764585b6e3b321"}],"uid":"09a6428b5f554eb1a6764585b6e3b321","name":"張順成","birth":"1956-01-01","former_names":"","identifiers":["張順成"]},{"url":"http://councils.g0v.tw/api/councilors/21204/","each_terms":[{"url":"http://councils.g0v.tw/api/councilors_terms/12129/","election_year":"2014","name":"陳漢清","gender":"男","party":"中國國民黨","title":"","constituency":5,"county":"苗栗縣","district":"頭份鎮、南庄鄉、三灣鄉","in_office":false,"contact_details":null,"term_start":"2014-12-25","term_end":{"date":"2015-06-25","judicial_links":"","reason":"當選無效","ref":"http://www.cec.gov.tw/central/cms/bulletin/9275","replacement":"鍾福貴"},"education":null,"experience":null,"remark":null,"image":"","links":null,"social_media":null,"platform":"","param":{"bills_role_statistics":{"total":11,"priproposer":3,"sponsor":3,"cosponsor":8},"bills_party_diversity":[{"party":"中國國民黨","ratio":0.52},{"party":"無黨籍","ratio":0.46},{"party":"民主進步黨","ratio":0.02}]},"councilor":"bbfcfcb96c614130be4d41d3813fcce4"}],"uid":"bbfcfcb96c614130be4d41d3813fcce4","name":"陳漢清","birth":"1977-01-01","former_names":"","identifiers":["陳漢清"]},{"url":"http://councils.g0v.tw/api/councilors/21205/","each_terms":[{"url":"http://councils.g0v.tw/api/councilors_terms/12151/","election_year":"2014","name":"許櫻萍","gender":"女","party":"民主進步黨","title":"","constituency":1,"county":"苗栗縣","district":"苗栗市、公館鄉、頭屋鄉","in_office":false,"contact_details":null,"term_start":"2014-12-25","term_end":{"date":"2016-03-15","judicial_links":"","reason":"當選無效","ref":"http://www.cec.gov.tw/central/cms/bulletin/7636","replacement":"胡忠勇"},"education":null,"experience":null,"remark":null,"image":"","links":null,"social_media":null,"platform":"","param":{"bills_role_statistics":{"total":22,"priproposer":2,"sponsor":2,"cosponsor":20},"bills_party_diversity":[{"party":"民主進步黨","ratio":0.39490445859872614},{"party":"中國國民黨","ratio":0.3248407643312102},{"party":"無黨籍","ratio":0.2802547770700637}]},"councilor":"d2a9a26d33a1428889d20f4c1a140e99"}],"uid":"d2a9a26d33a1428889d20f4c1a140e99","name":"許櫻萍","birth":"1976-01-01","former_names":"","identifiers":["許櫻萍"]}]}