{"count":1904,"next":"http://councils.g0v.tw/api/councilors/?page=21","previous":"http://councils.g0v.tw/api/councilors/?page=19","results":[{"url":"http://councils.g0v.tw/api/councilors/255/","each_terms":[{"url":"http://councils.g0v.tw/api/councilors_terms/550/","election_year":"1973","name":"盧林素妴","gender":"女","party":"中國國民黨","title":"議員","constituency":null,"county":"臺北市","district":"","in_office":true,"contact_details":null,"term_start":"1973-12-25","term_end":{"date":"1977-12-25"},"education":"省立臺北第二女中畢業、省立臺北女子師範畢業。","experience":"臺北市老松國小教員、臺北市建成區民防婦女隊副隊長、臺北市建成區婦女會理事、臺北市婦女會常務理事。","remark":"","image":"http://www.tcc.gov.tw/../upload/photo/%E7%9B%A7%E6%9E%97%E7%B4%A0%E5%A6%B410.jpg","links":[{"url":"http://www.tcc.gov.tw/Councilor_Content_All.aspx?s=1984&d=370506&n=%E7%9B%A7%E6%9E%97%E7%B4%A0%E5%A6%B4","note":"議會個人官網"}],"social_media":null,"platform":"","param":null,"councilor":"a6b23f4cb40c42fd99b11a218c2a9f3f"},{"url":"http://councils.g0v.tw/api/councilors_terms/503/","election_year":"1977","name":"盧林素妴","gender":"女","party":"中國國民黨","title":"議員","constituency":null,"county":"臺北市","district":"","in_office":true,"contact_details":null,"term_start":"1977-12-25","term_end":{"date":"1981-12-25"},"education":"臺北縣鶯歌國小畢業、省立臺北第二女子初中畢業、省立臺北女中師範畢業、革命實踐研究院65期結業。","experience":"老松國小教員、臺北市婦女會常務理事、臺北市主婦合作協會理事、臺北市國術會秘書長及顧問、臺北市義警大隊督導、臺北市民防團建成區婦女隊隊長、建成區體育會、兵役協會常務理事、建成區民俗改善實踐委員會委員、臺北市直轄市議會第二屆議員。","remark":"","image":"http://www.tcc.gov.tw/../upload/photo/%E7%9B%A7%E6%9E%97%E7%B4%A0%E5%A6%B411.jpg","links":[{"url":"http://www.tcc.gov.tw/Councilor_Content_All.aspx?s=2128&d=390506&n=%E7%9B%A7%E6%9E%97%E7%B4%A0%E5%A6%B4","note":"議會個人官網"}],"social_media":null,"platform":"","param":null,"councilor":"a6b23f4cb40c42fd99b11a218c2a9f3f"}],"uid":"a6b23f4cb40c42fd99b11a218c2a9f3f","name":"盧林素妴","birth":"1939-05-06","former_names":"","identifiers":["盧林素妴","盧林素妴"]},{"url":"http://councils.g0v.tw/api/councilors/256/","each_terms":[{"url":"http://councils.g0v.tw/api/councilors_terms/505/","election_year":"1977","name":"鄭瑞齋","gender":"男","party":"中國國民黨","title":"議員","constituency":null,"county":"臺北市","district":"","in_office":true,"contact_details":null,"term_start":"1977-12-25","term_end":{"date":"1981-12-25"},"education":"國立廈門大學肄業。","experience":"臺北市地方自治協會理事長、龍山區兵役協會主任委員、書法研究會理事長、私立愛愛院董事、私立格致中學董事、廈們同鄉會理事長、中華民國紅十字會臺北市分會理事、國術會常務理事、國際獅子會中華民國總會副秘書長、體育會常務理事、游泳委員會主任委員、臺北市省轄市議會第三、四、六屆議員及臨時議會、直轄市議會第一、二屆議員。","remark":"","image":"http://www.tcc.gov.tw/../upload/photo/%E9%84%AD%E7%91%9E%E9%BD%8B11.jpg","links":[{"url":"http://www.tcc.gov.tw/Councilor_Content_All.aspx?s=2127&d=231016&n=%E9%84%AD%E7%91%9E%E9%BD%8B","note":"議會個人官網"}],"social_media":null,"platform":"","param":null,"councilor":"5c9e7029d3ca4f239c2a2666b293c461"},{"url":"http://councils.g0v.tw/api/councilors_terms/552/","election_year":"1973","name":"鄭瑞齋","gender":"男","party":"中國國民黨","title":"議員","constituency":null,"county":"臺北市","district":"","in_office":true,"contact_details":null,"term_start":"1973-12-25","term_end":{"date":"1977-12-25"},"education":"國立廈門大學肄業。","experience":"秘書、研究員、委員、主任、理事長、臺北市第三、四、六屆議會議員及臨時議會、直轄市議會第一屆議會議員、臺北市合作社聯合社理事兼經理。","remark":"","image":"http://www.tcc.gov.tw/../upload/photo/%E9%84%AD%E7%91%9E%E9%BD%8B10.jpg","links":[{"url":"http://www.tcc.gov.tw/Councilor_Content_All.aspx?s=2199&d=231016&n=%E9%84%AD%E7%91%9E%E9%BD%8B","note":"議會個人官網"}],"social_media":null,"platform":"","param":null,"councilor":"5c9e7029d3ca4f239c2a2666b293c461"},{"url":"http://councils.g0v.tw/api/councilors_terms/599/","election_year":"1969","name":"鄭瑞齋","gender":"男","party":"中國國民黨","title":"議員","constituency":null,"county":"臺北市","district":"","in_office":true,"contact_details":null,"term_start":"1969-12-25","term_end":{"date":"1973-12-25"},"education":"國立廈門大學會計學系肄業。","experience":"秘書、研究員、委員、主任、理事長、臺北市省轄市議會第三、四、六屆以及臨時議會議員。","remark":"","image":"http://www.tcc.gov.tw/../upload/photo/%E9%84%AD%E7%91%9E%E9%BD%8B09.jpg","links":[{"url":"http://www.tcc.gov.tw/Councilor_Content_All.aspx?s=2223&d=231016&n=%E9%84%AD%E7%91%9E%E9%BD%8B","note":"議會個人官網"}],"social_media":null,"platform":"","param":null,"councilor":"5c9e7029d3ca4f239c2a2666b293c461"}],"uid":"5c9e7029d3ca4f239c2a2666b293c461","name":"鄭瑞齋","birth":"1923-10-16","former_names":"","identifiers":["鄭瑞齋"]},{"url":"http://councils.g0v.tw/api/councilors/1249/","each_terms":[{"url":"http://councils.g0v.tw/api/councilors_terms/2175/","election_year":"2009","name":"黃輝寶","gender":"男","party":"中國國民黨","title":"","constituency":8,"county":"花蓮縣","district":"居住秀林鄉及花蓮市、新城鄉、吉安鄉、壽豐鄉之山地原住民","in_office":true,"contact_details":[{"type":"address","value":"花蓮縣秀林鄉和平村和平158號","label":"通訊處"},{"type":"voice","value":"03-8611017．0972-629389","label":"電話"}],"term_start":"2009-12-25","term_end":{"date":"2014-12-25"},"education":"屏東農校畢業","experience":"1.63年原住民特考行政及經建人員丙等考試及格。\n2.87年委任公務人員晉升薦任官等訓練及格。\n3.秀林鄉公所村幹事、課員及課長。\n4.秀林鄉第十三、十四屆鄉長。\n5.花蓮縣第16屆、17屆議員。\n6.中國國民黨小組長、區分部書記、區黨部委員及主任委員。\n7.秀林鄉後輔中心主任。\n8.中國國民黨十六全代會代表。","remark":null,"image":"http://www.hlcc.gov.tw/upfile/20100226142240-143.jpg","links":[{"url":"http://www.hlcc.gov.tw/councillor-data.php?index_no=36","note":"議會個人官網"}],"social_media":null,"platform":"1.爭取原住民在自己傳統領域土地內得到應有的權益，該是原住民的就還給我們原住民。\n2.在不影響水土保持規範下爭取整修、興建產業道路，方便原住民從事農業生產工作。\n3.做好政府與鄉民溝通管道，爭取地方建設經費，促進部落產業發展，以改善原住民經濟、生活環境。\n4.促請秀林鄉各企業財團，落實當時設廠承諾『公司需進用人力，對原住民子弟應先給予培訓並優先僱用』。\n5.請縣政府在各局、處每個單位，對臨時、約僱、考試及格之太魯閣族及賽德克族子弟能有比率進用，以符合族群融合，也給我們公平的就業機會。","param":{"suggestions_years":{"count":12,"sum":885593,"years":[{"count":12,"sum":885593,"suggest_year":"2014","small_purchase":11}]},"diversity":{"中國國民黨":0.8626369394779573,"民主進步黨":0.058456115202674935,"無黨籍":0.07890694531936751},"bills_role_statistics":{"total":180,"priproposer":37,"sponsor":38,"cosponsor":142},"suggestions_associations":[{"count":0,"sum":0,"label":"社區發展協會"},{"count":0,"sum":0,"label":"學會"},{"count":0,"sum":0,"label":"商會"},{"count":0,"sum":0,"label":"公會"},{"count":0,"sum":0,"label":"協進會"},{"count":0,"sum":0,"label":"促進會"},{"count":0,"sum":0,"label":"研習會"},{"count":0,"sum":0,"label":"婦聯會"},{"count":0,"sum":0,"label":"婦女會"},{"count":0,"sum":0,"label":"體育會"},{"count":0,"sum":0,"label":"同心會"},{"count":0,"sum":0,"label":"農會"},{"count":0,"sum":0,"label":"早起會"},{"count":0,"sum":0,"label":"健身會"},{"count":0,"sum":0,"label":"宗親會"},{"count":0,"sum":0,"label":"功德會"},{"count":0,"sum":0,"label":"商業會"},{"count":0,"sum":0,"label":"長青會"},{"count":0,"sum":0,"label":"民眾服務社"},{"count":0,"sum":0,"label":"聯盟"}],"bills_party_diversity":[{"party":"中國國民黨","ratio":0.8586065573770492},{"party":"無黨籍","ratio":0.08504098360655737},{"party":"民主進步黨","ratio":0.05635245901639344}],"suggestions_piles":[{"count":9,"tokens":"警察局|分局","sum":589311,"label":"警察局"},{"count":2,"tokens":"消防局|消防隊|分隊|中隊","sum":197000,"label":"消防局"},{"count":1,"tokens":"國中|國小","sum":99282,"label":"國中、國小"},{"count":0,"tokens":"協會|學會|商會|公會|協進會|促進會|研習會|婦聯會|婦女會|體育會|同心會|農會|早起會|健身會|宗親會|功德會|商業會|長青會|民眾服務社|聯盟","sum":0,"label":"協會"},{"count":0,"tokens":"辦公室|辦公處","sum":0,"label":"辦公室"},{"count":0,"tokens":"廟|宮","sum":0,"label":"廟"}]},"councilor":"b1920358b43847d0a82b7596bfe95bcb"}],"uid":"b1920358b43847d0a82b7596bfe95bcb","name":"黃輝寶","birth":null,"former_names":"","identifiers":["黃輝寶","黄輝寳","黃輝寳","黄輝寶"]},{"url":"http://councils.g0v.tw/api/councilors/1579/","each_terms":[],"uid":"05c077d374354ca1844a8cc448358f33","name":"謝端容","birth":null,"former_names":"","identifiers":["謝端容"]},{"url":"http://councils.g0v.tw/api/councilors/1580/","each_terms":[],"uid":"f7631a73ace04a77903e06091edfeefd","name":"陳碧華","birth":null,"former_names":"","identifiers":["陳碧華"]},{"url":"http://councils.g0v.tw/api/councilors/1581/","each_terms":[],"uid":"99dc5a92598a4e9390cbd7fae60ded8c","name":"李文斌","birth":null,"former_names":"","identifiers":["李文斌","李文斌"]},{"url":"http://councils.g0v.tw/api/councilors/603/","each_terms":[{"url":"http://councils.g0v.tw/api/councilors_terms/1028/","election_year":"1986","name":"楊林貴美","gender":"","party":"","title":"議員","constituency":1,"county":"新北市","district":"板橋市、土城鄉","in_office":true,"contact_details":null,"term_start":"1986-03-01","term_end":{"date":"1990-02-28"},"education":"安坑國小\n靜修女中\n純德女中高中畢業","experience":"板橋市第3屆市民代表\n婦女會理事長\n北縣家扶中心副主任委員\n廣播電臺播音員\n臺北縣議會第10、11屆議員\n板橋市婦女會理事長\n北縣工商婦女聯誼會會長\n兒童保護委員會主任委員\n寶來中和證券雙和分公司總經理\n寶來中和證券土城分公司總經理","remark":null,"image":"http://www.ntp.gov.tw/UpFile/CouncilorFile/TTCC1013.jpg","links":[{"url":"http://www.ntp.gov.tw/content/history/history01-5-p.aspx?sid=359","note":"議會個人官網"}],"social_media":null,"platform":"","param":null,"councilor":"1776b11400c0470aac964081125b84fc"},{"url":"http://councils.g0v.tw/api/councilors_terms/1071/","election_year":"1982","name":"楊林貴美","gender":"","party":"","title":"議員","constituency":1,"county":"新北市","district":"板橋市、土城鄉","in_office":true,"contact_details":null,"term_start":"1982-03-01","term_end":{"date":"1986-02-28"},"education":"安坑國小\n靜修女中\n純德女中高中畢業","experience":"板橋市第3屆市民代表\n婦女會理事長\n北縣家扶中心副主任委員\n廣播電臺播音員\n臺北縣議會第10、11屆議員\n板橋市婦女會理事長\n北縣工商婦女聯誼會會長\n兒童保護委員會主任委員\n寶來中和證券雙和分公司總經理\n寶來中和證券土城分公司總經理","remark":null,"image":"http://www.ntp.gov.tw/UpFile/CouncilorFile/TTCC1013.jpg","links":[{"url":"http://www.ntp.gov.tw/content/history/history01-5-p.aspx?sid=359","note":"議會個人官網"}],"social_media":null,"platform":"","param":null,"councilor":"1776b11400c0470aac964081125b84fc"}],"uid":"1776b11400c0470aac964081125b84fc","name":"楊林貴美","birth":null,"former_names":"","identifiers":["楊林貴美","楊林貴美"]},{"url":"http://councils.g0v.tw/api/councilors/604/","each_terms":[{"url":"http://councils.g0v.tw/api/councilors_terms/1034/","election_year":"1982","name":"葉阿建","gender":"","party":"","title":"議員","constituency":5,"county":"新北市","district":"新莊市、泰山鄉、五股鄉、林口鄉","in_office":true,"contact_details":null,"term_start":"1982-03-01","term_end":{"date":"1986-02-28"},"education":"新莊國小\n大同中學\n東海中學高中部\n臺灣軍管區後幹班65期結業","experience":"新莊市第1屆市民代表\n新莊國際獅子會監事\n新莊頭前義警分隊幹事與顧問\n新莊後備軍人輔導中心督導員\n臺北縣議會第10屆議員","remark":null,"image":"http://www.ntp.gov.tw/UpFile/CouncilorFile/TTCC1047.jpg","links":[{"url":"http://www.ntp.gov.tw/content/history/history01-5-p.aspx?sid=380","note":"議會個人官網"}],"social_media":null,"platform":"","param":null,"councilor":"43d390b0be9b477f8493f483d3a854ac"}],"uid":"43d390b0be9b477f8493f483d3a854ac","name":"葉阿建","birth":null,"former_names":"","identifiers":["葉阿建"]},{"url":"http://councils.g0v.tw/api/councilors/286/","each_terms":[{"url":"http://councils.g0v.tw/api/councilors_terms/1613/","election_year":"1955","name":"賴張珠玉","gender":"","party":"","title":"議員","constituency":6,"county":"新北市","district":"北投鎮、士林鎮","in_office":true,"contact_details":null,"term_start":"1955-01-16","term_end":{"date":"1958-02-20"},"education":"臺北第三高等女學校（臺北第二女中）","experience":"小學教員\n女子青年團長\n陽明山管理局婦女會理事長\n石牌地區水利策進委員會主委\n陽明山民眾服務社理事\n陽明山婦聯會常務委員\n臺北縣新生活實踐會議議員\n水廠顧問\n臺北臨時市議會議員\n臺北市改制院轄市後第1屆市議員\n臺北縣議會第3、4、5、6屆議員","remark":null,"image":"http://www.ntp.gov.tw/UpFile/CouncilorFile/TTCC0348.jpg","links":[{"url":"http://www.ntp.gov.tw/content/history/history01-5-p.aspx?sid=175","note":"議會個人官網"}],"social_media":null,"platform":"","param":null,"councilor":"844ae2075e5d4264af8c6d892a5f261f"},{"url":"http://councils.g0v.tw/api/councilors_terms/1683/","election_year":"1958","name":"賴張珠玉","gender":"","party":"","title":"議員","constituency":6,"county":"新北市","district":"北投鎮、士林鎮","in_office":true,"contact_details":null,"term_start":"1958-02-21","term_end":{"date":"1961-02-20"},"education":"臺北第三高等女學校（臺北第二女中）","experience":"小學教員\n女子青年團長\n陽明山管理局婦女會理事長\n石牌地區水利策進委員會主委\n陽明山民眾服務社理事\n陽明山婦聯會常務委員\n臺北縣新生活實踐會議議員\n水廠顧問\n臺北臨時市議會議員\n臺北市改制院轄市後第1屆市議員\n臺北縣議會第3、4、5、6屆議員","remark":null,"image":"http://www.ntp.gov.tw/UpFile/CouncilorFile/TTCC0348.jpg","links":[{"url":"http://www.ntp.gov.tw/content/history/history01-5-p.aspx?sid=175","note":"議會個人官網"}],"social_media":null,"platform":"","param":null,"councilor":"844ae2075e5d4264af8c6d892a5f261f"},{"url":"http://councils.g0v.tw/api/councilors_terms/1758/","election_year":"1961","name":"賴張珠玉","gender":"","party":"","title":"議員","constituency":6,"county":"新北市","district":"北投鎮、士林鎮","in_office":true,"contact_details":null,"term_start":"1961-02-21","term_end":{"date":"1964-02-20"},"education":"臺北第三高等女學校（臺北第二女中）","experience":"小學教員\n女子青年團長\n陽明山管理局婦女會理事長\n石牌地區水利策進委員會主委\n陽明山民眾服務社理事\n陽明山婦聯會常務委員\n臺北縣新生活實踐會議議員\n水廠顧問\n臺北臨時市議會議員\n臺北市改制院轄市後第1屆市議員\n臺北縣議會第3、4、5、6屆議員","remark":null,"image":"http://www.ntp.gov.tw/UpFile/CouncilorFile/TTCC0348.jpg","links":[{"url":"http://www.ntp.gov.tw/content/history/history01-5-p.aspx?sid=175","note":"議會個人官網"}],"social_media":null,"platform":"","param":null,"councilor":"844ae2075e5d4264af8c6d892a5f261f"},{"url":"http://councils.g0v.tw/api/councilors_terms/1819/","election_year":"1964","name":"賴張珠玉","gender":"","party":"","title":"議員","constituency":7,"county":"新北市","district":"北投鎮、士林鎮","in_office":true,"contact_details":null,"term_start":"1964-02-21","term_end":{"date":"1968-02-20"},"education":"臺北第三高等女學校（臺北第二女中）","experience":"小學教員\n女子青年團長\n陽明山管理局婦女會理事長\n石牌地區水利策進委員會主委\n陽明山民眾服務社理事\n陽明山婦聯會常務委員\n臺北縣新生活實踐會議議員\n水廠顧問\n臺北臨時市議會議員\n臺北市改制院轄市後第1屆市議員\n臺北縣議會第3、4、5、6屆議員","remark":null,"image":"http://www.ntp.gov.tw/UpFile/CouncilorFile/TTCC0348.jpg","links":[{"url":"http://www.ntp.gov.tw/content/history/history01-5-p.aspx?sid=175","note":"議會個人官網"}],"social_media":null,"platform":"","param":null,"councilor":"844ae2075e5d4264af8c6d892a5f261f"},{"url":"http://councils.g0v.tw/api/councilors_terms/598/","election_year":"1969","name":"賴張珠玉","gender":"女","party":"中國國民黨","title":"議員","constituency":null,"county":"臺北市","district":"","in_office":true,"contact_details":null,"term_start":"1969-12-25","term_end":{"date":"1973-12-25"},"education":"臺北第三高等女學校畢業。","experience":"訓導主任、主任委員、顧問、董事長、婦女大隊長、臺北縣第三、四、五、六屆議員、臺北市臨時議會議員。","remark":"","image":"http://www.tcc.gov.tw/../upload/photo/%E8%B3%B4%E5%BC%B5%E7%8F%A0%E7%8E%8909.jpg","links":[{"url":"http://www.tcc.gov.tw/Councilor_Content_All.aspx?s=2098&d=070121&n=%E8%B3%B4%E5%BC%B5%E7%8F%A0%E7%8E%89","note":"議會個人官網"}],"social_media":null,"platform":"","param":null,"councilor":"844ae2075e5d4264af8c6d892a5f261f"}],"uid":"844ae2075e5d4264af8c6d892a5f261f","name":"賴張珠玉","birth":"1915-01-21","former_names":"","identifiers":["賴張珠玉","頼張珠玉"]},{"url":"http://councils.g0v.tw/api/councilors/287/","each_terms":[{"url":"http://councils.g0v.tw/api/councilors_terms/600/","election_year":"1969","name":"鄭惠芝","gender":"女","party":"中國國民黨","title":"議員","constituency":null,"county":"臺北市","district":"","in_office":true,"contact_details":null,"term_start":"1969-12-25","term_end":{"date":"1973-12-25"},"education":"臺灣省立臺北師範專校。","experience":"教員、校長、理事。","remark":"","image":"http://www.tcc.gov.tw/../upload/photo/%E9%84%AD%E6%83%A0%E8%8A%9D09.jpg","links":[{"url":"http://www.tcc.gov.tw/Councilor_Content_All.aspx?s=2204&d=310716&n=%E9%84%AD%E6%83%A0%E8%8A%9D","note":"議會個人官網"}],"social_media":null,"platform":"","param":null,"councilor":"4158f4d273894818892ccf4f92a6e9e4"}],"uid":"4158f4d273894818892ccf4f92a6e9e4","name":"鄭惠芝","birth":"1931-07-16","former_names":"","identifiers":["鄭惠芝"]}]}