{"count":1904,"next":"http://councils.g0v.tw/api/councilors/?page=22","previous":"http://councils.g0v.tw/api/councilors/?page=20","results":[{"url":"http://councils.g0v.tw/api/councilors/288/","each_terms":[{"url":"http://councils.g0v.tw/api/councilors_terms/604/","election_year":"1969","name":"廖東城","gender":"男","party":"中國國民黨","title":"議員","constituency":null,"county":"臺北市","district":"","in_office":true,"contact_details":null,"term_start":"1969-12-25","term_end":{"date":"1973-12-25"},"education":"私立淡江文理學院外文系","experience":"總經理、董事長、理事長、常務理事。","remark":"","image":"http://www.tcc.gov.tw/../upload/photo/%E5%BB%96%E6%9D%B1%E5%9F%8E09.jpg","links":[{"url":"http://www.tcc.gov.tw/Councilor_Content_All.aspx?s=2222&d=300301&n=%E5%BB%96%E6%9D%B1%E5%9F%8E","note":"議會個人官網"}],"social_media":null,"platform":"","param":null,"councilor":"6e1e7db808e348078bb723cc5a062034"}],"uid":"6e1e7db808e348078bb723cc5a062034","name":"廖東城","birth":"1930-03-01","former_names":"","identifiers":["廖東城"]},{"url":"http://councils.g0v.tw/api/councilors/289/","each_terms":[{"url":"http://councils.g0v.tw/api/councilors_terms/605/","election_year":"1969","name":"葉生進","gender":"男","party":"中國國民黨","title":"議員","constituency":null,"county":"臺北市","district":"","in_office":true,"contact_details":null,"term_start":"1969-12-25","term_end":{"date":"1973-12-25"},"education":"臺北市高等商業學校東亞經濟科","experience":"播音員、臺北市省轄市議會第四、五、六屆議員、經理、董事長、總經理。","remark":"","image":"http://www.tcc.gov.tw/../upload/photo/%E8%91%89%E7%94%9F%E9%80%B209.jpg","links":[{"url":"http://www.tcc.gov.tw/Councilor_Content_All.aspx?s=1421&d=150715&n=%E8%91%89%E7%94%9F%E9%80%B2","note":"議會個人官網"}],"social_media":null,"platform":"","param":null,"councilor":"95e215577454494e9f6024f2544f9004"}],"uid":"95e215577454494e9f6024f2544f9004","name":"葉生進","birth":"1915-07-15","former_names":"","identifiers":["葉生進"]},{"url":"http://councils.g0v.tw/api/councilors/1250/","each_terms":[{"url":"http://councils.g0v.tw/api/councilors_terms/2176/","election_year":"2009","name":"陳修福","gender":"男","party":"中國國民黨","title":"","constituency":7,"county":"花蓮縣","district":"居住瑞穗鄉、玉里鎮、富里鄉、卓溪鄉之平地原住民","in_office":true,"contact_details":[{"type":"address","value":"花蓮縣玉里鎮中城里忠智路11號","label":"通訊處"},{"type":"voice","value":"03-8888003．0932-523572","label":"電話"}],"term_start":"2009-12-25","term_end":{"date":"2014-12-25"},"education":"陸軍軍官學校畢業","experience":"花蓮縣議會第十七屆議員\n第13、14、15、16屆玉里鎮民代表\n第17屆玉里鎮民代表會副主席","remark":null,"image":"http://www.hlcc.gov.tw/upfile/20100309105047-188.jpg","links":[{"url":"http://www.hlcc.gov.tw/councillor-data.php?index_no=35","note":"議會個人官網"}],"social_media":null,"platform":"一、督促縣政府加強原住民部落基層建設、提高生活環境品質。\n二、儘速處理保留地業務，保障原住民土地權益及生存空間。\n三、加強輔導原住民人才培育及青年就業職業訓練。\n四、監督縣政府落實原住民工作權保障法的規定，由原住民優先承攬工程。\n五、善盡縣議員之責任、為鄉、鎮民謀福祉、民眾的代言人、共同為鄉、鎮的繁榮而努力。","param":{"suggestions_years":{"count":20,"sum":3458391,"years":[{"count":20,"sum":3458391,"suggest_year":"2014","small_purchase":17}]},"diversity":{"中國國民黨":0.8658180287426098,"民主進步黨":0.05573704360515761,"無黨籍":0.07844492765223246},"bills_role_statistics":{"total":278,"priproposer":76,"sponsor":77,"cosponsor":201},"suggestions_associations":[{"count":0,"sum":0,"label":"社區發展協會"},{"count":0,"sum":0,"label":"學會"},{"count":0,"sum":0,"label":"商會"},{"count":0,"sum":0,"label":"公會"},{"count":0,"sum":0,"label":"協進會"},{"count":0,"sum":0,"label":"促進會"},{"count":0,"sum":0,"label":"研習會"},{"count":0,"sum":0,"label":"婦聯會"},{"count":0,"sum":0,"label":"婦女會"},{"count":0,"sum":0,"label":"體育會"},{"count":0,"sum":0,"label":"同心會"},{"count":0,"sum":0,"label":"農會"},{"count":0,"sum":0,"label":"早起會"},{"count":0,"sum":0,"label":"健身會"},{"count":0,"sum":0,"label":"宗親會"},{"count":0,"sum":0,"label":"功德會"},{"count":0,"sum":0,"label":"商業會"},{"count":0,"sum":0,"label":"長青會"},{"count":0,"sum":0,"label":"民眾服務社"},{"count":0,"sum":0,"label":"聯盟"}],"bills_party_diversity":[{"party":"中國國民黨","ratio":0.832579185520362},{"party":"無黨籍","ratio":0.09696186166774402},{"party":"民主進步黨","ratio":0.07045895281189399}],"suggestions_piles":[{"count":11,"tokens":"國中|國小","sum":2587966,"label":"國中、國小"},{"count":1,"tokens":"消防局|消防隊|分隊|中隊","sum":92000,"label":"消防局"},{"count":1,"tokens":"警察局|分局","sum":87630,"label":"警察局"},{"count":1,"tokens":"辦公室|辦公處","sum":67286,"label":"辦公室"},{"count":0,"tokens":"協會|學會|商會|公會|協進會|促進會|研習會|婦聯會|婦女會|體育會|同心會|農會|早起會|健身會|宗親會|功德會|商業會|長青會|民眾服務社|聯盟","sum":0,"label":"協會"},{"count":0,"tokens":"廟|宮","sum":0,"label":"廟"}]},"councilor":"fe10c5f38517423f97ae7541dd3828ea"}],"uid":"fe10c5f38517423f97ae7541dd3828ea","name":"陳修福","birth":null,"former_names":"","identifiers":["陳修福","陳修褔"]},{"url":"http://councils.g0v.tw/api/councilors/1252/","each_terms":[{"url":"http://councils.g0v.tw/api/councilors_terms/2178/","election_year":"2009","name":"孫永昌","gender":"男","party":"中國國民黨","title":"","constituency":6,"county":"花蓮縣","district":"居住壽豐鄉、鳳林鎮、萬榮鄉、光復鄉、豐濱鄉之平地原住民","in_office":true,"contact_details":[{"type":"address","value":"花蓮縣光復鄉西富村1鄰中正路二段56號","label":"通訊處"},{"type":"voice","value":"03-8703588．0937-533218","label":"電話"}],"term_start":"2009-12-25","term_end":{"date":"2014-12-25"},"education":"政治作戰學校政治系法學士畢業\n國立東華大學公共行政研究班結業","experience":"１.花蓮縣議會第13、14、15、16、17屆議員\n２.花蓮縣議會財政小組總召集人\n３.財團法人犯罪被害人保護協會台灣花蓮分會委員\n４.台灣省民眾服務社花蓮分會常務理事\n５.花蓮縣阿美建設協會理事長\n６.更生保護會輔導員\n７.花蓮縣都市計劃委員\n８.花蓮縣原住民槌球協會理事長","remark":null,"image":"http://www.hlcc.gov.tw/upfile/20100226142201-100.jpg","links":[{"url":"http://www.hlcc.gov.tw/councillor-data.php?index_no=33","note":"議會個人官網"}],"social_media":null,"platform":"1.促請政府積極落實辦理原住民保留地增劃編工作實質獲得合法權。\n2.敦請政府重視原住民老人福利、積極專設原住民養老院。\n3.籲請政府加強重視警政人員各項福利措施以提振士氣提高效率。\n4.全力監督全面實施治山防洪嚴防土石流以保障縣民生命財產安全。\n5.促請政府加強辦理原住民婦女技藝訓練積極輔導就業。\n6.敦促政府開發原住民地區觀光產業推動農業生產企業化積極改善農漁民生活環境和品質。\n7.以穩健踏實的作風廣納民意以爭取民眾福址為依歸忠實建言鞠躬盡瘁。\n8.敦請政府積極落實推動原住民教育法。\n9.積極爭取原住民權益敦請政府擴大辦理原住民行政特考增加錄取名額分發各部落推動原住民福利事務。\n10.促請政府積極扶助都會區原住民生活發展訂定原住民住宅政策以強化原住民都市生存空間。","param":{"suggestions_years":{"count":1,"sum":49462,"years":[{"count":1,"sum":49462,"suggest_year":"2014","small_purchase":1}]},"diversity":{"中國國民黨":0.8471066823468518,"民主進步黨":0.05576893455010463,"無黨籍":0.09712438310304358},"bills_role_statistics":{"total":212,"priproposer":53,"sponsor":53,"cosponsor":159},"suggestions_associations":[{"count":0,"sum":0,"label":"社區發展協會"},{"count":0,"sum":0,"label":"學會"},{"count":0,"sum":0,"label":"商會"},{"count":0,"sum":0,"label":"公會"},{"count":0,"sum":0,"label":"協進會"},{"count":0,"sum":0,"label":"促進會"},{"count":0,"sum":0,"label":"研習會"},{"count":0,"sum":0,"label":"婦聯會"},{"count":0,"sum":0,"label":"婦女會"},{"count":0,"sum":0,"label":"體育會"},{"count":0,"sum":0,"label":"同心會"},{"count":0,"sum":0,"label":"農會"},{"count":0,"sum":0,"label":"早起會"},{"count":0,"sum":0,"label":"健身會"},{"count":0,"sum":0,"label":"宗親會"},{"count":0,"sum":0,"label":"功德會"},{"count":0,"sum":0,"label":"商業會"},{"count":0,"sum":0,"label":"長青會"},{"count":0,"sum":0,"label":"民眾服務社"},{"count":0,"sum":0,"label":"聯盟"}],"bills_party_diversity":[{"party":"中國國民黨","ratio":0.8045492839090144},{"party":"無黨籍","ratio":0.11120471777590564},{"party":"民主進步黨","ratio":0.08424599831508003}],"suggestions_piles":[{"count":0,"tokens":"協會|學會|商會|公會|協進會|促進會|研習會|婦聯會|婦女會|體育會|同心會|農會|早起會|健身會|宗親會|功德會|商業會|長青會|民眾服務社|聯盟","sum":0,"label":"協會"},{"count":0,"tokens":"辦公室|辦公處","sum":0,"label":"辦公室"},{"count":0,"tokens":"廟|宮","sum":0,"label":"廟"},{"count":0,"tokens":"警察局|分局","sum":0,"label":"警察局"},{"count":0,"tokens":"消防局|消防隊|分隊|中隊","sum":0,"label":"消防局"},{"count":0,"tokens":"國中|國小","sum":0,"label":"國中、國小"}]},"councilor":"2ca5cf35a98b4fcf87033b6ae420f3ed"}],"uid":"2ca5cf35a98b4fcf87033b6ae420f3ed","name":"孫永昌","birth":null,"former_names":"","identifiers":["孫永昌"]},{"url":"http://councils.g0v.tw/api/councilors/1256/","each_terms":[{"url":"http://councils.g0v.tw/api/councilors_terms/2182/","election_year":"2009","name":"龔文俊","gender":"男","party":"中國國民黨","title":"","constituency":4,"county":"花蓮縣","district":"瑞穗鄉、玉里鎮、富里鄉、卓溪鄉","in_office":true,"contact_details":[{"type":"address","value":"花蓮縣玉里鎮中城里中山路一段118號","label":"通訊處"},{"type":"voice","value":"03-8882226．0932-523546","label":"電話"}],"term_start":"2009-12-25","term_end":{"date":"2014-12-25"},"education":"台灣省立花蓮高級農業職業學校","experience":"1、當選86年全國十大青年農民\n2、當選87年全國十大農業專家\n3、花蓮網室健康豬肉創始者\n4、曾任玉溪地區農會第八屆總幹事\n5、現任花蓮縣玉里鎮民眾服務社理事長\n6、現任蓮貞SPF無特定病源豬場負責人\n7、花蓮縣龍鳳甲運銷合作社創社主席\n8、現任精鵠股份有限公司董事長\n9、花蓮縣議會第十七屆議員","remark":null,"image":"http://www.hlcc.gov.tw/upfile/20100226142101-197.jpg","links":[{"url":"http://www.hlcc.gov.tw/councillor-data.php?index_no=28","note":"議會個人官網"}],"social_media":null,"platform":"1、傾聽地方心聲，爭取鄉親福祉。\n2、拓展農業通路，創造農民利機。\n3、強化農業連結，活絡地方商機。\n4、創造地方活力，製造南區生機。\n5、議會打拼，南區觀光，力爭南區全民福利。","param":{"suggestions_years":{"count":40,"sum":3475738,"years":[{"count":40,"sum":3475738,"suggest_year":"2014","small_purchase":38}]},"diversity":{"中國國民黨":0.8037035651989781,"民主進步黨":0.07076602985400575,"無黨籍":0.1255304049470162},"bills_role_statistics":{"total":282,"priproposer":49,"sponsor":51,"cosponsor":231},"suggestions_associations":[{"count":0,"sum":0,"label":"社區發展協會"},{"count":0,"sum":0,"label":"學會"},{"count":0,"sum":0,"label":"商會"},{"count":0,"sum":0,"label":"公會"},{"count":0,"sum":0,"label":"協進會"},{"count":0,"sum":0,"label":"促進會"},{"count":0,"sum":0,"label":"研習會"},{"count":0,"sum":0,"label":"婦聯會"},{"count":0,"sum":0,"label":"婦女會"},{"count":0,"sum":0,"label":"體育會"},{"count":0,"sum":0,"label":"同心會"},{"count":0,"sum":0,"label":"農會"},{"count":0,"sum":0,"label":"早起會"},{"count":0,"sum":0,"label":"健身會"},{"count":0,"sum":0,"label":"宗親會"},{"count":0,"sum":0,"label":"功德會"},{"count":0,"sum":0,"label":"商業會"},{"count":0,"sum":0,"label":"長青會"},{"count":0,"sum":0,"label":"民眾服務社"},{"count":0,"sum":0,"label":"聯盟"}],"bills_party_diversity":[{"party":"中國國民黨","ratio":0.8089751364463311},{"party":"無黨籍","ratio":0.11218920557913888},{"party":"民主進步黨","ratio":0.07883565797453002}],"suggestions_piles":[{"count":22,"tokens":"國中|國小","sum":1948288,"label":"國中、國小"},{"count":4,"tokens":"警察局|分局","sum":245993,"label":"警察局"},{"count":3,"tokens":"辦公室|辦公處","sum":137000,"label":"辦公室"},{"count":0,"tokens":"協會|學會|商會|公會|協進會|促進會|研習會|婦聯會|婦女會|體育會|同心會|農會|早起會|健身會|宗親會|功德會|商業會|長青會|民眾服務社|聯盟","sum":0,"label":"協會"},{"count":0,"tokens":"廟|宮","sum":0,"label":"廟"},{"count":0,"tokens":"消防局|消防隊|分隊|中隊","sum":0,"label":"消防局"}]},"councilor":"cc78eb37fb4c47abbff1bf587bf4a627"}],"uid":"cc78eb37fb4c47abbff1bf587bf4a627","name":"龔文俊","birth":null,"former_names":"","identifiers":["龔文俊"]},{"url":"http://councils.g0v.tw/api/councilors/1182/","each_terms":[{"url":"http://councils.g0v.tw/api/councilors_terms/2108/","election_year":"2009","name":"黃李月琴","gender":"","party":"","title":"議員","constituency":8,"county":"桃園縣","district":"平鎮市","in_office":true,"contact_details":[{"type":"email","value":"tycca120@tycc.gov.tw","label":"EMAIL"},{"type":"address","value":"平鎮市中豐路南勢二段241號","label":"服務處"},{"type":"voice","value":"03-4399969","label":"電話"},{"type":"fax","value":"03-4399523","label":"傳真"}],"term_start":"2009-12-25","term_end":{"date":"2014-12-25"},"education":"宋屋國民小學\n平鎮國民中學\n國立中壢高級商業職業學校\n國立台北商業專科學校\n元智大學研究所\n淡江大學碩士畢業","experience":"現任第十七屆桃園縣議員\n第十四屆桃園縣議會議員\n桃園縣平鎮市市長\n平鎮市民大學創校校長\n萬能科技大學講師\n巾幗獅子會會長","remark":null,"image":"http://www.tycc.gov.tw/file%5Cperson%5Capp%5Ca6347381952947958301337788144leechin.jpg","links":[{"url":"http://www.tycc.gov.tw/page.aspx?wtp=1&wnd=204&id=345","note":"議會個人官網"},{"url":"http://www.facebook.com/?ref=home#!/profile.php?id=100003999005008","note":"臉書"}],"social_media":null,"platform":"","param":null,"councilor":"d498b59bb93544b79b0bd31c998bea4d"}],"uid":"d498b59bb93544b79b0bd31c998bea4d","name":"黃李月琴","birth":null,"former_names":"","identifiers":["黃李月琴","黄李月琴","黄李月琴","黃李月琴"]},{"url":"http://councils.g0v.tw/api/councilors/1190/","each_terms":[{"url":"http://councils.g0v.tw/api/councilors_terms/2116/","election_year":"2009","name":"呂宏仁","gender":"","party":"","title":"議員","constituency":4,"county":"桃園縣","district":"蘆竹鄉","in_office":true,"contact_details":[{"type":"email","value":"tycca108@tycc.gov.tw","label":"EMAIL"},{"type":"address","value":"蘆竹鄉新南路一段124號","label":"服務處"},{"type":"voice","value":"03-3211086","label":"電話"},{"type":"fax","value":"03-3210244","label":"傳真"}],"term_start":"2009-12-25","term_end":{"date":"2014-12-25"},"education":"新興國小\n大竹國中\n新興工商\n萬能工專","experience":"新興國小家長會長\n虎頭山青商會會長\n蘆竹鄉衛生促進會主委\n大竹區巡守大隊創隊主委\n蘆竹鄉青年志工服務協會創會會長\n蘆竹鄉民代表會第十四、十六、十七屆代表\n蘆竹鄉代表會第17屆補選主席","remark":null,"image":"http://www.tycc.gov.tw/file%5Cperson%5Capp%5Ca634806371612978851%E5%91%82%E5%AE%8F%E4%BB%81.png","links":[{"url":"http://www.tycc.gov.tw/page.aspx?wtp=1&wnd=204&id=56","note":"議會個人官網"},{"url":"http://tycca108.pixnet.net/blog","note":"部落格"}],"social_media":null,"platform":"","param":null,"councilor":"f03cf1b7950e4657a7b7cef33d8a71b2"}],"uid":"f03cf1b7950e4657a7b7cef33d8a71b2","name":"呂宏仁","birth":null,"former_names":"","identifiers":["呂宏仁"]},{"url":"http://councils.g0v.tw/api/councilors/985/","each_terms":[{"url":"http://councils.g0v.tw/api/councilors_terms/1853/","election_year":"1964","name":"鄭水枝","gender":"","party":"","title":"議員","constituency":2,"county":"新北市","district":"樹林鎮、鶯歌鎮、三峽鎮","in_office":true,"contact_details":null,"term_start":"1964-02-21","term_end":{"date":"1968-02-20"},"education":"日據時代臺北師範學校","experience":"樹林國校教導主任\n樹林中學訓導主任\n清水國校校長\n樹林鎮鎮長\n農會總幹事\n中國國民黨臺北縣黨部副主委\n中央黨部副秘書長\n中央黨部立法委員\n臺灣省政府委員\n臺灣省建設廳廳長\n內政部政務次長\n行政院勞委會主委\n中央電影事業股份有限公司董事長\n總統府國策顧問\n監察院副院長\n臺北縣議會第6屆議員","remark":null,"image":"http://www.ntp.gov.tw/UpFile/CouncilorFile/TTCC0611.jpg","links":[{"url":"http://www.ntp.gov.tw/content/history/history01-5-p.aspx?sid=253","note":"議會個人官網"}],"social_media":null,"platform":"","param":null,"councilor":"a8a7ac92273c40268ec1c5fb84448fd4"}],"uid":"a8a7ac92273c40268ec1c5fb84448fd4","name":"鄭水枝","birth":null,"former_names":"","identifiers":["鄭水枝"]},{"url":"http://councils.g0v.tw/api/councilors/986/","each_terms":[{"url":"http://councils.g0v.tw/api/councilors_terms/1858/","election_year":"1964","name":"王維藩","gender":"","party":"","title":"議員","constituency":1,"county":"新北市","district":"板橋鎮、中和鄉、永和鎮、土城鄉","in_office":true,"contact_details":null,"term_start":"1964-02-21","term_end":{"date":"1968-02-20"},"education":"臺北州立宜蘭農校畢業\n日本陸軍兵器學校畢業","experience":"板橋市代表會副主席\n板橋市農會總幹事\n臺北縣農會總幹事\n臺北縣議會第6屆議員","remark":null,"image":"http://www.ntp.gov.tw/UpFile/CouncilorFile/TTCC0608.jpg","links":[{"url":"http://www.ntp.gov.tw/content/history/history01-5-p.aspx?sid=251","note":"議會個人官網"}],"social_media":null,"platform":"","param":null,"councilor":"f35f120387974426b5662ca2c82420ae"}],"uid":"f35f120387974426b5662ca2c82420ae","name":"王維藩","birth":null,"former_names":"","identifiers":["王維藩"]},{"url":"http://councils.g0v.tw/api/councilors/1272/","each_terms":[{"url":"http://councils.g0v.tw/api/councilors_terms/2198/","election_year":"2009","name":"林憶如","gender":"女","party":"中國國民黨","title":"議員","constituency":1,"county":"南投縣","district":"南投市、名間鄉","in_office":true,"contact_details":[{"type":"address","value":"南投市中興路468巷24號","label":"通訊處"}],"term_start":"2009-12-25","term_end":{"date":"2014-12-25"},"education":"南開科技大學福祉所碩士","experience":"南投縣第十六屆縣議員、救國團南投縣真善\n美聯誼會第十屆會長、九十七年社會優秀青\n年、南投高商校友會理事長、中國國民黨第\n十八次全國黨代表、林姓宗親會理事。","remark":null,"image":"http://www.ntcc.gov.tw/images/n3_1_5.jpg","links":null,"social_media":null,"platform":"1 視廉政建設為施政基礎，以理性及無私為問政基本態度，監督縣府預算、鞭策政策實踐及各項建設發展，\n以傳承及創新、共建和諧社會為參選理念。\n2 建構無礙的溝通橋樑，與社會慈善團體合作，整合資源扶持弱勢族群，落實社會福利。\n3 推動地方產業發展、營造社區特色，促進農民技術交流、改善農民生活。\n4 強化警民關係、減少治安死角，維護縣民安全。\n5 推動教育落實、縮小城鄉差距及解決外籍配偶子女及弱勢家庭之學習困境。\n6 宣傳地方特色，發展觀光產業，促進地方繁榮，增加就業機會。\n7 強化防救災安全網絡，保障縣民生命財產安全。\n8 結合社區據點，落實關懷老人及婦幼生活。\n9 提升南投醫療資源，推動在地醫療優質化。","param":{"bills_role_statistics":{"total":16,"priproposer":0,"sponsor":0,"cosponsor":16},"suggestions_piles":[{"count":9,"tokens":"國中|國小","sum":2478000,"label":"國中、國小"},{"count":0,"tokens":"協會|學會|商會|公會|協進會|促進會|研習會|婦聯會|婦女會|體育會|同心會|農會|早起會|健身會|宗親會|功德會|商業會|長青會|民眾服務社|聯盟","sum":0,"label":"協會"},{"count":0,"tokens":"辦公室|辦公處","sum":0,"label":"辦公室"},{"count":0,"tokens":"廟|宮","sum":0,"label":"廟"},{"count":0,"tokens":"警察局|分局","sum":0,"label":"警察局"},{"count":0,"tokens":"消防局|消防隊|分隊|中隊","sum":0,"label":"消防局"}],"suggestions_associations":[{"count":0,"sum":0,"label":"社區發展協會"},{"count":0,"sum":0,"label":"學會"},{"count":0,"sum":0,"label":"商會"},{"count":0,"sum":0,"label":"公會"},{"count":0,"sum":0,"label":"協進會"},{"count":0,"sum":0,"label":"促進會"},{"count":0,"sum":0,"label":"研習會"},{"count":0,"sum":0,"label":"婦聯會"},{"count":0,"sum":0,"label":"婦女會"},{"count":0,"sum":0,"label":"體育會"},{"count":0,"sum":0,"label":"同心會"},{"count":0,"sum":0,"label":"農會"},{"count":0,"sum":0,"label":"早起會"},{"count":0,"sum":0,"label":"健身會"},{"count":0,"sum":0,"label":"宗親會"},{"count":0,"sum":0,"label":"功德會"},{"count":0,"sum":0,"label":"商業會"},{"count":0,"sum":0,"label":"長青會"},{"count":0,"sum":0,"label":"民眾服務社"},{"count":0,"sum":0,"label":"聯盟"}],"diversity":{"中國國民黨":0.734375,"民主進步黨":0.09895833333333333,"無黨籍":0.16666666666666666},"suggestions_years":{"count":13,"sum":4012000,"years":[{"count":13,"sum":4012000,"suggest_year":"2014","small_purchase":7}]}},"councilor":"318622b2f7f149bd8e010e186cf80c0c"}],"uid":"318622b2f7f149bd8e010e186cf80c0c","name":"林憶如","birth":"1976-02-20","former_names":"","identifiers":["林憶如","林憶如"]}]}