{"count":1904,"next":"http://councils.g0v.tw/api/councilors/?page=23","previous":"http://councils.g0v.tw/api/councilors/?page=21","results":[{"url":"http://councils.g0v.tw/api/councilors/1273/","each_terms":[{"url":"http://councils.g0v.tw/api/councilors_terms/2199/","election_year":"2009","name":"蔡明源","gender":"男","party":"中國國民黨","title":"議員","constituency":1,"county":"南投縣","district":"南投市、名間鄉","in_office":true,"contact_details":[{"type":"address","value":"南投市三和里公園南街45號","label":"通訊處"}],"term_start":"2009-12-25","term_end":{"date":"2014-12-25"},"education":"明台家商畢業","experience":"南投市民代表會代表。\n國立南投高商家長會長。\n僑建國小家長會長。\n南投市農會理事長。\n南投信用合作社代表。\n南投縣農會理事。","remark":null,"image":"http://www.ntcc.gov.tw/images/n3_1_6.jpg","links":null,"social_media":null,"platform":"1 積極督促政府，增加就業率。\n2 全方位服務鄉親，做好民眾和政府溝通角色。\n3 加強人文建設，改善道路交通及基層設施。\n4 推動觀光建設，促進農業升級。\n5 爭取人民權益，提高全民所得。\n6 重視社會福利政策，照顧弱勢族群。\n7 維護環境生態，改善居住的品質。","param":{"bills_role_statistics":{"total":6,"priproposer":2,"sponsor":2,"cosponsor":4},"suggestions_piles":[{"count":2,"tokens":"國中|國小","sum":196000,"label":"國中、國小"},{"count":1,"tokens":"廟|宮","sum":150000,"label":"廟"},{"count":0,"tokens":"協會|學會|商會|公會|協進會|促進會|研習會|婦聯會|婦女會|體育會|同心會|農會|早起會|健身會|宗親會|功德會|商業會|長青會|民眾服務社|聯盟","sum":0,"label":"協會"},{"count":0,"tokens":"辦公室|辦公處","sum":0,"label":"辦公室"},{"count":0,"tokens":"警察局|分局","sum":0,"label":"警察局"},{"count":0,"tokens":"消防局|消防隊|分隊|中隊","sum":0,"label":"消防局"}],"suggestions_associations":[{"count":0,"sum":0,"label":"社區發展協會"},{"count":0,"sum":0,"label":"學會"},{"count":0,"sum":0,"label":"商會"},{"count":0,"sum":0,"label":"公會"},{"count":0,"sum":0,"label":"協進會"},{"count":0,"sum":0,"label":"促進會"},{"count":0,"sum":0,"label":"研習會"},{"count":0,"sum":0,"label":"婦聯會"},{"count":0,"sum":0,"label":"婦女會"},{"count":0,"sum":0,"label":"體育會"},{"count":0,"sum":0,"label":"同心會"},{"count":0,"sum":0,"label":"農會"},{"count":0,"sum":0,"label":"早起會"},{"count":0,"sum":0,"label":"健身會"},{"count":0,"sum":0,"label":"宗親會"},{"count":0,"sum":0,"label":"功德會"},{"count":0,"sum":0,"label":"商業會"},{"count":0,"sum":0,"label":"長青會"},{"count":0,"sum":0,"label":"民眾服務社"},{"count":0,"sum":0,"label":"聯盟"}],"diversity":{"中國國民黨":0.6805555555555555,"民主進步黨":0.0,"無黨籍":0.3194444444444444},"suggestions_years":{"count":13,"sum":3688000,"years":[{"count":13,"sum":3688000,"suggest_year":"2014","small_purchase":5}]}},"councilor":"563ebc76d2ca4f3ead15d7f3a4ae7c08"}],"uid":"563ebc76d2ca4f3ead15d7f3a4ae7c08","name":"蔡明源","birth":"1947-09-23","former_names":"","identifiers":["蔡明源"]},{"url":"http://councils.g0v.tw/api/councilors/1277/","each_terms":[{"url":"http://councils.g0v.tw/api/councilors_terms/2203/","election_year":"2009","name":"李添興","gender":"男","party":"無黨籍","title":"議員","constituency":1,"county":"南投縣","district":"南投市、名間鄉","in_office":true,"contact_details":[{"type":"address","value":"南投市嘉和里嘉和二路54號","label":"通訊處"}],"term_start":"2009-12-25","term_end":{"date":"2014-12-25"},"education":"南投高級商業職業學校（初中部）畢業。","experience":"南投市代表會市民代表一屆\n南投縣議會第13、14、15、16屆議員。","remark":null,"image":"http://www.ntcc.gov.tw/images/n3_1_10.jpg","links":null,"social_media":null,"platform":"1.關心資深公民之福利：65歲以上之資深公民，身心靈健康都極需被重視。除了身體上之保健，心靈上的充實更重要，心靈豐富了人生才會快樂。\n2.用心未來主人翁之教育大業：本縣屬農業縣，軟硬體設備皆不如都會學校，教育資源上應積極爭取減低城鄉差距，確實培養新未來主人翁之廣面競爭能力。\n3.輔導農產品精緻化：以縣府為輔導單位，推動全面農產品之精緻規格化，建立好口碑，以利行銷，創造農民利潤。\n4.籌設BOT方式之產銷機構：由政府機關主導，由企業體規劃經營本縣農產品之產銷一貫化，盡力做到減少農民的權益被剝削，亦可創造本縣人民的就業機會，營造雙贏的局面。\n5.督促縣府向中央政府爭取補助金：本縣因觀光車流及砂石運輸而帶來的負面影響甚鉅，舉凡空氣、水源、環境衛生之汙染，及道路、橋樑等公共設施損耗等等，中央政府應提撥養護金予南投縣政府，專款專用於此範圍。\n6.爭取設立冷泉生態教育園區：善用天然珍貴資源，結合南投市與名間鄉兩區，開發冷泉生態教育園區，此案可成功帶來人潮、提供就業機會、創造商機，進而繁榮地方發展。\n7.監督政府改善道路品質及排水功能：多處路段逢雨必淹，路面積水易造成車輛行進間打滑，險象環生，嚴重威脅民眾之生命財產。","param":{"bills_role_statistics":{"total":31,"priproposer":1,"sponsor":1,"cosponsor":30},"suggestions_piles":[{"count":8,"tokens":"國中|國小","sum":968000,"label":"國中、國小"},{"count":1,"tokens":"警察局|分局","sum":50000,"label":"警察局"},{"count":1,"tokens":"消防局|消防隊|分隊|中隊","sum":50000,"label":"消防局"},{"count":0,"tokens":"協會|學會|商會|公會|協進會|促進會|研習會|婦聯會|婦女會|體育會|同心會|農會|早起會|健身會|宗親會|功德會|商業會|長青會|民眾服務社|聯盟","sum":0,"label":"協會"},{"count":0,"tokens":"辦公室|辦公處","sum":0,"label":"辦公室"},{"count":0,"tokens":"廟|宮","sum":0,"label":"廟"}],"suggestions_associations":[{"count":0,"sum":0,"label":"社區發展協會"},{"count":0,"sum":0,"label":"學會"},{"count":0,"sum":0,"label":"商會"},{"count":0,"sum":0,"label":"公會"},{"count":0,"sum":0,"label":"協進會"},{"count":0,"sum":0,"label":"促進會"},{"count":0,"sum":0,"label":"研習會"},{"count":0,"sum":0,"label":"婦聯會"},{"count":0,"sum":0,"label":"婦女會"},{"count":0,"sum":0,"label":"體育會"},{"count":0,"sum":0,"label":"同心會"},{"count":0,"sum":0,"label":"農會"},{"count":0,"sum":0,"label":"早起會"},{"count":0,"sum":0,"label":"健身會"},{"count":0,"sum":0,"label":"宗親會"},{"count":0,"sum":0,"label":"功德會"},{"count":0,"sum":0,"label":"商業會"},{"count":0,"sum":0,"label":"長青會"},{"count":0,"sum":0,"label":"民眾服務社"},{"count":0,"sum":0,"label":"聯盟"}],"diversity":{"中國國民黨":0.20952380952380956,"民主進步黨":0.1323348694316436,"無黨籍":0.6581413210445468},"suggestions_years":{"count":22,"sum":2753000,"years":[{"count":22,"sum":2753000,"suggest_year":"2014","small_purchase":15}]}},"councilor":"3d2f60631524428a928dfcddf2aa7157"}],"uid":"3d2f60631524428a928dfcddf2aa7157","name":"李添興","birth":"1955-03-20","former_names":"","identifiers":["李添興","李添興"]},{"url":"http://councils.g0v.tw/api/councilors/1278/","each_terms":[{"url":"http://councils.g0v.tw/api/councilors_terms/2204/","election_year":"2009","name":"曾芳春","gender":"男","party":"無黨籍","title":"議員","constituency":1,"county":"南投縣","district":"南投市、名間鄉","in_office":true,"contact_details":[{"type":"address","value":"投市內興里光明一路519號","label":"通訊處"}],"term_start":"2009-12-25","term_end":{"date":"2014-12-25"},"education":"培英工商高級部畢業","experience":"曾任南投市第三屆市民代表及南投縣議會第\n十二屆、十三屆、十四屆、十五屆，現任南\n投縣議會第十六屆議員。","remark":null,"image":"http://www.ntcc.gov.tw/images/31_6.jpg","links":null,"social_media":null,"platform":"一、誠懇服務，造福鄉里。\n二、傾聽民意，民意優先。","param":{"bills_role_statistics":{"total":10,"priproposer":0,"sponsor":0,"cosponsor":10},"suggestions_piles":[{"count":4,"tokens":"警察局|分局","sum":296000,"label":"警察局"},{"count":3,"tokens":"國中|國小","sum":269000,"label":"國中、國小"},{"count":1,"tokens":"消防局|消防隊|分隊|中隊","sum":98000,"label":"消防局"},{"count":0,"tokens":"協會|學會|商會|公會|協進會|促進會|研習會|婦聯會|婦女會|體育會|同心會|農會|早起會|健身會|宗親會|功德會|商業會|長青會|民眾服務社|聯盟","sum":0,"label":"協會"},{"count":0,"tokens":"辦公室|辦公處","sum":0,"label":"辦公室"},{"count":0,"tokens":"廟|宮","sum":0,"label":"廟"}],"suggestions_associations":[{"count":0,"sum":0,"label":"社區發展協會"},{"count":0,"sum":0,"label":"學會"},{"count":0,"sum":0,"label":"商會"},{"count":0,"sum":0,"label":"公會"},{"count":0,"sum":0,"label":"協進會"},{"count":0,"sum":0,"label":"促進會"},{"count":0,"sum":0,"label":"研習會"},{"count":0,"sum":0,"label":"婦聯會"},{"count":0,"sum":0,"label":"婦女會"},{"count":0,"sum":0,"label":"體育會"},{"count":0,"sum":0,"label":"同心會"},{"count":0,"sum":0,"label":"農會"},{"count":0,"sum":0,"label":"早起會"},{"count":0,"sum":0,"label":"健身會"},{"count":0,"sum":0,"label":"宗親會"},{"count":0,"sum":0,"label":"功德會"},{"count":0,"sum":0,"label":"商業會"},{"count":0,"sum":0,"label":"長青會"},{"count":0,"sum":0,"label":"民眾服務社"},{"count":0,"sum":0,"label":"聯盟"}],"diversity":{"中國國民黨":0.07833333333333332,"民主進步黨":0.32833333333333337,"無黨籍":0.5933333333333333},"suggestions_years":{"count":18,"sum":4400000,"years":[{"count":18,"sum":4400000,"suggest_year":"2014","small_purchase":14}]}},"councilor":"a06d8de0bc8b4b21aa3791b5ba12f57c"}],"uid":"a06d8de0bc8b4b21aa3791b5ba12f57c","name":"曾芳春","birth":"1956-01-16","former_names":"","identifiers":["曽芳春","曾芳春"]},{"url":"http://councils.g0v.tw/api/councilors/1260/","each_terms":[{"url":"http://councils.g0v.tw/api/councilors_terms/2186/","election_year":"2009","name":"林春生","gender":"男","party":"中國國民黨","title":"","constituency":3,"county":"花蓮縣","district":"吉安鄉、壽豐鄉、鳳林鎮、光復鄉、豐濱鄉、萬榮鄉","in_office":true,"contact_details":[{"type":"address","value":"花蓮縣吉安鄉太昌村7鄰太昌路428巷5號","label":"通訊處"},{"type":"voice","value":"03-8568486．0933-992678","label":"電話"}],"term_start":"2009-12-25","term_end":{"date":"2014-12-25"},"education":"高中畢業","experience":"花蓮縣議會第16屆、第17屆縣議員\n花蓮縣吉安鄉民代表會第15.17屆代表暨第16屆副主席\n花蓮縣林姓宗親會第8.9屆理事長\n花蓮縣宜蘭同鄉會常務理事\n國際佛光會吉安第一分會顧問","remark":null,"image":"http://www.hlcc.gov.tw/upfile/20100226142012-164.jpg","links":[{"url":"http://www.hlcc.gov.tw/councillor-data.php?index_no=24","note":"議會個人官網"}],"social_media":null,"platform":"（一）貫徹縣民意志，落實富國利民，造福世代子孫，可長可久的好政策。\n（二）守護花蓮的好山、好水、好人文，讓花蓮的觀光產業永續發展。\n（三）善盡民意代表天職，為民喉舌，關懷弱勢，為選民提供全方位服務。\n（四）支持政府推廣有機無毒的優質農特產事業，以提升農民收入及照顧民眾健康。\n（五）向政府爭取經費，全新打造吉安鄉成為最適合人們居住的優質鄉城。\n（六）積極建議政府開闢蘇花高速公路，便捷花蓮交通，以帶動花蓮經濟的繁榮，與國際接軌。","param":{"suggestions_years":{"count":23,"sum":4436196,"years":[{"count":23,"sum":4436196,"suggest_year":"2014","small_purchase":13}]},"diversity":{"中國國民黨":0.7802511788988535,"民主進步黨":0.16926629108060942,"無黨籍":0.050482530020537444},"bills_role_statistics":{"total":178,"priproposer":30,"sponsor":30,"cosponsor":148},"suggestions_associations":[{"count":0,"sum":0,"label":"社區發展協會"},{"count":0,"sum":0,"label":"學會"},{"count":0,"sum":0,"label":"商會"},{"count":0,"sum":0,"label":"公會"},{"count":0,"sum":0,"label":"協進會"},{"count":0,"sum":0,"label":"促進會"},{"count":0,"sum":0,"label":"研習會"},{"count":0,"sum":0,"label":"婦聯會"},{"count":0,"sum":0,"label":"婦女會"},{"count":0,"sum":0,"label":"體育會"},{"count":0,"sum":0,"label":"同心會"},{"count":0,"sum":0,"label":"農會"},{"count":0,"sum":0,"label":"早起會"},{"count":0,"sum":0,"label":"健身會"},{"count":0,"sum":0,"label":"宗親會"},{"count":0,"sum":0,"label":"功德會"},{"count":0,"sum":0,"label":"商業會"},{"count":0,"sum":0,"label":"長青會"},{"count":0,"sum":0,"label":"民眾服務社"},{"count":0,"sum":0,"label":"聯盟"}],"bills_party_diversity":[{"party":"中國國民黨","ratio":0.7972222222222223},{"party":"民主進步黨","ratio":0.12685185185185185},{"party":"無黨籍","ratio":0.07592592592592592}],"suggestions_piles":[{"count":6,"tokens":"國中|國小","sum":1062132,"label":"國中、國小"},{"count":4,"tokens":"警察局|分局","sum":911666,"label":"警察局"},{"count":0,"tokens":"協會|學會|商會|公會|協進會|促進會|研習會|婦聯會|婦女會|體育會|同心會|農會|早起會|健身會|宗親會|功德會|商業會|長青會|民眾服務社|聯盟","sum":0,"label":"協會"},{"count":0,"tokens":"辦公室|辦公處","sum":0,"label":"辦公室"},{"count":0,"tokens":"廟|宮","sum":0,"label":"廟"},{"count":0,"tokens":"消防局|消防隊|分隊|中隊","sum":0,"label":"消防局"}]},"councilor":"d033d8b1b0b443d4844ea28ce7e8f473"}],"uid":"d033d8b1b0b443d4844ea28ce7e8f473","name":"林春生","birth":null,"former_names":"","identifiers":["林春生","林春生"]},{"url":"http://councils.g0v.tw/api/councilors/1267/","each_terms":[{"url":"http://councils.g0v.tw/api/councilors_terms/2193/","election_year":"2009","name":"蕭文龍","gender":"男","party":"中國國民黨","title":"","constituency":3,"county":"花蓮縣","district":"吉安鄉、壽豐鄉、鳳林鎮、光復鄉、豐濱鄉、萬榮鄉","in_office":true,"contact_details":[{"type":"address","value":"花蓮縣鳳林鎮長橋里16鄰中長路37號","label":"通訊處"},{"type":"voice","value":"03-8751291．0935-965591","label":"電話"}],"term_start":"2009-12-25","term_end":{"date":"2014-12-25"},"education":"","experience":"第十四、十五屆長橋里里長\n第十六屆鳳林鎮民代表會主席\n長橋國小家長會長、萬榮國中家長會長\n國民黨花蓮縣鳳林鎮黨部常委\n花蓮縣第十六、十七屆縣議員\n花蓮縣議會國民黨團副書記長","remark":null,"image":"http://www.hlcc.gov.tw/upfile/20100226141905-144.jpg","links":[{"url":"http://www.hlcc.gov.tw/councillor-data.php?index_no=18","note":"議會個人官網"}],"social_media":null,"platform":"１督促蘇花替代公路興建，平衡城市發展。\n２督促花東快速道路完成，縮短城鄉差距。\n３全面推展精緻農業，提高農民收入。\n４提升觀光產業，打造鐵馬天堂。\n５注重教育發展，平衡城鄉教育。\n６治安絣品質優質化，保障居民生活安定。\n７督促福利制度，照顧弱勢族群。","param":{"suggestions_years":{"count":15,"sum":3283885,"years":[{"count":15,"sum":3283885,"suggest_year":"2014","small_purchase":9}]},"diversity":{"中國國民黨":0.8813353513992904,"民主進步黨":0.06980302961249249,"無黨籍":0.048861618988217434},"bills_role_statistics":{"total":238,"priproposer":57,"sponsor":58,"cosponsor":180},"suggestions_associations":[{"count":0,"sum":0,"label":"社區發展協會"},{"count":0,"sum":0,"label":"學會"},{"count":0,"sum":0,"label":"商會"},{"count":0,"sum":0,"label":"公會"},{"count":0,"sum":0,"label":"協進會"},{"count":0,"sum":0,"label":"促進會"},{"count":0,"sum":0,"label":"研習會"},{"count":0,"sum":0,"label":"婦聯會"},{"count":0,"sum":0,"label":"婦女會"},{"count":0,"sum":0,"label":"體育會"},{"count":0,"sum":0,"label":"同心會"},{"count":0,"sum":0,"label":"農會"},{"count":0,"sum":0,"label":"早起會"},{"count":0,"sum":0,"label":"健身會"},{"count":0,"sum":0,"label":"宗親會"},{"count":0,"sum":0,"label":"功德會"},{"count":0,"sum":0,"label":"商業會"},{"count":0,"sum":0,"label":"長青會"},{"count":0,"sum":0,"label":"民眾服務社"},{"count":0,"sum":0,"label":"聯盟"}],"bills_party_diversity":[{"party":"中國國民黨","ratio":0.8118811881188119},{"party":"民主進步黨","ratio":0.09476661951909476},{"party":"無黨籍","ratio":0.09335219236209336}],"suggestions_piles":[{"count":5,"tokens":"國中|國小","sum":650198,"label":"國中、國小"},{"count":2,"tokens":"辦公室|辦公處","sum":99388,"label":"辦公室"},{"count":1,"tokens":"警察局|分局","sum":48000,"label":"警察局"},{"count":0,"tokens":"協會|學會|商會|公會|協進會|促進會|研習會|婦聯會|婦女會|體育會|同心會|農會|早起會|健身會|宗親會|功德會|商業會|長青會|民眾服務社|聯盟","sum":0,"label":"協會"},{"count":0,"tokens":"廟|宮","sum":0,"label":"廟"},{"count":0,"tokens":"消防局|消防隊|分隊|中隊","sum":0,"label":"消防局"}]},"councilor":"77ab19a56a8c43f0a6a1201dd547ee35"}],"uid":"77ab19a56a8c43f0a6a1201dd547ee35","name":"蕭文龍","birth":null,"former_names":"","identifiers":["蕭文龍"]},{"url":"http://councils.g0v.tw/api/councilors/1270/","each_terms":[{"url":"http://councils.g0v.tw/api/councilors_terms/2196/","election_year":"2009","name":"宋懷琳","gender":"女","party":"中國國民黨","title":"議員","constituency":1,"county":"南投縣","district":"南投市、名間鄉","in_office":true,"contact_details":[{"type":"address","value":"南投市平和里信義街146之1號","label":"通訊處"}],"term_start":"2009-12-25","term_end":{"date":"2014-12-25"},"education":"東海大學社會科學院碩士畢","experience":"南投縣十四、十五、十六屆縣議員、國民黨\n十六、十七、十八全黨代表、南投縣紫砂陶\n藝協會理事長、南投縣女童軍會理事長、南\n投縣婦女會理事長、南投縣土風舞協會理事\n長、南投高中校友會理事長、建設廳科員、\n中寮戶政戶籍員、平和國小代課老師","remark":null,"image":"http://www.ntcc.gov.tw/images/n3_1_3.jpg","links":null,"social_media":null,"platform":"一、監督縣政，做好為民服務工作。\n二、關懷婦女及弱勢團體。\n三、關心中興新村未來走向，建設中興新村新藍圖。\n四、推動社區聯防工作，以減低犯罪率，維護治安。\n五、監督工程品質管制，以維護公共安全。\n六、對不合宜之法令，督促縣政府檢討並協助解決，以解民怨。","param":{"bills_role_statistics":{"total":106,"priproposer":60,"sponsor":60,"cosponsor":46},"suggestions_piles":[{"count":18,"tokens":"國中|國小","sum":2001000,"label":"國中、國小"},{"count":2,"tokens":"警察局|分局","sum":188000,"label":"警察局"},{"count":1,"tokens":"辦公室|辦公處","sum":50000,"label":"辦公室"},{"count":0,"tokens":"協會|學會|商會|公會|協進會|促進會|研習會|婦聯會|婦女會|體育會|同心會|農會|早起會|健身會|宗親會|功德會|商業會|長青會|民眾服務社|聯盟","sum":0,"label":"協會"},{"count":0,"tokens":"廟|宮","sum":0,"label":"廟"},{"count":0,"tokens":"消防局|消防隊|分隊|中隊","sum":0,"label":"消防局"}],"suggestions_associations":[{"count":0,"sum":0,"label":"社區發展協會"},{"count":0,"sum":0,"label":"學會"},{"count":0,"sum":0,"label":"商會"},{"count":0,"sum":0,"label":"公會"},{"count":0,"sum":0,"label":"協進會"},{"count":0,"sum":0,"label":"促進會"},{"count":0,"sum":0,"label":"研習會"},{"count":0,"sum":0,"label":"婦聯會"},{"count":0,"sum":0,"label":"婦女會"},{"count":0,"sum":0,"label":"體育會"},{"count":0,"sum":0,"label":"同心會"},{"count":0,"sum":0,"label":"農會"},{"count":0,"sum":0,"label":"早起會"},{"count":0,"sum":0,"label":"健身會"},{"count":0,"sum":0,"label":"宗親會"},{"count":0,"sum":0,"label":"功德會"},{"count":0,"sum":0,"label":"商業會"},{"count":0,"sum":0,"label":"長青會"},{"count":0,"sum":0,"label":"民眾服務社"},{"count":0,"sum":0,"label":"聯盟"}],"diversity":{"中國國民黨":0.6077268643306382,"民主進步黨":0.16848607367475293,"無黨籍":0.22378706199460924},"suggestions_years":{"count":34,"sum":3879000,"years":[{"count":34,"sum":3879000,"suggest_year":"2014","small_purchase":27}]}},"councilor":"24e1e19f33164aeaa5118957f64d7685"}],"uid":"24e1e19f33164aeaa5118957f64d7685","name":"宋懷琳","birth":"1955-11-04","former_names":"","identifiers":["宋懷琳"]},{"url":"http://councils.g0v.tw/api/councilors/1158/","each_terms":[{"url":"http://councils.g0v.tw/api/councilors_terms/2084/","election_year":"2009","name":"劉錦昌","gender":"男","party":"","title":"議員","constituency":6,"county":"彰化縣","district":"社頭鄉、田中鎮、二水鄉","in_office":true,"contact_details":[{"type":"phone","value":"04-8711433","label":"電話"},{"type":"fax","value":"04-8736266","label":"傳真"},{"type":"email","value":"a8711433@yahoo.com.tw","label":"電子信箱"},{"type":"address","value":"彰化縣社頭鄉社頭村員集路二段370號","label":"通訊處"}],"term_start":"2009-12-25","term_end":{"date":"2014-12-25"},"education":"橋頭國小畢業\n社頭國中畢業\n達德高級職業學校畢業\n逢甲大學人力資源進修學分班","experience":"彰化縣議會第15、16屆議員\n逢甲大學人力資源班修學分班\n社頭鄉代表\n民進黨彰化縣評議委員\n228百萬人手牽手守護臺灣活動田中區總召集人\n反中國分裂法326百萬人和平護臺灣大遊行田中區總領隊\n彰化縣議會第17屆議員","remark":null,"image":"http://www.chcc.gov.tw/UpFile/CouncilorPhoto/6004.jpg","links":[{"url":"http://www.chcc.gov.tw/content/list/list01_01.aspx?sid=39","note":"議會個人官網"}],"social_media":null,"platform":"強力監督縣政\n常設服務處、專業服務，「一通電話，服務到家」\n堅持清廉參政，貫徹黨的理念\n為弱勢者大力發聲，一路走來始終如一，未曾改變\n爭取教育文化資源補助，促進社區人文發展\n爭取社區民生工程建設，提昇鄉親生活品質\n改善道路交通排水工程，繁榮地方基層建設\n早期即入民進黨，一路跟隨黨，忠貞黨員","param":{"bills_role_statistics":{"total":52,"priproposer":6,"sponsor":6,"cosponsor":46},"diversity":{"":1.0},"bills_party_diversity":[{"party":"","ratio":1.0}]},"councilor":"3240f018e8f043208d03546f0ab23220"}],"uid":"3240f018e8f043208d03546f0ab23220","name":"劉錦昌","birth":"1959-04-12","former_names":"","identifiers":["劉錦昌","劉錦昌"]},{"url":"http://councils.g0v.tw/api/councilors/1160/","each_terms":[{"url":"http://councils.g0v.tw/api/councilors_terms/2086/","election_year":"2009","name":"陳玉姬","gender":"女","party":"","title":"議員","constituency":5,"county":"彰化縣","district":"埔鹽鄉、溪湖鎮、埔心鄉","in_office":true,"contact_details":[{"type":"phone","value":"04-8852725","label":"電話"},{"type":"fax","value":"04-8813576","label":"傳真"},{"type":"email","value":"service.rpe@msa.hinet.net","label":"電子信箱"},{"type":"address","value":"彰化縣溪湖鎮員鹿路3段409號","label":"通訊處"}],"term_start":"2009-12-25","term_end":{"date":"2014-12-25"},"education":"中州技術學院國際貿易科二專部畢業\n明道大學高階企業管理碩士畢業","experience":"溪湖鎮婦女會縣級代表\n彰化監獄作業指導委員\n溪湖博愛慈善會會長\n溪湖清溪婦聯會副主任委員\n國立員林農工90、91學年度家長會長\n溪湖義勇消防分隊顧問\n彰化縣警察局顧問\n千愛慈善會第一屆會務發展委員會委員\n彰化縣議會第17屆議員\n湖埔社區大學校長\n溪湖鎮婦聯會主任委員\n金玉湖獅子會創會長\n彰化縣溪湖警察志工協進會常務理事\n中華民國犯罪矯正協會中區副會長","remark":null,"image":"http://www.chcc.gov.tw/UpFile/CouncilorPhoto/5002.jpg","links":[{"url":"http://www.chcc.gov.tw/content/list/list01_01.aspx?sid=37","note":"議會個人官網"}],"social_media":null,"platform":"舉辦地方節慶活動、繁榮行銷觀光產業\n監督縣政總體發展、提升縣民生活品質\n設立關懷服務中心、及時服務不打折扣\n推動社區藝文展覽、營造蘊育書香氣息\n專業優質問政服務、理性思辨縣政規劃\n爭取建設經費補助、改善鄉親居住環境\n協助弱勢族群自立、保障四就（就學、就養、就醫、就業）權益\n申請廣設學習課程、培養第二專長能力","param":{"bills_role_statistics":{"total":35,"priproposer":0,"sponsor":0,"cosponsor":35},"diversity":{"":1.0},"bills_party_diversity":[{"party":"","ratio":1.0}]},"councilor":"032133e2b45043ceadbe8630f68cdc0f"}],"uid":"032133e2b45043ceadbe8630f68cdc0f","name":"陳玉姬","birth":"1963-12-10","former_names":"","identifiers":["陳玉姬"]},{"url":"http://councils.g0v.tw/api/councilors/1161/","each_terms":[{"url":"http://councils.g0v.tw/api/councilors_terms/2087/","election_year":"2009","name":"張永泉","gender":"男","party":"","title":"議員","constituency":5,"county":"彰化縣","district":"埔鹽鄉、溪湖鎮、埔心鄉","in_office":true,"contact_details":[{"type":"phone","value":"","label":"電話"},{"type":"fax","value":"04-8371347","label":"傳真"},{"type":"email","value":"","label":"電子信箱"},{"type":"address","value":"彰化縣埔心鄉義民村忠義北路100號(埔心鄉農會)","label":"通訊處"}],"term_start":"2009-12-25","term_end":{"date":"2014-12-25"},"education":"國中畢業","experience":"彰化縣議會第16屆議員\n彰化縣慢速壘球協會副主委\n明聖宮慈善會第6、7屆會長\n明聖宮管理委員會主任委員\n埔心鄉第12、13、14、16、17屆鄉民代表\n彰化縣永興游泳協會第1屆會長\n彰化縣議會第17屆議員","remark":null,"image":"http://www.chcc.gov.tw/UpFile/CouncilorPhoto/5003.jpg","links":[{"url":"http://www.chcc.gov.tw/content/list/list01_01.aspx?sid=36","note":"議會個人官網"}],"social_media":null,"platform":"關懷弱勢族群，爭取各項社會福利預算之編列補助\n督促縣政，重視地方農產品特色之行銷，發展精緻休閒農業，增加農民收益\n督促政府重視老人福利，關懷獨居老人\n教育乃百年大計，監督教育機關，投入心力，培植優秀的下一代\n配合鄉政規劃，爭取各項地方建設，促進地方繁榮\n重視青少年正當休閒，廣設體育休閒活動之設施\n爭取舉辦各項大型藝文活動，提升文化水準\n爭取社區監視系統設備，消滅治安死角，以保障人民生命財產之安全","param":{"bills_role_statistics":{"total":34,"priproposer":6,"sponsor":6,"cosponsor":28},"diversity":{"":1.0},"bills_party_diversity":[{"party":"","ratio":1.0}]},"councilor":"75d089c718e34e2d930998d7d4fedf10"},{"url":"http://councils.g0v.tw/api/councilors_terms/11669/","election_year":"2014","name":"張永泉","gender":"男","party":"無黨籍","title":null,"constituency":5,"county":"彰化縣","district":"埔鹽鄉、溪湖鎮、埔心鄉","in_office":false,"contact_details":null,"term_start":"2014-12-25","term_end":{"date":"2016-04-14","judicial_links":"","reason":"當選無效","ref":"http://www.cec.gov.tw/central/cms/bulletin/1632","replacement":"張春洋"},"education":null,"experience":null,"remark":null,"image":"","links":null,"social_media":null,"platform":"","param":{"bills_role_statistics":{"total":7,"priproposer":0,"sponsor":0,"cosponsor":7},"bills_party_diversity":[{"party":"中國國民黨","ratio":0.6071428571428571},{"party":"無黨籍","ratio":0.2767857142857143},{"party":"民主進步黨","ratio":0.11607142857142858}]},"councilor":"75d089c718e34e2d930998d7d4fedf10"}],"uid":"75d089c718e34e2d930998d7d4fedf10","name":"張永泉","birth":"1956-03-25","former_names":"","identifiers":["張永泉"]},{"url":"http://councils.g0v.tw/api/councilors/1354/","each_terms":[{"url":"http://councils.g0v.tw/api/councilors_terms/2280/","election_year":"2009","name":"陳鳳梅","gender":"女","party":"","title":"","constituency":5,"county":"嘉義縣","district":"布袋鄉、義竹鄉","in_office":true,"contact_details":[{"type":"phone","value":"05-3432995 ","label":"電話"},{"type":"address","value":"嘉義縣布袋鎮復興里新塭17-61號 ","label":"通訊處"},{"type":"email","value":"","label":"電子信箱"}],"term_start":"2009-12-25","term_end":{"date":"2014-12-25"},"education":"恆春國小\n獅甲國中\n三信高中\n南華大學 ","experience":"（一）嘉義縣第十六屆議員。\n（二）嘉義區漁會第六、七屆漁民代表。\n（三）嘉義區漁會第六、七屆漁會理事。\n（四）布袋鎮第十四、十五、十六、十七屆鎮民代表。 ","remark":null,"image":"http://www.cyscc.gov.tw/template/DisplaySmallPicture.ashx?p=/Upload/Parliamentary/32/634535115621699159.bmp&w=145&h=170","links":[{"url":"http://www.cyscc.gov.tw/chinese/Parliamentary_Detail.aspx?s=32&n=29","note":"議會個人官網"}],"social_media":null,"platform":"（一）盡責監督縣政，盡心服務縣民。\n（二）配合縣府拼觀光，引進觀光人潮，提高就業機會。\n（三）爭取漁民權益與福利。\n（四）爭取海提，事業堤整治重建及水路疏通改善淹水問題。\n（五）重視弱勢團體福利及權利。\n（六）結合學校、警察、社區共同防治毒品進入校園，提供安全教育環境。\n（七）推動社區總體營造，文化藝術，向下紮根。\n（八）當個專職議員，提升問政品質，貫徹服務至上理念。 ","param":{"suggestions_years":{"count":34,"sum":19986100,"years":[{"count":2,"sum":2210000,"suggest_year":"2011","small_purchase":0},{"count":15,"sum":11810000,"suggest_year":"2012","small_purchase":2},{"count":6,"sum":1382100,"suggest_year":"2013","small_purchase":2},{"count":11,"sum":4584000,"suggest_year":"2014","small_purchase":2}]},"diversity":{"":1.0},"bills_role_statistics":{"total":22,"priproposer":4,"sponsor":4,"cosponsor":18},"suggestions_associations":[{"count":0,"sum":0,"label":"社區發展協會"},{"count":0,"sum":0,"label":"學會"},{"count":0,"sum":0,"label":"商會"},{"count":0,"sum":0,"label":"公會"},{"count":0,"sum":0,"label":"協進會"},{"count":0,"sum":0,"label":"促進會"},{"count":0,"sum":0,"label":"研習會"},{"count":0,"sum":0,"label":"婦聯會"},{"count":0,"sum":0,"label":"婦女會"},{"count":0,"sum":0,"label":"體育會"},{"count":0,"sum":0,"label":"同心會"},{"count":0,"sum":0,"label":"農會"},{"count":0,"sum":0,"label":"早起會"},{"count":0,"sum":0,"label":"健身會"},{"count":0,"sum":0,"label":"宗親會"},{"count":0,"sum":0,"label":"功德會"},{"count":0,"sum":0,"label":"商業會"},{"count":0,"sum":0,"label":"長青會"},{"count":0,"sum":0,"label":"民眾服務社"},{"count":0,"sum":0,"label":"聯盟"}],"bills_party_diversity":[{"party":"","ratio":1.0}],"suggestions_piles":[{"count":4,"tokens":"廟|宮","sum":2035000,"label":"廟"},{"count":0,"tokens":"協會|學會|商會|公會|協進會|促進會|研習會|婦聯會|婦女會|體育會|同心會|農會|早起會|健身會|宗親會|功德會|商業會|長青會|民眾服務社|聯盟","sum":0,"label":"協會"},{"count":0,"tokens":"辦公室|辦公處","sum":0,"label":"辦公室"},{"count":0,"tokens":"警察局|分局","sum":0,"label":"警察局"},{"count":0,"tokens":"消防局|消防隊|分隊|中隊","sum":0,"label":"消防局"},{"count":0,"tokens":"國中|國小","sum":0,"label":"國中、國小"}]},"councilor":"a5661e5cdca64c0da40476623c5e9095"}],"uid":"a5661e5cdca64c0da40476623c5e9095","name":"陳鳳梅","birth":null,"former_names":"","identifiers":["陳鳳梅","陳鳯梅"]}]}