{"count":1904,"next":"http://councils.g0v.tw/api/councilors/?page=24","previous":"http://councils.g0v.tw/api/councilors/?page=22","results":[{"url":"http://councils.g0v.tw/api/councilors/1358/","each_terms":[{"url":"http://councils.g0v.tw/api/councilors_terms/2284/","election_year":"2009","name":"侯清河","gender":"男","party":"","title":"","constituency":6,"county":"嘉義縣","district":"中埔鄉、番路鄉、竹崎鄉、大埔鄉","in_office":true,"contact_details":[{"type":"phone","value":"05-2390997 ","label":"電話"},{"type":"address","value":"嘉義縣中埔鄉和美村中山路5段732巷75號 ","label":"通訊處"},{"type":"email","value":"","label":"電子信箱"}],"term_start":"2009-12-25","term_end":{"date":"2014-12-25"},"education":"高中畢 ","experience":"(一)第十五屆議長\n(二)第十四屆副議長\n(三)嘉義縣議會第十二、十三、十六屆縣議員\n(四)中埔鄉代表會第十屆副主席\n(五)中埔鄉代表會第十二屆主席。\n(六)嘉義救難協會第五屆名譽理事長。\n(七)嘉義縣兵役協會第一屆理事長。\n(八)國際青年商會顧問、93年全國敬軍楷模。 ","remark":null,"image":"http://www.cyscc.gov.tw/template/DisplaySmallPicture.ashx?p=/Upload/Parliamentary/34/634535116998425107.bmp&w=145&h=170","links":[{"url":"http://www.cyscc.gov.tw/chinese/Parliamentary_Detail.aspx?s=34&n=29","note":"議會個人官網"}],"social_media":null,"platform":"(一)監督政府施政，為民喉舌。\n(二)爭取產業道路開拓，排水系統疏浚，提高農作物產值。\n(三)解決高齡化社會問題，爭取設立老人日間照顧中心，以減輕家庭負擔。\n(四)提高精緻農業規劃，發展休閒農業，爭取輔導休閒農場，永續發展複合式農業，提高農民所得。 ","param":{"bills_role_statistics":{"total":6,"priproposer":0,"sponsor":0,"cosponsor":6},"diversity":{"":1.0},"bills_party_diversity":[{"party":"","ratio":1.0}]},"councilor":"8799c483d3ed47fab3a62f58c488ed61"}],"uid":"8799c483d3ed47fab3a62f58c488ed61","name":"侯清河","birth":null,"former_names":"","identifiers":["侯清河"]},{"url":"http://councils.g0v.tw/api/councilors/1359/","each_terms":[{"url":"http://councils.g0v.tw/api/councilors_terms/2285/","election_year":"2009","name":"蔡文基","gender":"男","party":"","title":"","constituency":6,"county":"嘉義縣","district":"中埔鄉、番路鄉、竹崎鄉、大埔鄉","in_office":true,"contact_details":[{"type":"phone","value":"05-2031146 ","label":"電話"},{"type":"address","value":"嘉義縣中埔鄉深坑村1鄰18號 ","label":"通訊處"},{"type":"email","value":"","label":"電子信箱"}],"term_start":"2009-12-25","term_end":{"date":"2014-12-25"},"education":"國立中正大學學士學分班 ","experience":"一、中埔鄉農會、理、監事三屆。\n二、台北農產運銷(股)公司董事。\n三、嘉義縣議會第14、15、16屆議員。\n四、嘉南農田水利會會務委員。 ","remark":null,"image":"http://www.cyscc.gov.tw/template/DisplaySmallPicture.ashx?p=/Upload/Parliamentary/79/634637706266951872.jpg&w=145&h=170","links":[{"url":"http://www.cyscc.gov.tw/chinese/Parliamentary_Detail.aspx?s=79&n=29","note":"議會個人官網"}],"social_media":null,"platform":"監督縣政，秉持農民代言人，推動農業轉型，全方位服務。 ","param":{"suggestions_years":{"count":2,"sum":200000,"years":[{"count":2,"sum":200000,"suggest_year":"2013","small_purchase":2}]},"diversity":{"":1.0},"bills_role_statistics":{"total":6,"priproposer":1,"sponsor":1,"cosponsor":5},"suggestions_associations":[{"count":0,"sum":0,"label":"社區發展協會"},{"count":0,"sum":0,"label":"學會"},{"count":0,"sum":0,"label":"商會"},{"count":0,"sum":0,"label":"公會"},{"count":0,"sum":0,"label":"協進會"},{"count":0,"sum":0,"label":"促進會"},{"count":0,"sum":0,"label":"研習會"},{"count":0,"sum":0,"label":"婦聯會"},{"count":0,"sum":0,"label":"婦女會"},{"count":0,"sum":0,"label":"體育會"},{"count":0,"sum":0,"label":"同心會"},{"count":0,"sum":0,"label":"農會"},{"count":0,"sum":0,"label":"早起會"},{"count":0,"sum":0,"label":"健身會"},{"count":0,"sum":0,"label":"宗親會"},{"count":0,"sum":0,"label":"功德會"},{"count":0,"sum":0,"label":"商業會"},{"count":0,"sum":0,"label":"長青會"},{"count":0,"sum":0,"label":"民眾服務社"},{"count":0,"sum":0,"label":"聯盟"}],"bills_party_diversity":[{"party":"","ratio":1.0}],"suggestions_piles":[{"count":2,"tokens":"廟|宮","sum":200000,"label":"廟"},{"count":0,"tokens":"協會|學會|商會|公會|協進會|促進會|研習會|婦聯會|婦女會|體育會|同心會|農會|早起會|健身會|宗親會|功德會|商業會|長青會|民眾服務社|聯盟","sum":0,"label":"協會"},{"count":0,"tokens":"辦公室|辦公處","sum":0,"label":"辦公室"},{"count":0,"tokens":"警察局|分局","sum":0,"label":"警察局"},{"count":0,"tokens":"消防局|消防隊|分隊|中隊","sum":0,"label":"消防局"},{"count":0,"tokens":"國中|國小","sum":0,"label":"國中、國小"}]},"councilor":"ef2e170521754870a8f1cc4b101434bc"}],"uid":"ef2e170521754870a8f1cc4b101434bc","name":"蔡文基","birth":null,"former_names":"","identifiers":["蔡文基"]},{"url":"http://councils.g0v.tw/api/councilors/1314/","each_terms":[{"url":"http://councils.g0v.tw/api/councilors_terms/2240/","election_year":"2009","name":"吳寀璇","gender":"","party":"無黨籍","title":"議員","constituency":3,"county":"新竹縣","district":"新豐鄉","in_office":true,"contact_details":[{"type":"email","value":"a17020@hcc.gov.tw","label":"E-mail"}],"term_start":"2009-12-25","term_end":{"date":"2014-12-25"},"education":"宗聖職校。專科進修。","experience":"新竹區恩德會會員。\n新竹區餐飲工會會員。\n新豐十圓饗美食負責人。\n新竹區雲林同鄉會理事。\n新竹縣新豐鄉鄉土協會理事長。\n新竹縣新豐鄉義交協會理事長。\n新竹縣縣議會第十五屆縣議員。","remark":null,"image":"http://www.hcc.gov.tw/03councilor/photo/%E5%90%B3%E5%AF%80%E7%92%87-2-1.jpg","links":[{"url":"http://www.hcc.gov.tw/03councilor/view.asp?id=90","note":"議會個人官網"},{"url":"http://www.hcc.gov.tw/blog/style03/04list.asp?ald_id=90","note":"個人網站"}],"social_media":null,"platform":"監督縣政、熱心為民服務。\n伸張公義、支持縣民福利\n爭取經費、建設繁榮新豐。\n發揚新豐、提出新豐優先。\n關懷婦幼、支持老人年金。","param":{"suggestions_years":{"count":3,"sum":174600,"years":[{"count":3,"sum":174600,"suggest_year":"2014","small_purchase":3}]},"diversity":{"":0.02129790940766551,"中國國民黨":0.41474484610917534,"民主進步黨":0.043842497272375325,"勞動黨":0.055047700436419926,"無黨籍":0.46506704677436395},"bills_role_statistics":{"total":63,"priproposer":17,"sponsor":17,"cosponsor":46},"suggestions_associations":[{"count":1,"sum":75000,"label":"社區發展協會"},{"count":0,"sum":0,"label":"學會"},{"count":0,"sum":0,"label":"商會"},{"count":0,"sum":0,"label":"公會"},{"count":0,"sum":0,"label":"協進會"},{"count":0,"sum":0,"label":"促進會"},{"count":0,"sum":0,"label":"研習會"},{"count":0,"sum":0,"label":"婦聯會"},{"count":0,"sum":0,"label":"婦女會"},{"count":0,"sum":0,"label":"體育會"},{"count":0,"sum":0,"label":"同心會"},{"count":0,"sum":0,"label":"農會"},{"count":0,"sum":0,"label":"早起會"},{"count":0,"sum":0,"label":"健身會"},{"count":0,"sum":0,"label":"宗親會"},{"count":0,"sum":0,"label":"功德會"},{"count":0,"sum":0,"label":"商業會"},{"count":0,"sum":0,"label":"長青會"},{"count":0,"sum":0,"label":"民眾服務社"},{"count":0,"sum":0,"label":"聯盟"}],"bills_party_diversity":[{"party":"中國國民黨","ratio":0.46503496503496505},{"party":"無黨籍","ratio":0.4125874125874126},{"party":"民主進步黨","ratio":0.06293706293706294},{"party":"勞動黨","ratio":0.04195804195804196},{"party":"","ratio":0.017482517482517484}],"suggestions_piles":[{"count":1,"tokens":"協會|學會|商會|公會|協進會|促進會|研習會|婦聯會|婦女會|體育會|同心會|農會|早起會|健身會|宗親會|功德會|商業會|長青會|民眾服務社|聯盟","sum":75000,"label":"協會"},{"count":0,"tokens":"辦公室|辦公處","sum":0,"label":"辦公室"},{"count":0,"tokens":"廟|宮","sum":0,"label":"廟"},{"count":0,"tokens":"警察局|分局","sum":0,"label":"警察局"},{"count":0,"tokens":"消防局|消防隊|分隊|中隊","sum":0,"label":"消防局"},{"count":0,"tokens":"國中|國小","sum":0,"label":"國中、國小"}]},"councilor":"19d8c43f6b43420687d80af37f1505d5"}],"uid":"19d8c43f6b43420687d80af37f1505d5","name":"吳寀璇","birth":null,"former_names":"","identifiers":["吳寀璇"]},{"url":"http://councils.g0v.tw/api/councilors/931/","each_terms":[{"url":"http://councils.g0v.tw/api/councilors_terms/1669/","election_year":"1958","name":"張乾生","gender":"","party":"","title":"議員","constituency":9,"county":"新北市","district":"新店鎮、景美鎮、木柵鄉、深坑鄉、石碇鄉、坪林鄉","in_office":true,"contact_details":null,"term_start":"1958-02-21","term_end":{"date":"1961-02-20"},"education":"師範大學","experience":"國小教員\n木柵鄉鄉民代表會主席\n第1、2屆木柵鄉鄉長\n臺北縣議會第4、5、6屆議員","remark":null,"image":"http://www.ntp.gov.tw/UpFile/CouncilorFile/TTCC0470.jpg","links":[{"url":"http://www.ntp.gov.tw/content/history/history01-5-p.aspx?sid=221","note":"議會個人官網"}],"social_media":null,"platform":"","param":null,"councilor":"4fec26a3ae0c401dadcacddb0ff609a5"},{"url":"http://councils.g0v.tw/api/councilors_terms/1744/","election_year":"1961","name":"張乾生","gender":"","party":"","title":"議員","constituency":9,"county":"新北市","district":"新店鎮、景美鎮、木柵鄉、深坑鄉、石碇鄉、坪林鄉","in_office":true,"contact_details":null,"term_start":"1961-02-21","term_end":{"date":"1964-02-20"},"education":"師範大學","experience":"國小教員\n木柵鄉鄉民代表會主席\n第1、2屆木柵鄉鄉長\n臺北縣議會第4、5、6屆議員","remark":null,"image":"http://www.ntp.gov.tw/UpFile/CouncilorFile/TTCC0470.jpg","links":[{"url":"http://www.ntp.gov.tw/content/history/history01-5-p.aspx?sid=221","note":"議會個人官網"}],"social_media":null,"platform":"","param":null,"councilor":"4fec26a3ae0c401dadcacddb0ff609a5"},{"url":"http://councils.g0v.tw/api/councilors_terms/1806/","election_year":"1964","name":"張乾生","gender":"","party":"","title":"議員","constituency":9,"county":"新北市","district":"新店鎮、景美鎮、木柵鄉、深坑鄉、石碇鄉、坪林鄉、烏來鄉山地鄉","in_office":true,"contact_details":null,"term_start":"1964-02-21","term_end":{"date":"1968-02-20"},"education":"師範大學","experience":"國小教員\n木柵鄉鄉民代表會主席\n第1、2屆木柵鄉鄉長\n臺北縣議會第4、5、6屆議員","remark":null,"image":"http://www.ntp.gov.tw/UpFile/CouncilorFile/TTCC0470.jpg","links":[{"url":"http://www.ntp.gov.tw/content/history/history01-5-p.aspx?sid=221","note":"議會個人官網"}],"social_media":null,"platform":"","param":null,"councilor":"4fec26a3ae0c401dadcacddb0ff609a5"}],"uid":"4fec26a3ae0c401dadcacddb0ff609a5","name":"張乾生","birth":null,"former_names":"","identifiers":["張乾生"]},{"url":"http://councils.g0v.tw/api/councilors/110/","each_terms":[{"url":"http://councils.g0v.tw/api/councilors_terms/169/","election_year":"2006","name":"徐佳青","gender":"女","party":"民主進步黨","title":"議員","constituency":null,"county":"臺北市","district":"","in_office":true,"contact_details":null,"term_start":"2006-12-25","term_end":{"date":"2010-12-25"},"education":"實踐國小畢業、中山女高畢業、台灣大學農藝系畢業、陽明大學衛生福利研究所畢業、德國馬堡大學社會研究所","experience":"台灣女人連線秘書長、台北市女性權益促進會秘書長、人本教育基金會921專案主任、學生參選聯盟召集人、1112反核大遊行副總指揮、綠色和平電台節目主持人、長老教會總會青年部書記、2001南區五虎將競選副總幹事、第九屆台北市議員。","remark":"","image":"http://www.tcc.gov.tw/../upload/photo/%E5%BE%90%E4%BD%B3%E9%9D%92.jpg","links":[{"url":"http://www.tcc.gov.tw/Councilor_Content_All.aspx?s=2312&d=671022&n=%E5%BE%90%E4%BD%B3%E9%9D%92","note":"議會個人官網"}],"social_media":null,"platform":"","param":null,"councilor":"b854b7e3da8141e084ef6fd77a9bb8de"},{"url":"http://councils.g0v.tw/api/councilors_terms/223/","election_year":"2002","name":"徐佳青","gender":"女","party":"民主進步黨","title":"議員","constituency":null,"county":"臺北市","district":"","in_office":true,"contact_details":null,"term_start":"2002-12-25","term_end":{"date":"2006-12-25"},"education":"實踐國中、中山女高、臺灣大學農藝系、德國馬堡大學社會研究所、陽明大學衛生福利所碩士。","experience":"臺灣女人連線秘書長。臺北市女性權益促進會秘書長。人本教育基金會921專案主任。學生參選聯盟召集人。1112反核大遊行副總指揮。綠色和平電臺節目主持人。長老教會總會青年部書記。2001南區五虎將競選副總幹事。","remark":"","image":"http://www.tcc.gov.tw/../upload/photo/%E5%BE%90%E4%BD%B3%E9%9D%9217.bmp","links":[{"url":"http://www.tcc.gov.tw/Councilor_Content_All.aspx?s=1842&d=671022&n=%E5%BE%90%E4%BD%B3%E9%9D%92","note":"議會個人官網"}],"social_media":null,"platform":"","param":null,"councilor":"b854b7e3da8141e084ef6fd77a9bb8de"},{"url":"http://councils.g0v.tw/api/councilors_terms/114/","election_year":"2010","name":"徐佳青","gender":"女","party":"民主進步黨","title":"議員","constituency":6,"county":"臺北市","district":"大安區、文山區","in_office":true,"contact_details":[{"type":"email","value":"tcc9117@tcc.gov.tw","label":"電子信箱"},{"type":"voice","value":"27297708#7041、7141","label":"電話"},{"type":"fax","value":"23459112","label":"傳真"},{"type":"address","value":"台北市信義區仁愛路4段507號741室","label":"通訊處"}],"term_start":"2010-12-25","term_end":{"date":"2014-12-25"},"education":"實踐國中畢業、中山女高畢業、台灣大學農藝系畢業、陽明大學衛生福利研究所畢業","experience":"台灣女人連線秘書長、台北市女性權益促進會秘書長、人本教育基金會921專案主任、綠色和平電台節目主持人、台灣新社會智庫理事長、民進黨中常委、台北市議員","remark":"","image":"http://www.tcc.gov.tw/../upload/photo/%E5%BE%90%E4%BD%B3%E9%9D%92.jpg","links":[{"url":"http://www.tcc.gov.tw/Councilor_Content.aspx?s=1077","note":"議會個人官網"},{"url":"http://cchsutaiwan.blogspot.com","note":"個人網站"}],"social_media":null,"platform":"1、拒絕八卦言論，秉持專業問政。\n2、絕不特權關說，力行清廉從政。\n3、關心人民福祉，實踐民主精神。\n4、關心弱勢族群，倡導人本平權。\n5、保護自然環境，貫徹環保概念。\n6、重視兒童發展，落實教育改革。","param":{"bills_role_statistics":{"total":86,"priproposer":18,"sponsor":86,"cosponsor":0},"votes_decision_statistics":{"abstain":2,"disagree":10,"not_voting":1,"total":60,"agree":47,"conflict":3},"diversity":{"臺灣團結聯盟":0.024937874235793602,"親民黨":0.022498237979606858,"無黨籍":0.012491520484596886,"中國國民黨":0.30691108211938684,"新黨":0.01898524360589866,"民主進步黨":0.6141760415747171},"suggestions_years":{"count":6,"sum":4531000,"years":[{"count":3,"sum":1670000,"suggest_year":"2013","small_purchase":0},{"count":3,"sum":2861000,"suggest_year":"2014","small_purchase":1}]},"attendance_statistics":{"absent":2,"total":131},"suggestions_associations":[{"count":0,"sum":0,"label":"社區發展協會"},{"count":0,"sum":0,"label":"學會"},{"count":0,"sum":0,"label":"商會"},{"count":0,"sum":0,"label":"公會"},{"count":0,"sum":0,"label":"協進會"},{"count":0,"sum":0,"label":"促進會"},{"count":0,"sum":0,"label":"研習會"},{"count":0,"sum":0,"label":"婦聯會"},{"count":0,"sum":0,"label":"婦女會"},{"count":0,"sum":0,"label":"體育會"},{"count":0,"sum":0,"label":"同心會"},{"count":0,"sum":0,"label":"農會"},{"count":0,"sum":0,"label":"早起會"},{"count":0,"sum":0,"label":"健身會"},{"count":0,"sum":0,"label":"宗親會"},{"count":0,"sum":0,"label":"功德會"},{"count":0,"sum":0,"label":"商業會"},{"count":0,"sum":0,"label":"長青會"},{"count":0,"sum":0,"label":"民眾服務社"},{"count":0,"sum":0,"label":"聯盟"}],"bills_party_diversity":[{"party":"民主進步黨","ratio":0.5768491834774255},{"party":"中國國民黨","ratio":0.340537944284342},{"party":"親民黨","ratio":0.024495677233429394},{"party":"臺灣團結聯盟","ratio":0.022574447646493755},{"party":"新黨","ratio":0.018731988472622477},{"party":"無黨籍","ratio":0.01681075888568684}],"suggestions_piles":[{"count":0,"tokens":"協會|學會|商會|公會|協進會|促進會|研習會|婦聯會|婦女會|體育會|同心會|農會|早起會|健身會|宗親會|功德會|商業會|長青會|民眾服務社|聯盟","sum":0,"label":"協會"},{"count":0,"tokens":"辦公室|辦公處","sum":0,"label":"辦公室"},{"count":0,"tokens":"廟|宮","sum":0,"label":"廟"},{"count":0,"tokens":"警察局|分局","sum":0,"label":"警察局"},{"count":0,"tokens":"消防局|消防隊|分隊|中隊","sum":0,"label":"消防局"},{"count":0,"tokens":"國中|國小","sum":0,"label":"國中、國小"}]},"councilor":"b854b7e3da8141e084ef6fd77a9bb8de"}],"uid":"b854b7e3da8141e084ef6fd77a9bb8de","name":"徐佳青","birth":"1967-10-22","former_names":"","identifiers":["徐佳青"]},{"url":"http://councils.g0v.tw/api/councilors/575/","each_terms":[{"url":"http://councils.g0v.tw/api/councilors_terms/986/","election_year":"1986","name":"何仰山","gender":"","party":"","title":"議員","constituency":4,"county":"新北市","district":"三重市、蘆洲鄉","in_office":true,"contact_details":null,"term_start":"1986-03-01","term_end":{"date":"1990-02-28"},"education":"修德國小\n明志國中\n中正高中\n國立臺灣海洋大學畢業\n國立臺灣大學政治研究所行政領導班研究","experience":"臺北縣議會第11、12、13、14、15屆議員","remark":null,"image":"http://www.ntp.gov.tw/UpFile/CouncilorFile/TTCC1140.jpg","links":[{"url":"http://www.ntp.gov.tw/content/history/history01-5-p.aspx?sid=402","note":"議會個人官網"}],"social_media":null,"platform":"","param":null,"councilor":"abf0f69def204795bc65166458828009"},{"url":"http://councils.g0v.tw/api/councilors_terms/1116/","election_year":"1990","name":"何仰山","gender":"","party":"","title":"議員","constituency":5,"county":"新北市","district":"三重市、蘆洲鄉","in_office":true,"contact_details":null,"term_start":"1990-03-01","term_end":{"date":"1994-02-28"},"education":"修德國小\n明志國中\n中正高中\n國立臺灣海洋大學畢業\n國立臺灣大學政治研究所行政領導班研究","experience":"臺北縣議會第11、12、13、14、15屆議員","remark":null,"image":"http://www.ntp.gov.tw/UpFile/CouncilorFile/TTCC1140.jpg","links":[{"url":"http://www.ntp.gov.tw/content/history/history01-5-p.aspx?sid=402","note":"議會個人官網"}],"social_media":null,"platform":"","param":null,"councilor":"abf0f69def204795bc65166458828009"},{"url":"http://councils.g0v.tw/api/councilors_terms/1310/","election_year":"2002","name":"何仰山","gender":"","party":"","title":"議員","constituency":5,"county":"新北市","district":"三重市、蘆洲市","in_office":true,"contact_details":null,"term_start":"2002-03-01","term_end":{"date":"2006-02-28"},"education":"修德國小\n明志國中\n中正高中\n國立臺灣海洋大學畢業\n國立臺灣大學政治研究所行政領導班研究","experience":"臺北縣議會第11、12、13、14、15屆議員","remark":null,"image":"http://www.ntp.gov.tw/UpFile/CouncilorFile/TTCC1140.jpg","links":[{"url":"http://www.ntp.gov.tw/content/history/history01-5-p.aspx?sid=402","note":"議會個人官網"}],"social_media":null,"platform":"","param":null,"councilor":"abf0f69def204795bc65166458828009"},{"url":"http://councils.g0v.tw/api/councilors_terms/1174/","election_year":"1994","name":"何仰山","gender":"","party":"","title":"議員","constituency":5,"county":"新北市","district":"三重市、蘆洲鄉","in_office":true,"contact_details":null,"term_start":"1994-03-01","term_end":{"date":"1998-02-28"},"education":"修德國小\n明志國中\n中正高中\n國立臺灣海洋大學畢業\n國立臺灣大學政治研究所行政領導班研究","experience":"臺北縣議會第11、12、13、14、15屆議員","remark":null,"image":"http://www.ntp.gov.tw/UpFile/CouncilorFile/TTCC1140.jpg","links":[{"url":"http://www.ntp.gov.tw/content/history/history01-5-p.aspx?sid=402","note":"議會個人官網"}],"social_media":null,"platform":"","param":null,"councilor":"abf0f69def204795bc65166458828009"},{"url":"http://councils.g0v.tw/api/councilors_terms/1242/","election_year":"1998","name":"何仰山","gender":"","party":"","title":"議員","constituency":5,"county":"新北市","district":"三重市、蘆洲市","in_office":true,"contact_details":null,"term_start":"1998-03-01","term_end":{"date":"2002-02-28"},"education":"修德國小\n明志國中\n中正高中\n國立臺灣海洋大學畢業\n國立臺灣大學政治研究所行政領導班研究","experience":"臺北縣議會第11、12、13、14、15屆議員","remark":null,"image":"http://www.ntp.gov.tw/UpFile/CouncilorFile/TTCC1140.jpg","links":[{"url":"http://www.ntp.gov.tw/content/history/history01-5-p.aspx?sid=402","note":"議會個人官網"}],"social_media":null,"platform":"","param":null,"councilor":"abf0f69def204795bc65166458828009"}],"uid":"abf0f69def204795bc65166458828009","name":"何仰山","birth":null,"former_names":"","identifiers":["何仰山"]},{"url":"http://councils.g0v.tw/api/councilors/223/","each_terms":[{"url":"http://councils.g0v.tw/api/councilors_terms/407/","election_year":"1985","name":"劉樹錚","gender":"男","party":"中國國民黨","title":"議員","constituency":null,"county":"臺北市","district":"","in_office":true,"contact_details":null,"term_start":"1985-12-25","term_end":{"date":"1989-12-25"},"education":"臺灣省立復興中學高中畢業、軍法學校第一期法律系畢業、甲級軍法人員軍法官特考及格、政工幹校高級班八十一期結業。","experience":"國防部軍法官、軍事檢察官、中華民國律師公會全國聯合會常務理事、國立臺北商專講師、臺北市直轄市議會第四屆議員。","remark":"","image":"http://www.tcc.gov.tw/../upload/photo/%E5%8A%89%E6%A8%B9%E9%8C%9A13.jpg","links":[{"url":"http://www.tcc.gov.tw/Councilor_Content_All.aspx?s=1929&d=&n=%E5%8A%89%E6%A8%B9%E9%8C%9A","note":"議會個人官網"}],"social_media":null,"platform":"","param":null,"councilor":"351fd2c63b074adab878c8640b7173a1"},{"url":"http://councils.g0v.tw/api/councilors_terms/457/","election_year":"1981","name":"劉樹錚","gender":"男","party":"中國國民黨","title":"議員","constituency":null,"county":"臺北市","district":"","in_office":true,"contact_details":null,"term_start":"1981-12-25","term_end":{"date":"1985-12-25"},"education":"臺灣省立復興高中畢業、軍法學校第一期法律系畢業、甲級軍法人員特考及格、政治作戰學校高級班八十一期軍法組畢業。","experience":"陸軍部隊軍法官、軍事檢察官、臺北律師公會理事兼總幹事、常務理事、國際扶輪社臺北西南區扶輪社社長。","remark":"","image":"http://www.tcc.gov.tw/../upload/photo/%E5%8A%89%E6%A8%B9%E9%8C%9A12.jpg","links":[{"url":"http://www.tcc.gov.tw/Councilor_Content_All.aspx?s=1565&d=&n=%E5%8A%89%E6%A8%B9%E9%8C%9A","note":"議會個人官網"}],"social_media":null,"platform":"","param":null,"councilor":"351fd2c63b074adab878c8640b7173a1"}],"uid":"351fd2c63b074adab878c8640b7173a1","name":"劉樹錚","birth":null,"former_names":"","identifiers":["劉樹錚","劉樹錚"]},{"url":"http://councils.g0v.tw/api/councilors/1189/","each_terms":[{"url":"http://councils.g0v.tw/api/councilors_terms/2115/","election_year":"2009","name":"王淳長","gender":"","party":"","title":"議員","constituency":5,"county":"桃園縣","district":"大園鄉","in_office":true,"contact_details":[{"type":"email","value":"tycca028@tycc.gov.tw","label":"EMAIL"},{"type":"address","value":"大園鄉大海村1鄰8號","label":"服務處"},{"type":"voice","value":"381-5989","label":"電話"},{"type":"fax","value":"381-6989","label":"傳真"}],"term_start":"2009-12-25","term_end":{"date":"2014-12-25"},"education":"埔心國小第24屆畢業\n大園國中第二屆畢業\n大興工商第一屆畢業","experience":"大園鄉大海村第13、14屆村長\n大園鄉第15屆代表\n第15、16屆桃園縣縣議員","remark":null,"image":"http://www.tycc.gov.tw/file%5Cperson%5Capp%5Ca634641658189899358%E7%8E%8B%E6%B7%B3%E9%95%B7%E8%AD%B0%E5%93%A1.jpg","links":[{"url":"http://www.tycc.gov.tw/page.aspx?wtp=1&wnd=204&id=58","note":"議會個人官網"},{"url":"http://www.facebook.com/ling4387668#!/profile.php?id=100003127468354","note":"臉書"}],"social_media":null,"platform":"做一個敢說、敢做、敢擔當、肯說、肯做、肯服務選舉清白的專職縣議員、\n以大園心、鄉土情、犠牲奉獻、無怨無尤、用心關懷、\n永恆服務的精神來爭取更多的經費以解決鄉民的需求，\n更以一顆關懷的心永遠心甘情願為民謀取更多的福利、關懷老人、\n弱勢團體、讓我們有所依靠更全心全意為民解決任何困難。","param":null,"councilor":"ff1a8002f93c4eb8889be3c13994aa6b"}],"uid":"ff1a8002f93c4eb8889be3c13994aa6b","name":"王淳長","birth":null,"former_names":"","identifiers":["王淳長"]},{"url":"http://councils.g0v.tw/api/councilors/167/","each_terms":[{"url":"http://councils.g0v.tw/api/councilors_terms/268/","election_year":"1998","name":"陳雪芬","gender":"女","party":"中國國民黨","title":"議員","constituency":null,"county":"臺北市","district":"","in_office":true,"contact_details":null,"term_start":"1998-12-25","term_end":{"date":"2002-12-25"},"education":"北一女中、中興大學法律系學士、中興大學法律研究所碩士。","experience":"70年司法官、律師高考雙榜及格，臺北平民法律服務中心主任律師，臺北市直轄市第六、七屆議員，台視「媽媽的教室」、博新一臺「家庭法律廣場」、臺北TV「你來做頭家」、「市民大道」等節目主持人。","remark":"","image":"http://www.tcc.gov.tw/../upload/photo/%E9%99%B3%E9%9B%AA%E8%8A%AC16.jpg","links":[{"url":"http://www.tcc.gov.tw/Councilor_Content_All.aspx?s=2003&d=570907&n=%E9%99%B3%E9%9B%AA%E8%8A%AC","note":"議會個人官網"}],"social_media":null,"platform":"","param":null,"councilor":"f0632ae8a7054eb290b051dbcc01c515"},{"url":"http://councils.g0v.tw/api/councilors_terms/317/","election_year":"1994","name":"陳雪芬","gender":"女","party":"中國國民黨","title":"議員","constituency":null,"county":"臺北市","district":"","in_office":true,"contact_details":null,"term_start":"1994-12-25","term_end":{"date":"1998-12-25"},"education":"北一女中、中興大學法律系學士、中興大學法律研究所碩士。","experience":"七十年律師高考及格。司法官特考及格。前臺北平民法律服務中心主任。陳雪芬律師事務所負責人。臺北市直轄市議會第六屆議員。","remark":"","image":"http://www.tcc.gov.tw/../upload/photo/%E9%99%B3%E9%9B%AA%E8%8A%AC15.jpg","links":[{"url":"http://www.tcc.gov.tw/Councilor_Content_All.aspx?s=1716&d=570907&n=%E9%99%B3%E9%9B%AA%E8%8A%AC","note":"議會個人官網"}],"social_media":null,"platform":"","param":null,"councilor":"f0632ae8a7054eb290b051dbcc01c515"},{"url":"http://councils.g0v.tw/api/councilors_terms/366/","election_year":"1989","name":"陳雪芬","gender":"女","party":"中國國民黨","title":"議員","constituency":null,"county":"臺北市","district":"","in_office":true,"contact_details":null,"term_start":"1989-12-25","term_end":{"date":"1994-12-25"},"education":"北一女中、中興大學法律系第一名畢業、中興大學法律研究所第一名畢業。","experience":"臺北平民法律服務中心主任律師，催討被佔用市有房舍案律師、臺北市婦女會法律顧問、臺北市立陽明教養院家長聯誼法律顧問。","remark":"","image":"http://www.tcc.gov.tw/../upload/photo/%E9%99%B3%E9%9B%AA%E8%8A%AC14.jpg","links":[{"url":"http://www.tcc.gov.tw/Councilor_Content_All.aspx?s=1617&d=570907&n=%E9%99%B3%E9%9B%AA%E8%8A%AC","note":"議會個人官網"}],"social_media":null,"platform":"","param":null,"councilor":"f0632ae8a7054eb290b051dbcc01c515"}],"uid":"f0632ae8a7054eb290b051dbcc01c515","name":"陳雪芬","birth":"1957-09-07","former_names":"","identifiers":["陳雪芬"]},{"url":"http://councils.g0v.tw/api/councilors/169/","each_terms":[{"url":"http://councils.g0v.tw/api/councilors_terms/271/","election_year":"1998","name":"陳秀惠","gender":"女","party":"民主進步黨","title":"議員","constituency":null,"county":"臺北市","district":"","in_office":true,"contact_details":null,"term_start":"1998-12-25","term_end":{"date":"2002-12-25"},"education":"彰化女中、師範大學畢業。","experience":"主婦聯盟創會董事長。反核運動參與十餘年。第二、三屆民進黨不分區國大代表。民進黨婦女部首任執行長。社區婦女協會創會理事長、承辦南港婦女服務中心。臺北市婦權會委員。首創「愛心商店」推動社區治安會議。十八年從事社會公益事業的義工。","remark":"","image":"http://www.tcc.gov.tw/../upload/photo/%E9%99%B3%E7%A7%80%E6%83%A016.jpg","links":[{"url":"http://www.tcc.gov.tw/Councilor_Content_All.aspx?s=1580&d=511215&n=%E9%99%B3%E7%A7%80%E6%83%A0","note":"議會個人官網"}],"social_media":null,"platform":"","param":null,"councilor":"1198d8abecf64313a2cf607c9f62ac1a"}],"uid":"1198d8abecf64313a2cf607c9f62ac1a","name":"陳秀惠","birth":"1951-12-15","former_names":"","identifiers":["陳秀惠"]}]}