{"count":1904,"next":"http://councils.g0v.tw/api/councilors/?page=25","previous":"http://councils.g0v.tw/api/councilors/?page=23","results":[{"url":"http://councils.g0v.tw/api/councilors/127/","each_terms":[{"url":"http://councils.g0v.tw/api/councilors_terms/187/","election_year":"2006","name":"吳思瑤","gender":"女","party":"民主進步黨","title":"議員","constituency":null,"county":"臺北市","district":"","in_office":true,"contact_details":null,"term_start":"2006-12-25","term_end":{"date":"2010-12-25"},"education":"輔仁大學西班牙語文學系、日本語文學系雙學位畢業。","experience":"◎民進黨最年輕的中評委、行政院最年輕的機要參議、立法院最年輕的國會辦公室主任。","remark":"","image":"http://www.tcc.gov.tw/../upload/photo/%E5%90%B3%E6%80%9D%E7%91%A4.JPG","links":[{"url":"http://www.tcc.gov.tw/Councilor_Content_All.aspx?s=2272&d=740528&n=%E5%90%B3%E6%80%9D%E7%91%A4","note":"議會個人官網"}],"social_media":null,"platform":"","param":null,"councilor":"fe27d30fe95b44a6abd23bac43b5fdd6"},{"url":"http://councils.g0v.tw/api/councilors_terms/131/","election_year":"2010","name":"吳思瑤","gender":"女","party":"民主進步黨","title":"議員","constituency":1,"county":"臺北市","district":"北投區、士林區","in_office":true,"contact_details":[{"type":"email","value":"tcc9503@tcc.gov.tw","label":"電子信箱"},{"type":"voice","value":"28205800(服務處)27297708#5004(議會)","label":"電話"},{"type":"fax","value":"28203500(服務處)","label":"傳真"},{"type":"address","value":"台北市北投區承德路7段196號(實踐街口)","label":"通訊處"}],"term_start":"2010-12-25","term_end":{"date":"2014-12-25"},"education":"輔仁大學西班牙語文學系、日本語文學系雙學位畢業。","experience":"台灣大學政治研究所EMPA、2010美國國務院InternationalVisitorLeadershipProgram台灣政治人物代表、台北市議員、民進黨中執委、民進黨中評委、行政院游錫堃院長辦公室機要參議、行政院劉世芳秘書長辦公室機要參議、立委李文忠國會辦公室主任、立委蕭美琴服務團隊總幹事、台北優質生活文化協進會理事長","remark":"","image":"http://www.tcc.gov.tw/../upload/photo/%E5%90%B3%E6%80%9D%E7%91%A4.jpg","links":[{"url":"http://www.tcc.gov.tw/Councilor_Content.aspx?s=1033","note":"議會個人官網"},{"url":"http://tcc9503.tcc.gov.tw","note":"個人網站"}],"social_media":null,"platform":"●永續綠能的台北\n○建構生態城市：廣設公園綠地，公共建設皆採綠建築，由低碳城市朝低能源城市邁進。\n○打造綠色交通：完善大眾交通運具並鼓勵使用，以多元方案取代單一汽車道路網，減少私人運具使用。\n○開放河岸空間：增加都市保水性，終結防堵式河川工程，加速河川整治，打造親水環境。\n●公平正義的台北\n○增進就業機會：強化中、高齡失業者就業輔導，增加就業媒合。吸引投資，打造優質產業環境。\n○推動平價住宅：針對青年、受薪階級及弱勢族群，廣設平價住宅，提供購屋擔保。\n○均衡教育資源：正視少子化議題，務實檢討小校存廢，建立特色學校，合理配置教育資源。\n○擴大公民參與：重大議題及公共政策應擴大公民參與，深化民主品質，落實公民社會。\n●安全健康的台北\n○保障婦幼安全：強化家暴防治及通報系統，落實受害者輔導及加害者處遇計畫，專案追蹤受暴家庭。\n○建立安全校園：設置專線，供不當管教、霸凌事件受害者申訴之用，建全通報及調查系統，杜絕校方不當隱匿之情事。\n○完善老人照顧：正視高齡化社會危機，推廣社區型照顧服務機構，增設老人關懷據點，增加長者社會參與。\n●文化藝術的台北\n○推廣特色商圈：強化政策輔導，扶助地區特色產業，經濟發展與文化深耕並重。\n○型塑區域文化：保存特色文化資產，發展台北文化軟實力，以在地化迎接全球化之挑戰。\n○推動城市美學：鼓勵美學建築，廣設公共藝術，廣辦藝文活動，激發市民文化美學內涵。\n●國際競爭的台北\n○發展觀光大城：打造旅遊友善城市，發展精緻深度旅遊，促進國際觀光。\n○推動城市外交：打破外交困境，強化國際交流，增進台北國際能見度。","param":{"bills_role_statistics":{"total":84,"priproposer":0,"sponsor":84,"cosponsor":0},"votes_decision_statistics":{"abstain":2,"disagree":9,"not_voting":4,"total":60,"agree":45,"conflict":2},"diversity":{"臺灣團結聯盟":0.027049807056585894,"親民黨":0.023613927632928626,"無黨籍":0.01674406730689197,"中國國民黨":0.23561257931221125,"新黨":0.0179214322740786,"民主進步黨":0.6790581864173038},"suggestions_years":{"count":34,"sum":32412000,"years":[{"count":6,"sum":4777000,"suggest_year":"2011","small_purchase":0},{"count":5,"sum":2200000,"suggest_year":"2012","small_purchase":0},{"count":9,"sum":6553000,"suggest_year":"2013","small_purchase":2},{"count":14,"sum":18882000,"suggest_year":"2014","small_purchase":3}]},"attendance_statistics":{"absent":0,"total":131},"suggestions_associations":[{"count":0,"sum":0,"label":"社區發展協會"},{"count":0,"sum":0,"label":"學會"},{"count":0,"sum":0,"label":"商會"},{"count":0,"sum":0,"label":"公會"},{"count":0,"sum":0,"label":"協進會"},{"count":0,"sum":0,"label":"促進會"},{"count":0,"sum":0,"label":"研習會"},{"count":0,"sum":0,"label":"婦聯會"},{"count":0,"sum":0,"label":"婦女會"},{"count":0,"sum":0,"label":"體育會"},{"count":0,"sum":0,"label":"同心會"},{"count":0,"sum":0,"label":"農會"},{"count":0,"sum":0,"label":"早起會"},{"count":0,"sum":0,"label":"健身會"},{"count":0,"sum":0,"label":"宗親會"},{"count":0,"sum":0,"label":"功德會"},{"count":0,"sum":0,"label":"商業會"},{"count":0,"sum":0,"label":"長青會"},{"count":0,"sum":0,"label":"民眾服務社"},{"count":0,"sum":0,"label":"聯盟"}],"bills_party_diversity":[{"party":"民主進步黨","ratio":0.6044007490636704},{"party":"中國國民黨","ratio":0.3057116104868914},{"party":"親民黨","ratio":0.025280898876404494},{"party":"臺灣團結聯盟","ratio":0.023408239700374533},{"party":"無黨籍","ratio":0.020599250936329586},{"party":"新黨","ratio":0.020599250936329586}],"suggestions_piles":[{"count":1,"tokens":"國中|國小","sum":1109000,"label":"國中、國小"},{"count":0,"tokens":"協會|學會|商會|公會|協進會|促進會|研習會|婦聯會|婦女會|體育會|同心會|農會|早起會|健身會|宗親會|功德會|商業會|長青會|民眾服務社|聯盟","sum":0,"label":"協會"},{"count":0,"tokens":"辦公室|辦公處","sum":0,"label":"辦公室"},{"count":0,"tokens":"廟|宮","sum":0,"label":"廟"},{"count":0,"tokens":"警察局|分局","sum":0,"label":"警察局"},{"count":0,"tokens":"消防局|消防隊|分隊|中隊","sum":0,"label":"消防局"}]},"councilor":"fe27d30fe95b44a6abd23bac43b5fdd6"},{"url":"http://councils.g0v.tw/api/councilors_terms/11949/","election_year":"2014","name":"吳思瑤","gender":"女","party":"民主進步黨","title":null,"constituency":1,"county":"臺北市","district":"北投區、士林區","in_office":false,"contact_details":null,"term_start":"2014-12-25","term_end":{"date":"2016-01-31","judicial_links":"","reason":"請辭，就任立委","ref":"","replacement":""},"education":null,"experience":null,"remark":null,"image":"","links":null,"social_media":null,"platform":"","param":{"suggestions_years":{"count":18,"sum":13339000,"years":[{"count":14,"sum":11019000,"suggest_year":"2015","small_purchase":2},{"count":4,"sum":2320000,"suggest_year":"2016","small_purchase":0}]},"votes_decision_statistics":{"abstain":0,"disagree":2,"not_voting":1,"total":11,"agree":8,"conflict":0},"bills_role_statistics":{"total":19,"priproposer":2,"sponsor":19,"cosponsor":0},"attendance_statistics":{"absent":5,"total":37},"suggestions_associations":[{"count":0,"sum":0,"label":"社區發展協會"},{"count":0,"sum":0,"label":"學會"},{"count":0,"sum":0,"label":"商會"},{"count":0,"sum":0,"label":"公會"},{"count":0,"sum":0,"label":"協進會"},{"count":0,"sum":0,"label":"促進會"},{"count":0,"sum":0,"label":"研習會"},{"count":0,"sum":0,"label":"婦聯會"},{"count":0,"sum":0,"label":"婦女會"},{"count":0,"sum":0,"label":"體育會"},{"count":0,"sum":0,"label":"同心會"},{"count":0,"sum":0,"label":"農會"},{"count":0,"sum":0,"label":"早起會"},{"count":0,"sum":0,"label":"健身會"},{"count":0,"sum":0,"label":"宗親會"},{"count":0,"sum":0,"label":"功德會"},{"count":0,"sum":0,"label":"商業會"},{"count":0,"sum":0,"label":"長青會"},{"count":0,"sum":0,"label":"民眾服務社"},{"count":0,"sum":0,"label":"聯盟"}],"bills_party_diversity":[{"party":"民主進步黨","ratio":0.5577981651376147},{"party":"中國國民黨","ratio":0.326605504587156},{"party":"無黨籍","ratio":0.04954128440366973},{"party":"親民黨","ratio":0.022018348623853212},{"party":"新黨","ratio":0.01651376146788991},{"party":"民國黨","ratio":0.014678899082568808},{"party":"臺灣團結聯盟","ratio":0.012844036697247707}],"suggestions_piles":[{"count":1,"tokens":"國中|國小","sum":1983000,"label":"國中、國小"},{"count":0,"tokens":"協會|學會|商會|公會|協進會|促進會|研習會|婦聯會|婦女會|體育會|同心會|農會|早起會|健身會|宗親會|功德會|商業會|長青會|民眾服務社|聯盟","sum":0,"label":"協會"},{"count":0,"tokens":"辦公室|辦公處","sum":0,"label":"辦公室"},{"count":0,"tokens":"廟|宮","sum":0,"label":"廟"},{"count":0,"tokens":"警察局|分局","sum":0,"label":"警察局"},{"count":0,"tokens":"消防局|消防隊|分隊|中隊","sum":0,"label":"消防局"}]},"councilor":"fe27d30fe95b44a6abd23bac43b5fdd6"}],"uid":"fe27d30fe95b44a6abd23bac43b5fdd6","name":"吳思瑤","birth":"1974-05-28","former_names":"","identifiers":["吳思瑤"]},{"url":"http://councils.g0v.tw/api/councilors/913/","each_terms":[{"url":"http://councils.g0v.tw/api/councilors_terms/1624/","election_year":"1955","name":"吳阿明","gender":"","party":"","title":"議員","constituency":5,"county":"新北市","district":"汐止鎮、南港鎮、內湖鄉","in_office":true,"contact_details":null,"term_start":"1955-01-16","term_end":{"date":"1958-02-20"},"education":"基隆商業學校","experience":"臺灣省第3屆總工會理事長\n內湖鄉首屆鄉民代表\n臺北縣議會第3、4、5、6屆議員\n臺北市臨時市議員","remark":null,"image":"http://www.ntp.gov.tw/UpFile/CouncilorFile/TTCC0337.jpg","links":[{"url":"http://www.ntp.gov.tw/content/history/history01-5-p.aspx?sid=170","note":"議會個人官網"}],"social_media":null,"platform":"","param":null,"councilor":"c9d047ca975c4c5498b5f9bcf893a503"},{"url":"http://councils.g0v.tw/api/councilors_terms/1830/","election_year":"1964","name":"吳阿明","gender":"","party":"","title":"議員","constituency":6,"county":"新北市","district":"內湖鄉、南港鎮、汐止鎮、萬里鄉、金山鄉","in_office":true,"contact_details":null,"term_start":"1964-02-21","term_end":{"date":"1968-02-20"},"education":"基隆商業學校","experience":"臺灣省第3屆總工會理事長\n內湖鄉首屆鄉民代表\n臺北縣議會第3、4、5、6屆議員\n臺北市臨時市議員","remark":null,"image":"http://www.ntp.gov.tw/UpFile/CouncilorFile/TTCC0337.jpg","links":[{"url":"http://www.ntp.gov.tw/content/history/history01-5-p.aspx?sid=170","note":"議會個人官網"}],"social_media":null,"platform":"","param":null,"councilor":"c9d047ca975c4c5498b5f9bcf893a503"},{"url":"http://councils.g0v.tw/api/councilors_terms/1697/","election_year":"1958","name":"吳阿明","gender":"","party":"","title":"議員","constituency":5,"county":"新北市","district":"汐止鎮、南港鎮、內湖鄉","in_office":true,"contact_details":null,"term_start":"1958-02-21","term_end":{"date":"1961-02-20"},"education":"基隆商業學校","experience":"臺灣省第3屆總工會理事長\n內湖鄉首屆鄉民代表\n臺北縣議會第3、4、5、6屆議員\n臺北市臨時市議員","remark":null,"image":"http://www.ntp.gov.tw/UpFile/CouncilorFile/TTCC0337.jpg","links":[{"url":"http://www.ntp.gov.tw/content/history/history01-5-p.aspx?sid=170","note":"議會個人官網"}],"social_media":null,"platform":"","param":null,"councilor":"c9d047ca975c4c5498b5f9bcf893a503"},{"url":"http://councils.g0v.tw/api/councilors_terms/1769/","election_year":"1961","name":"吳阿明","gender":"","party":"","title":"議員","constituency":5,"county":"新北市","district":"汐止鎮、南港鎮、內湖鄉","in_office":true,"contact_details":null,"term_start":"1961-02-21","term_end":{"date":"1964-02-20"},"education":"基隆商業學校","experience":"臺灣省第3屆總工會理事長\n內湖鄉首屆鄉民代表\n臺北縣議會第3、4、5、6屆議員\n臺北市臨時市議員","remark":null,"image":"http://www.ntp.gov.tw/UpFile/CouncilorFile/TTCC0337.jpg","links":[{"url":"http://www.ntp.gov.tw/content/history/history01-5-p.aspx?sid=170","note":"議會個人官網"}],"social_media":null,"platform":"","param":null,"councilor":"c9d047ca975c4c5498b5f9bcf893a503"}],"uid":"c9d047ca975c4c5498b5f9bcf893a503","name":"吳阿明","birth":null,"former_names":"","identifiers":["吳阿明"]},{"url":"http://councils.g0v.tw/api/councilors/441/","each_terms":[{"url":"http://councils.g0v.tw/api/councilors_terms/784/","election_year":"1990","name":"張娛樂","gender":"","party":"","title":"議員","constituency":12,"county":"新北市","district":"居住烏來鄉及平地鄉鎮市之山地山胞","in_office":true,"contact_details":null,"term_start":"1990-03-01","term_end":{"date":"1994-02-28"},"education":"烏來國小\n宜蘭中學初級部\n臺東師範學校普師科\n臺北師專國師科(夜間部)\n軍管區後幹班115期結業","experience":"臺北縣議會第11、12屆議員\n新店國小教師兼代訓導主任\n烏來國小教師兼代教務主任\n救國團烏來鄉團委會總幹事\n中國國民黨臺北縣黨部訓練委員\n中國國民黨烏來區黨部考紀會常委\n烏來山胞學區民眾生活輔導員\n烏來鄉兵役協會常務理事\n烏來鄉調解委員會委員\n救國團烏來鄉團委會常務委員\n烏來鄉後備軍人輔導中心輔導員\n臺灣省山胞文經協進會監事","remark":null,"image":"http://www.ntp.gov.tw/UpFile/CouncilorFile/TTCC1165.jpg","links":[{"url":"http://www.ntp.gov.tw/content/history/history01-5-p.aspx?sid=414","note":"議會個人官網"}],"social_media":null,"platform":"","param":null,"councilor":"86aa96807c4b432d96b6c6ed95c546db"},{"url":"http://councils.g0v.tw/api/councilors_terms/786/","election_year":"1986","name":"張娛樂","gender":"","party":"","title":"議員","constituency":11,"county":"新北市","district":"居住烏來鄉及平地鄉鎮市之山地山胞","in_office":true,"contact_details":null,"term_start":"1986-03-01","term_end":{"date":"1990-02-28"},"education":"烏來國小\n宜蘭中學初級部\n臺東師範學校普師科\n臺北師專國師科(夜間部)\n軍管區後幹班115期結業","experience":"臺北縣議會第11、12屆議員\n新店國小教師兼代訓導主任\n烏來國小教師兼代教務主任\n救國團烏來鄉團委會總幹事\n中國國民黨臺北縣黨部訓練委員\n中國國民黨烏來區黨部考紀會常委\n烏來山胞學區民眾生活輔導員\n烏來鄉兵役協會常務理事\n烏來鄉調解委員會委員\n救國團烏來鄉團委會常務委員\n烏來鄉後備軍人輔導中心輔導員\n臺灣省山胞文經協進會監事","remark":null,"image":"http://www.ntp.gov.tw/UpFile/CouncilorFile/TTCC1165.jpg","links":[{"url":"http://www.ntp.gov.tw/content/history/history01-5-p.aspx?sid=414","note":"議會個人官網"}],"social_media":null,"platform":"","param":null,"councilor":"86aa96807c4b432d96b6c6ed95c546db"}],"uid":"86aa96807c4b432d96b6c6ed95c546db","name":"張娛樂","birth":null,"former_names":"","identifiers":["張娛樂"]},{"url":"http://councils.g0v.tw/api/councilors/442/","each_terms":[{"url":"http://councils.g0v.tw/api/councilors_terms/785/","election_year":"1982","name":"徐秀廷","gender":"","party":"","title":"議員","constituency":1,"county":"新北市","district":"板橋市、土城鄉","in_office":true,"contact_details":null,"term_start":"1982-03-01","term_end":{"date":"1986-02-28"},"education":"江翠國小畢\n三峽初中畢\n致理商業專科學校畢業","experience":"板橋信用合作社監事主席\n板橋信用合作社理事長\n新裕興針織廠經理\n海山證券公司常務董事\n東桂機構關係企業董事長\n板橋市農會會員代表\n板橋北天宮名譽會長\n臺北縣議會第10、11、12、13、14屆議員","remark":null,"image":"http://www.ntp.gov.tw/UpFile/CouncilorFile/TTCC1001.jpg","links":[{"url":"http://www.ntp.gov.tw/content/history/history01-5-p.aspx?sid=350","note":"議會個人官網"}],"social_media":null,"platform":"","param":null,"councilor":"9b846261714b4cccbf232e05fa6472a4"},{"url":"http://councils.g0v.tw/api/councilors_terms/1025/","election_year":"1986","name":"徐秀廷","gender":"","party":"","title":"議員","constituency":1,"county":"新北市","district":"板橋市、土城鄉","in_office":true,"contact_details":null,"term_start":"1986-03-01","term_end":{"date":"1990-02-28"},"education":"江翠國小畢\n三峽初中畢\n致理商業專科學校畢業","experience":"板橋信用合作社監事主席\n板橋信用合作社理事長\n新裕興針織廠經理\n海山證券公司常務董事\n東桂機構關係企業董事長\n板橋市農會會員代表\n板橋北天宮名譽會長\n臺北縣議會第10、11、12、13、14屆議員","remark":null,"image":"http://www.ntp.gov.tw/UpFile/CouncilorFile/TTCC1001.jpg","links":[{"url":"http://www.ntp.gov.tw/content/history/history01-5-p.aspx?sid=350","note":"議會個人官網"}],"social_media":null,"platform":"","param":null,"councilor":"9b846261714b4cccbf232e05fa6472a4"},{"url":"http://councils.g0v.tw/api/councilors_terms/1149/","election_year":"1990","name":"徐秀廷","gender":"","party":"","title":"議員","constituency":1,"county":"新北市","district":"板橋市","in_office":true,"contact_details":null,"term_start":"1990-03-01","term_end":{"date":"1994-02-28"},"education":"江翠國小畢\n三峽初中畢\n致理商業專科學校畢業","experience":"板橋信用合作社監事主席\n板橋信用合作社理事長\n新裕興針織廠經理\n海山證券公司常務董事\n東桂機構關係企業董事長\n板橋市農會會員代表\n板橋北天宮名譽會長\n臺北縣議會第10、11、12、13、14屆議員","remark":null,"image":"http://www.ntp.gov.tw/UpFile/CouncilorFile/TTCC1001.jpg","links":[{"url":"http://www.ntp.gov.tw/content/history/history01-5-p.aspx?sid=350","note":"議會個人官網"}],"social_media":null,"platform":"","param":null,"councilor":"9b846261714b4cccbf232e05fa6472a4"},{"url":"http://councils.g0v.tw/api/councilors_terms/1213/","election_year":"1994","name":"徐秀廷","gender":"","party":"","title":"議員","constituency":1,"county":"新北市","district":"板橋市","in_office":true,"contact_details":null,"term_start":"1994-03-01","term_end":{"date":"1998-02-28"},"education":"江翠國小畢\n三峽初中畢\n致理商業專科學校畢業","experience":"板橋信用合作社監事主席\n板橋信用合作社理事長\n新裕興針織廠經理\n海山證券公司常務董事\n東桂機構關係企業董事長\n板橋市農會會員代表\n板橋北天宮名譽會長\n臺北縣議會第10、11、12、13、14屆議員","remark":null,"image":"http://www.ntp.gov.tw/UpFile/CouncilorFile/TTCC1001.jpg","links":[{"url":"http://www.ntp.gov.tw/content/history/history01-5-p.aspx?sid=350","note":"議會個人官網"}],"social_media":null,"platform":"","param":null,"councilor":"9b846261714b4cccbf232e05fa6472a4"},{"url":"http://councils.g0v.tw/api/councilors_terms/1277/","election_year":"1998","name":"徐秀廷","gender":"","party":"","title":"議員","constituency":1,"county":"新北市","district":"板橋市","in_office":true,"contact_details":null,"term_start":"1998-03-01","term_end":{"date":"2002-02-28"},"education":"江翠國小畢\n三峽初中畢\n致理商業專科學校畢業","experience":"板橋信用合作社監事主席\n板橋信用合作社理事長\n新裕興針織廠經理\n海山證券公司常務董事\n東桂機構關係企業董事長\n板橋市農會會員代表\n板橋北天宮名譽會長\n臺北縣議會第10、11、12、13、14屆議員","remark":null,"image":"http://www.ntp.gov.tw/UpFile/CouncilorFile/TTCC1001.jpg","links":[{"url":"http://www.ntp.gov.tw/content/history/history01-5-p.aspx?sid=350","note":"議會個人官網"}],"social_media":null,"platform":"","param":null,"councilor":"9b846261714b4cccbf232e05fa6472a4"}],"uid":"9b846261714b4cccbf232e05fa6472a4","name":"徐秀廷","birth":null,"former_names":"","identifiers":["徐秀廷"]},{"url":"http://councils.g0v.tw/api/councilors/445/","each_terms":[{"url":"http://councils.g0v.tw/api/councilors_terms/791/","election_year":"1973","name":"陳卓","gender":"","party":"","title":"議員","constituency":8,"county":"新北市","district":"新店鎮、深坑鄉、石碇鄉、坪林鄉、烏來鄉山地鄉","in_office":true,"contact_details":null,"term_start":"1973-05-01","term_end":{"date":"1977-12-29"},"education":"上海復旦大學實驗高中部畢\n浙江省軍管區幹部教導總隊軍訓大隊結業\n浙江省三民主義青年團省幹訓班第１期結業\n革命實踐研究婦訓班第七期結業","experience":"聯勤總部中尉幹事\n國防部組訓官\n臺北縣議會第6、7、8屆議員\n民國95年2月23日歿","remark":null,"image":"http://www.ntp.gov.tw/UpFile/CouncilorFile/TTCC0658.jpg","links":[{"url":"http://www.ntp.gov.tw/content/history/history01-5-p.aspx?sid=276","note":"議會個人官網"}],"social_media":null,"platform":"","param":null,"councilor":"3caa2ea35aa040f489283c9b37e6b003"},{"url":"http://councils.g0v.tw/api/councilors_terms/845/","election_year":"1968","name":"陳卓","gender":"","party":"","title":"議員","constituency":8,"county":"新北市","district":"新店鎮、深坑鄉、石碇鄉、坪林鄉、烏來鄉山地鄉","in_office":true,"contact_details":null,"term_start":"1968-02-21","term_end":{"date":"1973-04-30"},"education":"上海復旦大學實驗高中部畢\n浙江省軍管區幹部教導總隊軍訓大隊結業\n浙江省三民主義青年團省幹訓班第１期結業\n革命實踐研究婦訓班第七期結業","experience":"聯勤總部中尉幹事\n國防部組訓官\n臺北縣議會第6、7、8屆議員\n民國95年2月23日歿","remark":null,"image":"http://www.ntp.gov.tw/UpFile/CouncilorFile/TTCC0658.jpg","links":[{"url":"http://www.ntp.gov.tw/content/history/history01-5-p.aspx?sid=276","note":"議會個人官網"}],"social_media":null,"platform":"","param":null,"councilor":"3caa2ea35aa040f489283c9b37e6b003"},{"url":"http://councils.g0v.tw/api/councilors_terms/1807/","election_year":"1964","name":"陳卓","gender":"","party":"","title":"議員","constituency":9,"county":"新北市","district":"新店鎮、景美鎮、木柵鄉、深坑鄉、石碇鄉、坪林鄉、烏來鄉山地鄉","in_office":true,"contact_details":null,"term_start":"1964-02-21","term_end":{"date":"1968-02-20"},"education":"上海復旦大學實驗高中部畢\n浙江省軍管區幹部教導總隊軍訓大隊結業\n浙江省三民主義青年團省幹訓班第１期結業\n革命實踐研究婦訓班第七期結業","experience":"聯勤總部中尉幹事\n國防部組訓官\n臺北縣議會第6、7、8屆議員\n民國95年2月23日歿","remark":null,"image":"http://www.ntp.gov.tw/UpFile/CouncilorFile/TTCC0658.jpg","links":[{"url":"http://www.ntp.gov.tw/content/history/history01-5-p.aspx?sid=276","note":"議會個人官網"}],"social_media":null,"platform":"","param":null,"councilor":"3caa2ea35aa040f489283c9b37e6b003"}],"uid":"3caa2ea35aa040f489283c9b37e6b003","name":"陳卓","birth":null,"former_names":"","identifiers":["陳卓"]},{"url":"http://councils.g0v.tw/api/councilors/469/","each_terms":[{"url":"http://councils.g0v.tw/api/councilors_terms/815/","election_year":"1973","name":"陳瓊霖","gender":"","party":"","title":"議員","constituency":4,"county":"新北市","district":"三重市","in_office":true,"contact_details":null,"term_start":"1973-05-01","term_end":{"date":"1977-12-29"},"education":"臺北商專","experience":"三重市第2屆市民代表會主席\n第3屆市民代表\n三重客運公司常務監察人\n三重體育協會理事長\n北縣義警大隊督導\n三重市調解委員會主任委員\n臺北縣議會第8屆議員","remark":null,"image":"http://www.ntp.gov.tw/UpFile/CouncilorFile/TTCC0832.jpg","links":[{"url":"http://www.ntp.gov.tw/content/history/history01-5-p.aspx?sid=312","note":"議會個人官網"}],"social_media":null,"platform":"","param":null,"councilor":"b2bed9639c514ad9a1a6d8033681151b"}],"uid":"b2bed9639c514ad9a1a6d8033681151b","name":"陳瓊霖","birth":null,"former_names":"","identifiers":["陳瓊霖"]},{"url":"http://councils.g0v.tw/api/councilors/470/","each_terms":[{"url":"http://councils.g0v.tw/api/councilors_terms/816/","election_year":"1973","name":"翁永裕","gender":"","party":"","title":"議員","constituency":3,"county":"新北市","district":"新莊鎮、泰山鄉、五股鄉、蘆洲鄉、林口鄉","in_office":true,"contact_details":null,"term_start":"1973-05-01","term_end":{"date":"1977-12-29"},"education":"國校高等科畢業\n革命實踐研究院2期結業","experience":"農會代表\n北縣雜糧同業公會理事\n鎮民代表\n翁裕美製飴廠負責人\n新莊地藏庵管理委員\n臺北縣議會第4、6、7、8屆議員\n*民國78年歿","remark":null,"image":"http://www.ntp.gov.tw/UpFile/CouncilorFile/TTCC0432.jpg","links":[{"url":"http://www.ntp.gov.tw/content/history/history01-5-p.aspx?sid=203","note":"議會個人官網"}],"social_media":null,"platform":"","param":null,"councilor":"c176b9bf176f4e21bf3755829280c9a5"},{"url":"http://councils.g0v.tw/api/councilors_terms/878/","election_year":"1968","name":"翁永裕","gender":"","party":"","title":"議員","constituency":3,"county":"新北市","district":"新莊鎮、蘆洲鄉、五股鄉、泰山鄉、林口鄉","in_office":true,"contact_details":null,"term_start":"1968-02-21","term_end":{"date":"1973-04-30"},"education":"國校高等科畢業\n革命實踐研究院2期結業","experience":"農會代表\n北縣雜糧同業公會理事\n鎮民代表\n翁裕美製飴廠負責人\n新莊地藏庵管理委員\n臺北縣議會第4、6、7、8屆議員\n*民國78年歿","remark":null,"image":"http://www.ntp.gov.tw/UpFile/CouncilorFile/TTCC0432.jpg","links":[{"url":"http://www.ntp.gov.tw/content/history/history01-5-p.aspx?sid=203","note":"議會個人官網"}],"social_media":null,"platform":"","param":null,"councilor":"c176b9bf176f4e21bf3755829280c9a5"},{"url":"http://councils.g0v.tw/api/councilors_terms/1708/","election_year":"1958","name":"翁永裕","gender":"","party":"","title":"議員","constituency":3,"county":"新北市","district":"新莊鎮、泰山鄉、三重鎮、五股鄉、林口鄉、蘆洲鄉","in_office":true,"contact_details":null,"term_start":"1958-02-21","term_end":{"date":"1961-02-20"},"education":"國校高等科畢業\n革命實踐研究院2期結業","experience":"農會代表\n北縣雜糧同業公會理事\n鎮民代表\n翁裕美製飴廠負責人\n新莊地藏庵管理委員\n臺北縣議會第4、6、7、8屆議員\n*民國78年歿","remark":null,"image":"http://www.ntp.gov.tw/UpFile/CouncilorFile/TTCC0432.jpg","links":[{"url":"http://www.ntp.gov.tw/content/history/history01-5-p.aspx?sid=203","note":"議會個人官網"}],"social_media":null,"platform":"","param":null,"councilor":"c176b9bf176f4e21bf3755829280c9a5"},{"url":"http://councils.g0v.tw/api/councilors_terms/1846/","election_year":"1964","name":"翁永裕","gender":"","party":"","title":"議員","constituency":3,"county":"新北市","district":"新莊鎮、蘆洲鄉、五股鄉、泰山鄉、林口鄉","in_office":true,"contact_details":null,"term_start":"1964-02-21","term_end":{"date":"1968-02-20"},"education":"國校高等科畢業\n革命實踐研究院2期結業","experience":"農會代表\n北縣雜糧同業公會理事\n鎮民代表\n翁裕美製飴廠負責人\n新莊地藏庵管理委員\n臺北縣議會第4、6、7、8屆議員\n*民國78年歿","remark":null,"image":"http://www.ntp.gov.tw/UpFile/CouncilorFile/TTCC0432.jpg","links":[{"url":"http://www.ntp.gov.tw/content/history/history01-5-p.aspx?sid=203","note":"議會個人官網"}],"social_media":null,"platform":"","param":null,"councilor":"c176b9bf176f4e21bf3755829280c9a5"}],"uid":"c176b9bf176f4e21bf3755829280c9a5","name":"翁永裕","birth":null,"former_names":"","identifiers":["翁永裕"]},{"url":"http://councils.g0v.tw/api/councilors/471/","each_terms":[{"url":"http://councils.g0v.tw/api/councilors_terms/817/","election_year":"1973","name":"林來進","gender":"","party":"","title":"議員","constituency":4,"county":"新北市","district":"三重市","in_office":true,"contact_details":null,"term_start":"1973-05-01","term_end":{"date":"1977-12-29"},"education":"蘆洲鄉國校畢業","experience":"進益建材行負責人\n民防幹部\n臺北縣兵役協會\n地政小組委員\n幸德建設企業股份有限公司負責人\n臺北縣議會第4、7、8、9屆議員","remark":null,"image":"http://www.ntp.gov.tw/UpFile/CouncilorFile/TTCC0426.jpg","links":[{"url":"http://www.ntp.gov.tw/content/history/history01-5-p.aspx?sid=199","note":"議會個人官網"}],"social_media":null,"platform":"","param":null,"councilor":"3c3193f70d2b480897db8034c76974f5"},{"url":"http://councils.g0v.tw/api/councilors_terms/874/","election_year":"1968","name":"林來進","gender":"","party":"","title":"議員","constituency":4,"county":"新北市","district":"三重市","in_office":true,"contact_details":null,"term_start":"1968-02-21","term_end":{"date":"1973-04-30"},"education":"蘆洲鄉國校畢業","experience":"進益建材行負責人\n民防幹部\n臺北縣兵役協會\n地政小組委員\n幸德建設企業股份有限公司負責人\n臺北縣議會第4、7、8、9屆議員","remark":null,"image":"http://www.ntp.gov.tw/UpFile/CouncilorFile/TTCC0426.jpg","links":[{"url":"http://www.ntp.gov.tw/content/history/history01-5-p.aspx?sid=199","note":"議會個人官網"}],"social_media":null,"platform":"","param":null,"councilor":"3c3193f70d2b480897db8034c76974f5"},{"url":"http://councils.g0v.tw/api/councilors_terms/920/","election_year":"1977","name":"林來進","gender":"","party":"","title":"議員","constituency":3,"county":"新北市","district":"三重市、新莊鎮、泰山鄉、五股鄉、蘆洲鄉、林口鄉","in_office":true,"contact_details":null,"term_start":"1977-12-30","term_end":{"date":"1982-02-28"},"education":"蘆洲鄉國校畢業","experience":"進益建材行負責人\n民防幹部\n臺北縣兵役協會\n地政小組委員\n幸德建設企業股份有限公司負責人\n臺北縣議會第4、7、8、9屆議員","remark":null,"image":"http://www.ntp.gov.tw/UpFile/CouncilorFile/TTCC0426.jpg","links":[{"url":"http://www.ntp.gov.tw/content/history/history01-5-p.aspx?sid=199","note":"議會個人官網"}],"social_media":null,"platform":"","param":null,"councilor":"3c3193f70d2b480897db8034c76974f5"},{"url":"http://councils.g0v.tw/api/councilors_terms/1714/","election_year":"1958","name":"林來進","gender":"","party":"","title":"議員","constituency":3,"county":"新北市","district":"新莊鎮、泰山鄉、三重鎮、五股鄉、林口鄉、蘆洲鄉","in_office":true,"contact_details":null,"term_start":"1958-02-21","term_end":{"date":"1961-02-20"},"education":"蘆洲鄉國校畢業","experience":"進益建材行負責人\n民防幹部\n臺北縣兵役協會\n地政小組委員\n幸德建設企業股份有限公司負責人\n臺北縣議會第4、7、8、9屆議員","remark":null,"image":"http://www.ntp.gov.tw/UpFile/CouncilorFile/TTCC0426.jpg","links":[{"url":"http://www.ntp.gov.tw/content/history/history01-5-p.aspx?sid=199","note":"議會個人官網"}],"social_media":null,"platform":"","param":null,"councilor":"3c3193f70d2b480897db8034c76974f5"}],"uid":"3c3193f70d2b480897db8034c76974f5","name":"林來進","birth":null,"former_names":"","identifiers":["林來進","林來進"]},{"url":"http://councils.g0v.tw/api/councilors/526/","each_terms":[{"url":"http://councils.g0v.tw/api/councilors_terms/889/","election_year":"1968","name":"蔣欣之","gender":"","party":"","title":"議員","constituency":1,"county":"新北市","district":"板橋鎮、中和鄉、永和鎮、土城鄉","in_office":true,"contact_details":null,"term_start":"1968-02-21","term_end":{"date":"1973-04-30"},"education":"南京東方中學高中部\n革命實踐研究院及戰地政務班進修","experience":"江蘇省丹陽縣丈山鄉漢皇分校主任\n丹陽縣政府社會科員\n丹陽指揮所偵防組長\n丹陽縣丈山鄉第十五國民學校校長\n臺北市介紹業公會總幹事\n永和鎮上溪里里長\n臺北縣議會第7屆議員\n民國89年1月27日歿","remark":null,"image":"http://www.ntp.gov.tw/UpFile/CouncilorFile/TTCC0712.jpg","links":[{"url":"http://www.ntp.gov.tw/content/history/history01-5-p.aspx?sid=281","note":"議會個人官網"}],"social_media":null,"platform":"","param":null,"councilor":"cc2df18ad8824102a27d19e3d2d58e4d"}],"uid":"cc2df18ad8824102a27d19e3d2d58e4d","name":"蔣欣之","birth":null,"former_names":"","identifiers":["蔣欣之"]},{"url":"http://councils.g0v.tw/api/councilors/538/","each_terms":[{"url":"http://councils.g0v.tw/api/councilors_terms/926/","election_year":"1977","name":"柯玟伶","gender":"","party":"","title":"議員","constituency":3,"county":"新北市","district":"三重市、新莊鎮、泰山鄉、五股鄉、蘆洲鄉、林口鄉","in_office":true,"contact_details":null,"term_start":"1977-12-30","term_end":{"date":"1982-02-28"},"education":"金陵女高\n國立政治大學行政科\n臺灣大學政治研究所\n革命實踐研究院婦工幹部第六期\n美國伊利諾州立大學研究","experience":"基層社區理事長\n中華民國女童軍總會常務理事\n臺北縣女童軍理事長\n臺北縣婦女會常務理事\n三重婦女會理事長\n臺北縣義警中隊長、分隊長\n金陵女中董事會董事、會長\n國際扶輪3490地區總監(東北亞第1位女性總監)\n創社社長任內輔導11個扶輪社\n創立三重工商婦女聯誼\n調解委員\n國民黨三重市黨部常務委員\n臺北縣議會第9、10、11、12、13屆議員","remark":null,"image":"http://www.ntp.gov.tw/UpFile/CouncilorFile/TTCC0934.jpg","links":[{"url":"http://www.ntp.gov.tw/content/history/history01-5-p.aspx?sid=343","note":"議會個人官網"}],"social_media":null,"platform":"","param":null,"councilor":"09c085c9572740e18edbc76997fdf307"},{"url":"http://councils.g0v.tw/api/councilors_terms/992/","election_year":"1986","name":"柯玟伶","gender":"","party":"","title":"議員","constituency":4,"county":"新北市","district":"三重市、蘆洲鄉","in_office":true,"contact_details":null,"term_start":"1986-03-01","term_end":{"date":"1990-02-28"},"education":"金陵女高\n國立政治大學行政科\n臺灣大學政治研究所\n革命實踐研究院婦工幹部第六期\n美國伊利諾州立大學研究","experience":"基層社區理事長\n中華民國女童軍總會常務理事\n臺北縣女童軍理事長\n臺北縣婦女會常務理事\n三重婦女會理事長\n臺北縣義警中隊長、分隊長\n金陵女中董事會董事、會長\n國際扶輪3490地區總監(東北亞第1位女性總監)\n創社社長任內輔導11個扶輪社\n創立三重工商婦女聯誼\n調解委員\n國民黨三重市黨部常務委員\n臺北縣議會第9、10、11、12、13屆議員","remark":null,"image":"http://www.ntp.gov.tw/UpFile/CouncilorFile/TTCC0934.jpg","links":[{"url":"http://www.ntp.gov.tw/content/history/history01-5-p.aspx?sid=343","note":"議會個人官網"}],"social_media":null,"platform":"","param":null,"councilor":"09c085c9572740e18edbc76997fdf307"},{"url":"http://councils.g0v.tw/api/councilors_terms/1043/","election_year":"1982","name":"柯玟伶","gender":"","party":"","title":"議員","constituency":4,"county":"新北市","district":"三重市、蘆洲鄉","in_office":true,"contact_details":null,"term_start":"1982-03-01","term_end":{"date":"1986-02-28"},"education":"金陵女高\n國立政治大學行政科\n臺灣大學政治研究所\n革命實踐研究院婦工幹部第六期\n美國伊利諾州立大學研究","experience":"基層社區理事長\n中華民國女童軍總會常務理事\n臺北縣女童軍理事長\n臺北縣婦女會常務理事\n三重婦女會理事長\n臺北縣義警中隊長、分隊長\n金陵女中董事會董事、會長\n國際扶輪3490地區總監(東北亞第1位女性總監)\n創社社長任內輔導11個扶輪社\n創立三重工商婦女聯誼\n調解委員\n國民黨三重市黨部常務委員\n臺北縣議會第9、10、11、12、13屆議員","remark":null,"image":"http://www.ntp.gov.tw/UpFile/CouncilorFile/TTCC0934.jpg","links":[{"url":"http://www.ntp.gov.tw/content/history/history01-5-p.aspx?sid=343","note":"議會個人官網"}],"social_media":null,"platform":"","param":null,"councilor":"09c085c9572740e18edbc76997fdf307"},{"url":"http://councils.g0v.tw/api/councilors_terms/1110/","election_year":"1990","name":"柯玟伶","gender":"","party":"","title":"議員","constituency":5,"county":"新北市","district":"三重市、蘆洲鄉","in_office":true,"contact_details":null,"term_start":"1990-03-01","term_end":{"date":"1994-02-28"},"education":"金陵女高\n國立政治大學行政科\n臺灣大學政治研究所\n革命實踐研究院婦工幹部第六期\n美國伊利諾州立大學研究","experience":"基層社區理事長\n中華民國女童軍總會常務理事\n臺北縣女童軍理事長\n臺北縣婦女會常務理事\n三重婦女會理事長\n臺北縣義警中隊長、分隊長\n金陵女中董事會董事、會長\n國際扶輪3490地區總監(東北亞第1位女性總監)\n創社社長任內輔導11個扶輪社\n創立三重工商婦女聯誼\n調解委員\n國民黨三重市黨部常務委員\n臺北縣議會第9、10、11、12、13屆議員","remark":null,"image":"http://www.ntp.gov.tw/UpFile/CouncilorFile/TTCC0934.jpg","links":[{"url":"http://www.ntp.gov.tw/content/history/history01-5-p.aspx?sid=343","note":"議會個人官網"}],"social_media":null,"platform":"","param":null,"councilor":"09c085c9572740e18edbc76997fdf307"},{"url":"http://councils.g0v.tw/api/councilors_terms/1173/","election_year":"1994","name":"柯玟伶","gender":"","party":"","title":"議員","constituency":5,"county":"新北市","district":"三重市、蘆洲鄉","in_office":true,"contact_details":null,"term_start":"1994-03-01","term_end":{"date":"1998-02-28"},"education":"金陵女高\n國立政治大學行政科\n臺灣大學政治研究所\n革命實踐研究院婦工幹部第六期\n美國伊利諾州立大學研究","experience":"基層社區理事長\n中華民國女童軍總會常務理事\n臺北縣女童軍理事長\n臺北縣婦女會常務理事\n三重婦女會理事長\n臺北縣義警中隊長、分隊長\n金陵女中董事會董事、會長\n國際扶輪3490地區總監(東北亞第1位女性總監)\n創社社長任內輔導11個扶輪社\n創立三重工商婦女聯誼\n調解委員\n國民黨三重市黨部常務委員\n臺北縣議會第9、10、11、12、13屆議員","remark":null,"image":"http://www.ntp.gov.tw/UpFile/CouncilorFile/TTCC0934.jpg","links":[{"url":"http://www.ntp.gov.tw/content/history/history01-5-p.aspx?sid=343","note":"議會個人官網"}],"social_media":null,"platform":"","param":null,"councilor":"09c085c9572740e18edbc76997fdf307"}],"uid":"09c085c9572740e18edbc76997fdf307","name":"柯玟伶","birth":null,"former_names":"","identifiers":["柯玟伶"]}]}