{"count":1904,"next":"http://councils.g0v.tw/api/councilors/?page=26","previous":"http://councils.g0v.tw/api/councilors/?page=24","results":[{"url":"http://councils.g0v.tw/api/councilors/539/","each_terms":[{"url":"http://councils.g0v.tw/api/councilors_terms/929/","election_year":"1977","name":"陳正雄","gender":"","party":"","title":"議員","constituency":3,"county":"新北市","district":"三重市、新莊鎮、泰山鄉、五股鄉、蘆洲鄉、林口鄉","in_office":true,"contact_details":null,"term_start":"1977-12-30","term_end":{"date":"1982-02-28"},"education":"五股鄉成州國校畢\n縣立新莊中學畢\n淡江文理學院畢業\n聯勤測量學校結業","experience":"海道測量局測量官\n臺灣省航空測量隊技術員\n五股鄉後備軍人輔導中心督導員\n承安實業股份有限公司董事長\n北闔建設股份有限公司董事長\n南開建設股份有限公司董事長\n北濱林口國際高爾夫球場總經理\n臺北縣議會第9屆議員","remark":null,"image":"http://www.ntp.gov.tw/UpFile/CouncilorFile/TTCC0932.jpg","links":[{"url":"http://www.ntp.gov.tw/content/history/history01-5-p.aspx?sid=342","note":"議會個人官網"}],"social_media":null,"platform":"","param":null,"councilor":"71c495b966224e59b2ee49a2adc98bbc"}],"uid":"71c495b966224e59b2ee49a2adc98bbc","name":"陳正雄","birth":null,"former_names":"","identifiers":["陳正雄"]},{"url":"http://councils.g0v.tw/api/councilors/135/","each_terms":[{"url":"http://councils.g0v.tw/api/councilors_terms/192/","election_year":"2006","name":"王正德","gender":"男","party":"中國國民黨","title":"議員","constituency":null,"county":"臺北市","district":"","in_office":true,"contact_details":null,"term_start":"2006-12-25","term_end":{"date":"2010-12-25"},"education":"信義國小、松山國中、建國中學、高雄醫學院畢業","experience":"台北市第八、九屆議員，建國中學校友會理事長，南天扶輪社05-06年社長，台北市兵役協會理事長，台北市公共安全協會理事長，台北市馬拉松委員會主任委員，台北市山東同鄉會理事兼副秘書長，台北市青溪協會理事‧北市民防、義警等顧問。","remark":"","image":"http://www.tcc.gov.tw/../upload/photo/%E7%8E%8B%E6%AD%A3%E5%BE%B7.jpg","links":[{"url":"http://www.tcc.gov.tw/Councilor_Content_All.aspx?s=2265&d=560207&n=%E7%8E%8B%E6%AD%A3%E5%BE%B7","note":"議會個人官網"}],"social_media":null,"platform":"","param":null,"councilor":"08b3c1c09fa040eda92da62549fac8ef"},{"url":"http://councils.g0v.tw/api/councilors_terms/242/","election_year":"2002","name":"王正德","gender":"男","party":"中國國民黨","title":"議員","constituency":null,"county":"臺北市","district":"","in_office":true,"contact_details":null,"term_start":"2002-12-25","term_end":{"date":"2006-12-25"},"education":"信義國小、松山國中、建國中學、高雄醫學院畢業。","experience":"山東同鄉會理事兼副秘書長、救國團信義區團委會委員、臺北市公共安全協會理事長、建國中學校友會理事長、南天扶輪社理事、衛理女中家長會副會長、北市民防、義警、義消、義交等顧問、臺北市直轄市議會第八屆議員。","remark":"","image":"http://www.tcc.gov.tw/../upload/photo/%E7%8E%8B%E6%AD%A3%E5%BE%B717.bmp","links":[{"url":"http://www.tcc.gov.tw/Councilor_Content_All.aspx?s=1452&d=560207&n=%E7%8E%8B%E6%AD%A3%E5%BE%B7","note":"議會個人官網"}],"social_media":null,"platform":"","param":null,"councilor":"08b3c1c09fa040eda92da62549fac8ef"},{"url":"http://councils.g0v.tw/api/councilors_terms/293/","election_year":"1998","name":"王正德","gender":"男","party":"中國國民黨","title":"議員","constituency":null,"county":"臺北市","district":"","in_office":true,"contact_details":null,"term_start":"1998-12-25","term_end":{"date":"2002-12-25"},"education":"信義國小、松山國中、建國中學、高雄醫學院藥學系畢業、臺灣大學電機研究所結業。","experience":"中國國民黨十五全黨代表。山東同鄉會副秘書長、青島同鄉會常務理事、救國團信義區團委會委員、臺北市榮服處松山信義區義務聯絡員、吳興國小家長會副會長、九廣工業有限公司總經理。","remark":"","image":"http://www.tcc.gov.tw/../upload/photo/%E7%8E%8B%E6%AD%A3%E5%BE%B716.bmp","links":[{"url":"http://www.tcc.gov.tw/Councilor_Content_All.aspx?s=2074&d=560207&n=%E7%8E%8B%E6%AD%A3%E5%BE%B7","note":"議會個人官網"}],"social_media":null,"platform":"","param":null,"councilor":"08b3c1c09fa040eda92da62549fac8ef"},{"url":"http://councils.g0v.tw/api/councilors_terms/139/","election_year":"2010","name":"王正德","gender":"男","party":"中國國民黨","title":"議員","constituency":3,"county":"臺北市","district":"松山區、信義區","in_office":true,"contact_details":[{"type":"email","value":"tcc8711@tcc.gov.tw","label":"電子信箱"},{"type":"voice","value":"27298718、8780645127297708#7051、7151","label":"電話"},{"type":"fax","value":"23459151","label":"傳真"},{"type":"address","value":"台北市信義區仁愛路4段507號751室","label":"通訊處"}],"term_start":"2010-12-25","term_end":{"date":"2014-12-25"},"education":"信義國小、松山國中、建國中學、高雄醫學院畢業","experience":"台北市第八、九、十屆議員，建國中學校友會理事長、台灣南天扶輪社社長、北市兵役協會理事長、北市文化經濟交流協會理事長、北市馬拉松協會理事長、山東同鄉會理事兼副祕書長、國光基金會董事、北市青溪協會理事。","remark":"","image":"http://www.tcc.gov.tw/../upload/photo/%E7%8E%8B%E6%AD%A3%E5%BE%B7.jpg","links":[{"url":"http://www.tcc.gov.tw/Councilor_Content.aspx?s=1056","note":"議會個人官網"},{"url":"http://www.gopowerwang.com/","note":"個人網站"}],"social_media":null,"platform":"正德此次爭取連任，誓以專業、認真及多年從政的經驗對市政之發展提供最佳之貢獻，參選理念及抱負如下：\n1.專業團隊監督市政：服務團隊專業全方位，使市政團隊能有效率的執行公務，打造台北成為一個低碳綠能的國際首都。\n2.慎審預算嚴格把關：讓市民的納稅錢能充份運用在最適當的地方，不要造成市庫的損失及赤字。\n3.積極爭取地方建設：虎豹獅象四獸山的維護及山坡水土保持、松山機場直航後成為國際機場的因應週邊發展與回饋、捷運信義線象山東延站至廣慈的開發與興建、幼兒教育的向下紮根與托育、托老年政策的推動與執行，並打造一個BOT多功能的六張犁地區養生村及都市更新的中低樓層能夠儘速改建為綠建築之電梯大樓提升住的生活品質。\n4.重視基層結合民意：以清廉與效率服務市民，迅速解決市民難題，爭取市民權益。","param":{"bills_role_statistics":{"total":97,"priproposer":4,"sponsor":97,"cosponsor":0},"votes_decision_statistics":{"abstain":2,"disagree":48,"not_voting":1,"total":60,"agree":9,"conflict":2},"diversity":{"臺灣團結聯盟":0.02207211778034486,"親民黨":0.022589204848765955,"無黨籍":0.020690129381894497,"中國國民黨":0.6624212871188891,"新黨":0.025358858707726094,"民主進步黨":0.24686840216237957},"suggestions_years":{"count":32,"sum":30828800,"years":[{"count":4,"sum":2327000,"suggest_year":"2011","small_purchase":1},{"count":2,"sum":2633000,"suggest_year":"2012","small_purchase":0},{"count":12,"sum":15551500,"suggest_year":"2013","small_purchase":1},{"count":14,"sum":10317300,"suggest_year":"2014","small_purchase":3}]},"attendance_statistics":{"absent":0,"total":131},"suggestions_associations":[{"count":0,"sum":0,"label":"社區發展協會"},{"count":0,"sum":0,"label":"學會"},{"count":0,"sum":0,"label":"商會"},{"count":0,"sum":0,"label":"公會"},{"count":0,"sum":0,"label":"協進會"},{"count":0,"sum":0,"label":"促進會"},{"count":0,"sum":0,"label":"研習會"},{"count":0,"sum":0,"label":"婦聯會"},{"count":0,"sum":0,"label":"婦女會"},{"count":0,"sum":0,"label":"體育會"},{"count":0,"sum":0,"label":"同心會"},{"count":0,"sum":0,"label":"農會"},{"count":0,"sum":0,"label":"早起會"},{"count":0,"sum":0,"label":"健身會"},{"count":0,"sum":0,"label":"宗親會"},{"count":0,"sum":0,"label":"功德會"},{"count":0,"sum":0,"label":"商業會"},{"count":0,"sum":0,"label":"長青會"},{"count":0,"sum":0,"label":"民眾服務社"},{"count":0,"sum":0,"label":"聯盟"}],"bills_party_diversity":[{"party":"中國國民黨","ratio":0.6665207877461706},{"party":"民主進步黨","ratio":0.24595185995623634},{"party":"新黨","ratio":0.027571115973741796},{"party":"無黨籍","ratio":0.02100656455142232},{"party":"親民黨","ratio":0.020568927789934355},{"party":"臺灣團結聯盟","ratio":0.018380743982494528}],"suggestions_piles":[{"count":1,"tokens":"國中|國小","sum":3274000,"label":"國中、國小"},{"count":0,"tokens":"協會|學會|商會|公會|協進會|促進會|研習會|婦聯會|婦女會|體育會|同心會|農會|早起會|健身會|宗親會|功德會|商業會|長青會|民眾服務社|聯盟","sum":0,"label":"協會"},{"count":0,"tokens":"辦公室|辦公處","sum":0,"label":"辦公室"},{"count":0,"tokens":"廟|宮","sum":0,"label":"廟"},{"count":0,"tokens":"警察局|分局","sum":0,"label":"警察局"},{"count":0,"tokens":"消防局|消防隊|分隊|中隊","sum":0,"label":"消防局"}]},"councilor":"08b3c1c09fa040eda92da62549fac8ef"}],"uid":"08b3c1c09fa040eda92da62549fac8ef","name":"王正德","birth":"1956-02-07","former_names":"","identifiers":["王正德"]},{"url":"http://councils.g0v.tw/api/councilors/137/","each_terms":[{"url":"http://councils.g0v.tw/api/councilors_terms/193/","election_year":"2006","name":"王浩","gender":"男","party":"中國國民黨","title":"議員","constituency":null,"county":"臺北市","district":"","in_office":true,"contact_details":null,"term_start":"2006-12-25","term_end":{"date":"2010-12-25"},"education":"東吳大學中文系學士、元智大學管理研究所碩士。","experience":"台北市第八屆第九屆議員，東森多媒體副總經理，東森電視副總經理，TVBS主播、採訪中心主任製播中心主任節目中心主任、中國電視公司新聞部副組長、記者，中華日報記者","remark":"","image":"http://www.tcc.gov.tw/../upload/photo/%E7%8E%8B%E6%B5%A9.jpg","links":[{"url":"http://www.tcc.gov.tw/Councilor_Content_All.aspx?s=2299&d=570713&n=%E7%8E%8B%E3%80%80%E6%B5%A9","note":"議會個人官網"}],"social_media":null,"platform":"","param":null,"councilor":"913625ae1cb048ed9787421614013a25"},{"url":"http://councils.g0v.tw/api/councilors_terms/244/","election_year":"2002","name":"王浩","gender":"男","party":"中國國民黨","title":"議員","constituency":null,"county":"臺北市","district":"","in_office":true,"contact_details":null,"term_start":"2002-12-25","term_end":{"date":"2006-12-25"},"education":"東吳大學中文系畢業、元智大學管理研究所碩士班。","experience":"臺北市直轄市議會第八屆議員","remark":"","image":"http://www.tcc.gov.tw/../upload/photo/%E7%8E%8B%E6%B5%A917.bmp","links":[{"url":"http://www.tcc.gov.tw/Councilor_Content_All.aspx?s=1630&d=570713&n=%E7%8E%8B%E3%80%80%E6%B5%A9","note":"議會個人官網"}],"social_media":null,"platform":"","param":null,"councilor":"913625ae1cb048ed9787421614013a25"},{"url":"http://councils.g0v.tw/api/councilors_terms/295/","election_year":"1998","name":"王浩","gender":"男","party":"中國國民黨","title":"議員","constituency":null,"county":"臺北市","district":"","in_office":true,"contact_details":null,"term_start":"1998-12-25","term_end":{"date":"2002-12-25"},"education":"女師附小、大同國中、及人高中、東吳大學中文系畢業。","experience":"臺北電視臺「市民大道」節目主持人。東森多媒體副總經理。TVBS無線晚報主播。中國電視公司副組長、記者。中華日報記者。","remark":"","image":"http://www.tcc.gov.tw/../upload/photo/%E7%8E%8B%E6%B5%A916.jpg","links":[{"url":"http://www.tcc.gov.tw/Councilor_Content_All.aspx?s=1736&d=570713&n=%E7%8E%8B%E3%80%80%E6%B5%A9","note":"議會個人官網"}],"social_media":null,"platform":"","param":null,"councilor":"913625ae1cb048ed9787421614013a25"},{"url":"http://councils.g0v.tw/api/councilors_terms/141/","election_year":"2010","name":"王浩","gender":"男","party":"中國國民黨","title":"議員","constituency":null,"county":"臺北市","district":"","in_office":false,"contact_details":null,"term_start":"2010-12-25","term_end":{"date":"2014-01-01","reason":"民國103年1月1日轉任臺北市政府社會局局長"},"education":"東吳大學中文系學士、元智大學管理研究所碩士\r\n","experience":"台北市議會第十、九、八屆議員\r\n東吳大學中文系兼任講師\r\n玄奘大學新聞系兼任講師\r\n","remark":"民國103年1月1日轉任臺北市政府社會局局長","image":"http://www.tcc.gov.tw/../upload/photo/%E7%8E%8B%E6%B5%A9.jpg","links":[{"url":"http://www.tcc.gov.tw/Councilor_Content_All.aspx?s=1063&d=570713&n=%E7%8E%8B%E3%80%80%E6%B5%A9","note":"議會個人官網"}],"social_media":null,"platform":"","param":{"bills_role_statistics":{"total":49,"priproposer":0,"sponsor":49,"cosponsor":0},"votes_decision_statistics":{"abstain":7,"disagree":30,"not_voting":14,"total":57,"agree":6,"conflict":8},"diversity":{"臺灣團結聯盟":0.015251044546867714,"親民黨":0.021757484932464603,"無黨籍":0.01614383650419839,"中國國民黨":0.6738908657286967,"新黨":0.03419968921695545,"民主進步黨":0.2387570790708171},"suggestions_years":{"count":13,"sum":11039637,"years":[{"count":2,"sum":406970,"suggest_year":"2012","small_purchase":0},{"count":7,"sum":3475667,"suggest_year":"2013","small_purchase":3},{"count":4,"sum":7157000,"suggest_year":"2014","small_purchase":0}]},"attendance_statistics":{"absent":2,"total":115},"suggestions_associations":[{"count":0,"sum":0,"label":"社區發展協會"},{"count":0,"sum":0,"label":"學會"},{"count":0,"sum":0,"label":"商會"},{"count":0,"sum":0,"label":"公會"},{"count":0,"sum":0,"label":"協進會"},{"count":0,"sum":0,"label":"促進會"},{"count":0,"sum":0,"label":"研習會"},{"count":0,"sum":0,"label":"婦聯會"},{"count":0,"sum":0,"label":"婦女會"},{"count":0,"sum":0,"label":"體育會"},{"count":0,"sum":0,"label":"同心會"},{"count":0,"sum":0,"label":"農會"},{"count":0,"sum":0,"label":"早起會"},{"count":0,"sum":0,"label":"健身會"},{"count":0,"sum":0,"label":"宗親會"},{"count":0,"sum":0,"label":"功德會"},{"count":0,"sum":0,"label":"商業會"},{"count":0,"sum":0,"label":"長青會"},{"count":0,"sum":0,"label":"民眾服務社"},{"count":0,"sum":0,"label":"聯盟"}],"bills_party_diversity":[{"party":"中國國民黨","ratio":0.6392536281962682},{"party":"民主進步黨","ratio":0.2709053213545266},{"party":"新黨","ratio":0.03178991015894955},{"party":"親民黨","ratio":0.0221147201105736},{"party":"無黨籍","ratio":0.02073255010366275},{"party":"臺灣團結聯盟","ratio":0.01520387007601935}],"suggestions_piles":[{"count":0,"tokens":"協會|學會|商會|公會|協進會|促進會|研習會|婦聯會|婦女會|體育會|同心會|農會|早起會|健身會|宗親會|功德會|商業會|長青會|民眾服務社|聯盟","sum":0,"label":"協會"},{"count":0,"tokens":"辦公室|辦公處","sum":0,"label":"辦公室"},{"count":0,"tokens":"廟|宮","sum":0,"label":"廟"},{"count":0,"tokens":"警察局|分局","sum":0,"label":"警察局"},{"count":0,"tokens":"消防局|消防隊|分隊|中隊","sum":0,"label":"消防局"},{"count":0,"tokens":"國中|國小","sum":0,"label":"國中、國小"}]},"councilor":"913625ae1cb048ed9787421614013a25"}],"uid":"913625ae1cb048ed9787421614013a25","name":"王浩","birth":"1957-07-13","former_names":"","identifiers":["王浩"]},{"url":"http://councils.g0v.tw/api/councilors/1531/","each_terms":[{"url":"http://councils.g0v.tw/api/councilors_terms/2457/","election_year":"2009","name":"李金梅","gender":"女","party":"中國國民黨","title":"","constituency":1,"county":"連江縣","district":"南竿鄉","in_office":true,"contact_details":[{"type":"address","value":"馬祖南竿鄉仁愛村98號","label":"通訊處"},{"type":"voice","value":"0836-25581、0933-929181","label":"電話"}],"term_start":"2009-12-25","term_end":{"date":"2014-12-25"},"education":null,"experience":"1. 連江縣縣立醫院助產士\n2. 連江縣政諮詢代表會代表\n3. 連江縣臨時縣議會議員\n4. 連江縣議會一、二、三、四屆議員\n5. 連江縣議會黨團書記長\n6. 連江縣土地界址糾紛調解委員\n7. 連江縣婦女會理事長","remark":null,"image":"http://www.mtcc.gov.tw/representative/LeeJinMae.jpg","links":[{"url":"http://www.mtcc.gov.tw/cu_representative3.htm","note":"議會個人官網"}],"social_media":null,"platform":"督促構建新台馬輪快速改善台馬海上舒適安全交通。\n爭取專案經費推動馬祖全面觀光建設。\n突顯閩東文化特色結合戰地精神推展馬祖新的觀光形象。\n規劃闢建新的觀光景點，提昇馬祖觀光品質。\n爭取提高中低收入戶生活補助。保障弱勢團體福利及保障婦女兒童的權益。\n督促政府用心解決鄉親土地問題，落實還地於民政策。\n學校社區化，以達學校資源與社區共享。\n爭取提高婦女活動經費推展婦運工作。\n嚴格督促污水下水道後續工程及完工後的維護與管理，提昇居住品質。\n爭取設立社區大學。\n督促政府依法行政，建全機關組織發揮行政功能，提高行政效率。","param":null,"councilor":"dec41da801ab4e769e5f191f7c3ce5d1"}],"uid":"dec41da801ab4e769e5f191f7c3ce5d1","name":"李金梅","birth":null,"former_names":"","identifiers":["李金梅","李金梅"]},{"url":"http://councils.g0v.tw/api/councilors/773/","each_terms":[{"url":"http://councils.g0v.tw/api/councilors_terms/1423/","election_year":"1946","name":"藍淥淮","gender":"","party":"","title":"議員","constituency":null,"county":"新北市","district":"","in_office":true,"contact_details":null,"term_start":"1946-04-15","term_end":{"date":"1950-12-31"},"education":"日語學校畢業。","experience":"羅東信用組合長\n代理羅東郡守\n臺北州會議員\n羅東水利委員會主任委員？","remark":null,"image":"http://www.ntp.gov.tw/UpFile/CouncilorFile/TTCC0052.jpg","links":[{"url":"http://www.ntp.gov.tw/content/history/history01-5-p.aspx?sid=52","note":"議會個人官網"}],"social_media":null,"platform":"","param":null,"councilor":"b4d95f11e6b446f5a4ec6986615f1730"}],"uid":"b4d95f11e6b446f5a4ec6986615f1730","name":"藍淥淮","birth":null,"former_names":"","identifiers":["藍淥淮"]},{"url":"http://councils.g0v.tw/api/councilors/774/","each_terms":[{"url":"http://councils.g0v.tw/api/councilors_terms/1424/","election_year":"1946","name":"蘇耀南","gender":"","party":"","title":"議員","constituency":null,"county":"新北市","district":"","in_office":true,"contact_details":null,"term_start":"1946-04-15","term_end":{"date":"1950-12-31"},"education":"中學畢業。","experience":"宜蘭市保甲聯合會長\n宜蘭市旭町區長","remark":null,"image":"http://www.ntp.gov.tw/UpFile/CouncilorFile/TTCC0051.jpg","links":[{"url":"http://www.ntp.gov.tw/content/history/history01-5-p.aspx?sid=51","note":"議會個人官網"}],"social_media":null,"platform":"","param":null,"councilor":"be418be0087f48a48751841e7f37dd54"}],"uid":"be418be0087f48a48751841e7f37dd54","name":"蘇耀南","birth":null,"former_names":"","identifiers":["蘇耀南"]},{"url":"http://councils.g0v.tw/api/councilors/465/","each_terms":[{"url":"http://councils.g0v.tw/api/councilors_terms/811/","election_year":"1973","name":"柯燦斯","gender":"","party":"","title":"議員","constituency":4,"county":"新北市","district":"三重市","in_office":true,"contact_details":null,"term_start":"1973-05-01","term_end":{"date":"1977-12-29"},"education":"省立臺北高工畢業（現國立臺北科技大學）\n革命實踐研究院６２期黨政班結業\n特種考試及格","experience":"三重市第３屆市民代表\n三重市桌球協會會長\n國園戲院有限公司經理\n成功民有市場股份有限公司董事長\n臺北縣議會第8、9、10、11屆議員\n國園加油站負責人\n民國94年4月4日歿","remark":null,"image":"http://www.ntp.gov.tw/UpFile/CouncilorFile/TTCC0836.jpg","links":[{"url":"http://www.ntp.gov.tw/content/history/history01-5-p.aspx?sid=315","note":"議會個人官網"}],"social_media":null,"platform":"","param":null,"councilor":"e2b3e50c7bd94dc6a59cb9a464c870a9"},{"url":"http://councils.g0v.tw/api/councilors_terms/918/","election_year":"1977","name":"柯燦斯","gender":"","party":"","title":"議員","constituency":3,"county":"新北市","district":"三重市、新莊鎮、泰山鄉、五股鄉、蘆洲鄉、林口鄉","in_office":true,"contact_details":null,"term_start":"1977-12-30","term_end":{"date":"1982-02-28"},"education":"省立臺北高工畢業（現國立臺北科技大學）\n革命實踐研究院６２期黨政班結業\n特種考試及格","experience":"三重市第３屆市民代表\n三重市桌球協會會長\n國園戲院有限公司經理\n成功民有市場股份有限公司董事長\n臺北縣議會第8、9、10、11屆議員\n國園加油站負責人\n民國94年4月4日歿","remark":null,"image":"http://www.ntp.gov.tw/UpFile/CouncilorFile/TTCC0836.jpg","links":[{"url":"http://www.ntp.gov.tw/content/history/history01-5-p.aspx?sid=315","note":"議會個人官網"}],"social_media":null,"platform":"","param":null,"councilor":"e2b3e50c7bd94dc6a59cb9a464c870a9"},{"url":"http://councils.g0v.tw/api/councilors_terms/985/","election_year":"1986","name":"柯燦斯","gender":"","party":"","title":"議員","constituency":4,"county":"新北市","district":"三重市、蘆洲鄉","in_office":true,"contact_details":null,"term_start":"1986-03-01","term_end":{"date":"1990-02-28"},"education":"省立臺北高工畢業（現國立臺北科技大學）\n革命實踐研究院６２期黨政班結業\n特種考試及格","experience":"三重市第３屆市民代表\n三重市桌球協會會長\n國園戲院有限公司經理\n成功民有市場股份有限公司董事長\n臺北縣議會第8、9、10、11屆議員\n國園加油站負責人\n民國94年4月4日歿","remark":null,"image":"http://www.ntp.gov.tw/UpFile/CouncilorFile/TTCC0836.jpg","links":[{"url":"http://www.ntp.gov.tw/content/history/history01-5-p.aspx?sid=315","note":"議會個人官網"}],"social_media":null,"platform":"","param":null,"councilor":"e2b3e50c7bd94dc6a59cb9a464c870a9"},{"url":"http://councils.g0v.tw/api/councilors_terms/1048/","election_year":"1982","name":"柯燦斯","gender":"","party":"","title":"議員","constituency":4,"county":"新北市","district":"三重市、蘆洲鄉","in_office":true,"contact_details":null,"term_start":"1982-03-01","term_end":{"date":"1986-02-28"},"education":"省立臺北高工畢業（現國立臺北科技大學）\n革命實踐研究院６２期黨政班結業\n特種考試及格","experience":"三重市第３屆市民代表\n三重市桌球協會會長\n國園戲院有限公司經理\n成功民有市場股份有限公司董事長\n臺北縣議會第8、9、10、11屆議員\n國園加油站負責人\n民國94年4月4日歿","remark":null,"image":"http://www.ntp.gov.tw/UpFile/CouncilorFile/TTCC0836.jpg","links":[{"url":"http://www.ntp.gov.tw/content/history/history01-5-p.aspx?sid=315","note":"議會個人官網"}],"social_media":null,"platform":"","param":null,"councilor":"e2b3e50c7bd94dc6a59cb9a464c870a9"}],"uid":"e2b3e50c7bd94dc6a59cb9a464c870a9","name":"柯燦斯","birth":null,"former_names":"","identifiers":["柯燦斯"]},{"url":"http://councils.g0v.tw/api/councilors/1247/","each_terms":[{"url":"http://councils.g0v.tw/api/councilors_terms/2173/","election_year":"2009","name":"呂必賢","gender":"男","party":"中國國民黨","title":"","constituency":10,"county":"花蓮縣","district":"居住卓溪鄉及玉里鎮、富里鄉之山地原住民","in_office":true,"contact_details":[{"type":"address","value":"花蓮縣卓溪鄉古風村13鄰古楓23號","label":"通訊處"},{"type":"voice","value":"03-8846150．0911-275081","label":"電話"}],"term_start":"2009-12-25","term_end":{"date":"2014-12-25"},"education":"國立政治大學教育系畢業","experience":"1.曾任國小教師、主任、校長34年\n2.曾任東華大學語傳系教師10年\n3.花蓮縣議會第16屆、17屆議員","remark":null,"image":"http://www.hlcc.gov.tw/upfile/20100226142305-124.jpg","links":[{"url":"http://www.hlcc.gov.tw/councillor-data.php?index_no=38","note":"議會個人官網"}],"social_media":null,"platform":"1.堅持原住民族立場，捍衛原住民族尊嚴及權益。\n2.專業問政，熱心服務，爭取原住民地方建設及各項福利。\n3.傳承原鄉部落傳統文化，守護原鄉部落家園。\n4.重視原住民教育，人才之培育，改善教學環境提昇教育品質。","param":{"suggestions_years":{"count":35,"sum":4625390,"years":[{"count":35,"sum":4625390,"suggest_year":"2014","small_purchase":31}]},"diversity":{"中國國民黨":0.9283109127821502,"民主進步黨":0.02467267642249032,"無黨籍":0.047016410795359544},"bills_role_statistics":{"total":237,"priproposer":139,"sponsor":140,"cosponsor":97},"suggestions_associations":[{"count":0,"sum":0,"label":"社區發展協會"},{"count":0,"sum":0,"label":"學會"},{"count":0,"sum":0,"label":"商會"},{"count":0,"sum":0,"label":"公會"},{"count":0,"sum":0,"label":"協進會"},{"count":0,"sum":0,"label":"促進會"},{"count":0,"sum":0,"label":"研習會"},{"count":0,"sum":0,"label":"婦聯會"},{"count":0,"sum":0,"label":"婦女會"},{"count":0,"sum":0,"label":"體育會"},{"count":0,"sum":0,"label":"同心會"},{"count":0,"sum":0,"label":"農會"},{"count":0,"sum":0,"label":"早起會"},{"count":0,"sum":0,"label":"健身會"},{"count":0,"sum":0,"label":"宗親會"},{"count":0,"sum":0,"label":"功德會"},{"count":0,"sum":0,"label":"商業會"},{"count":0,"sum":0,"label":"長青會"},{"count":0,"sum":0,"label":"民眾服務社"},{"count":0,"sum":0,"label":"聯盟"}],"bills_party_diversity":[{"party":"中國國民黨","ratio":0.8690176322418136},{"party":"無黨籍","ratio":0.07556675062972293},{"party":"民主進步黨","ratio":0.055415617128463476}],"suggestions_piles":[{"count":23,"tokens":"國中|國小","sum":3059566,"label":"國中、國小"},{"count":3,"tokens":"警察局|分局","sum":955685,"label":"警察局"},{"count":4,"tokens":"消防局|消防隊|分隊|中隊","sum":216000,"label":"消防局"},{"count":0,"tokens":"協會|學會|商會|公會|協進會|促進會|研習會|婦聯會|婦女會|體育會|同心會|農會|早起會|健身會|宗親會|功德會|商業會|長青會|民眾服務社|聯盟","sum":0,"label":"協會"},{"count":0,"tokens":"辦公室|辦公處","sum":0,"label":"辦公室"},{"count":0,"tokens":"廟|宮","sum":0,"label":"廟"}]},"councilor":"438d07618de34dafaec3d91708f538fe"}],"uid":"438d07618de34dafaec3d91708f538fe","name":"呂必賢","birth":null,"former_names":"","identifiers":["呂必賢"]},{"url":"http://councils.g0v.tw/api/councilors/1284/","each_terms":[{"url":"http://councils.g0v.tw/api/councilors_terms/2210/","election_year":"2009","name":"張經魁","gender":"男","party":"中國國民黨","title":"議員","constituency":2,"county":"南投縣","district":"草屯鎮、中寮鄉","in_office":true,"contact_details":[{"type":"address","value":"草屯鎮御史里玉屏路150之2號","label":"通訊處"}],"term_start":"2009-12-25","term_end":{"date":"2014-12-25"},"education":"陸軍官校肄業","experience":"一、陸軍官校33期班肄業\n二、 中國國民黨革命實踐研究院結業\n三、 考試院考選部公職候選人檢覈合格證書\n四、台中市議會議員\n五、大成瓦斯分裝場負責人\n六、大乘金寶塔創辦人","remark":null,"image":"http://www.ntcc.gov.tw/images/n3_2_6.jpg","links":null,"social_media":null,"platform":"一、關懷弱勢：督促縣府增列貧戶救濟預算，落實賑助貧困家庭。\n二、關懷教育：督促縣府教育處，擴充軟體教學設備，強化價值觀教育。\n三、關懷婦女：督促縣府社會處，主動協助單親家庭生計問題。\n四、關懷治安：督促縣府加強打擊犯罪，成立警民巡邏網，維護社會治安。\n五、希望競選連任，讓南投縣成為全國最有榮譽感的縣市，讓南投縣成為國內外人民最希望來居住的城市。","param":{"bills_role_statistics":{"total":94,"priproposer":14,"sponsor":14,"cosponsor":80},"suggestions_piles":[{"count":13,"tokens":"國中|國小","sum":1199000,"label":"國中、國小"},{"count":2,"tokens":"辦公室|辦公處","sum":150000,"label":"辦公室"},{"count":1,"tokens":"警察局|分局","sum":90000,"label":"警察局"},{"count":0,"tokens":"協會|學會|商會|公會|協進會|促進會|研習會|婦聯會|婦女會|體育會|同心會|農會|早起會|健身會|宗親會|功德會|商業會|長青會|民眾服務社|聯盟","sum":0,"label":"協會"},{"count":0,"tokens":"廟|宮","sum":0,"label":"廟"},{"count":0,"tokens":"消防局|消防隊|分隊|中隊","sum":0,"label":"消防局"}],"suggestions_associations":[{"count":0,"sum":0,"label":"社區發展協會"},{"count":0,"sum":0,"label":"學會"},{"count":0,"sum":0,"label":"商會"},{"count":0,"sum":0,"label":"公會"},{"count":0,"sum":0,"label":"協進會"},{"count":0,"sum":0,"label":"促進會"},{"count":0,"sum":0,"label":"研習會"},{"count":0,"sum":0,"label":"婦聯會"},{"count":0,"sum":0,"label":"婦女會"},{"count":0,"sum":0,"label":"體育會"},{"count":0,"sum":0,"label":"同心會"},{"count":0,"sum":0,"label":"農會"},{"count":0,"sum":0,"label":"早起會"},{"count":0,"sum":0,"label":"健身會"},{"count":0,"sum":0,"label":"宗親會"},{"count":0,"sum":0,"label":"功德會"},{"count":0,"sum":0,"label":"商業會"},{"count":0,"sum":0,"label":"長青會"},{"count":0,"sum":0,"label":"民眾服務社"},{"count":0,"sum":0,"label":"聯盟"}],"diversity":{"中國國民黨":0.626646403242148,"民主進步黨":0.20615501519756838,"無黨籍":0.1671985815602837},"suggestions_years":{"count":27,"sum":4711000,"years":[{"count":27,"sum":4711000,"suggest_year":"2014","small_purchase":17}]}},"councilor":"823ba3f9f91243088db15978e107741f"}],"uid":"823ba3f9f91243088db15978e107741f","name":"張經魁","birth":"1941-04-16","former_names":"","identifiers":["張經魁"]},{"url":"http://councils.g0v.tw/api/councilors/148/","each_terms":[{"url":"http://councils.g0v.tw/api/councilors_terms/197/","election_year":"2002","name":"藍世聰","gender":"男","party":"民主進步黨","title":"議員","constituency":null,"county":"臺北市","district":"","in_office":true,"contact_details":null,"term_start":"2002-12-25","term_end":{"date":"2006-12-25"},"education":"臺北市立蓬萊國小、臺北市立蘭州國中、臺北市立成功高中、高雄醫學院藥學系畢。臺大國家發展研究所碩士班。","experience":"民主進步黨臺北市黨部主任委員、第三屆國民大會代表、藥師公會全國聯合會理事、美商法瑪西亞普強大藥廠行銷經理、一九九八民進黨臺北市北區立委聯合競選五席全上執行總幹事、總統大選陳水扁臺北市競選總部文宣部召集人。","remark":"","image":"http://www.tcc.gov.tw/../upload/photo/%E8%97%8D%E4%B8%96%E8%81%B017.bmp","links":[{"url":"http://www.tcc.gov.tw/Councilor_Content_All.aspx?s=1608&d=560916&n=%E8%97%8D%E4%B8%96%E8%81%B0","note":"議會個人官網"}],"social_media":null,"platform":"","param":null,"councilor":"a6f769320bd9475f85c83bd065588c7e"}],"uid":"a6f769320bd9475f85c83bd065588c7e","name":"藍世聰","birth":"1956-09-16","former_names":"","identifiers":["藍世聰"]}]}