{"count":1904,"next":"http://councils.g0v.tw/api/councilors/?page=27","previous":"http://councils.g0v.tw/api/councilors/?page=25","results":[{"url":"http://councils.g0v.tw/api/councilors/212/","each_terms":[{"url":"http://councils.g0v.tw/api/councilors_terms/375/","election_year":"1989","name":"張玲","gender":"女","party":"中國國民黨","title":"議員","constituency":null,"county":"臺北市","district":"","in_office":true,"contact_details":null,"term_start":"1989-12-25","term_end":{"date":"1994-12-25"},"education":"基隆女中、景美女中、政治作戰學校23期新聞系。","experience":"陸軍忠誠報新聞官、編譯官，邦企傳播公司電視節目製作人，華視「英語每日一句」主持人，稻江商職英文教師。","remark":"","image":"http://www.tcc.gov.tw/../upload/photo/%E5%BC%B514.jpg","links":[{"url":"http://www.tcc.gov.tw/Councilor_Content_All.aspx?s=1844&d=530704&n=%E5%BC%B5%E7%8E%B2","note":"議會個人官網"}],"social_media":null,"platform":"","param":null,"councilor":"ee0c495c8d044ab7b2f41625db1d11c4"}],"uid":"ee0c495c8d044ab7b2f41625db1d11c4","name":"張玲","birth":"1953-07-04","former_names":"","identifiers":["張玲","張玲"]},{"url":"http://councils.g0v.tw/api/councilors/984/","each_terms":[{"url":"http://councils.g0v.tw/api/councilors_terms/1851/","election_year":"1964","name":"林雪美","gender":"","party":"","title":"議員","constituency":2,"county":"新北市","district":"樹林鎮、鶯歌鎮、三峽鎮","in_office":true,"contact_details":null,"term_start":"1964-02-21","term_end":{"date":"1968-02-20"},"education":"省立臺北女子師範畢業\n革命實踐研究院婦訓班\n青年救國團軍訓幹部訓練班\n省訓團普通行政研究班","experience":"教員\n省立臺北第二女中軍訓教官\n三峽婦女會理事\n三峽鎮長\n臺北縣議會第6屆議員","remark":null,"image":"http://www.ntp.gov.tw/UpFile/CouncilorFile/TTCC0614.jpg","links":[{"url":"http://www.ntp.gov.tw/content/history/history01-5-p.aspx?sid=255","note":"議會個人官網"}],"social_media":null,"platform":"","param":null,"councilor":"d0fe9d371681443497e76db27c814ce1"}],"uid":"d0fe9d371681443497e76db27c814ce1","name":"林雪美","birth":null,"former_names":"","identifiers":["林雪美","林雪美"]},{"url":"http://councils.g0v.tw/api/councilors/784/","each_terms":[{"url":"http://councils.g0v.tw/api/councilors_terms/1482/","election_year":"1951","name":"賴崇壁","gender":"","party":"","title":"議員","constituency":8,"county":"新北市","district":"金山鄉、萬里鄉","in_office":true,"contact_details":null,"term_start":"1951-01-04","term_end":{"date":"1953-01-05"},"education":"金山公學校、日語學校","experience":"金山鄉長\n臺北縣參議員\n州會議員\n莊長\n莊協議會員\n組合長\n臺北縣議會第1屆議員","remark":null,"image":"http://www.ntp.gov.tw/UpFile/CouncilorFile/TTCC0040.jpg","links":[{"url":"http://www.ntp.gov.tw/content/history/history01-5-p.aspx?sid=40","note":"議會個人官網"}],"social_media":null,"platform":"","param":null,"councilor":"b8eafb9efd1944a596034e0bf9b3269f"},{"url":"http://councils.g0v.tw/api/councilors_terms/1434/","election_year":"1946","name":"賴崇壁","gender":"","party":"","title":"議員","constituency":null,"county":"新北市","district":"","in_office":true,"contact_details":null,"term_start":"1946-04-15","term_end":{"date":"1950-12-31"},"education":"金山公學校、日語學校","experience":"金山鄉長\n臺北縣參議員\n州會議員\n莊長\n莊協議會員\n組合長\n臺北縣議會第1屆議員","remark":null,"image":"http://www.ntp.gov.tw/UpFile/CouncilorFile/TTCC0040.jpg","links":[{"url":"http://www.ntp.gov.tw/content/history/history01-5-p.aspx?sid=40","note":"議會個人官網"}],"social_media":null,"platform":"","param":null,"councilor":"b8eafb9efd1944a596034e0bf9b3269f"}],"uid":"b8eafb9efd1944a596034e0bf9b3269f","name":"賴崇壁","birth":null,"former_names":"","identifiers":["頼崇壁","賴崇壁"]},{"url":"http://councils.g0v.tw/api/councilors/785/","each_terms":[{"url":"http://councils.g0v.tw/api/councilors_terms/1435/","election_year":"1946","name":"張阿泉","gender":"","party":"","title":"議員","constituency":null,"county":"新北市","district":"","in_office":true,"contact_details":null,"term_start":"1946-04-15","term_end":{"date":"1950-12-31"},"education":"公學校畢。","experience":"莊助役\n莊協議會員\n漁業理事長\n合作社理事主席\n鄉長","remark":null,"image":"http://www.ntp.gov.tw/UpFile/CouncilorFile/TTCC0041.jpg","links":[{"url":"http://www.ntp.gov.tw/content/history/history01-5-p.aspx?sid=41","note":"議會個人官網"}],"social_media":null,"platform":"","param":null,"councilor":"ab38549ea72140ddaa7ec4efdc26da43"}],"uid":"ab38549ea72140ddaa7ec4efdc26da43","name":"張阿泉","birth":null,"former_names":"","identifiers":["張阿泉"]},{"url":"http://councils.g0v.tw/api/councilors/158/","each_terms":[{"url":"http://councils.g0v.tw/api/councilors_terms/239/","election_year":"2002","name":"田欣","gender":"男","party":"民主進步黨","title":"議員","constituency":null,"county":"臺北市","district":"","in_office":true,"contact_details":null,"term_start":"2002-12-25","term_end":{"date":"2006-12-25"},"education":"臺灣大學資訊工程學系學士、美國印地安那大學電腦碩士。","experience":"「外省人」臺灣獨立促進會秘書長、1996民進黨臺北市東區國大代表候選人、民進黨臺北市黨部執行長、林濁水立委東區辦公室主任、民進黨中央黨部國際事務部主任、民進黨臺日友好協會總幹事。","remark":"","image":"http://www.tcc.gov.tw/../upload/photo/%E7%94%B0%E6%AC%A317.bmp","links":[{"url":"http://www.tcc.gov.tw/Councilor_Content_All.aspx?s=1614&d=620813&n=%E7%94%B0%E3%80%80%E6%AC%A3","note":"議會個人官網"}],"social_media":null,"platform":"","param":null,"councilor":"03e29d3c3b6a4b359dc9fcebced82bc8"}],"uid":"03e29d3c3b6a4b359dc9fcebced82bc8","name":"田欣","birth":"1962-08-13","former_names":"","identifiers":["田欣"]},{"url":"http://councils.g0v.tw/api/councilors/878/","each_terms":[{"url":"http://councils.g0v.tw/api/councilors_terms/1555/","election_year":"1953","name":"賴克明","gender":"","party":"","title":"議員","constituency":6,"county":"新北市","district":"北投鎮、士林鎮","in_office":true,"contact_details":null,"term_start":"1953-01-16","term_end":{"date":"1955-01-15"},"education":"日據時代臺北商業學校夜間部","experience":"街協議會員\n七星水利委員會主委\n士林鎮農會常務理事\n士林鎮第1屆鎮長\n臺北縣議會第2、3屆議員\n*民國54年歿","remark":null,"image":"http://www.ntp.gov.tw/UpFile/CouncilorFile/TTCC0239.jpg","links":[{"url":"http://www.ntp.gov.tw/content/history/history01-5-p.aspx?sid=142","note":"議會個人官網"}],"social_media":null,"platform":"","param":null,"councilor":"aa61a4efacdf4955a4bd56f4a1a8e09a"},{"url":"http://councils.g0v.tw/api/councilors_terms/1616/","election_year":"1955","name":"賴克明","gender":"","party":"","title":"議員","constituency":6,"county":"新北市","district":"北投鎮、士林鎮","in_office":true,"contact_details":null,"term_start":"1955-01-16","term_end":{"date":"1958-02-20"},"education":"日據時代臺北商業學校夜間部","experience":"街協議會員\n七星水利委員會主委\n士林鎮農會常務理事\n士林鎮第1屆鎮長\n臺北縣議會第2、3屆議員\n*民國54年歿","remark":null,"image":"http://www.ntp.gov.tw/UpFile/CouncilorFile/TTCC0239.jpg","links":[{"url":"http://www.ntp.gov.tw/content/history/history01-5-p.aspx?sid=142","note":"議會個人官網"}],"social_media":null,"platform":"","param":null,"councilor":"aa61a4efacdf4955a4bd56f4a1a8e09a"}],"uid":"aa61a4efacdf4955a4bd56f4a1a8e09a","name":"賴克明","birth":null,"former_names":"","identifiers":["賴克明","頼克明"]},{"url":"http://councils.g0v.tw/api/councilors/879/","each_terms":[{"url":"http://councils.g0v.tw/api/councilors_terms/1557/","election_year":"1953","name":"郭顯明","gender":"","party":"","title":"議員","constituency":6,"county":"新北市","district":"北投鎮、士林鎮","in_office":true,"contact_details":null,"term_start":"1953-01-16","term_end":{"date":"1955-01-15"},"education":"商業學校畢業","experience":"陽明山黨部候補委員\n警民協會理事\n聯合報及民族晚報分社主任\n臺北縣議會第2屆議員","remark":null,"image":"http://www.ntp.gov.tw/UpFile/CouncilorFile/TTCC0237.jpg","links":[{"url":"http://www.ntp.gov.tw/content/history/history01-5-p.aspx?sid=141","note":"議會個人官網"}],"social_media":null,"platform":"","param":null,"councilor":"8a9db387914a4b778259cf3af11c56e8"}],"uid":"8a9db387914a4b778259cf3af11c56e8","name":"郭顯明","birth":null,"former_names":"","identifiers":["郭顯明"]},{"url":"http://councils.g0v.tw/api/councilors/1507/","each_terms":[{"url":"http://councils.g0v.tw/api/councilors_terms/2433/","election_year":"2009","name":"黃斯平","gender":"女","party":"無黨籍","title":"","constituency":4,"county":"屏東縣","district":"萬丹鄉、新園鄉、東港鎮","in_office":true,"contact_details":[{"type":"address","value":"屏東縣新園鄉93246瓦磘村後厝路91-3號","label":"通訊處"},{"type":"voice","value":"08-8683345","label":"電話"}],"term_start":"2009-12-25","term_end":{"date":"2014-12-25"},"education":null,"experience":null,"remark":null,"image":"http://www.ptcc.gov.tw/upload/upimage/39d45771-c7c6-8f5c-7706-dfc55d30bb4a-S.jpg","links":[{"url":"http://www.ptcc.gov.tw/?Page=PersionalDetail&Guid=b796aa98-1ec0-4bbd-e2e7-7e7a384adf3a","note":"議會個人官網"}],"social_media":null,"platform":"一、極力爭取婦幼權益及福利政策。\n二、監督縣政府配合地方重大建設。\n三、推廣縣內觀光發展。\n四、保護農業政策，以利農民權益。\n五、全縣淹水區、河川進行總檢討，以防止再度淹水之苦。\n六、監督教育體制，落實國民教育政策。","param":{"suggestions_years":{"count":349,"sum":19862450,"years":[{"count":101,"sum":5656450,"suggest_year":"2011","small_purchase":94},{"count":85,"sum":5850000,"suggest_year":"2012","small_purchase":80},{"count":72,"sum":3408000,"suggest_year":"2013","small_purchase":69},{"count":91,"sum":4948000,"suggest_year":"2014","small_purchase":86}]},"suggestions_associations":[{"count":20,"sum":895000,"label":"促進會"},{"count":24,"sum":480000,"label":"社區發展協會"},{"count":20,"sum":480000,"label":"農會"},{"count":18,"sum":360000,"label":"協進會"},{"count":3,"sum":115000,"label":"公會"},{"count":4,"sum":80000,"label":"體育會"},{"count":1,"sum":20000,"label":"研習會"},{"count":1,"sum":20000,"label":"民眾服務社"},{"count":0,"sum":0,"label":"學會"},{"count":0,"sum":0,"label":"商會"},{"count":0,"sum":0,"label":"婦聯會"},{"count":0,"sum":0,"label":"婦女會"},{"count":0,"sum":0,"label":"同心會"},{"count":0,"sum":0,"label":"早起會"},{"count":0,"sum":0,"label":"健身會"},{"count":0,"sum":0,"label":"宗親會"},{"count":0,"sum":0,"label":"功德會"},{"count":0,"sum":0,"label":"商業會"},{"count":0,"sum":0,"label":"長青會"},{"count":0,"sum":0,"label":"聯盟"}],"suggestions_piles":[{"count":62,"tokens":"國中|國小","sum":5631000,"label":"國中、國小"},{"count":174,"tokens":"協會|學會|商會|公會|協進會|促進會|研習會|婦聯會|婦女會|體育會|同心會|農會|早起會|健身會|宗親會|功德會|商業會|長青會|民眾服務社|聯盟","sum":4963000,"label":"協會"},{"count":24,"tokens":"廟|宮","sum":666000,"label":"廟"},{"count":15,"tokens":"消防局|消防隊|分隊|中隊","sum":584000,"label":"消防局"},{"count":10,"tokens":"警察局|分局","sum":563000,"label":"警察局"},{"count":2,"tokens":"辦公室|辦公處","sum":192000,"label":"辦公室"}]},"councilor":"cdfa5e1cf1ac4112845d8bb0d1872808"}],"uid":"cdfa5e1cf1ac4112845d8bb0d1872808","name":"黃斯平","birth":null,"former_names":"","identifiers":["黄斯平","黃斯平"]},{"url":"http://councils.g0v.tw/api/councilors/843/","each_terms":[{"url":"http://councils.g0v.tw/api/councilors_terms/1500/","election_year":"1951","name":"謝通","gender":"","party":"","title":"議員","constituency":5,"county":"新北市","district":"汐止鎮、南港鎮、內湖鄉","in_office":true,"contact_details":null,"term_start":"1951-01-04","term_end":{"date":"1953-01-05"},"education":"成淵中學畢業","experience":"省農會理事\n縣農會理事\n臺北縣議會第1、2、5屆議員","remark":null,"image":"http://www.ntp.gov.tw/UpFile/CouncilorFile/TTCC0133.jpg","links":[{"url":"http://www.ntp.gov.tw/content/history/history01-5-p.aspx?sid=97","note":"議會個人官網"}],"social_media":null,"platform":"","param":null,"councilor":"6e76173e37f54427ac5b094ae4e783f9"},{"url":"http://councils.g0v.tw/api/councilors_terms/1767/","election_year":"1961","name":"謝通","gender":"","party":"","title":"議員","constituency":5,"county":"新北市","district":"汐止鎮、南港鎮、內湖鄉","in_office":true,"contact_details":null,"term_start":"1961-02-21","term_end":{"date":"1964-02-20"},"education":"成淵中學畢業","experience":"省農會理事\n縣農會理事\n臺北縣議會第1、2、5屆議員","remark":null,"image":"http://www.ntp.gov.tw/UpFile/CouncilorFile/TTCC0133.jpg","links":[{"url":"http://www.ntp.gov.tw/content/history/history01-5-p.aspx?sid=97","note":"議會個人官網"}],"social_media":null,"platform":"","param":null,"councilor":"6e76173e37f54427ac5b094ae4e783f9"},{"url":"http://councils.g0v.tw/api/councilors_terms/1564/","election_year":"1953","name":"謝通","gender":"","party":"","title":"議員","constituency":5,"county":"新北市","district":"汐止鎮、南港鎮、內湖鄉","in_office":true,"contact_details":null,"term_start":"1953-01-16","term_end":{"date":"1955-01-15"},"education":"成淵中學畢業","experience":"省農會理事\n縣農會理事\n臺北縣議會第1、2、5屆議員","remark":null,"image":"http://www.ntp.gov.tw/UpFile/CouncilorFile/TTCC0133.jpg","links":[{"url":"http://www.ntp.gov.tw/content/history/history01-5-p.aspx?sid=97","note":"議會個人官網"}],"social_media":null,"platform":"","param":null,"councilor":"6e76173e37f54427ac5b094ae4e783f9"}],"uid":"6e76173e37f54427ac5b094ae4e783f9","name":"謝通","birth":null,"former_names":"","identifiers":["謝通"]},{"url":"http://councils.g0v.tw/api/councilors/290/","each_terms":[{"url":"http://councils.g0v.tw/api/councilors_terms/610/","election_year":"1969","name":"舒子寬","gender":"女","party":"無黨籍","title":"議員","constituency":null,"county":"臺北市","district":"","in_office":true,"contact_details":null,"term_start":"1969-12-25","term_end":{"date":"1973-12-25"},"education":"私立東吳大學肄業、國立西南聯合大學畢業。","experience":"戰時兒童保育會保教科保育股幹事、交通部秘書、農復會家庭主婦衛生教育工作計劃執行人、國立西南聯合大學校友會會長、亞洲婦女問題研究會發起人及首任總幹事、臺北市孤兒福利協會發起人及首任總幹事、美國洛氏基金會獎助赴東南亞、印度及日本考察社會福利及家庭計劃工作、美國亞洲協會資助赴美國參加世界人口與家庭計劃會議、美國國務院邀請赴美國參加社會福利及社區發展專家國際交換計劃、出席在菲律賓舉行之亞洲婦女領袖會議並發起組織亞洲婦女聯盟、出席在臺北舉行之東亞人口研討會。","remark":"","image":"http://www.tcc.gov.tw/../upload/photo/%E8%88%92%E5%AD%90%E5%AF%AC09.jpg","links":[{"url":"http://www.tcc.gov.tw/Councilor_Content_All.aspx?s=1944&d=200614&n=%E8%88%92%E5%AD%90%E5%AF%AC","note":"議會個人官網"}],"social_media":null,"platform":"","param":null,"councilor":"1ff38b942a614855ac7345c20a64420f"}],"uid":"1ff38b942a614855ac7345c20a64420f","name":"舒子寬","birth":"1920-06-14","former_names":"","identifiers":["舒子寬"]}]}