{"count":1904,"next":"http://councils.g0v.tw/api/councilors/?page=28","previous":"http://councils.g0v.tw/api/councilors/?page=26","results":[{"url":"http://councils.g0v.tw/api/councilors/292/","each_terms":[{"url":"http://councils.g0v.tw/api/councilors_terms/613/","election_year":"1969","name":"陳清標","gender":"男","party":"中國國民黨","title":"議員","constituency":null,"county":"臺北市","district":"","in_office":true,"contact_details":null,"term_start":"1969-12-25","term_end":{"date":"1973-12-25"},"education":"省警察學校警員班","experience":"臺北市省轄市議會第一、二、四、五、六屆以及臨時市議會議員、主任、委員、總幹事等職。","remark":"","image":"http://www.tcc.gov.tw/../upload/photo/%E9%99%B3%E6%B8%85%E6%A8%9909.jpg","links":[{"url":"http://www.tcc.gov.tw/Councilor_Content_All.aspx?s=1959&d=251104&n=%E9%99%B3%E6%B8%85%E6%A8%99","note":"議會個人官網"}],"social_media":null,"platform":"","param":null,"councilor":"d1d96591329f4fa3ae7a3ef0518212d5"}],"uid":"d1d96591329f4fa3ae7a3ef0518212d5","name":"陳清標","birth":"1925-11-04","former_names":"","identifiers":["陳清標"]},{"url":"http://councils.g0v.tw/api/councilors/293/","each_terms":[{"url":"http://councils.g0v.tw/api/councilors_terms/614/","election_year":"1969","name":"陳清軒","gender":"男","party":"中國國民黨","title":"議員","constituency":null,"county":"臺北市","district":"","in_office":true,"contact_details":null,"term_start":"1969-12-25","term_end":{"date":"1973-12-25"},"education":"臺灣總督府農事試驗場教育部農科","experience":"古亭區副區長、合作社理事、主席、董事長、臺北市省轄市議會第一至第六屆以及臨時市議會議員。","remark":"","image":"http://www.tcc.gov.tw/../upload/photo/%E9%99%B3%E6%B8%85%E8%BB%9209.jpg","links":[{"url":"http://www.tcc.gov.tw/Councilor_Content_All.aspx?s=1358&d=041028&n=%E9%99%B3%E6%B8%85%E8%BB%92","note":"議會個人官網"}],"social_media":null,"platform":"","param":null,"councilor":"88b687df99624d1f840169f6b213d7ab"}],"uid":"88b687df99624d1f840169f6b213d7ab","name":"陳清軒","birth":"1918-10-28","former_names":"","identifiers":["陳清軒"]},{"url":"http://councils.g0v.tw/api/councilors/294/","each_terms":[{"url":"http://councils.g0v.tw/api/councilors_terms/616/","election_year":"1969","name":"陳振家","gender":"男","party":"中國國民黨","title":"議員","constituency":null,"county":"臺北市","district":"","in_office":true,"contact_details":null,"term_start":"1969-12-25","term_end":{"date":"1973-12-25"},"education":"臺北帝國大學醫學專門部","experience":"衛生所主任、臺北市省轄市議會第三屆議員、醫師","remark":"","image":"http://www.tcc.gov.tw/../upload/photo/%E9%99%B3%E6%8C%AF%E5%AE%B609.jpg","links":[{"url":"http://www.tcc.gov.tw/Councilor_Content_All.aspx?s=1943&d=220820&n=%E9%99%B3%E6%8C%AF%E5%AE%B6","note":"議會個人官網"}],"social_media":null,"platform":"","param":null,"councilor":"385ba78a57744bd5a73c837f8dffc691"}],"uid":"385ba78a57744bd5a73c837f8dffc691","name":"陳振家","birth":"1922-08-20","former_names":"","identifiers":["陳振家"]},{"url":"http://councils.g0v.tw/api/councilors/295/","each_terms":[{"url":"http://councils.g0v.tw/api/councilors_terms/617/","election_year":"1969","name":"陳重光","gender":"男","party":"中國國民黨","title":"議員","constituency":null,"county":"臺北市","district":"","in_office":true,"contact_details":null,"term_start":"1969-12-25","term_end":{"date":"1973-12-25"},"education":"日本成城中學校","experience":"委員、理事長、臺灣省轄市議會第二、三屆議員","remark":"","image":"http://www.tcc.gov.tw/../upload/photo/%E9%99%B3%E9%87%8D%E5%85%8909.jpg","links":[{"url":"http://www.tcc.gov.tw/Councilor_Content_All.aspx?s=1612&d=131210&n=%E9%99%B3%E9%87%8D%E5%85%89","note":"議會個人官網"}],"social_media":null,"platform":"","param":null,"councilor":"ed35972e7f1f41c680ff78aaff8333d4"}],"uid":"ed35972e7f1f41c680ff78aaff8333d4","name":"陳重光","birth":"1913-12-10","former_names":"","identifiers":["陳重光"]},{"url":"http://councils.g0v.tw/api/councilors/296/","each_terms":[{"url":"http://councils.g0v.tw/api/councilors_terms/621/","election_year":"1969","name":"梁紹洲","gender":"男","party":"中國國民黨","title":"議員","constituency":null,"county":"臺北市","district":"","in_office":true,"contact_details":null,"term_start":"1969-12-25","term_end":{"date":"1973-12-25"},"education":"黃埔軍校七期","experience":"排連營長、大隊長、副處長、組長、委員","remark":"","image":"http://www.tcc.gov.tw/../upload/photo/%E6%A2%81%E7%B4%B9%E6%B4%B209.jpg","links":[{"url":"http://www.tcc.gov.tw/Councilor_Content_All.aspx?s=1581&d=080310&n=%E6%A2%81%E7%B4%B9%E6%B4%B2","note":"議會個人官網"}],"social_media":null,"platform":"","param":null,"councilor":"9b62d75733874a66bdccf75866310116"}],"uid":"9b62d75733874a66bdccf75866310116","name":"梁紹洲","birth":"1914-03-10","former_names":"","identifiers":["梁紹洲"]},{"url":"http://councils.g0v.tw/api/councilors/457/","each_terms":[{"url":"http://councils.g0v.tw/api/councilors_terms/803/","election_year":"1973","name":"洪進益","gender":"","party":"","title":"議員","constituency":7,"county":"新北市","district":"瑞芳鎮、雙溪鄉、貢寮鄉、平溪鄉","in_office":true,"contact_details":null,"term_start":"1973-05-01","term_end":{"date":"1977-12-29"},"education":"省立宜蘭農校高級部畢業","experience":"漁商公會書記\n臺灣省菸酒公賣局雙溪配銷所總幹事\n後備軍人輔導中心主任\n臺北縣議會第8屆議員\n全國勞工人權促進會會長","remark":null,"image":"http://www.ntp.gov.tw/UpFile/CouncilorFile/TTCC0849.jpg","links":[{"url":"http://www.ntp.gov.tw/content/history/history01-5-p.aspx?sid=318","note":"議會個人官網"}],"social_media":null,"platform":"","param":null,"councilor":"c1f23ca874e34d50b79731728d0f797a"}],"uid":"c1f23ca874e34d50b79731728d0f797a","name":"洪進益","birth":null,"former_names":"","identifiers":["洪進益"]},{"url":"http://councils.g0v.tw/api/councilors/458/","each_terms":[{"url":"http://councils.g0v.tw/api/councilors_terms/804/","election_year":"1973","name":"劉國烈","gender":"","party":"","title":"議員","constituency":5,"county":"新北市","district":"淡水鎮、八里鄉、三芝鄉、石門鄉","in_office":true,"contact_details":null,"term_start":"1973-05-01","term_end":{"date":"1977-12-29"},"education":"力行高中畢業","experience":"國民黨臺北縣黨部候補委員\n區黨部常務委員\n臺北縣團管區發展委員\n石門鄉後備軍人輔導中心主任\n石門鄉第9、10屆鄉長\n臺灣省農工企業股份有限公司\n臺北縣議會第7、8、9屆議員","remark":null,"image":"http://www.ntp.gov.tw/UpFile/CouncilorFile/TTCC0739.jpg","links":[{"url":"http://www.ntp.gov.tw/content/history/history01-5-p.aspx?sid=288","note":"議會個人官網"}],"social_media":null,"platform":"","param":null,"councilor":"9fef5717c5a94979b638d008173fd72c"},{"url":"http://councils.g0v.tw/api/councilors_terms/916/","election_year":"1977","name":"劉國烈","gender":"","party":"","title":"議員","constituency":4,"county":"新北市","district":"淡水鎮、八里鄉、三芝鄉、石門鄉","in_office":true,"contact_details":null,"term_start":"1977-12-30","term_end":{"date":"1982-02-28"},"education":"力行高中畢業","experience":"國民黨臺北縣黨部候補委員\n區黨部常務委員\n臺北縣團管區發展委員\n石門鄉後備軍人輔導中心主任\n石門鄉第9、10屆鄉長\n臺灣省農工企業股份有限公司\n臺北縣議會第7、8、9屆議員","remark":null,"image":"http://www.ntp.gov.tw/UpFile/CouncilorFile/TTCC0739.jpg","links":[{"url":"http://www.ntp.gov.tw/content/history/history01-5-p.aspx?sid=288","note":"議會個人官網"}],"social_media":null,"platform":"","param":null,"councilor":"9fef5717c5a94979b638d008173fd72c"},{"url":"http://councils.g0v.tw/api/councilors_terms/922/","election_year":"1968","name":"劉國烈","gender":"","party":"","title":"議員","constituency":5,"county":"新北市","district":"淡水鎮、八里鄉、三芝鄉、石門鄉","in_office":true,"contact_details":null,"term_start":"1968-02-21","term_end":{"date":"1973-04-30"},"education":"力行高中畢業","experience":"國民黨臺北縣黨部候補委員\n區黨部常務委員\n臺北縣團管區發展委員\n石門鄉後備軍人輔導中心主任\n石門鄉第9、10屆鄉長\n臺灣省農工企業股份有限公司\n臺北縣議會第7、8、9屆議員","remark":null,"image":"http://www.ntp.gov.tw/UpFile/CouncilorFile/TTCC0739.jpg","links":[{"url":"http://www.ntp.gov.tw/content/history/history01-5-p.aspx?sid=288","note":"議會個人官網"}],"social_media":null,"platform":"","param":null,"councilor":"9fef5717c5a94979b638d008173fd72c"}],"uid":"9fef5717c5a94979b638d008173fd72c","name":"劉國烈","birth":null,"former_names":"","identifiers":["劉國烈","劉國烈"]},{"url":"http://councils.g0v.tw/api/councilors/459/","each_terms":[{"url":"http://councils.g0v.tw/api/councilors_terms/805/","election_year":"1973","name":"麥春福","gender":"","party":"","title":"副議長","constituency":5,"county":"新北市","district":"淡水鎮、八里鄉、三芝鄉、石門鄉","in_office":true,"contact_details":null,"term_start":"1973-05-01","term_end":{"date":"1977-12-29"},"education":"日本近畿大學","experience":"淡水第一信用合作社理事主席\n淡水鎮鎮民代表會主席\n中華民國信用合作社聯合社理事主席\n臺灣省政府顧問及委員\n臺北縣議會第4、5、10屆議員\n臺北縣議會第6、7、8、9屆副議長\n臺灣省政府委員\n民國92年歿","remark":null,"image":"http://www.ntp.gov.tw/UpFile/CouncilorFile/TTCC0436.jpg","links":[{"url":"http://www.ntp.gov.tw/content/history/history01-5-p.aspx?sid=205","note":"議會個人官網"}],"social_media":null,"platform":"","param":null,"councilor":"198ab73716434dad965372defa88ec3e"},{"url":"http://councils.g0v.tw/api/councilors_terms/862/","election_year":"1968","name":"麥春福","gender":"","party":"","title":"議員","constituency":5,"county":"新北市","district":"淡水鎮、八里鄉、三芝鄉、石門鄉","in_office":true,"contact_details":null,"term_start":"1968-02-21","term_end":{"date":"1973-04-30"},"education":"日本近畿大學","experience":"淡水第一信用合作社理事主席\n淡水鎮鎮民代表會主席\n中華民國信用合作社聯合社理事主席\n臺灣省政府顧問及委員\n臺北縣議會第4、5、10屆議員\n臺北縣議會第6、7、8、9屆副議長\n臺灣省政府委員\n民國92年歿","remark":null,"image":"http://www.ntp.gov.tw/UpFile/CouncilorFile/TTCC0436.jpg","links":[{"url":"http://www.ntp.gov.tw/content/history/history01-5-p.aspx?sid=205","note":"議會個人官網"}],"social_media":null,"platform":"","param":null,"councilor":"198ab73716434dad965372defa88ec3e"},{"url":"http://councils.g0v.tw/api/councilors_terms/927/","election_year":"1977","name":"麥春福","gender":"","party":"","title":"副議長","constituency":4,"county":"新北市","district":"淡水鎮、八里鄉、三芝鄉、石門鄉","in_office":true,"contact_details":null,"term_start":"1977-12-30","term_end":{"date":"1982-02-28"},"education":"日本近畿大學","experience":"淡水第一信用合作社理事主席\n淡水鎮鎮民代表會主席\n中華民國信用合作社聯合社理事主席\n臺灣省政府顧問及委員\n臺北縣議會第4、5、10屆議員\n臺北縣議會第6、7、8、9屆副議長\n臺灣省政府委員\n民國92年歿","remark":null,"image":"http://www.ntp.gov.tw/UpFile/CouncilorFile/TTCC0436.jpg","links":[{"url":"http://www.ntp.gov.tw/content/history/history01-5-p.aspx?sid=205","note":"議會個人官網"}],"social_media":null,"platform":"","param":null,"councilor":"198ab73716434dad965372defa88ec3e"},{"url":"http://councils.g0v.tw/api/councilors_terms/1032/","election_year":"1982","name":"麥春福","gender":"","party":"","title":"議員","constituency":6,"county":"新北市","district":"淡水鎮、八里鄉、三芝鄉、石門鄉","in_office":true,"contact_details":null,"term_start":"1982-03-01","term_end":{"date":"1986-02-28"},"education":"日本近畿大學","experience":"淡水第一信用合作社理事主席\n淡水鎮鎮民代表會主席\n中華民國信用合作社聯合社理事主席\n臺灣省政府顧問及委員\n臺北縣議會第4、5、10屆議員\n臺北縣議會第6、7、8、9屆副議長\n臺灣省政府委員\n民國92年歿","remark":null,"image":"http://www.ntp.gov.tw/UpFile/CouncilorFile/TTCC0436.jpg","links":[{"url":"http://www.ntp.gov.tw/content/history/history01-5-p.aspx?sid=205","note":"議會個人官網"}],"social_media":null,"platform":"","param":null,"councilor":"198ab73716434dad965372defa88ec3e"},{"url":"http://councils.g0v.tw/api/councilors_terms/1703/","election_year":"1958","name":"麥春福","gender":"","party":"","title":"議員","constituency":4,"county":"新北市","district":"淡水鎮、三芝鄉、石門鄉、八里鄉","in_office":true,"contact_details":null,"term_start":"1958-02-21","term_end":{"date":"1961-02-20"},"education":"日本近畿大學","experience":"淡水第一信用合作社理事主席\n淡水鎮鎮民代表會主席\n中華民國信用合作社聯合社理事主席\n臺灣省政府顧問及委員\n臺北縣議會第4、5、10屆議員\n臺北縣議會第6、7、8、9屆副議長\n臺灣省政府委員\n民國92年歿","remark":null,"image":"http://www.ntp.gov.tw/UpFile/CouncilorFile/TTCC0436.jpg","links":[{"url":"http://www.ntp.gov.tw/content/history/history01-5-p.aspx?sid=205","note":"議會個人官網"}],"social_media":null,"platform":"","param":null,"councilor":"198ab73716434dad965372defa88ec3e"},{"url":"http://councils.g0v.tw/api/councilors_terms/1776/","election_year":"1961","name":"麥春福","gender":"","party":"","title":"議員","constituency":4,"county":"新北市","district":"淡水鎮、三芝鄉、石門鄉、八里鄉","in_office":true,"contact_details":null,"term_start":"1961-02-21","term_end":{"date":"1964-02-20"},"education":"日本近畿大學","experience":"淡水第一信用合作社理事主席\n淡水鎮鎮民代表會主席\n中華民國信用合作社聯合社理事主席\n臺灣省政府顧問及委員\n臺北縣議會第4、5、10屆議員\n臺北縣議會第6、7、8、9屆副議長\n臺灣省政府委員\n民國92年歿","remark":null,"image":"http://www.ntp.gov.tw/UpFile/CouncilorFile/TTCC0436.jpg","links":[{"url":"http://www.ntp.gov.tw/content/history/history01-5-p.aspx?sid=205","note":"議會個人官網"}],"social_media":null,"platform":"","param":null,"councilor":"198ab73716434dad965372defa88ec3e"},{"url":"http://councils.g0v.tw/api/councilors_terms/1836/","election_year":"1964","name":"麥春福","gender":"","party":"","title":"議員","constituency":5,"county":"新北市","district":"淡水鎮、八里鄉、三芝鄉、石門鄉","in_office":true,"contact_details":null,"term_start":"1964-02-21","term_end":{"date":"1968-02-20"},"education":"日本近畿大學","experience":"淡水第一信用合作社理事主席\n淡水鎮鎮民代表會主席\n中華民國信用合作社聯合社理事主席\n臺灣省政府顧問及委員\n臺北縣議會第4、5、10屆議員\n臺北縣議會第6、7、8、9屆副議長\n臺灣省政府委員\n民國92年歿","remark":null,"image":"http://www.ntp.gov.tw/UpFile/CouncilorFile/TTCC0436.jpg","links":[{"url":"http://www.ntp.gov.tw/content/history/history01-5-p.aspx?sid=205","note":"議會個人官網"}],"social_media":null,"platform":"","param":null,"councilor":"198ab73716434dad965372defa88ec3e"}],"uid":"198ab73716434dad965372defa88ec3e","name":"麥春福","birth":null,"former_names":"","identifiers":["麥春褔","麥春福"]},{"url":"http://councils.g0v.tw/api/councilors/383/","each_terms":[{"url":"http://councils.g0v.tw/api/councilors_terms/721/","election_year":"2010","name":"徐榮延","gender":"","party":"無黨籍","title":"議員","constituency":9,"county":"高雄市","district":"鳳山區","in_office":true,"contact_details":[{"type":"voice","value":"7630299","label":"傳真"},{"type":"fax","value":"7653199","label":"傳真"},{"type":"address","value":"高雄市鳳山區老爺里五甲一路530號","label":"通訊處"}],"term_start":"2010-12-25","term_end":{"date":"2014-12-25"},"education":"高雄師範大學碩士\n高雄工專二專部〈現改制高應大〉\n高雄高工\n嘉義嘉華中學\n嘉義太保新埤國小","experience":"高雄縣議會第14、15、16屆議員\n鳳山市民代表第5、6、7屆代表\n鳳山市第4屆老爺里里長\n高雄縣嘉義同鄉會顧問\n高雄縣雲林同鄉會顧問\n雷府大將公廟常務監事\n鳳山代天府副主委\n鳳山仁聖宮顧問\n鳳甲國中12、13屆家長會長\n中山大學公事所40學分班","remark":null,"image":"http://www.kcc.gov.tw/Upload/PeriodMembers/0701068.jpg","links":[{"url":"http://www.kcc.gov.tw/PeriodMembers/Introduction.aspx?KeyID=1733","note":"議會個人官網"}],"social_media":null,"platform":"一、縣市合併後，爭取在鳳山設立新高雄都會中心。\n二、監督政府，打擊貪污，維護社會公平正義。\n三、爭取衛武營都會公園升格國家公園，成為大高雄都會區最美麗的花園。\n四、成立「安定家庭專案」：補助結婚青年低利率房屋貸款、第一胎生育補助費每人2萬元及第二胎每人3萬元、5歲以下兒童育兒津貼每月2500元、就讀高中及大學比照公務人員發給教育補助費、三代同堂家庭每月發給敬老津貼每人五千元。\n五、捍衛勞工權益，反對不當勞動派遣，爭取提高基本薪資每月2萬3千元以上。\n六、爭取更新30年以上老舊校舍，美化市容，並撥補專業經費，維護校園安全。\n七、爭取整治鳳山溪、曹公圳活化廢水淨化資源，打造美麗鳳山清溪川。\n八、爭取鳳山鐵路地下化早日興建，帶動都市改造及商業繁榮。\n九、爭取五甲地區開闢大型停車場，紓解停車問題。\n十、推動古蹟活化，爭取規畫鳳山特產節慶嘉年華，開闢觀光資源，活化地方經濟。","param":{"bills_role_statistics":{"total":116,"priproposer":27,"sponsor":27,"cosponsor":89},"votes_decision_statistics":{"abstain":0,"disagree":0,"not_voting":0,"total":3,"agree":3,"conflict":0},"diversity":{"中國國民黨":0.3608910891089107,"民主進步黨":0.2694719471947194,"親民黨":0.0033003300330033,"無黨籍":0.3663366336633661},"suggestions_years":{"count":61,"sum":24278155,"years":[{"count":23,"sum":12415151,"suggest_year":"2012","small_purchase":0},{"count":21,"sum":11863004,"suggest_year":"2013","small_purchase":0},{"count":17,"sum":0,"suggest_year":"2014","small_purchase":17}]},"attendance_statistics":{"absent":3,"total":392},"suggestions_associations":[{"count":0,"sum":0,"label":"社區發展協會"},{"count":0,"sum":0,"label":"學會"},{"count":0,"sum":0,"label":"商會"},{"count":0,"sum":0,"label":"公會"},{"count":0,"sum":0,"label":"協進會"},{"count":0,"sum":0,"label":"促進會"},{"count":0,"sum":0,"label":"研習會"},{"count":0,"sum":0,"label":"婦聯會"},{"count":0,"sum":0,"label":"婦女會"},{"count":0,"sum":0,"label":"體育會"},{"count":0,"sum":0,"label":"同心會"},{"count":0,"sum":0,"label":"農會"},{"count":0,"sum":0,"label":"早起會"},{"count":0,"sum":0,"label":"健身會"},{"count":0,"sum":0,"label":"宗親會"},{"count":0,"sum":0,"label":"功德會"},{"count":0,"sum":0,"label":"商業會"},{"count":0,"sum":0,"label":"長青會"},{"count":0,"sum":0,"label":"民眾服務社"},{"count":0,"sum":0,"label":"聯盟"}],"bills_party_diversity":[{"party":"中國國民黨","ratio":0.4166666666666667},{"party":"無黨籍","ratio":0.2948717948717949},{"party":"民主進步黨","ratio":0.2777777777777778},{"party":"親民黨","ratio":0.010683760683760684}],"suggestions_piles":[{"count":11,"tokens":"國中|國小","sum":7290151,"label":"國中、國小"},{"count":17,"tokens":"警察局|分局","sum":6722000,"label":"警察局"},{"count":1,"tokens":"辦公室|辦公處","sum":644823,"label":"辦公室"},{"count":0,"tokens":"協會|學會|商會|公會|協進會|促進會|研習會|婦聯會|婦女會|體育會|同心會|農會|早起會|健身會|宗親會|功德會|商業會|長青會|民眾服務社|聯盟","sum":0,"label":"協會"},{"count":0,"tokens":"廟|宮","sum":0,"label":"廟"},{"count":0,"tokens":"消防局|消防隊|分隊|中隊","sum":0,"label":"消防局"}]},"councilor":"9cc459970a234a3f8d2a9618225050d9"}],"uid":"9cc459970a234a3f8d2a9618225050d9","name":"徐榮延","birth":null,"former_names":"","identifiers":["徐榮延"]},{"url":"http://councils.g0v.tw/api/councilors/385/","each_terms":[{"url":"http://councils.g0v.tw/api/councilors_terms/723/","election_year":"2010","name":"陳致中","gender":"","party":"無黨籍","title":"議員","constituency":10,"county":"高雄市","district":"前鎮區、小港區","in_office":false,"contact_details":[{"type":"voice","value":"","label":"傳真"},{"type":"voice","value":"","label":"傳真"},{"type":"fax","value":"","label":"傳真"},{"type":"fax","value":"","label":"傳真"},{"type":"address","value":"","label":"通訊處"},{"type":"address","value":"","label":"通訊處"}],"term_start":"2010-12-25","term_end":{"date":"2011-08-17","reason":""},"education":"臺大法律系","experience":"1.美國加州大學柏克萊分校法學碩士\n2.美國紐約大學法學碩士\n3.美國維吉尼亞大學法律博士班\n4.民進黨高雄市黨部民眾法律扶助顧問\n5.全穎法律事務所外國法顧問","remark":"已解職(100/8/17)","image":"http://www.kcc.gov.tw/Upload/PeriodMembers/0701051.jpg","links":[{"url":"http://www.kcc.gov.tw/PeriodMembers/Introduction.aspx?KeyID=1673","note":"議會個人官網"}],"social_media":null,"platform":"1.主張【台灣中國、一邊一國】，堅決捍衛台灣的國家主權獨立，反對兩岸統一。\n2.反對兩岸ECFA的簽訂與實施，民進黨一旦重新執政應廢除ECFA，依終止條款終止ECFA的執行。\n3.反對公部門僱用派遣勞工，規範民間企業訂定合理僱用上限，並加強勞檢，保障派遣勞工的工作條件。\n4.推動電子化候車系統，提高市公車載客效能。\n5.結合周邊腹地，擴大國際花卉中心，成為農產品行銷推廣專區與大高雄市民農場。\n6.活化山坡地利用，推動大坪頂觀光休閒產業，打造【高雄貓空】。\n7.規劃以前鎮漁港、前鎮河沿岸為軸，具地方特色的觀光產業。\n8.推廣在地特色公園，回復崗山仔公園言論廣場，並更名為【崗山仔民主公園】。\n9.全面實施【國中、小學童】免費營養午餐與學齡前幼兒教育券，加強對單親、外籍配偶家庭子女的優先照顧。\n10.爭取公有地釋出為綠地與休閒公園，增加【都市之肺】，以改善本區空氣品質。","param":{"bills_role_statistics":{"total":11,"priproposer":5,"sponsor":6,"cosponsor":5},"diversity":{"中國國民黨":0.06818181818181818,"民主進步黨":0.3598484848484848,"親民黨":0.0,"無黨籍":0.5719696969696969},"suggestions_years":{"count":21,"sum":10321768,"years":[{"count":21,"sum":10321768,"suggest_year":"2011","small_purchase":5}]},"attendance_statistics":{"absent":0,"total":63},"suggestions_associations":[{"count":0,"sum":0,"label":"社區發展協會"},{"count":0,"sum":0,"label":"學會"},{"count":0,"sum":0,"label":"商會"},{"count":0,"sum":0,"label":"公會"},{"count":0,"sum":0,"label":"協進會"},{"count":0,"sum":0,"label":"促進會"},{"count":0,"sum":0,"label":"研習會"},{"count":0,"sum":0,"label":"婦聯會"},{"count":0,"sum":0,"label":"婦女會"},{"count":0,"sum":0,"label":"體育會"},{"count":0,"sum":0,"label":"同心會"},{"count":0,"sum":0,"label":"農會"},{"count":0,"sum":0,"label":"早起會"},{"count":0,"sum":0,"label":"健身會"},{"count":0,"sum":0,"label":"宗親會"},{"count":0,"sum":0,"label":"功德會"},{"count":0,"sum":0,"label":"商業會"},{"count":0,"sum":0,"label":"長青會"},{"count":0,"sum":0,"label":"民眾服務社"},{"count":0,"sum":0,"label":"聯盟"}],"bills_party_diversity":null,"suggestions_piles":[{"count":17,"tokens":"國中|國小","sum":9732548,"label":"國中、國小"},{"count":2,"tokens":"警察局|分局","sum":183220,"label":"警察局"},{"count":0,"tokens":"協會|學會|商會|公會|協進會|促進會|研習會|婦聯會|婦女會|體育會|同心會|農會|早起會|健身會|宗親會|功德會|商業會|長青會|民眾服務社|聯盟","sum":0,"label":"協會"},{"count":0,"tokens":"辦公室|辦公處","sum":0,"label":"辦公室"},{"count":0,"tokens":"廟|宮","sum":0,"label":"廟"},{"count":0,"tokens":"消防局|消防隊|分隊|中隊","sum":0,"label":"消防局"}]},"councilor":"bd47c4e1111a4e7d92702d42834cfe63"}],"uid":"bd47c4e1111a4e7d92702d42834cfe63","name":"陳致中","birth":null,"former_names":"","identifiers":["陳致中"]}]}