{"count":1904,"next":"http://councils.g0v.tw/api/councilors/?page=29","previous":"http://councils.g0v.tw/api/councilors/?page=27","results":[{"url":"http://councils.g0v.tw/api/councilors/386/","each_terms":[{"url":"http://councils.g0v.tw/api/councilors_terms/724/","election_year":"2010","name":"孫慶龍","gender":"","party":"中國國民黨","title":"議員","constituency":15,"county":"高雄市","district":"居住茂林區、大社區、大樹區、仁武區、鳥松區、鳳山區、大寮區、旗津區、苓雅區、前鎮區、小港區、林園區之山地原住民","in_office":false,"contact_details":[{"type":"voice","value":"","label":"傳真"},{"type":"voice","value":"","label":"傳真"},{"type":"fax","value":"","label":"傳真"},{"type":"fax","value":"","label":"傳真"},{"type":"address","value":"","label":"通訊處"},{"type":"address","value":"","label":"通訊處"}],"term_start":"2010-12-25","term_end":{"date":"2011-11-30","reason":""},"education":"1.多納國小畢　\n2.里港國中畢\n3.三育聖經學校高中畢","experience":"1.茂林鄉14、15、16、17屆代表\n2.茂林鄉15、17屆代表會主席\n3.茂林鄉團委會會長\n4.高雄縣山地義勇警察中隊長\n5.教育部九年一貫族語教材主編\n6.高雄縣16屆縣議員\n7.龍祥土木包工業負責人\n8.茂林鄉民眾服務分社理事長\n9.營造協會理事長","remark":"辭職(100/11/30)","image":"http://www.kcc.gov.tw/Upload/PeriodMembers/0701066.jpg","links":[{"url":"http://www.kcc.gov.tw/PeriodMembers/Introduction.aspx?KeyID=66","note":"議會個人官網"}],"social_media":null,"platform":"一、落實監督市政確保市民權益。\n二、爭取每區編配一輛復康巴士以維護原住民老人健康。\n三、爭取成立巡山、巡河員之編制由在地原住民擔任，提供就業機會更保護山林原貌。\n四、建議請中鋼中船中油中化等公司僱用賦閒在家的原住民同胞。\n五、建議區公所設置律師顧問服務台，協助解決原住民法律疑義。\n六、爭取興建茂林隧道以加速地方發展。\n七、爭取將壽山動物園移設在茂林自然保護區，提昇茂林鄉觀光發展並增加在地居民之就業機會以達雙贏策略與效果。\n八、建議在高雄市區內設置原住民專屬球場方便球員使用。\n九、爭取經費設置萬山公共停車場。\n十、爭取經費盡速修建農用吊橋，以使農產運銷造福農民。\n十一、為照顧原住民同胞就業及其他諮詢便利，建議高市原住民事務委員會以下之單位多晉用原住民身份擔任。平地區公所應設置原住民服務窗口，以減少原漢慣習之差異所造成之負面評價。\n十二、爭取經費盡速重振茂林鄉觀光產業，造福區民。","param":{"bills_role_statistics":{"total":19,"priproposer":4,"sponsor":4,"cosponsor":15},"diversity":{"中國國民黨":0.7192982456140351,"民主進步黨":0.2807017543859649,"親民黨":0.0,"無黨籍":0.0},"suggestions_years":{"count":25,"sum":13726961,"years":[{"count":22,"sum":13726961,"suggest_year":"2011","small_purchase":8},{"count":3,"sum":0,"suggest_year":"2012","small_purchase":3}]},"attendance_statistics":{"absent":0,"total":98},"suggestions_associations":[{"count":3,"sum":0,"label":"社區發展協會"},{"count":0,"sum":0,"label":"學會"},{"count":0,"sum":0,"label":"商會"},{"count":0,"sum":0,"label":"公會"},{"count":0,"sum":0,"label":"協進會"},{"count":0,"sum":0,"label":"促進會"},{"count":0,"sum":0,"label":"研習會"},{"count":0,"sum":0,"label":"婦聯會"},{"count":0,"sum":0,"label":"婦女會"},{"count":0,"sum":0,"label":"體育會"},{"count":0,"sum":0,"label":"同心會"},{"count":0,"sum":0,"label":"農會"},{"count":0,"sum":0,"label":"早起會"},{"count":0,"sum":0,"label":"健身會"},{"count":0,"sum":0,"label":"宗親會"},{"count":0,"sum":0,"label":"功德會"},{"count":0,"sum":0,"label":"商業會"},{"count":0,"sum":0,"label":"長青會"},{"count":0,"sum":0,"label":"民眾服務社"},{"count":0,"sum":0,"label":"聯盟"}],"bills_party_diversity":null,"suggestions_piles":[{"count":20,"tokens":"國中|國小","sum":13485701,"label":"國中、國小"},{"count":2,"tokens":"警察局|分局","sum":241260,"label":"警察局"},{"count":3,"tokens":"協會|學會|商會|公會|協進會|促進會|研習會|婦聯會|婦女會|體育會|同心會|農會|早起會|健身會|宗親會|功德會|商業會|長青會|民眾服務社|聯盟","sum":0,"label":"協會"},{"count":0,"tokens":"辦公室|辦公處","sum":0,"label":"辦公室"},{"count":0,"tokens":"廟|宮","sum":0,"label":"廟"},{"count":0,"tokens":"消防局|消防隊|分隊|中隊","sum":0,"label":"消防局"}]},"councilor":"5a7f4cc3222244e48183a6d0df1339d0"}],"uid":"5a7f4cc3222244e48183a6d0df1339d0","name":"孫慶龍","birth":null,"former_names":"","identifiers":["孫慶龍"]},{"url":"http://councils.g0v.tw/api/councilors/390/","each_terms":[{"url":"http://councils.g0v.tw/api/councilors_terms/728/","election_year":"2010","name":"洪秀錦","gender":"","party":"中國國民黨","title":"議員","constituency":11,"county":"高雄市","district":"大寮區、林園區","in_office":true,"contact_details":[{"type":"voice","value":"7020922","label":"傳真"},{"type":"fax","value":"7027019","label":"傳真"},{"type":"email","value":"hsc310@hotmail.com","label":"電子信箱"},{"type":"address","value":"831大寮區承德街53號","label":"通訊處"}],"term_start":"2010-12-25","term_end":{"date":"2014-12-25"},"education":"高旗工家學校畢業","experience":"1.中庄國小義工媽媽。\n2.海全幼稚園負責人。\n3.第十六屆大寮鄉鄉民代表。現任高雄縣議員。\n4.輔英技術學院進修。","remark":null,"image":"http://www.kcc.gov.tw/Upload/PeriodMembers/0701062.jpg","links":[{"url":"http://www.kcc.gov.tw/PeriodMembers/Introduction.aspx?KeyID=62","note":"議會個人官網"}],"social_media":null,"platform":"一、爭取捷運大寮總站附近農業區開發繁榮地方。\n二、爭取捷運延伸到林園。\n三、爭取三隆國小設立以確保學童上學安全，造福地方。\n四、爭取雨水下水道興建以減少淹水現象，保障人民生命、財產安全。\n五、爭取八米以上道路開闢、造福地方。\n六、爭取一里一公園開闢、造福地方。\n七、保障婦女勞工農民榮民漁民等弱勢團體權益。\n八、保障外籍新娘工作權。\n九、爭取昭明國小及新厝分校學校用地徵收。","param":{"bills_role_statistics":{"total":228,"priproposer":109,"sponsor":110,"cosponsor":118},"votes_decision_statistics":{"abstain":0,"disagree":0,"not_voting":0,"total":3,"agree":3,"conflict":0},"diversity":{"中國國民黨":0.8143389199255128,"民主進步黨":0.05214152700186216,"親民黨":0.0074487895716946,"無黨籍":0.1260707635009311},"suggestions_years":{"count":79,"sum":37922059,"years":[{"count":24,"sum":12855684,"suggest_year":"2011","small_purchase":12},{"count":9,"sum":10769137,"suggest_year":"2012","small_purchase":0},{"count":15,"sum":12497238,"suggest_year":"2013","small_purchase":0},{"count":31,"sum":1800000,"suggest_year":"2014","small_purchase":29}]},"attendance_statistics":{"absent":7,"total":392},"suggestions_associations":[{"count":1,"sum":143000,"label":"社區發展協會"},{"count":0,"sum":0,"label":"學會"},{"count":0,"sum":0,"label":"商會"},{"count":0,"sum":0,"label":"公會"},{"count":0,"sum":0,"label":"協進會"},{"count":0,"sum":0,"label":"促進會"},{"count":0,"sum":0,"label":"研習會"},{"count":0,"sum":0,"label":"婦聯會"},{"count":0,"sum":0,"label":"婦女會"},{"count":0,"sum":0,"label":"體育會"},{"count":0,"sum":0,"label":"同心會"},{"count":0,"sum":0,"label":"農會"},{"count":0,"sum":0,"label":"早起會"},{"count":0,"sum":0,"label":"健身會"},{"count":0,"sum":0,"label":"宗親會"},{"count":0,"sum":0,"label":"功德會"},{"count":0,"sum":0,"label":"商業會"},{"count":0,"sum":0,"label":"長青會"},{"count":0,"sum":0,"label":"民眾服務社"},{"count":0,"sum":0,"label":"聯盟"}],"bills_party_diversity":[{"party":"中國國民黨","ratio":0.7596717467760844},{"party":"民主進步黨","ratio":0.12661195779601406},{"party":"無黨籍","ratio":0.09964830011723329},{"party":"親民黨","ratio":0.01406799531066823}],"suggestions_piles":[{"count":33,"tokens":"國中|國小","sum":22795150,"label":"國中、國小"},{"count":1,"tokens":"辦公室|辦公處","sum":240000,"label":"辦公室"},{"count":1,"tokens":"協會|學會|商會|公會|協進會|促進會|研習會|婦聯會|婦女會|體育會|同心會|農會|早起會|健身會|宗親會|功德會|商業會|長青會|民眾服務社|聯盟","sum":143000,"label":"協會"},{"count":1,"tokens":"廟|宮","sum":0,"label":"廟"},{"count":4,"tokens":"警察局|分局","sum":0,"label":"警察局"},{"count":0,"tokens":"消防局|消防隊|分隊|中隊","sum":0,"label":"消防局"}]},"councilor":"80026fd372e84492ada6d09d248bd65e"}],"uid":"80026fd372e84492ada6d09d248bd65e","name":"洪秀錦","birth":null,"former_names":"","identifiers":["洪秀錦"]},{"url":"http://councils.g0v.tw/api/councilors/393/","each_terms":[{"url":"http://councils.g0v.tw/api/councilors_terms/731/","election_year":"2010","name":"韓賜村","gender":"","party":"民主進步黨","title":"議員","constituency":11,"county":"高雄市","district":"大寮區、林園區","in_office":true,"contact_details":[{"type":"voice","value":"6411168-9","label":"傳真"},{"type":"fax","value":"641-2569","label":"傳真"},{"type":"address","value":"832林園區田厝路125巷15-1號","label":"通訊處"}],"term_start":"2010-12-25","term_end":{"date":"2014-12-25"},"education":"港埔國小\n林園國中\n高英工商","experience":"勤益技術學院\n第十五屆林園鄉鄉長\n林園鄉菊友會會長\n高雄縣桌球委員會主任委員\n大仁科技大學碩士班\n政治大學公共管理暨施政行銷班結業\n中山大學高階企業班結業\n第十七屆林園鄉鄉民代表","remark":null,"image":"http://www.kcc.gov.tw/Upload/PeriodMembers/0701059.jpg","links":[{"url":"http://www.kcc.gov.tw/PeriodMembers/Introduction.aspx?KeyID=59","note":"議會個人官網"}],"social_media":null,"platform":"1.爭取捷運、輕軌及市公車路網延伸至林園，活絡林園、大寮地區之繁榮發展。\n2.爭取台88快速道路及國道7號經大寮延伸至林園。\n3.積極推動林園、大寮大坪頂特定區之開發，與高雄市合併接軌。\n4.爭取建構全國第一座石化工業博物館，帶動提升林園、大寮觀光產業商機。\n5.加速林園清水巖風景區開發，提升觀光產業。\n6.加速開發林園8.2公里沿海風景區及中芸、汕尾漁港整體建構，打造林園觀光漁村新風貌。\n7.積極投入人力及物力輔導林園養殖漁業發展。\n8.加速林園、大寮道路、公園綠地及機關學校用地徵收並建構各社區里民活動中心、圖書館。\n9.維護林園、大寮社區安全，全面構建社區監視系統，改善交通、治安。\n10.全力爭取林園、大寮地方回饋金不縮水，積極要求縣市合併後仍比照原有福利發放並照顧老人及弱勢團體。\n11.推動市府全力輔導林園、大寮企業發展，促使產業升級。\n12.全力爭取林園、大寮老舊校舍改建，提升教學設備。","param":{"bills_role_statistics":{"total":59,"priproposer":2,"sponsor":2,"cosponsor":57},"votes_decision_statistics":{"abstain":0,"disagree":1,"not_voting":2,"total":3,"agree":0,"conflict":0},"diversity":{"中國國民黨":0.10388888888888889,"民主進步黨":0.6783333333333332,"親民黨":0.0,"無黨籍":0.21777777777777774},"suggestions_years":{"count":31,"sum":29868985,"years":[{"count":7,"sum":5554239,"suggest_year":"2011","small_purchase":0},{"count":16,"sum":11950746,"suggest_year":"2012","small_purchase":4},{"count":7,"sum":12344000,"suggest_year":"2013","small_purchase":1},{"count":1,"sum":20000,"suggest_year":"2014","small_purchase":1}]},"attendance_statistics":{"absent":5,"total":392},"suggestions_associations":[{"count":1,"sum":20000,"label":"社區發展協會"},{"count":0,"sum":0,"label":"學會"},{"count":0,"sum":0,"label":"商會"},{"count":0,"sum":0,"label":"公會"},{"count":0,"sum":0,"label":"協進會"},{"count":0,"sum":0,"label":"促進會"},{"count":0,"sum":0,"label":"研習會"},{"count":0,"sum":0,"label":"婦聯會"},{"count":0,"sum":0,"label":"婦女會"},{"count":0,"sum":0,"label":"體育會"},{"count":0,"sum":0,"label":"同心會"},{"count":0,"sum":0,"label":"農會"},{"count":0,"sum":0,"label":"早起會"},{"count":0,"sum":0,"label":"健身會"},{"count":0,"sum":0,"label":"宗親會"},{"count":0,"sum":0,"label":"功德會"},{"count":0,"sum":0,"label":"商業會"},{"count":0,"sum":0,"label":"長青會"},{"count":0,"sum":0,"label":"民眾服務社"},{"count":0,"sum":0,"label":"聯盟"}],"bills_party_diversity":[{"party":"民主進步黨","ratio":0.7538860103626943},{"party":"中國國民黨","ratio":0.14248704663212436},{"party":"無黨籍","ratio":0.09844559585492228},{"party":"親民黨","ratio":0.0051813471502590676}],"suggestions_piles":[{"count":8,"tokens":"國中|國小","sum":7366808,"label":"國中、國小"},{"count":1,"tokens":"警察局|分局","sum":479000,"label":"警察局"},{"count":4,"tokens":"廟|宮","sum":386000,"label":"廟"},{"count":1,"tokens":"協會|學會|商會|公會|協進會|促進會|研習會|婦聯會|婦女會|體育會|同心會|農會|早起會|健身會|宗親會|功德會|商業會|長青會|民眾服務社|聯盟","sum":20000,"label":"協會"},{"count":0,"tokens":"辦公室|辦公處","sum":0,"label":"辦公室"},{"count":0,"tokens":"消防局|消防隊|分隊|中隊","sum":0,"label":"消防局"}]},"councilor":"b019fb7d2209422498a4405c5f05248e"}],"uid":"b019fb7d2209422498a4405c5f05248e","name":"韓賜村","birth":null,"former_names":"","identifiers":["韓賜村"]},{"url":"http://councils.g0v.tw/api/councilors/400/","each_terms":[{"url":"http://councils.g0v.tw/api/councilors_terms/738/","election_year":"2010","name":"林國正","gender":"","party":"中國國民黨","title":"議員","constituency":10,"county":"高雄市","district":"前鎮區、小港區","in_office":false,"contact_details":[{"type":"voice","value":"721-1213","label":"傳真"},{"type":"fax","value":"721-3055","label":"傳真"},{"type":"email","value":"kuochen@kcc.gov.tw","label":"電子信箱"},{"type":"address","value":"806前鎮區永豐路19之6號","label":"通訊處"}],"term_start":"2010-12-25","term_end":{"date":"2012-02-01","reason":""},"education":"一、臺中一中畢業\n二、臺灣大學農業經濟系畢業\n三、中央大學財務管理研究所畢業","experience":"一、臺灣大學國家發展研究所博士班\n二、臺灣大學優秀青年代表\n三、全國大專優秀青年代表\n四、高雄區漁會總幹事\n五、實踐大學財金系講師\n六、2008年總統大選馬、蕭全國競選總部發言人\n七、國民黨青年團副總團長\n八、高雄市議員\n九、國民黨高雄市議會黨團書記長","remark":"101.2.1轉任立委","image":"http://www.kcc.gov.tw/Upload/PeriodMembers/0701052.jpg","links":[{"url":"http://www.kcc.gov.tw/PeriodMembers/Introduction.aspx?KeyID=52","note":"議會個人官網"}],"social_media":null,"platform":"選市議員，要選就選最好的！縣、市合併後的新高雄都需要最認真、最專業的市議員，沒有完整的學識訓練及多元的專業經歷根本就無法勝任。國正自擔任高雄市議員迄今，在高雄市議會的監督問政表現，無論在專業度、認真度及問政品質上，均連續獲得「高雄市公民監督公僕聯盟」評鑑為「整體問政品質最佳」、「問政議題領域最專業」的市議員。國正在此，懇請您再度惠賜寶貴的神聖一票，讓您、我共同承擔開創新高雄都的美好大未來！\n一、反貪污腐敗，要清廉改革；積極追查政府官員有關人謀不臧、官商勾結等等市政舞弊。追查因官員貪瀆所浪費之巨額人民血汗錢，找回真正的公理、正義之核心價值。\n二、嚴格監督市政府、妥善規劃婦幼、勞工、農漁民、身心障礙、榮民榮眷等弱勢團體的社福政策，並積極落實保障軍、公、教、警等公教人員的基本權益。\n三、大幅度限縮外勞進駐高雄市工作的名額，爭取高雄在地勞工的就業機會，並放寬失業職訓生活補助津貼的發放標準。\n四、積極推動海空自由貿易園區、經貿物流園區、雲端科技園區、學術研發園區、進行大高雄的經濟轉型，提供更多高雄市子弟的就業機會。\n五、高雄市政府的資源預算配置，長期重「北區」輕「南區」！爭取市政預算依人口、佔地比例及被工業污染程度合理地公平分配，改善前鎮區、小港區長期的落後發展。\n六、勤走基層，傾聽民意，認真問政，改善民瘼，增進市民之權益福祉，並恪盡一個專職議員的職責。","param":{"bills_role_statistics":{"total":39,"priproposer":18,"sponsor":18,"cosponsor":21},"diversity":{"中國國民黨":0.8534188034188034,"民主進步黨":0.12948717948717947,"親民黨":0.0,"無黨籍":0.017094017094017092},"suggestions_years":{"count":38,"sum":7906373,"years":[{"count":38,"sum":7906373,"suggest_year":"2011","small_purchase":23}]},"attendance_statistics":{"absent":0,"total":107},"suggestions_associations":[{"count":0,"sum":0,"label":"社區發展協會"},{"count":0,"sum":0,"label":"學會"},{"count":0,"sum":0,"label":"商會"},{"count":0,"sum":0,"label":"公會"},{"count":0,"sum":0,"label":"協進會"},{"count":0,"sum":0,"label":"促進會"},{"count":0,"sum":0,"label":"研習會"},{"count":0,"sum":0,"label":"婦聯會"},{"count":0,"sum":0,"label":"婦女會"},{"count":0,"sum":0,"label":"體育會"},{"count":0,"sum":0,"label":"同心會"},{"count":0,"sum":0,"label":"農會"},{"count":0,"sum":0,"label":"早起會"},{"count":0,"sum":0,"label":"健身會"},{"count":0,"sum":0,"label":"宗親會"},{"count":0,"sum":0,"label":"功德會"},{"count":0,"sum":0,"label":"商業會"},{"count":0,"sum":0,"label":"長青會"},{"count":0,"sum":0,"label":"民眾服務社"},{"count":0,"sum":0,"label":"聯盟"}],"bills_party_diversity":null,"suggestions_piles":[{"count":11,"tokens":"警察局|分局","sum":4336231,"label":"警察局"},{"count":22,"tokens":"國中|國小","sum":3340907,"label":"國中、國小"},{"count":3,"tokens":"辦公室|辦公處","sum":410080,"label":"辦公室"},{"count":1,"tokens":"消防局|消防隊|分隊|中隊","sum":191100,"label":"消防局"},{"count":0,"tokens":"協會|學會|商會|公會|協進會|促進會|研習會|婦聯會|婦女會|體育會|同心會|農會|早起會|健身會|宗親會|功德會|商業會|長青會|民眾服務社|聯盟","sum":0,"label":"協會"},{"count":0,"tokens":"廟|宮","sum":0,"label":"廟"}]},"councilor":"c55f300af0e14fbfabb7e7ba8e19eaf4"}],"uid":"c55f300af0e14fbfabb7e7ba8e19eaf4","name":"林國正","birth":null,"former_names":"","identifiers":["林國正","林國正"]},{"url":"http://councils.g0v.tw/api/councilors/968/","each_terms":[{"url":"http://councils.g0v.tw/api/councilors_terms/1774/","election_year":"1961","name":"陳家興","gender":"","party":"","title":"議員","constituency":4,"county":"新北市","district":"淡水鎮、三芝鄉、石門鄉、八里鄉","in_office":true,"contact_details":null,"term_start":"1961-02-21","term_end":{"date":"1964-02-20"},"education":"淡水公學校畢\n臺北成淵中學肄業","experience":"淡水菸酒配銷所常務理事\n淡水鎮鎮民代表\n信用合作社理監事\n義勇消防隊隊長\n漁會理事長\n臺灣省合作金庫設計委員\n臺北市魚市場管理委員\n臺北縣兵役協會淡水分會委員\n臺北縣議會第5、6屆議員","remark":null,"image":"http://www.ntp.gov.tw/UpFile/CouncilorFile/TTCC0529.jpg","links":[{"url":"http://www.ntp.gov.tw/content/history/history01-5-p.aspx?sid=235","note":"議會個人官網"}],"social_media":null,"platform":"","param":null,"councilor":"49438c6626304c1bb6fcf3ce9ff96404"},{"url":"http://councils.g0v.tw/api/councilors_terms/1831/","election_year":"1964","name":"陳家興","gender":"","party":"","title":"議員","constituency":5,"county":"新北市","district":"淡水鎮、八里鄉、三芝鄉、石門鄉","in_office":true,"contact_details":null,"term_start":"1964-02-21","term_end":{"date":"1968-02-20"},"education":"淡水公學校畢\n臺北成淵中學肄業","experience":"淡水菸酒配銷所常務理事\n淡水鎮鎮民代表\n信用合作社理監事\n義勇消防隊隊長\n漁會理事長\n臺灣省合作金庫設計委員\n臺北市魚市場管理委員\n臺北縣兵役協會淡水分會委員\n臺北縣議會第5、6屆議員","remark":null,"image":"http://www.ntp.gov.tw/UpFile/CouncilorFile/TTCC0529.jpg","links":[{"url":"http://www.ntp.gov.tw/content/history/history01-5-p.aspx?sid=235","note":"議會個人官網"}],"social_media":null,"platform":"","param":null,"councilor":"49438c6626304c1bb6fcf3ce9ff96404"}],"uid":"49438c6626304c1bb6fcf3ce9ff96404","name":"陳家興","birth":null,"former_names":"","identifiers":["陳家興"]},{"url":"http://councils.g0v.tw/api/councilors/969/","each_terms":[{"url":"http://councils.g0v.tw/api/councilors_terms/1780/","election_year":"1961","name":"陳進砲","gender":"","party":"","title":"議員","constituency":3,"county":"新北市","district":"新莊鎮、泰山鄉、三重鎮、五股鄉、蘆洲鄉、林口鄉","in_office":true,"contact_details":null,"term_start":"1961-02-21","term_end":{"date":"1964-02-20"},"education":"宜蘭高級農工職校\n東京航空專科學校","experience":"臺灣省政府建設廳水利局\n農林廳林產管理局\n三重市第3、5屆市長\n臺北縣議會第5屆議員","remark":null,"image":"http://www.ntp.gov.tw/UpFile/CouncilorFile/TTCC0523.jpg","links":[{"url":"http://www.ntp.gov.tw/content/history/history01-5-p.aspx?sid=234","note":"議會個人官網"}],"social_media":null,"platform":"","param":null,"councilor":"d54721abb15a4d91914e8cc4baa2a2dc"}],"uid":"d54721abb15a4d91914e8cc4baa2a2dc","name":"陳進砲","birth":null,"former_names":"","identifiers":["陳進砲"]},{"url":"http://councils.g0v.tw/api/councilors/970/","each_terms":[{"url":"http://councils.g0v.tw/api/councilors_terms/1784/","election_year":"1961","name":"李良和","gender":"","party":"","title":"議員","constituency":3,"county":"新北市","district":"新莊鎮、泰山鄉、三重鎮、五股鄉、蘆洲鄉、林口鄉","in_office":true,"contact_details":null,"term_start":"1961-02-21","term_end":{"date":"1964-02-20"},"education":"大同中學","experience":"蘆洲鄉第5屆鄉民代表會副主席\n蘆洲鄉調解委員會主席\n蘆洲鄉義勇消防隊隊長\n良和化學公司總經理\n臺北縣議會第5、6屆議員","remark":null,"image":"http://www.ntp.gov.tw/UpFile/CouncilorFile/TTCC0519.jpg","links":[{"url":"http://www.ntp.gov.tw/content/history/history01-5-p.aspx?sid=233","note":"議會個人官網"}],"social_media":null,"platform":"","param":null,"councilor":"7970869d6ec146acb9d8f48675e452ae"},{"url":"http://councils.g0v.tw/api/councilors_terms/1847/","election_year":"1964","name":"李良和","gender":"","party":"","title":"議員","constituency":3,"county":"新北市","district":"新莊鎮、蘆洲鄉、五股鄉、泰山鄉、林口鄉","in_office":true,"contact_details":null,"term_start":"1964-02-21","term_end":{"date":"1968-02-20"},"education":"大同中學","experience":"蘆洲鄉第5屆鄉民代表會副主席\n蘆洲鄉調解委員會主席\n蘆洲鄉義勇消防隊隊長\n良和化學公司總經理\n臺北縣議會第5、6屆議員","remark":null,"image":"http://www.ntp.gov.tw/UpFile/CouncilorFile/TTCC0519.jpg","links":[{"url":"http://www.ntp.gov.tw/content/history/history01-5-p.aspx?sid=233","note":"議會個人官網"}],"social_media":null,"platform":"","param":null,"councilor":"7970869d6ec146acb9d8f48675e452ae"}],"uid":"7970869d6ec146acb9d8f48675e452ae","name":"李良和","birth":null,"former_names":"","identifiers":["李良和","李良和"]},{"url":"http://councils.g0v.tw/api/councilors/971/","each_terms":[{"url":"http://councils.g0v.tw/api/councilors_terms/1785/","election_year":"1961","name":"李炳盛","gender":"","party":"","title":"議員","constituency":3,"county":"新北市","district":"新莊鎮、泰山鄉、三重鎮、五股鄉、蘆洲鄉、林口鄉","in_office":true,"contact_details":null,"term_start":"1961-02-21","term_end":{"date":"1964-02-20"},"education":"臺灣大學法商學院","experience":"彰化羽毛工廠股份有限公司董事長\n臺灣區羽毛輸出業公會理事長\n三重客運公司創辦人\n中華民國商務仲裁協會仲裁員\n商業政策研究委員會委員\n大振冷凍廠與貿易商五美行負責人\n中國國民黨全國第11次代表大會代表\n中央黨務顧問\n第3、4、5、6屆省議員\n監察委員\n臺北縣議會第5屆議員\n三重客運董事長\n統聯客運董事長\n富順證券公司董事長\n民國97年9月22日歿","remark":null,"image":"http://www.ntp.gov.tw/UpFile/CouncilorFile/TTCC0518.jpg","links":[{"url":"http://www.ntp.gov.tw/content/history/history01-5-p.aspx?sid=232","note":"議會個人官網"}],"social_media":null,"platform":"","param":null,"councilor":"cf69393173da491780bde47e7b746797"}],"uid":"cf69393173da491780bde47e7b746797","name":"李炳盛","birth":null,"former_names":"","identifiers":["李炳盛","李炳盛"]},{"url":"http://councils.g0v.tw/api/councilors/972/","each_terms":[{"url":"http://councils.g0v.tw/api/councilors_terms/1786/","election_year":"1961","name":"蔡尊節","gender":"","party":"","title":"議員","constituency":3,"county":"新北市","district":"新莊鎮、泰山鄉、三重鎮、五股鄉、蘆洲鄉、林口鄉","in_office":true,"contact_details":null,"term_start":"1961-02-21","term_end":{"date":"1964-02-20"},"education":"臺北中學畢業","experience":"臺北地方法院所屬公證人\n臺北地方法院場役書記\n臺灣拓殖株式會社書記\n臺北土地整理處業務組長\n臺北縣新莊地政事務所業務員兼地籍組長\n臺北縣新莊地政事務所技士兼地籍股長\n臺北縣新莊地政事務所地權股長\n臺北縣議會第5屆議員","remark":null,"image":"http://www.ntp.gov.tw/UpFile/CouncilorFile/TTCC0517.jpg","links":[{"url":"http://www.ntp.gov.tw/content/history/history01-5-p.aspx?sid=231","note":"議會個人官網"}],"social_media":null,"platform":"","param":null,"councilor":"5522ec863c754db8a9759968ba9e792f"}],"uid":"5522ec863c754db8a9759968ba9e792f","name":"蔡尊節","birth":null,"former_names":"","identifiers":["蔡尊節"]},{"url":"http://councils.g0v.tw/api/councilors/758/","each_terms":[{"url":"http://councils.g0v.tw/api/councilors_terms/1408/","election_year":"1946","name":"江朝盛","gender":"","party":"","title":"議員","constituency":null,"county":"新北市","district":"","in_office":true,"contact_details":null,"term_start":"1946-04-15","term_end":{"date":"1950-12-31"},"education":"高中畢業。","experience":"三星鄉長\n*補劉金全缺？","remark":null,"image":"http://www.ntp.gov.tw/UpFile/CouncilorFile/TTCC0066.jpg","links":[{"url":"http://www.ntp.gov.tw/content/history/history01-5-p.aspx?sid=66","note":"議會個人官網"}],"social_media":null,"platform":"","param":null,"councilor":"3805e14ec6264fb3aeb16672e6873553"}],"uid":"3805e14ec6264fb3aeb16672e6873553","name":"江朝盛","birth":null,"former_names":"","identifiers":["江朝盛"]}]}