{"count":1904,"next":"http://councils.g0v.tw/api/councilors/?page=30","previous":"http://councils.g0v.tw/api/councilors/?page=28","results":[{"url":"http://councils.g0v.tw/api/councilors/759/","each_terms":[{"url":"http://councils.g0v.tw/api/councilors_terms/1409/","election_year":"1946","name":"李榮進","gender":"","party":"","title":"議員","constituency":null,"county":"新北市","district":"","in_office":true,"contact_details":null,"term_start":"1946-04-15","term_end":{"date":"1950-12-31"},"education":"國民學校畢業\n農業技術員養成所畢業。","experience":"*太平鄉選出山胞議員旋辭","remark":null,"image":"http://www.ntp.gov.tw/UpFile/CouncilorFile/TTCC0067.jpg","links":[{"url":"http://www.ntp.gov.tw/content/history/history01-5-p.aspx?sid=67","note":"議會個人官網"}],"social_media":null,"platform":"","param":null,"councilor":"4e6aa002cc874e12b7296693c248336f"}],"uid":"4e6aa002cc874e12b7296693c248336f","name":"李榮進","birth":null,"former_names":"","identifiers":["李榮進","李榮進"]},{"url":"http://councils.g0v.tw/api/councilors/996/","each_terms":[{"url":"http://councils.g0v.tw/api/councilors_terms/1894/","election_year":"2010","name":"許正鴻","gender":"","party":"中國國民黨","title":"議員","constituency":8,"county":"新北市","district":"新店區、深坑區、石碇區、坪林區、烏來區","in_office":true,"contact_details":[{"type":"voice","value":"02-29156666","label":"電話"},{"type":"fax","value":"02-29177788","label":"傳真"},{"type":"address","value":"23147新北市新店區光明街288號4樓","label":"通訊處"},{"type":"email","value":"jjchhsu@gmail.com","label":"E-mail"}],"term_start":"2010-12-25","term_end":{"date":"2014-12-24"},"education":"東山高中、文化大學企業管理學系\n美國Fontbonne University企管碩士","experience":"台北縣政府總顧問許再恩辦公室主任\n立法委員羅明才國會辦公室助理\n台北縣新店市體育會理事長\n台北縣警察之友會顧問\n新店國際青年商會顧問\n新店後備憲兵中心顧問\n財團法人青潭坑文教公益基金會顧問\n憲兵學校士官班","remark":null,"image":"http://www.ntp.gov.tw/UpFile/CouncilorFile/XCC0157.jpg","links":[{"url":"http://www.ntp.gov.tw/content/list/list01-1-03-1.aspx?sid=558&cid=175","note":"議會個人官網"}],"social_media":null,"platform":"加速推動台北捷運環狀線建設計畫（新店大坪林站至五股工業區）。\n爭取捷運安坑線以改善安坑地區交通壅塞問題。\n加速推動安坑一號道路第二期工程。\n爭取捷運延伸至深坑，提升當地民眾交通便利性。\n爭取新店高中規劃興建地下停車場。\n推動闢建土城石門路與安康地區銜接道路。\n加速烏來立體停車場增建工程。\n推動加速規劃新店首座運動中心，提升運動休閒品質。\n爭取設立新店藝文中心，營造在地文化氣息。\n串連新店碧潭、深坑、石碇、坪林與烏來的自然觀光資源，爭取舉辦「新北市山水觀光季」為重點觀光活動。\n爭取提升治安經費汰舊監視系統，保障居民生命安全。\n爭取設立自行車救護隊為專職單位，365天守護民眾騎乘安全。\n爭取設立自行車警察隊，建立完善治安網絡。\n爭取提高托育補助，減輕家庭經濟負擔。\n爭取提升居家老人照護補助，減輕家庭負擔。\n爭取65歲以上老人搭乘公車完全免費。\n爭取保留新店、石碇、坪林與烏來鄉市民意外保險。\n爭取生育與育兒津貼每胎20萬元。\n推動都市計畫讓十四張地區成為未來新北市的信義區。\n加速推動?公圳沿線空間再造。\n加速推動中安新橋興建暨河岸景觀改善。","param":{"attendance_statistics":{"absent":30,"total":124},"bills_role_statistics":{"total":138,"priproposer":50,"sponsor":54,"cosponsor":84},"diversity":{"中國國民黨":0.9048579135941189,"無黨團結聯盟":0.02453801782749914,"民主進步黨":0.06309099544461899,"無黨籍":0.007513073133762788},"bills_party_diversity":[{"party":"中國國民黨","ratio":0.6865342163355408},{"party":"民主進步黨","ratio":0.2422737306843267},{"party":"無黨團結聯盟","ratio":0.04359823399558499},{"party":"無黨籍","ratio":0.024834437086092714},{"party":"臺灣團結聯盟","ratio":0.0027593818984547464}]},"councilor":"d036a30129074b2bb7081a1526a5dd9b"}],"uid":"d036a30129074b2bb7081a1526a5dd9b","name":"許正鴻","birth":null,"former_names":"","identifiers":["許正鴻"]},{"url":"http://councils.g0v.tw/api/councilors/1002/","each_terms":[{"url":"http://councils.g0v.tw/api/councilors_terms/1916/","election_year":"2010","name":"林水山","gender":"","party":"民主進步黨","title":"議員","constituency":4,"county":"新北市","district":"板橋區","in_office":true,"contact_details":[{"type":"voice","value":"02-22723505","label":"電話"},{"type":"fax","value":"02-29601562","label":"傳真"},{"type":"address","value":"22058新北市板橋區大觀路二段283號","label":"通訊處"},{"type":"email","value":"f221293@ntp.gov.tw","label":"E-mail"}],"term_start":"2012-10-29","term_end":{"date":"2014-12-24"},"education":"宜蘭員山中學","experience":"自盧修一立委起民進黨等選舉擔任板橋第五選區後援會會長\n白鷺鷥政治研究所\n台北大學公共行政管理研習班\n板橋市市民代表會副主席\n民進黨全國黨代表\n台北縣民防協進會理事\n板橋市民防第一中隊隊長\n板橋市後備憲兵連絡中心\n台灣好茶研究協會創辦人\n臺北登山會顧問\n中華民國紅十字會總會浮洲救生隊等顧問","remark":null,"image":"http://www.ntp.gov.tw/UpFile/CouncilorFile/%E6%9E%97%E6%B0%B4%E5%B1%B1_180.jpg","links":[{"url":"http://www.ntp.gov.tw/content/list/list01-1-03-1.aspx?sid=578&cid=171","note":"議會個人官網"}],"social_media":null,"platform":"護正義、扶弱勢、拼經濟、做長工。\n重視幼兒教育，提供幼兒醫療、教育補助。\n爭取各校開放教室，增加幼稚園招生班次，推動公幼延長二小時。\n推動公立托老、落實社區照顧網絡、增建老人會館及文康中心，提供老人文康休閒好環境，確保獨居老人健康與安全。\n儘速成立更多功能超大型活動廣場，讓青少年有更寬大活動空間。\n公園增設無障礙空間，使弱勢市民有休閒去處。\n建構志工服務網絡，關懷與協助弱勢居民。\n加速推動浮洲都市計劃，改善浮洲居民生活品質。\n加速老舊社區改造更新工程，平衡板橋整體發展。\n督促整治湳仔溝工程，提供市民良好生活環境。\n廣植樹木、全面落實垃圾減量與資源回收再利用，並加速污水水道建設。\n推動垃圾減量運動，落實資源回收，打造永續生活環境。","param":{"attendance_statistics":{"absent":64,"total":113},"bills_role_statistics":{"total":7,"priproposer":1,"sponsor":5,"cosponsor":2},"diversity":{"中國國民黨":0.10956289645314035,"無黨團結聯盟":0.030992908874498175,"民主進步黨":0.8570403485185154,"無黨籍":0.002403846153846154},"bills_party_diversity":[{"party":"民主進步黨","ratio":0.7186544342507645},{"party":"中國國民黨","ratio":0.18960244648318042},{"party":"無黨團結聯盟","ratio":0.04281345565749235},{"party":"無黨籍","ratio":0.039755351681957186},{"party":"臺灣團結聯盟","ratio":0.009174311926605505}]},"councilor":"79a8aad9b8584893840634efad09b4a5"}],"uid":"79a8aad9b8584893840634efad09b4a5","name":"林水山","birth":null,"former_names":"","identifiers":["林水山","林水山"]},{"url":"http://councils.g0v.tw/api/councilors/1003/","each_terms":[{"url":"http://councils.g0v.tw/api/councilors_terms/1919/","election_year":"2010","name":"金瑞龍","gender":"","party":"中國國民黨","title":"議員","constituency":5,"county":"新北市","district":"中和區","in_office":true,"contact_details":[{"type":"voice","value":"02-22235247","label":"電話"},{"type":"fax","value":"02-22233650","label":"傳真"},{"type":"address","value":"23543新北市中和區莒光路11號","label":"通訊處"},{"type":"email","value":"gold22235247@yahoo.com.tw","label":"E-mail"}],"term_start":"2010-12-25","term_end":{"date":"2014-12-24"},"education":"中華中學","experience":"國立台北科技大學學士學分班\n景文科技大學專科班\n中和市市民代表\n中和市瑞穗里第5、6、7屆里長\n中和市關懷弱勢協會理事長\n中和市莒東社區發展協會理事長\n中和市體育會韻律舞蹈委員會主任委員\n讓愛走動浮萍兒計劃發起人\n慈濟功德會志工及各社團顧問","remark":null,"image":"http://www.ntp.gov.tw/UpFile/CouncilorFile/XCC0135.jpg","links":[{"url":"http://www.ntp.gov.tw/content/list/list01-1-03-1.aspx?sid=552&cid=172","note":"議會個人官網"}],"social_media":null,"platform":"朱立倫、金瑞龍聯手出擊，新北市精彩可期！\n金瑞龍主張【人人有好康、 人人少負擔、全民闔家歡】\n新北市預算近1500億，與新北市長朱立倫共同爭取各項福利政策，台北市有的，新北市也要有！\n獎勵生育津貼每胎三萬元。\n發放五歲以下兒童，育兒補助每月伍仟元。\n補助三至六歲幼兒幼教每年二萬元。\n補助65歲以上老人免費裝假牙。\n爭取單親家庭低利創業貸款。\n成立社區臨時托育系統。\n成立社區孩童遊樂園地，打造適合兒童遊樂、遊戲場所。\n充分落實照顧弱勢族群；迅速審核低收入戶過程及降低中低收入戶標準。\n爭取設立多處公立雙語托兒所；降低年輕父母負擔。\n爭取南勢角出口交流閘道，改善交通狀況。\n督促捷運萬大中和樹林線儘快動工闢建。\n將國防管理學院閒置空間改造闢建為多功能休閒運動中心。\n提升加強中和都市更新計畫及活絡新社區美化工程。\n規劃南勢角捷運站周邊形象打造國際型觀光商圈，吸引觀光人潮，促進當地商機，活絡地方經濟。\n督促員山灰地區重劃與區段農地徵收，爭取設立農業休閒體驗生技園區，增加中和區在地人就業機會。\n打造中和一日遊景點(宗教寺廟文化及南勢角觀光夜市)，推廣各宗教觀光景點(烘爐地土地公、四面佛、圓通寺)以利地方發展。\n督促學校加強學生人文倫理教育，端正青少年人格健全發展。","param":{"attendance_statistics":{"absent":12,"total":124},"bills_role_statistics":{"total":157,"priproposer":8,"sponsor":14,"cosponsor":143},"diversity":{"中國國民黨":0.8754674085795997,"無黨團結聯盟":0.016756975921224847,"民主進步黨":0.10480883211352784,"無黨籍":0.002966783385647483},"bills_party_diversity":[{"party":"中國國民黨","ratio":0.6641758241758242},{"party":"民主進步黨","ratio":0.2720879120879121},{"party":"無黨團結聯盟","ratio":0.04},{"party":"無黨籍","ratio":0.02197802197802198},{"party":"臺灣團結聯盟","ratio":0.0017582417582417582}]},"councilor":"797dd98225714cf0a3d0afc76de46864"}],"uid":"797dd98225714cf0a3d0afc76de46864","name":"金瑞龍","birth":null,"former_names":"","identifiers":["金瑞龍"]},{"url":"http://councils.g0v.tw/api/councilors/1006/","each_terms":[{"url":"http://councils.g0v.tw/api/councilors_terms/11696/","election_year":"2014","name":"張晉婷","gender":"女","party":"臺灣團結聯盟","title":null,"constituency":2,"county":"新北市","district":"林口區、五股區、泰山區、新莊區","in_office":false,"contact_details":null,"term_start":"2014-12-25","term_end":{"date":"2016-04-29","judicial_links":"http://jirs.judicial.gov.tw/FJUD/index_1_S.aspx?p=IwfZirs%2fsVvYriC6AcgFtujfFIZH%2ftOcEiRbHzrT34s%3d\nhttp://jirs.judicial.gov.tw/FJUD/index_1_S.aspx?p=tARGzkE%2bhmAHP%2fwKMwpxFawlCK9bpIQnjFAuSfygqek%3d","reason":"當選無效","ref":"http://www.cec.gov.tw/central/cms/bulletin/1472","replacement":"陳明義"},"education":null,"experience":null,"remark":null,"image":"","links":null,"social_media":null,"platform":"","param":{"suggestions_years":{"count":23,"sum":4806680,"years":[{"count":19,"sum":3171680,"suggest_year":"2015","small_purchase":11},{"count":4,"sum":1635000,"suggest_year":"2016","small_purchase":0}]},"bills_role_statistics":{"total":195,"priproposer":64,"sponsor":87,"cosponsor":108},"attendance_statistics":{"absent":31,"total":74},"suggestions_associations":[{"count":0,"sum":0,"label":"社區發展協會"},{"count":0,"sum":0,"label":"學會"},{"count":0,"sum":0,"label":"商會"},{"count":0,"sum":0,"label":"公會"},{"count":0,"sum":0,"label":"協進會"},{"count":0,"sum":0,"label":"促進會"},{"count":0,"sum":0,"label":"研習會"},{"count":0,"sum":0,"label":"婦聯會"},{"count":0,"sum":0,"label":"婦女會"},{"count":0,"sum":0,"label":"體育會"},{"count":0,"sum":0,"label":"同心會"},{"count":0,"sum":0,"label":"農會"},{"count":0,"sum":0,"label":"早起會"},{"count":0,"sum":0,"label":"健身會"},{"count":0,"sum":0,"label":"宗親會"},{"count":0,"sum":0,"label":"功德會"},{"count":0,"sum":0,"label":"商業會"},{"count":0,"sum":0,"label":"長青會"},{"count":0,"sum":0,"label":"民眾服務社"},{"count":0,"sum":0,"label":"聯盟"}],"bills_party_diversity":[{"party":"民主進步黨","ratio":0.6779730281977933},{"party":"中國國民黨","ratio":0.09521863506334287},{"party":"無黨團結聯盟","ratio":0.09154066203514508},{"party":"臺灣團結聯盟","ratio":0.07968941561095219},{"party":"無黨籍","ratio":0.05557825909276665}],"suggestions_piles":[{"count":12,"tokens":"國中|國小","sum":3812000,"label":"國中、國小"},{"count":3,"tokens":"消防局|消防隊|分隊|中隊","sum":376680,"label":"消防局"},{"count":2,"tokens":"辦公室|辦公處","sum":113000,"label":"辦公室"},{"count":0,"tokens":"協會|學會|商會|公會|協進會|促進會|研習會|婦聯會|婦女會|體育會|同心會|農會|早起會|健身會|宗親會|功德會|商業會|長青會|民眾服務社|聯盟","sum":0,"label":"協會"},{"count":0,"tokens":"廟|宮","sum":0,"label":"廟"},{"count":0,"tokens":"警察局|分局","sum":0,"label":"警察局"}]},"councilor":"93b66703438444e5aafab1a325693f1b"},{"url":"http://councils.g0v.tw/api/councilors_terms/1928/","election_year":"2010","name":"張晉婷","gender":"","party":"民主進步黨","title":"議員","constituency":2,"county":"新北市","district":"林口區、五股區、泰山區、新莊區","in_office":true,"contact_details":[{"type":"voice","value":"02-29712102","label":"電話"},{"type":"fax","value":"02-29887309","label":"傳真"},{"type":"address","value":"24874新北市五股區興珍里9鄰四維路88號","label":"通訊處"},{"type":"email","value":"hirome19@yahoo.com.tw","label":"E-mail"}],"term_start":"2010-12-25","term_end":{"date":"2014-12-24"},"education":"稻江商職觀光科畢","experience":"財團法人林阿仁基金會執行長\n台北縣議員林義一服務處執行秘書\n五股鄉民代表會副主席\n國立空中大學公共行政學系","remark":null,"image":"http://www.ntp.gov.tw/UpFile/CouncilorFile/XCC0108.jpg","links":[{"url":"http://www.ntp.gov.tw/content/list/list01-1-03-1.aspx?sid=484&cid=169","note":"議會個人官網"},{"url":"http://www.smiletintin.com.tw/","note":"個人網站"}],"social_media":null,"platform":"婦幼守護者：1守護下一代的未來2守護弱勢者的未來3守護台灣的未來\n托育政策：1.推動幼托整合政策，讓幼兒教育和托育整合為一，完整照顧0到12歲的兒童。2.推動廣設公立幼兒園，減輕家長的負擔。3.推動廣設公立安親照顧，於國小及社區內設置公立安親班。\n教育政策：1.推動12年國教，減輕學生升學壓力。2.推動高中職社區化，讓在地子弟就近入學。3.推動新北市子弟就學貸款免利息。\n婦女政策：1.推動單親家庭生活補助、教育補助及急難救助。2.推動婦女創業輔導措施。3.推動婦女成長教育。\n老人政策：1.推動長期照護政策，讓老人照護成為政府重要施政項目。2.推動機構式、居家式及社區式之老人照護，滿足所有人的需求。3.推動65歲以上老人免費裝假牙。4.推動老人交通接送服務。","param":{"attendance_statistics":{"absent":70,"total":124},"bills_role_statistics":{"total":149,"priproposer":57,"sponsor":80,"cosponsor":69},"diversity":{"中國國民黨":0.040291089514348184,"無黨團結聯盟":0.01089485001042265,"民主進步黨":0.948701371721567,"無黨籍":0.0001126887536623845},"bills_party_diversity":[{"party":"民主進步黨","ratio":0.7755004766444232},{"party":"中國國民黨","ratio":0.11105815061963775},{"party":"臺灣團結聯盟","ratio":0.07102001906577693},{"party":"無黨籍","ratio":0.021448999046711152},{"party":"無黨團結聯盟","ratio":0.020972354623450904}]},"councilor":"93b66703438444e5aafab1a325693f1b"}],"uid":"93b66703438444e5aafab1a325693f1b","name":"張晉婷","birth":null,"former_names":"","identifiers":["張晉婷"]},{"url":"http://councils.g0v.tw/api/councilors/1473/","each_terms":[{"url":"http://councils.g0v.tw/api/councilors_terms/2399/","election_year":"2009","name":"曾勳任","gender":"男","party":"民主進步黨","title":"","constituency":3,"county":"屏東縣","district":"內埔鄉、竹田鄉、萬巒鄉、潮州鎮、新埤鄉、枋寮鄉","in_office":true,"contact_details":[{"type":"address","value":"屏東縣萬巒鄉92341萬巒村褒忠路200-3號","label":"通訊處"},{"type":"voice","value":"08-7812345","label":"電話"}],"term_start":"2009-12-25","term_end":{"date":"2014-12-25"},"education":null,"experience":null,"remark":null,"image":"http://www.ptcc.gov.tw/upload/upimage/c6e86087-80a0-c85c-a019-82de09cc62d7-S.jpg","links":[{"url":"http://www.ptcc.gov.tw/?Page=PersionalDetail&Guid=d23f343b-b197-2e60-1def-bca9dcef0045","note":"議會個人官網"}],"social_media":null,"platform":"一、堅持本土精神，維護台灣民主尊嚴。\n二、承擔政治責任，爭取六堆客家權益。\n三、爭取普設鄉鎮路標、路牌，整頓街道市容觀瞻。\n四、督促政府落實推動河川整治，營造自然生態的親水環境。\n五、督促教育處，充實教育設施，提升教育水平。\n六、督促農業處，落實農業政策，提升農村農民經濟生活條件。\n七、督促警政單位，防治掃蕩犯罪，維護治安，順暢交通，讓縣民能夠安居樂業。\n八、監督縣政府，為縣民利益把關，並願與全體縣民共同開創清廉、平安、尊嚴的「屏東新縣政」。","param":{"suggestions_years":{"count":461,"sum":19306000,"years":[{"count":102,"sum":4636000,"suggest_year":"2011","small_purchase":98},{"count":128,"sum":5959000,"suggest_year":"2012","small_purchase":126},{"count":94,"sum":3710000,"suggest_year":"2013","small_purchase":92},{"count":137,"sum":5001000,"suggest_year":"2014","small_purchase":134}]},"suggestions_associations":[{"count":154,"sum":3460000,"label":"社區發展協會"},{"count":16,"sum":903000,"label":"體育會"},{"count":13,"sum":525000,"label":"促進會"},{"count":7,"sum":170000,"label":"農會"},{"count":2,"sum":165000,"label":"學會"},{"count":5,"sum":100000,"label":"協進會"},{"count":1,"sum":20000,"label":"研習會"},{"count":0,"sum":0,"label":"商會"},{"count":0,"sum":0,"label":"公會"},{"count":0,"sum":0,"label":"婦聯會"},{"count":0,"sum":0,"label":"婦女會"},{"count":0,"sum":0,"label":"同心會"},{"count":0,"sum":0,"label":"早起會"},{"count":0,"sum":0,"label":"健身會"},{"count":0,"sum":0,"label":"宗親會"},{"count":0,"sum":0,"label":"功德會"},{"count":0,"sum":0,"label":"商業會"},{"count":0,"sum":0,"label":"長青會"},{"count":0,"sum":0,"label":"民眾服務社"},{"count":0,"sum":0,"label":"聯盟"}],"suggestions_piles":[{"count":302,"tokens":"協會|學會|商會|公會|協進會|促進會|研習會|婦聯會|婦女會|體育會|同心會|農會|早起會|健身會|宗親會|功德會|商業會|長青會|民眾服務社|聯盟","sum":8108000,"label":"協會"},{"count":20,"tokens":"國中|國小","sum":1233000,"label":"國中、國小"},{"count":13,"tokens":"廟|宮","sum":1182000,"label":"廟"},{"count":3,"tokens":"警察局|分局","sum":178000,"label":"警察局"},{"count":1,"tokens":"辦公室|辦公處","sum":98000,"label":"辦公室"},{"count":2,"tokens":"消防局|消防隊|分隊|中隊","sum":80000,"label":"消防局"}]},"councilor":"6611ec17d051447b90ca2c8686a3650a"}],"uid":"6611ec17d051447b90ca2c8686a3650a","name":"曾勳任","birth":null,"former_names":"","identifiers":["曾勲任","曾勳任","曽勳任","曽勲任"]},{"url":"http://councils.g0v.tw/api/councilors/1476/","each_terms":[{"url":"http://councils.g0v.tw/api/councilors_terms/2402/","election_year":"2009","name":"黃明榮","gender":"男","party":"民主進步黨","title":"","constituency":3,"county":"屏東縣","district":"內埔鄉、竹田鄉、萬巒鄉、潮州鎮、新埤鄉、枋寮鄉","in_office":true,"contact_details":[{"type":"address","value":"屏東縣枋寮鄉94049隆山村僑德路216巷40號","label":"通訊處"},{"type":"voice","value":"08-8783417","label":"電話"}],"term_start":"2009-12-25","term_end":{"date":"2014-12-25"},"education":null,"experience":null,"remark":null,"image":"http://www.ptcc.gov.tw/upload/upimage/04edcdb9-93f3-5d25-7e41-b6bfa9e88fd8-S.jpg","links":[{"url":"http://www.ptcc.gov.tw/?Page=PersionalDetail&Guid=cdfaea61-a629-f1c3-b4c8-fe01f1b05f49","note":"議會個人官網"}],"social_media":null,"platform":"一、落實農漁民經費補助及輔導政策，確實嘉惠到基層農民手上。\n二、爭取政府沿山部落居民，經濟產業發展，提高居民生活品質。\n三、爭取地方經費實際補助預算案，落實基層各項公共事務建設。\n四、落實專業問政，熱心服務為民喉舌，以提昇縣政績效與品質。\n五、督促本縣教育政策，重視國民教育，落實國教效率與效能。\n六、督促縣府重視各族群傳統文化與技藝，落實各族群文化與技藝傳承。\n七、督促衛生機構，提昇養護中心老人醫療服務，發揮應有效能。\n八、協助警政單位，做好打擊犯罪工作，確保本縣居民身家財產安全。","param":{"suggestions_years":{"count":465,"sum":23585615,"years":[{"count":124,"sum":6740000,"suggest_year":"2011","small_purchase":115},{"count":120,"sum":4843000,"suggest_year":"2012","small_purchase":117},{"count":98,"sum":5664615,"suggest_year":"2013","small_purchase":93},{"count":123,"sum":6338000,"suggest_year":"2014","small_purchase":115}]},"suggestions_associations":[{"count":102,"sum":2090000,"label":"社區發展協會"},{"count":21,"sum":1056000,"label":"聯盟"},{"count":24,"sum":1045000,"label":"農會"},{"count":8,"sum":165000,"label":"體育會"},{"count":5,"sum":100000,"label":"協進會"},{"count":4,"sum":100000,"label":"促進會"},{"count":4,"sum":80000,"label":"研習會"},{"count":1,"sum":20000,"label":"婦女會"},{"count":1,"sum":15000,"label":"商會"},{"count":0,"sum":0,"label":"學會"},{"count":0,"sum":0,"label":"公會"},{"count":0,"sum":0,"label":"婦聯會"},{"count":0,"sum":0,"label":"同心會"},{"count":0,"sum":0,"label":"早起會"},{"count":0,"sum":0,"label":"健身會"},{"count":0,"sum":0,"label":"宗親會"},{"count":0,"sum":0,"label":"功德會"},{"count":0,"sum":0,"label":"商業會"},{"count":0,"sum":0,"label":"長青會"},{"count":0,"sum":0,"label":"民眾服務社"}],"suggestions_piles":[{"count":276,"tokens":"協會|學會|商會|公會|協進會|促進會|研習會|婦聯會|婦女會|體育會|同心會|農會|早起會|健身會|宗親會|功德會|商業會|長青會|民眾服務社|聯盟","sum":7453000,"label":"協會"},{"count":15,"tokens":"國中|國小","sum":875000,"label":"國中、國小"},{"count":14,"tokens":"警察局|分局","sum":552000,"label":"警察局"},{"count":14,"tokens":"消防局|消防隊|分隊|中隊","sum":350000,"label":"消防局"},{"count":13,"tokens":"廟|宮","sum":310000,"label":"廟"},{"count":0,"tokens":"辦公室|辦公處","sum":0,"label":"辦公室"}]},"councilor":"16b10288a09b49dfbb249788ed7e7582"}],"uid":"16b10288a09b49dfbb249788ed7e7582","name":"黃明榮","birth":null,"former_names":"","identifiers":["黃明榮","黄明榮"]},{"url":"http://councils.g0v.tw/api/councilors/463/","each_terms":[{"url":"http://councils.g0v.tw/api/councilors_terms/809/","election_year":"1973","name":"林吳雪英","gender":"","party":"","title":"議員","constituency":4,"county":"新北市","district":"三重市","in_office":true,"contact_details":null,"term_start":"1973-05-01","term_end":{"date":"1977-12-29"},"education":"靜修女中畢","experience":"三重市農會職員\n三重市民代表\n三重市婦女會理事長\n臺北縣議會第8屆議員\n臺北縣婦女會顧問\n國民黨臺北縣黨部委員\n三重市兵役委員","remark":null,"image":"http://www.ntp.gov.tw/UpFile/CouncilorFile/TTCC0839.jpg","links":[{"url":"http://www.ntp.gov.tw/content/history/history01-5-p.aspx?sid=316","note":"議會個人官網"}],"social_media":null,"platform":"","param":null,"councilor":"6667464d62fd4c339978e02faa590bce"}],"uid":"6667464d62fd4c339978e02faa590bce","name":"林吳雪英","birth":null,"former_names":"","identifiers":["林吳雪英","林吳雪英"]},{"url":"http://councils.g0v.tw/api/councilors/464/","each_terms":[{"url":"http://councils.g0v.tw/api/councilors_terms/810/","election_year":"1973","name":"林萬芳","gender":"","party":"","title":"議員","constituency":4,"county":"新北市","district":"三重市","in_office":true,"contact_details":null,"term_start":"1973-05-01","term_end":{"date":"1977-12-29"},"education":"開南商工學校畢\n省立臺北師範","experience":"三重市公所建設課\n臺北縣議會第6、7、8屆議員\n*民國81年病逝","remark":null,"image":"http://www.ntp.gov.tw/UpFile/CouncilorFile/TTCC0623.jpg","links":[{"url":"http://www.ntp.gov.tw/content/history/history01-5-p.aspx?sid=261","note":"議會個人官網"}],"social_media":null,"platform":"","param":null,"councilor":"cbaa1b12d02545c7b371c0182438ddd5"},{"url":"http://councils.g0v.tw/api/councilors_terms/869/","election_year":"1968","name":"林萬芳","gender":"","party":"","title":"議員","constituency":4,"county":"新北市","district":"三重市","in_office":true,"contact_details":null,"term_start":"1968-02-21","term_end":{"date":"1973-04-30"},"education":"開南商工學校畢\n省立臺北師範","experience":"三重市公所建設課\n臺北縣議會第6、7、8屆議員\n*民國81年病逝","remark":null,"image":"http://www.ntp.gov.tw/UpFile/CouncilorFile/TTCC0623.jpg","links":[{"url":"http://www.ntp.gov.tw/content/history/history01-5-p.aspx?sid=261","note":"議會個人官網"}],"social_media":null,"platform":"","param":null,"councilor":"cbaa1b12d02545c7b371c0182438ddd5"},{"url":"http://councils.g0v.tw/api/councilors_terms/1845/","election_year":"1964","name":"林萬芳","gender":"","party":"","title":"議員","constituency":4,"county":"新北市","district":"三重市","in_office":true,"contact_details":null,"term_start":"1964-02-21","term_end":{"date":"1968-02-20"},"education":"開南商工學校畢\n省立臺北師範","experience":"三重市公所建設課\n臺北縣議會第6、7、8屆議員\n*民國81年病逝","remark":null,"image":"http://www.ntp.gov.tw/UpFile/CouncilorFile/TTCC0623.jpg","links":[{"url":"http://www.ntp.gov.tw/content/history/history01-5-p.aspx?sid=261","note":"議會個人官網"}],"social_media":null,"platform":"","param":null,"councilor":"cbaa1b12d02545c7b371c0182438ddd5"}],"uid":"cbaa1b12d02545c7b371c0182438ddd5","name":"林萬芳","birth":null,"former_names":"","identifiers":["林萬芳","林萬芳"]},{"url":"http://councils.g0v.tw/api/councilors/741/","each_terms":[{"url":"http://councils.g0v.tw/api/councilors_terms/1371/","election_year":"2006","name":"鄭世維","gender":"","party":"","title":"議員","constituency":5,"county":"新北市","district":"三重市、蘆洲市","in_office":true,"contact_details":null,"term_start":"2006-03-01","term_end":{"date":"2010-12-24"},"education":"中興高中畢業","experience":"臺北縣議會第16屆議員\n國民黨18全中央委員\n國民黨17、18全黨代表\n國民黨台北縣黨部副主任委員\n國民黨中央地方助講團成員\n台北縣議會國民黨團副書記長\n國民黨青年團第一屆台北縣支團長\nKMT青年論政聯盟執行委員\n蘆洲阿九後援會召集人\n湧蓮寺第五屆管理委員會委員\n暨南大學東南亞研究所碩士\n東森購物台主持人\n國立空中大學","remark":null,"image":"http://www.ntp.gov.tw/UpFile/CouncilorFile/TTCC1634.jpg","links":[{"url":"http://www.ntp.gov.tw/content/history/history01-5-p.aspx?sid=537","note":"議會個人官網"}],"social_media":null,"platform":"","param":null,"councilor":"a1844cfcc4f34748b665f0c9b0506958"}],"uid":"a1844cfcc4f34748b665f0c9b0506958","name":"鄭世維","birth":null,"former_names":"","identifiers":["鄭世維"]}]}