{"count":1904,"next":"http://councils.g0v.tw/api/councilors/?page=31","previous":"http://councils.g0v.tw/api/councilors/?page=29","results":[{"url":"http://councils.g0v.tw/api/councilors/743/","each_terms":[{"url":"http://councils.g0v.tw/api/councilors_terms/1378/","election_year":"2006","name":"吳琪銘","gender":"","party":"","title":"議員","constituency":4,"county":"新北市","district":"土城市、樹林市、鶯歌鎮、三峽鎮","in_office":true,"contact_details":null,"term_start":"2006-03-01","term_end":{"date":"2010-12-24"},"education":"德霖技術學院企業管理科畢業（二專畢）","experience":"台北縣第16屆議員\n台北縣議會民進黨黨團書記長\n台北縣議會警政消防召集人\n台北縣義消第五大隊大隊長\n土城市雲林同鄉會創會會長\n國大代表\n市民代表","remark":null,"image":"http://www.ntp.gov.tw/UpFile/CouncilorFile/TTCC1627.jpg","links":[{"url":"http://www.ntp.gov.tw/content/history/history01-5-p.aspx?sid=535","note":"議會個人官網"}],"social_media":null,"platform":"","param":null,"councilor":"5894e494a0e34f0abfefc51308ffa2a1"},{"url":"http://councils.g0v.tw/api/councilors_terms/1906/","election_year":"2010","name":"吳琪銘","gender":"","party":"民主進步黨","title":"議員","constituency":7,"county":"新北市","district":"樹林區、鶯歌區、土城區、三峽區","in_office":true,"contact_details":[{"type":"voice","value":"02-22701580","label":"電話"},{"type":"fax","value":"02-22700802","label":"傳真"},{"type":"address","value":"23643新北市土城區金城路3段172號2樓","label":"通訊處"},{"type":"email","value":"chiming.wu00@msa.hinet.net","label":"E-mail"}],"term_start":"2010-12-25","term_end":{"date":"2014-12-24"},"education":"德霖技術學院企業管理科畢業（二專畢）","experience":"台北縣第16屆議員\n台北縣議會民進黨黨團書記長\n台北縣議會警政消防召集人\n台北縣義消第五大隊大隊長\n土城市雲林同鄉會創會會長\n國大代表\n市民代表","remark":null,"image":"http://www.ntp.gov.tw/UpFile/CouncilorFile/TTCC1627.jpg","links":[{"url":"http://www.ntp.gov.tw/content/list/list01-1-03-1.aspx?sid=535&cid=174","note":"議會個人官網"}],"social_media":null,"platform":"土樹三鶯市民福利：1.開辦公立老人安養照護中心2.增辦公立幼稚園與托兒所3.成立職業訓練就業輔導中心4.爭取平價國宅5.爭取垃圾袋減免及自來水與北市同價6.爭取全面開辦中小學免費營養午餐7.爭取65歲以上長者裝設假牙全面補助8.強化警察與消防治安救災裝備9.爭取大漢溪沿岸綠地，闢建運動休閒\n土城建設：1.催生捷運萬大線金城段地下化2.爭取變電所屏敞式地下化3.廷寮溝防汛道路繼續爭取第二期工程，打通至永豐路，避開金城路塞車之苦4.推動土城捷運到三峽、樹林5.爭取經費美化土城區登山步道6.爭取公兒二、三、四公園增闢休閒空間7. 爭取500床以上大型醫院設立，提升土城就近醫療品質8.爭取北二高清水交流道，暢流南北交通9.爭取土城彈藥庫闢建生態植物園\n三峽建設：1.爭取捷運到三峽2.爭取快捷巴士到機場3.爭取台北大學外環道4.三峽市區衛生污水下水道5.爭取三鶯觀光纜車繁榮觀光6.三峽河整治八張段延伸至大同橋7.爭取棒壘球訓練經費，成立種籽訓練學校\n樹林建設：1.爭取樹林鐵路全面地下化工程2.加速推動柑園北84線道路拓寬工程3.爭取設立單車運機公園及單車休憩站4.加強單車道夜間巡邏維護單車騎士安全5.爭取柑園大漢溪沿岸闢建親子運動公園6.爭取浮洲橋高架延伸至大安路紓解交通瓶頸7.爭取學校導護安全裝備及校舍設施老舊改善工程\n鶯歌建設：1.設立河濱運動公園之設施2.爭取三鶯觀光纜車三峽至鶯歌繁榮觀光","param":{"attendance_statistics":{"absent":35,"total":124},"bills_role_statistics":{"total":27,"priproposer":5,"sponsor":12,"cosponsor":15},"diversity":{"中國國民黨":0.16607994159864067,"無黨團結聯盟":0.050207894730133804,"民主進步黨":0.7816953012233284,"無黨籍":0.0020168624478969304},"bills_party_diversity":[{"party":"民主進步黨","ratio":0.6628748707342296},{"party":"中國國民黨","ratio":0.25232678386763185},{"party":"無黨團結聯盟","ratio":0.04136504653567735},{"party":"無黨籍","ratio":0.03516028955532575},{"party":"臺灣團結聯盟","ratio":0.008273009307135471}]},"councilor":"5894e494a0e34f0abfefc51308ffa2a1"},{"url":"http://councils.g0v.tw/api/councilors_terms/11731/","election_year":"2014","name":"吳琪銘","gender":"男","party":"民主進步黨","title":null,"constituency":7,"county":"新北市","district":"樹林區、鶯歌區、土城區、三峽區","in_office":false,"contact_details":null,"term_start":"2014-12-25","term_end":{"date":"2016-01-31","judicial_links":"","reason":"請辭，就任立委","ref":"","replacement":""},"education":null,"experience":null,"remark":null,"image":"","links":null,"social_media":null,"platform":"","param":{"suggestions_years":{"count":24,"sum":3264730,"years":[{"count":24,"sum":3264730,"suggest_year":"2015","small_purchase":15}]},"bills_role_statistics":{"total":54,"priproposer":18,"sponsor":35,"cosponsor":19},"attendance_statistics":{"absent":10,"total":60},"suggestions_associations":[{"count":0,"sum":0,"label":"社區發展協會"},{"count":0,"sum":0,"label":"學會"},{"count":0,"sum":0,"label":"商會"},{"count":0,"sum":0,"label":"公會"},{"count":0,"sum":0,"label":"協進會"},{"count":0,"sum":0,"label":"促進會"},{"count":0,"sum":0,"label":"研習會"},{"count":0,"sum":0,"label":"婦聯會"},{"count":0,"sum":0,"label":"婦女會"},{"count":0,"sum":0,"label":"體育會"},{"count":0,"sum":0,"label":"同心會"},{"count":0,"sum":0,"label":"農會"},{"count":0,"sum":0,"label":"早起會"},{"count":0,"sum":0,"label":"健身會"},{"count":0,"sum":0,"label":"宗親會"},{"count":0,"sum":0,"label":"功德會"},{"count":0,"sum":0,"label":"商業會"},{"count":0,"sum":0,"label":"長青會"},{"count":0,"sum":0,"label":"民眾服務社"},{"count":0,"sum":0,"label":"聯盟"}],"bills_party_diversity":[{"party":"民主進步黨","ratio":0.7113924050632912},{"party":"中國國民黨","ratio":0.20675105485232068},{"party":"無黨籍","ratio":0.0379746835443038},{"party":"無黨團結聯盟","ratio":0.036286919831223625},{"party":"臺灣團結聯盟","ratio":0.007594936708860759}],"suggestions_piles":[{"count":5,"tokens":"消防局|消防隊|分隊|中隊","sum":1293230,"label":"消防局"},{"count":8,"tokens":"國中|國小","sum":696000,"label":"國中、國小"},{"count":5,"tokens":"辦公室|辦公處","sum":331500,"label":"辦公室"},{"count":0,"tokens":"協會|學會|商會|公會|協進會|促進會|研習會|婦聯會|婦女會|體育會|同心會|農會|早起會|健身會|宗親會|功德會|商業會|長青會|民眾服務社|聯盟","sum":0,"label":"協會"},{"count":0,"tokens":"廟|宮","sum":0,"label":"廟"},{"count":0,"tokens":"警察局|分局","sum":0,"label":"警察局"}]},"councilor":"5894e494a0e34f0abfefc51308ffa2a1"}],"uid":"5894e494a0e34f0abfefc51308ffa2a1","name":"吳琪銘","birth":null,"former_names":"","identifiers":["吳琪銘"]},{"url":"http://councils.g0v.tw/api/councilors/744/","each_terms":[{"url":"http://councils.g0v.tw/api/councilors_terms/1380/","election_year":"2006","name":"鄭綉瑛","gender":"","party":"","title":"議員","constituency":4,"county":"新北市","district":"土城市、樹林市、鶯歌鎮、三峽鎮","in_office":true,"contact_details":null,"term_start":"2006-03-01","term_end":{"date":"2010-12-24"},"education":"臺北縣樹林市武林國小\n臺北縣樹林市樹林國中\n銘傳大學資管系\n美國多明尼肯大學管理學碩士","experience":"臺北縣議會第16屆議員\n中國國民黨17、18全黨代表\n青溪婦聯會樹林支分會主委\n樹林市婦女會理事\n中華民國紅十字會救生員\n臺北縣退伍軍人協會樹林婦聯會主委\n縣議員朱子孟服務處主任\n臺北縣子夢文教關懷協會\n國際愛心獅子會第四屆會長","remark":null,"image":"http://www.ntp.gov.tw/UpFile/CouncilorFile/TTCC1625.jpg","links":[{"url":"http://www.ntp.gov.tw/content/history/history01-5-p.aspx?sid=534","note":"議會個人官網"}],"social_media":null,"platform":"","param":null,"councilor":"3a3afdd33c4344a0a1c31d3120c8aea8"}],"uid":"3a3afdd33c4344a0a1c31d3120c8aea8","name":"鄭綉瑛","birth":null,"former_names":"","identifiers":["鄭綉瑛"]},{"url":"http://councils.g0v.tw/api/councilors/745/","each_terms":[{"url":"http://councils.g0v.tw/api/councilors_terms/1381/","election_year":"2006","name":"歐金獅","gender":"","party":"","title":"議員","constituency":4,"county":"新北市","district":"土城市、樹林市、鶯歌鎮、三峽鎮","in_office":true,"contact_details":null,"term_start":"2006-03-01","term_end":{"date":"2010-12-24"},"education":"南亞工商專科學校。","experience":"臺北縣議會第16屆議員\n民進黨鶯歌鎮黨部第一屆主任委員\n全國鄉鎮市黨部主委聯誼會副會長\n民進黨全國黨代表\n樹三鶯嘉義同鄉會理事長\n鶯歌鎮（彰雲嘉縣市）愛鄉會理事長\n鶯歌鎮志工協進會理事長\n國際獅子會300B2區第一副總監","remark":null,"image":"http://www.ntp.gov.tw/UpFile/CouncilorFile/TTCC1624.jpg","links":[{"url":"http://www.ntp.gov.tw/content/history/history01-5-p.aspx?sid=533","note":"議會個人官網"}],"social_media":null,"platform":"","param":null,"councilor":"1fd99bc452874981be57770bebaf16ea"},{"url":"http://councils.g0v.tw/api/councilors_terms/1895/","election_year":"2010","name":"歐金獅","gender":"","party":"民主進步黨","title":"議員","constituency":7,"county":"新北市","district":"樹林區、鶯歌區、土城區、三峽區","in_office":true,"contact_details":[{"type":"voice","value":"02-26700101","label":"電話"},{"type":"fax","value":"02-26704762","label":"傳真"},{"type":"address","value":"23941新北市鶯歌區國華路17號","label":"通訊處"},{"type":"email","value":"oks.kh17@msa.hinet.net","label":"E-mail"}],"term_start":"2010-12-25","term_end":{"date":"2014-12-24"},"education":"南亞工商專科學校。","experience":"臺北縣議會第16屆議員\n民進黨鶯歌鎮黨部第一屆主任委員\n全國鄉鎮市黨部主委聯誼會副會長\n民進黨全國黨代表\n樹三鶯嘉義同鄉會理事長\n鶯歌鎮（彰雲嘉縣市）愛鄉會理事長\n鶯歌鎮志工協進會理事長\n國際獅子會300B2區第一副總監","remark":null,"image":"http://www.ntp.gov.tw/UpFile/CouncilorFile/TTCC1624.jpg","links":[{"url":"http://www.ntp.gov.tw/content/list/list01-1-03-1.aspx?sid=533&cid=174","note":"議會個人官網"}],"social_media":null,"platform":"增設公立托兒所與幼稚園，提高0至2歲保母照顧補貼加倍。\n爭取在國小教室增設幼稚園，延長小學生、幼稚園課後輔導。\n爭取第二座三鶯大橋或加寬現有三鶯橋、爭取加速捷運到三鶯及打造一條可供徒步觀光，車輛又可暢通無阻的藝術大橋。\n爭取樹林鐵路地下化，消除鐵路對都市發展之阻礙與改善道路交通。\n推動土城彈藥庫遷移及加速開發暫緩禁建區放行。\n督促建立社會福利單一窗口整合式服務，加強照護新住民。\n營造藝術環境公共空間的利用，增加老街藝術裝置空間，多元補助藝術活動，推動在地藝術家認養計畫。\n爭取國中小學校舍修繕及數位教學經費補助，提供更良善學習環境。\n督促新北市環狀捷運線加速持續開通，完成自土城延伸到三峽、鶯歌樹林至新莊，強化都會區大眾運輸服務。\n提高市府補助義警、義消、民防、巡守隊環保志工設備及活動費。建構社區聯防安全網路，有效防治犯罪發生。","param":{"attendance_statistics":{"absent":19,"total":124},"bills_role_statistics":{"total":50,"priproposer":25,"sponsor":34,"cosponsor":16},"diversity":{"中國國民黨":0.32826771945092964,"無黨團結聯盟":0.07212536775646324,"民主進步黨":0.5976655459045317,"無黨籍":0.0019413668880753523},"bills_party_diversity":[{"party":"民主進步黨","ratio":0.5804140127388535},{"party":"中國國民黨","ratio":0.32722929936305734},{"party":"無黨團結聯盟","ratio":0.05493630573248408},{"party":"無黨籍","ratio":0.03184713375796178},{"party":"臺灣團結聯盟","ratio":0.005573248407643312}]},"councilor":"1fd99bc452874981be57770bebaf16ea"}],"uid":"1fd99bc452874981be57770bebaf16ea","name":"歐金獅","birth":null,"former_names":"","identifiers":["歐金獅"]},{"url":"http://councils.g0v.tw/api/councilors/412/","each_terms":[{"url":"http://councils.g0v.tw/api/councilors_terms/750/","election_year":"2010","name":"莊啟旺","gender":"","party":"中國國民黨","title":"議員","constituency":8,"county":"高雄市","district":"前金區、 新興區、苓雅區","in_office":true,"contact_details":[{"type":"voice","value":"269-6001","label":"傳真"},{"type":"fax","value":"269-6008","label":"傳真"},{"type":"email","value":"aaa.d123@msa.hinet.net","label":"電子信箱"},{"type":"address","value":"802苓雅區成功一路204號","label":"通訊處"}],"term_start":"2010-12-25","term_end":{"date":"2014-12-25"},"education":"國立高雄應用科技大學碩士、市立空中大學、成功國小、市立二中(前金國中)、省鳳高中","experience":"高雄市議會第七屆議長\n臺灣澎湖同鄉總會常務理事\n高雄市商工研究發展促進會理事長\n高雄市莊氏宗親會副理事長\n高雄市室內設計裝修公會榮譽理事長\n曾任：高雄市苓雅區博仁里里長六屆21年\n高雄市議會第五、六屆市議員\n高雄市忠義青溪協會理事長","remark":null,"image":"http://www.kcc.gov.tw/Upload/PeriodMembers/0701039.jpg","links":[{"url":"http://www.kcc.gov.tw/PeriodMembers/Introduction.aspx?KeyID=39","note":"議會個人官網"}],"social_media":null,"platform":"1.傾聽市民心聲，市民的小事就是莊啟旺的大事。\n2.堅持清廉、問政專業、服務認真、關懷弱勢、重視教育。\n3.拼經濟！貫徹中央「高雄海空經貿城計畫」，打造高雄市成為臺灣曼哈頓。\n4.全力推動創意產業、綠能產業、銀髮族產業、文化創意產業，建構成為高雄特有經濟產業。\n5.爭取大型企業在高雄設廠，帶動群聚效應，增加就業機會。\n6.產業在地化，讓外地工作高雄子弟回流，留住在地人才在高雄服務。\n7.嚴格監督市政，督促市府加速行政效率，做好便民服務工作。\n8.打造苓雅區成為大高雄市港商業中心。\n9.推動新興區成為E世代流行購物‧休閒美食天堂。\n10.延續前金區成為政治、商業、金融、文化中心黃金地段。","param":{"bills_role_statistics":{"total":56,"priproposer":35,"sponsor":39,"cosponsor":17},"votes_decision_statistics":{"abstain":0,"disagree":0,"not_voting":0,"total":3,"agree":3,"conflict":0},"diversity":{"中國國民黨":0.9392361111111113,"民主進步黨":0.024305555555555552,"親民黨":0.006944444444444444,"無黨籍":0.02951388888888889},"suggestions_years":{"count":115,"sum":30980101,"years":[{"count":29,"sum":4793101,"suggest_year":"2011","small_purchase":18},{"count":34,"sum":12226500,"suggest_year":"2012","small_purchase":3},{"count":32,"sum":12598500,"suggest_year":"2013","small_purchase":1},{"count":20,"sum":1362000,"suggest_year":"2014","small_purchase":17}]},"attendance_statistics":{"absent":5,"total":392},"suggestions_associations":[{"count":0,"sum":0,"label":"社區發展協會"},{"count":0,"sum":0,"label":"學會"},{"count":0,"sum":0,"label":"商會"},{"count":0,"sum":0,"label":"公會"},{"count":0,"sum":0,"label":"協進會"},{"count":0,"sum":0,"label":"促進會"},{"count":0,"sum":0,"label":"研習會"},{"count":0,"sum":0,"label":"婦聯會"},{"count":0,"sum":0,"label":"婦女會"},{"count":0,"sum":0,"label":"體育會"},{"count":0,"sum":0,"label":"同心會"},{"count":0,"sum":0,"label":"農會"},{"count":0,"sum":0,"label":"早起會"},{"count":0,"sum":0,"label":"健身會"},{"count":0,"sum":0,"label":"宗親會"},{"count":0,"sum":0,"label":"功德會"},{"count":0,"sum":0,"label":"商業會"},{"count":0,"sum":0,"label":"長青會"},{"count":0,"sum":0,"label":"民眾服務社"},{"count":0,"sum":0,"label":"聯盟"}],"bills_party_diversity":[{"party":"中國國民黨","ratio":0.8},{"party":"民主進步黨","ratio":0.1413793103448276},{"party":"無黨籍","ratio":0.04827586206896552},{"party":"親民黨","ratio":0.010344827586206896}],"suggestions_piles":[{"count":42,"tokens":"警察局|分局","sum":11611600,"label":"警察局"},{"count":15,"tokens":"國中|國小","sum":2327138,"label":"國中、國小"},{"count":1,"tokens":"廟|宮","sum":482000,"label":"廟"},{"count":1,"tokens":"消防局|消防隊|分隊|中隊","sum":114000,"label":"消防局"},{"count":3,"tokens":"辦公室|辦公處","sum":87200,"label":"辦公室"},{"count":0,"tokens":"協會|學會|商會|公會|協進會|促進會|研習會|婦聯會|婦女會|體育會|同心會|農會|早起會|健身會|宗親會|功德會|商業會|長青會|民眾服務社|聯盟","sum":0,"label":"協會"}]},"councilor":"6a4e1fa17711409880f34b2f72f025a7"}],"uid":"6a4e1fa17711409880f34b2f72f025a7","name":"莊啟旺","birth":null,"former_names":"","identifiers":["莊啟旺","莊啓旺"]},{"url":"http://councils.g0v.tw/api/councilors/1162/","each_terms":[{"url":"http://councils.g0v.tw/api/councilors_terms/2088/","election_year":"2009","name":"楊福建","gender":"男","party":"","title":"議員","constituency":5,"county":"彰化縣","district":"埔鹽鄉、溪湖鎮、埔心鄉","in_office":true,"contact_details":[{"type":"phone","value":"04-8857402","label":"電話"},{"type":"fax","value":"04-8821620","label":"傳真"},{"type":"email","value":"taiwan0404@kimo.com","label":"電子信箱"},{"type":"address","value":"彰化縣溪湖鎮太平里太平街71號","label":"通訊處"}],"term_start":"2009-12-25","term_end":{"date":"2014-12-25"},"education":"溪湖國小\n溪湖初中\n三重格致中學高中部肄業","experience":"彰化縣議會第15、16屆議員\n民進黨溪湖鎮黨部主委\n全國黨代表、中央執行委員\n六一四慈善會創會長\n前博愛慈善會理事長\n慈音慈善會溪湖分會榮譽會長\n溪湖義消中隊顧問\n彰化縣水電裝置業職業工會顧問\n溪湖青商會顧問\n彰化縣議會第17屆議員","remark":null,"image":"http://www.chcc.gov.tw/UpFile/CouncilorPhoto/5004.jpg","links":[{"url":"http://www.chcc.gov.tw/content/list/list01_01.aspx?sid=35","note":"議會個人官網"}],"social_media":null,"platform":"嚴格監督縣政，替人民看緊荷包\n關心、建設、服務地方\n督促縣府提供優惠投資環境，吸引企業投資，增加就業機會，減少失業人口","param":{"bills_role_statistics":{"total":43,"priproposer":0,"sponsor":0,"cosponsor":43},"diversity":{"":1.0},"bills_party_diversity":[{"party":"","ratio":1.0}]},"councilor":"90acf838957940d4ad54a4da6f75cfa7"}],"uid":"90acf838957940d4ad54a4da6f75cfa7","name":"楊福建","birth":"1955-04-04","former_names":"","identifiers":["楊福建","楊褔建"]},{"url":"http://councils.g0v.tw/api/councilors/502/","each_terms":[{"url":"http://councils.g0v.tw/api/councilors_terms/849/","election_year":"1968","name":"高筆能","gender":"","party":"","title":"議員","constituency":8,"county":"新北市","district":"新店鎮、深坑鄉、石碇鄉、坪林鄉、烏來鄉山地鄉","in_office":true,"contact_details":null,"term_start":"1968-02-21","term_end":{"date":"1973-04-30"},"education":"日據時代臺灣商工學校商業科","experience":"石碇庄役場助役\n第1、2屆石碇鄉鄉長\n石碇鄉第17、18屆調解委員\n臺北縣議會第7屆議員","remark":null,"image":"http://www.ntp.gov.tw/UpFile/CouncilorFile/TTCC0755.jpg","links":[{"url":"http://www.ntp.gov.tw/content/history/history01-5-p.aspx?sid=296","note":"議會個人官網"}],"social_media":null,"platform":"","param":null,"councilor":"cfb8bb0b651b4d97937dfe62b36b6f52"}],"uid":"cfb8bb0b651b4d97937dfe62b36b6f52","name":"高筆能","birth":null,"former_names":"","identifiers":["高筆能"]},{"url":"http://councils.g0v.tw/api/councilors/104/","each_terms":[{"url":"http://councils.g0v.tw/api/councilors_terms/166/","election_year":"2006","name":"莊瑞雄","gender":"男","party":"民主進步黨","title":"議員","constituency":null,"county":"臺北市","district":"","in_office":true,"contact_details":null,"term_start":"2006-12-25","term_end":{"date":"2010-12-25"},"education":"台大法律學士、台北大學企研所碩士","experience":"謝長廷北區服務處主任、立法委員高建智的主任、謝長廷後援會機要秘書、綠色和平電台主持人、台灣國家山岳協會理事長、台灣教授協會義務律師、阿扁的驗票律師、謝長廷指定的告訴代理人、游錫堃的告訴代理人、李前總統指名的諮詢律師。","remark":"","image":"http://www.tcc.gov.tw/../upload/photo/%E8%8E%8A%E7%91%9E%E9%9B%842.jpg","links":[{"url":"http://www.tcc.gov.tw/Councilor_Content_All.aspx?s=2295&d=630420&n=%E8%8E%8A%E7%91%9E%E9%9B%84","note":"議會個人官網"}],"social_media":null,"platform":"","param":null,"councilor":"588bcf57aebc4b4a99f7ac23d1991d8b"},{"url":"http://councils.g0v.tw/api/councilors_terms/108/","election_year":"2010","name":"莊瑞雄","gender":"男","party":"民主進步黨","title":"議員","constituency":1,"county":"臺北市","district":"北投區、士林區","in_office":true,"contact_details":[{"type":"email","value":"tcc9502@tcc.gov.tw","label":"電子信箱"},{"type":"voice","value":"27297708#6008","label":"電話"},{"type":"voice","value":"27297708#6108","label":"電話"},{"type":"fax","value":"23459123","label":"傳真"},{"type":"address","value":"台北市信義區仁愛路4段507號608室","label":"通訊處"},{"type":"address","value":"台北市士林區福國路67號","label":"通訊處"}],"term_start":"2010-12-25","term_end":{"date":"2014-12-25"},"education":"國立台北大學企業管理學系研究所碩士、國立台灣大學法律系學士","experience":"執業律師\n現任民進黨中央執行委員\n現任民進黨台北市黨部主委\n民進黨發言人\n台北市文湖線調查專案小組成員\n謝長廷北區服務處主任\n綠色和平電台主持人\n台灣國家山岳協會理事長\n中央選舉委員會巡迴監察員\n台灣教授協會義務律師\n謝長廷告訴代理人\n游錫堃告訴代理人\n李登輝前總統諮詢律師","remark":"","image":"http://www.tcc.gov.tw/../upload/photo/%E8%8E%8A%E7%91%9E%E9%9B%842.jpg","links":[{"url":"http://www.tcc.gov.tw/Councilor_Content.aspx?s=1027","note":"議會個人官網"},{"url":"http://www.facebook.com/lawyer0420","note":"個人網站"}],"social_media":null,"platform":"一、泛綠唯一一席律師議員，關鍵時刻永不缺席。\n二、推廣免費法律諮詢，保障基本人權。\n三、嚴厲監督市政，為市民荷包把關。\n四、爭取婦女就業機會，減輕家庭負擔。\n五、提昇老人生活品質，鼓勵老人社會參與。\n六、傾聽弱勢聲音，健全社會福利制度。\n七、強化校園安全機制，杜絕霸凌建立無毒校園。\n八、市府舉辦活動，禁止動員師生、校護支援充人數。\n九、禁止市府強迫員工，從事與職掌無關之業務。\n十、催促市府盡快落實政策，開發社子島、關渡平原。\n十一、關心士林、天母、石牌商圈規劃，促進地方繁榮。\n十二、積極推廣在地文化，提振士林、北投觀光產業。\n十三、推動士林、北投老舊社區更新，督促士林公有市場改建案。","param":{"bills_role_statistics":{"total":61,"priproposer":0,"sponsor":61,"cosponsor":0},"votes_decision_statistics":{"abstain":3,"disagree":9,"not_voting":10,"total":60,"agree":38,"conflict":3},"diversity":{"臺灣團結聯盟":0.02396592911396571,"親民黨":0.01945573442074156,"無黨籍":0.013147880244390703,"中國國民黨":0.22200118510720074,"新黨":0.012924444724092338,"民主進步黨":0.708504826389609},"suggestions_years":{"count":45,"sum":60510000,"years":[{"count":1,"sum":763000,"suggest_year":"2011","small_purchase":0},{"count":3,"sum":13806000,"suggest_year":"2012","small_purchase":0},{"count":22,"sum":23954000,"suggest_year":"2013","small_purchase":3},{"count":19,"sum":21987000,"suggest_year":"2014","small_purchase":2}]},"attendance_statistics":{"absent":2,"total":131},"suggestions_associations":[{"count":0,"sum":0,"label":"社區發展協會"},{"count":0,"sum":0,"label":"學會"},{"count":0,"sum":0,"label":"商會"},{"count":0,"sum":0,"label":"公會"},{"count":0,"sum":0,"label":"協進會"},{"count":0,"sum":0,"label":"促進會"},{"count":0,"sum":0,"label":"研習會"},{"count":0,"sum":0,"label":"婦聯會"},{"count":0,"sum":0,"label":"婦女會"},{"count":0,"sum":0,"label":"體育會"},{"count":0,"sum":0,"label":"同心會"},{"count":0,"sum":0,"label":"農會"},{"count":0,"sum":0,"label":"早起會"},{"count":0,"sum":0,"label":"健身會"},{"count":0,"sum":0,"label":"宗親會"},{"count":0,"sum":0,"label":"功德會"},{"count":0,"sum":0,"label":"商業會"},{"count":0,"sum":0,"label":"長青會"},{"count":0,"sum":0,"label":"民眾服務社"},{"count":0,"sum":0,"label":"聯盟"}],"bills_party_diversity":[{"party":"民主進步黨","ratio":0.6376543209876543},{"party":"中國國民黨","ratio":0.2820987654320988},{"party":"臺灣團結聯盟","ratio":0.02345679012345679},{"party":"親民黨","ratio":0.020987654320987655},{"party":"無黨籍","ratio":0.019753086419753086},{"party":"新黨","ratio":0.016049382716049384}],"suggestions_piles":[{"count":0,"tokens":"協會|學會|商會|公會|協進會|促進會|研習會|婦聯會|婦女會|體育會|同心會|農會|早起會|健身會|宗親會|功德會|商業會|長青會|民眾服務社|聯盟","sum":0,"label":"協會"},{"count":0,"tokens":"辦公室|辦公處","sum":0,"label":"辦公室"},{"count":1,"tokens":"廟|宮","sum":0,"label":"廟"},{"count":0,"tokens":"警察局|分局","sum":0,"label":"警察局"},{"count":0,"tokens":"消防局|消防隊|分隊|中隊","sum":0,"label":"消防局"},{"count":0,"tokens":"國中|國小","sum":0,"label":"國中、國小"}]},"councilor":"588bcf57aebc4b4a99f7ac23d1991d8b"}],"uid":"588bcf57aebc4b4a99f7ac23d1991d8b","name":"莊瑞雄","birth":"1963-04-20","former_names":"","identifiers":["莊瑞雄"]},{"url":"http://councils.g0v.tw/api/councilors/609/","each_terms":[{"url":"http://councils.g0v.tw/api/councilors_terms/1125/","election_year":"1990","name":"呂進福","gender":"","party":"","title":"議員","constituency":4,"county":"新北市","district":"樹林鎮、鶯歌鎮、三峽鎮、土城鄉","in_office":true,"contact_details":null,"term_start":"1990-03-01","term_end":{"date":"1994-02-28"},"education":"中興大學公共行政系畢","experience":"土城國中教師及訓導主任\n臺北縣議會第11、12、13、14屆議員\n議會黨團書記長\n臺北縣黨部副主任委員\n民國91年歿","remark":null,"image":"http://www.ntp.gov.tw/UpFile/CouncilorFile/TTCC1009.jpg","links":[{"url":"http://www.ntp.gov.tw/content/history/history01-5-p.aspx?sid=356","note":"議會個人官網"}],"social_media":null,"platform":"","param":null,"councilor":"35a330f105e74f9b968480155c788b24"},{"url":"http://councils.g0v.tw/api/councilors_terms/1189/","election_year":"1994","name":"呂進福","gender":"","party":"","title":"議員","constituency":4,"county":"新北市","district":"樹林鎮、鶯歌鎮、三峽鎮、土城鄉","in_office":true,"contact_details":null,"term_start":"1994-03-01","term_end":{"date":"1998-02-28"},"education":"中興大學公共行政系畢","experience":"土城國中教師及訓導主任\n臺北縣議會第11、12、13、14屆議員\n議會黨團書記長\n臺北縣黨部副主任委員\n民國91年歿","remark":null,"image":"http://www.ntp.gov.tw/UpFile/CouncilorFile/TTCC1009.jpg","links":[{"url":"http://www.ntp.gov.tw/content/history/history01-5-p.aspx?sid=356","note":"議會個人官網"}],"social_media":null,"platform":"","param":null,"councilor":"35a330f105e74f9b968480155c788b24"},{"url":"http://councils.g0v.tw/api/councilors_terms/1252/","election_year":"1998","name":"呂進福","gender":"","party":"","title":"議員","constituency":4,"county":"新北市","district":"土城市、樹林市、鶯歌鎮、三峽鎮","in_office":true,"contact_details":null,"term_start":"1998-03-01","term_end":{"date":"2002-02-28"},"education":"中興大學公共行政系畢","experience":"土城國中教師及訓導主任\n臺北縣議會第11、12、13、14屆議員\n議會黨團書記長\n臺北縣黨部副主任委員\n民國91年歿","remark":null,"image":"http://www.ntp.gov.tw/UpFile/CouncilorFile/TTCC1009.jpg","links":[{"url":"http://www.ntp.gov.tw/content/history/history01-5-p.aspx?sid=356","note":"議會個人官網"}],"social_media":null,"platform":"","param":null,"councilor":"35a330f105e74f9b968480155c788b24"},{"url":"http://councils.g0v.tw/api/councilors_terms/1052/","election_year":"1986","name":"呂進福","gender":"","party":"","title":"議員","constituency":1,"county":"新北市","district":"板橋市、土城鄉","in_office":true,"contact_details":null,"term_start":"1986-03-01","term_end":{"date":"1990-02-28"},"education":"中興大學公共行政系畢","experience":"土城國中教師及訓導主任\n臺北縣議會第11、12、13、14屆議員\n議會黨團書記長\n臺北縣黨部副主任委員\n民國91年歿","remark":null,"image":"http://www.ntp.gov.tw/UpFile/CouncilorFile/TTCC1009.jpg","links":[{"url":"http://www.ntp.gov.tw/content/history/history01-5-p.aspx?sid=356","note":"議會個人官網"}],"social_media":null,"platform":"","param":null,"councilor":"35a330f105e74f9b968480155c788b24"},{"url":"http://councils.g0v.tw/api/councilors_terms/1076/","election_year":"1982","name":"呂進福","gender":"","party":"","title":"議員","constituency":1,"county":"新北市","district":"板橋市、土城鄉","in_office":true,"contact_details":null,"term_start":"1982-03-01","term_end":{"date":"1986-02-28"},"education":"中興大學公共行政系畢","experience":"土城國中教師及訓導主任\n臺北縣議會第11、12、13、14屆議員\n議會黨團書記長\n臺北縣黨部副主任委員\n民國91年歿","remark":null,"image":"http://www.ntp.gov.tw/UpFile/CouncilorFile/TTCC1009.jpg","links":[{"url":"http://www.ntp.gov.tw/content/history/history01-5-p.aspx?sid=356","note":"議會個人官網"}],"social_media":null,"platform":"","param":null,"councilor":"35a330f105e74f9b968480155c788b24"}],"uid":"35a330f105e74f9b968480155c788b24","name":"呂進福","birth":null,"former_names":"","identifiers":["呂進福","呂進褔"]},{"url":"http://councils.g0v.tw/api/councilors/610/","each_terms":[{"url":"http://councils.g0v.tw/api/councilors_terms/1053/","election_year":"1986","name":"劉炳信","gender":"","party":"","title":"議員","constituency":1,"county":"新北市","district":"板橋市、土城鄉","in_office":true,"contact_details":null,"term_start":"1986-03-01","term_end":{"date":"1990-02-28"},"education":"板橋市民代表會副主席","experience":"臺北縣議會第11屆議員","remark":null,"image":"http://www.ntp.gov.tw/UpFile/CouncilorFile/TTCC1104.jpg","links":[{"url":"http://www.ntp.gov.tw/content/history/history01-5-p.aspx?sid=392","note":"議會個人官網"}],"social_media":null,"platform":"","param":null,"councilor":"6ed9c4a415b34536b403ed445f2ec46b"}],"uid":"6ed9c4a415b34536b403ed445f2ec46b","name":"劉炳信","birth":null,"former_names":"","identifiers":["劉炳信","劉炳信"]},{"url":"http://councils.g0v.tw/api/councilors/815/","each_terms":[{"url":"http://councils.g0v.tw/api/councilors_terms/1530/","election_year":"1951","name":"江聯章","gender":"","party":"","title":"議員","constituency":1,"county":"新北市","district":"板橋鎮、中和鄉包括今永和地區、土城鄉","in_office":true,"contact_details":null,"term_start":"1951-01-04","term_end":{"date":"1953-01-05"},"education":"臺北中學畢業","experience":"臺北縣參議員\n莊雇員\n社會取締役書記\n臺北縣議會第1、2屆議員","remark":null,"image":"http://www.ntp.gov.tw/UpFile/CouncilorFile/TTCC0009.jpg","links":[{"url":"http://www.ntp.gov.tw/content/history/history01-5-p.aspx?sid=9","note":"議會個人官網"}],"social_media":null,"platform":"","param":null,"councilor":"f19a77e11610487995efb90409285323"},{"url":"http://councils.g0v.tw/api/councilors_terms/1588/","election_year":"1953","name":"江聯章","gender":"","party":"","title":"議員","constituency":1,"county":"新北市","district":"板橋鎮、中和鄉、土城鄉","in_office":true,"contact_details":null,"term_start":"1953-01-16","term_end":{"date":"1955-01-15"},"education":"臺北中學畢業","experience":"臺北縣參議員\n莊雇員\n社會取締役書記\n臺北縣議會第1、2屆議員","remark":null,"image":"http://www.ntp.gov.tw/UpFile/CouncilorFile/TTCC0009.jpg","links":[{"url":"http://www.ntp.gov.tw/content/history/history01-5-p.aspx?sid=9","note":"議會個人官網"}],"social_media":null,"platform":"","param":null,"councilor":"f19a77e11610487995efb90409285323"},{"url":"http://councils.g0v.tw/api/councilors_terms/1465/","election_year":"1946","name":"江聯章","gender":"","party":"","title":"議員","constituency":null,"county":"新北市","district":"","in_office":true,"contact_details":null,"term_start":"1946-04-15","term_end":{"date":"1950-12-31"},"education":"臺北中學畢業","experience":"臺北縣參議員\n莊雇員\n社會取締役書記\n臺北縣議會第1、2屆議員","remark":null,"image":"http://www.ntp.gov.tw/UpFile/CouncilorFile/TTCC0009.jpg","links":[{"url":"http://www.ntp.gov.tw/content/history/history01-5-p.aspx?sid=9","note":"議會個人官網"}],"social_media":null,"platform":"","param":null,"councilor":"f19a77e11610487995efb90409285323"}],"uid":"f19a77e11610487995efb90409285323","name":"江聯章","birth":null,"former_names":"","identifiers":["江聯章"]}]}