{"count":1904,"next":"http://councils.g0v.tw/api/councilors/?page=32","previous":"http://councils.g0v.tw/api/councilors/?page=30","results":[{"url":"http://councils.g0v.tw/api/councilors/816/","each_terms":[{"url":"http://councils.g0v.tw/api/councilors_terms/1466/","election_year":"1946","name":"林日高","gender":"","party":"","title":"議員","constituency":null,"county":"新北市","district":"","in_office":true,"contact_details":null,"term_start":"1946-04-15","term_end":{"date":"1950-12-31"},"education":"高工學校畢業。","experience":"三民主義青年團臺灣區臺北分團籌備處股長\n*當選參議員辭職","remark":null,"image":"http://www.ntp.gov.tw/UpFile/CouncilorFile/TTCC0008.jpg","links":[{"url":"http://www.ntp.gov.tw/content/history/history01-5-p.aspx?sid=8","note":"議會個人官網"}],"social_media":null,"platform":"","param":null,"councilor":"324fd4cc92324c099ee410ff611f858b"}],"uid":"324fd4cc92324c099ee410ff611f858b","name":"林日高","birth":null,"former_names":"","identifiers":["林日高","林日高"]},{"url":"http://councils.g0v.tw/api/councilors/817/","each_terms":[{"url":"http://councils.g0v.tw/api/councilors_terms/1467/","election_year":"1946","name":"劉鉅篆","gender":"","party":"","title":"議員","constituency":null,"county":"新北市","district":"","in_office":true,"contact_details":null,"term_start":"1946-04-15","term_end":{"date":"1950-12-31"},"education":"桃園公學\n日人臺灣總督府醫專畢業。","experience":"公醫\n校醫\n莊協議會會員\n鎮調解委員\n農會常務理事\n*三峽鎮選出遞補陳炳俊缺","remark":null,"image":"http://www.ntp.gov.tw/UpFile/CouncilorFile/TTCC0007.jpg","links":[{"url":"http://www.ntp.gov.tw/content/history/history01-5-p.aspx?sid=7","note":"議會個人官網"}],"social_media":null,"platform":"","param":null,"councilor":"5d076bf64cf34e9ab543c7e5a33c6a9e"}],"uid":"5d076bf64cf34e9ab543c7e5a33c6a9e","name":"劉鉅篆","birth":null,"former_names":"","identifiers":["劉鉅篆","劉鉅篆"]},{"url":"http://councils.g0v.tw/api/councilors/595/","each_terms":[{"url":"http://councils.g0v.tw/api/councilors_terms/1009/","election_year":"1982","name":"張月娥","gender":"","party":"","title":"議員","constituency":9,"county":"新北市","district":"新店市、深坑鄉、石碇鄉、坪林鄉、烏來鄉","in_office":true,"contact_details":null,"term_start":"1982-03-01","term_end":{"date":"1986-02-28"},"education":"通霄國小\n省立大甲中學\n臺北市立高級工農家政科高中畢\n東南工專二年制土木科畢業\n國立政大企管中心會計班結業\n美國國立加州大學長堤分校社會工作研究","experience":"英全企業有限公司總經理\n新店地區農會家政指導員\n新店市區黨部委員\n新店市婦女會常務理事\n臺北縣第廿五區黨部文宣委員\n臺北縣警察局義勇消防大隊顧問\n新店市調解委員\n臺北縣道路交通安全促進委員會常務理事\n臺北縣婦女會顧問\n臺北縣園藝花卉商業同業公會理事長\n正川園藝企業有限公司負責人\n正川工程股份有限公司總經理\n初田消防器材工程有限公司董事長\n泰佳內工業有限公司（泰國）\n臺北縣議會第10屆議員","remark":null,"image":"http://www.ntp.gov.tw/UpFile/CouncilorFile/TTCC1063.jpg","links":[{"url":"http://www.ntp.gov.tw/content/history/history01-5-p.aspx?sid=387","note":"議會個人官網"}],"social_media":null,"platform":"","param":null,"councilor":"fb2934e04aea4483a34b82e560d5cc47"}],"uid":"fb2934e04aea4483a34b82e560d5cc47","name":"張月娥","birth":null,"former_names":"","identifiers":["張月娥"]},{"url":"http://councils.g0v.tw/api/councilors/596/","each_terms":[{"url":"http://councils.g0v.tw/api/councilors_terms/1016/","election_year":"1982","name":"周清龍","gender":"","party":"","title":"議員","constituency":8,"county":"新北市","district":"瑞芳鎮、雙溪鄉、貢寮鄉、平溪鄉","in_office":true,"contact_details":null,"term_start":"1982-03-01","term_end":{"date":"1986-02-28"},"education":"師範大學教育系","experience":"瑞芳高工及瑞芳、瑞濱國校教師\n欽賢國中教務主任\n救國團瑞芳團委會總幹事\n瑞芳民眾服務分社理事長及\n瑞芳鎮第8、9、11屆鎮長\n(任內並膺選為全省特優鎮長)","remark":null,"image":"http://www.ntp.gov.tw/UpFile/CouncilorFile/TTCC1056.jpg","links":[{"url":"http://www.ntp.gov.tw/content/history/history01-5-p.aspx?sid=386","note":"議會個人官網"}],"social_media":null,"platform":"","param":null,"councilor":"3b30c74e93584c2da1411bdf5caa77f4"}],"uid":"3b30c74e93584c2da1411bdf5caa77f4","name":"周清龍","birth":null,"former_names":"","identifiers":["周清龍"]},{"url":"http://councils.g0v.tw/api/councilors/957/","each_terms":[{"url":"http://councils.g0v.tw/api/councilors_terms/1736/","election_year":"1958","name":"滕雲","gender":"","party":"","title":"議員","constituency":1,"county":"新北市","district":"板橋鎮、中和鄉、土城鄉","in_office":true,"contact_details":null,"term_start":"1958-02-21","term_end":{"date":"1961-02-20"},"education":"黃埔軍校及中央軍校畢業","experience":"排、連、營、團、旅、師長\n臺北縣議會第4屆議員","remark":null,"image":"http://www.ntp.gov.tw/UpFile/CouncilorFile/TTCC0404.jpg","links":[{"url":"http://www.ntp.gov.tw/content/history/history01-5-p.aspx?sid=187","note":"議會個人官網"}],"social_media":null,"platform":"","param":null,"councilor":"44a942590b92430f9b23a501178d3bfe"}],"uid":"44a942590b92430f9b23a501178d3bfe","name":"滕雲","birth":null,"former_names":"","identifiers":["滕雲"]},{"url":"http://councils.g0v.tw/api/councilors/653/","each_terms":[{"url":"http://councils.g0v.tw/api/councilors_terms/1147/","election_year":"1990","name":"曾文振","gender":"","party":"","title":"議員","constituency":1,"county":"新北市","district":"板橋市","in_office":true,"contact_details":null,"term_start":"1990-03-01","term_end":{"date":"1994-02-28"},"education":"板橋市埔墘國小\n臺北縣立鶯歌國中\n開南高級商工職業學校\n德霖技術學院畢業","experience":"臺北縣議會第16屆議員\n臺北縣客屬文化協會名譽理事長\n救國團臺北縣工青一隊召集人\n板橋市太極拳協會會長\n板橋市埔墘國小校友會會長\n臺北縣議會第12、13、14、15屆議員\n板橋市埔墘福德宮附設鶴齡交誼中心會長","remark":null,"image":"http://www.ntp.gov.tw/UpFile/CouncilorFile/TTCC1203.jpg","links":[{"url":"http://www.ntp.gov.tw/content/history/history01-5-p.aspx?sid=416","note":"議會個人官網"}],"social_media":null,"platform":"","param":null,"councilor":"4de3ffd7991d4240be8e6760658a80ab"},{"url":"http://councils.g0v.tw/api/councilors_terms/1208/","election_year":"1994","name":"曾文振","gender":"","party":"","title":"議員","constituency":1,"county":"新北市","district":"板橋市","in_office":true,"contact_details":null,"term_start":"1994-03-01","term_end":{"date":"1998-02-28"},"education":"板橋市埔墘國小\n臺北縣立鶯歌國中\n開南高級商工職業學校\n德霖技術學院畢業","experience":"臺北縣議會第16屆議員\n臺北縣客屬文化協會名譽理事長\n救國團臺北縣工青一隊召集人\n板橋市太極拳協會會長\n板橋市埔墘國小校友會會長\n臺北縣議會第12、13、14、15屆議員\n板橋市埔墘福德宮附設鶴齡交誼中心會長","remark":null,"image":"http://www.ntp.gov.tw/UpFile/CouncilorFile/TTCC1203.jpg","links":[{"url":"http://www.ntp.gov.tw/content/history/history01-5-p.aspx?sid=416","note":"議會個人官網"}],"social_media":null,"platform":"","param":null,"councilor":"4de3ffd7991d4240be8e6760658a80ab"},{"url":"http://councils.g0v.tw/api/councilors_terms/1276/","election_year":"1998","name":"曾文振","gender":"","party":"","title":"議員","constituency":1,"county":"新北市","district":"板橋市","in_office":true,"contact_details":null,"term_start":"1998-03-01","term_end":{"date":"2002-02-28"},"education":"板橋市埔墘國小\n臺北縣立鶯歌國中\n開南高級商工職業學校\n德霖技術學院畢業","experience":"臺北縣議會第16屆議員\n臺北縣客屬文化協會名譽理事長\n救國團臺北縣工青一隊召集人\n板橋市太極拳協會會長\n板橋市埔墘國小校友會會長\n臺北縣議會第12、13、14、15屆議員\n板橋市埔墘福德宮附設鶴齡交誼中心會長","remark":null,"image":"http://www.ntp.gov.tw/UpFile/CouncilorFile/TTCC1203.jpg","links":[{"url":"http://www.ntp.gov.tw/content/history/history01-5-p.aspx?sid=416","note":"議會個人官網"}],"social_media":null,"platform":"","param":null,"councilor":"4de3ffd7991d4240be8e6760658a80ab"},{"url":"http://councils.g0v.tw/api/councilors_terms/1336/","election_year":"2002","name":"曾文振","gender":"","party":"","title":"議員","constituency":1,"county":"新北市","district":"板橋市","in_office":true,"contact_details":null,"term_start":"2002-03-01","term_end":{"date":"2006-02-28"},"education":"板橋市埔墘國小\n臺北縣立鶯歌國中\n開南高級商工職業學校\n德霖技術學院畢業","experience":"臺北縣議會第16屆議員\n臺北縣客屬文化協會名譽理事長\n救國團臺北縣工青一隊召集人\n板橋市太極拳協會會長\n板橋市埔墘國小校友會會長\n臺北縣議會第12、13、14、15屆議員\n板橋市埔墘福德宮附設鶴齡交誼中心會長","remark":null,"image":"http://www.ntp.gov.tw/UpFile/CouncilorFile/TTCC1203.jpg","links":[{"url":"http://www.ntp.gov.tw/content/history/history01-5-p.aspx?sid=416","note":"議會個人官網"}],"social_media":null,"platform":"","param":null,"councilor":"4de3ffd7991d4240be8e6760658a80ab"},{"url":"http://councils.g0v.tw/api/councilors_terms/1399/","election_year":"2006","name":"曾文振","gender":"","party":"","title":"議員","constituency":1,"county":"新北市","district":"板橋市","in_office":true,"contact_details":null,"term_start":"2006-03-01","term_end":{"date":"2010-12-24"},"education":"板橋市埔墘國小\n臺北縣立鶯歌國中\n開南高級商工職業學校\n德霖技術學院畢業","experience":"臺北縣議會第16屆議員\n臺北縣客屬文化協會名譽理事長\n救國團臺北縣工青一隊召集人\n板橋市太極拳協會會長\n板橋市埔墘國小校友會會長\n臺北縣議會第12、13、14、15屆議員\n板橋市埔墘福德宮附設鶴齡交誼中心會長","remark":null,"image":"http://www.ntp.gov.tw/UpFile/CouncilorFile/TTCC1203.jpg","links":[{"url":"http://www.ntp.gov.tw/content/history/history01-5-p.aspx?sid=416","note":"議會個人官網"}],"social_media":null,"platform":"","param":null,"councilor":"4de3ffd7991d4240be8e6760658a80ab"}],"uid":"4de3ffd7991d4240be8e6760658a80ab","name":"曾文振","birth":null,"former_names":"","identifiers":["曾文振","曽文振"]},{"url":"http://councils.g0v.tw/api/councilors/656/","each_terms":[{"url":"http://councils.g0v.tw/api/councilors_terms/1284/","election_year":"2002","name":"吳善九","gender":"","party":"","title":"議員","constituency":10,"county":"新北市","district":"新店市、深坑鄉、石碇鄉、坪林鄉、烏來鄉","in_office":true,"contact_details":null,"term_start":"2002-03-01","term_end":{"date":"2006-02-28"},"education":"國立政治大學外交系畢業","experience":"臺北縣議會第13、15、16屆議員\n臺北縣生命關懷協會理事長\n臺北縣環境關懷文教基金會董事長\n臺北市兒童交通博物館館長\n民國96年5月23日歿","remark":null,"image":"http://www.ntp.gov.tw/UpFile/CouncilorFile/TTCC1360.jpg","links":[{"url":"http://www.ntp.gov.tw/content/history/history01-5-p.aspx?sid=473","note":"議會個人官網"}],"social_media":null,"platform":"","param":null,"councilor":"40b4b76f27164d65885a4489c2244e7f"},{"url":"http://councils.g0v.tw/api/councilors_terms/1155/","election_year":"1994","name":"吳善九","gender":"","party":"","title":"議員","constituency":10,"county":"新北市","district":"新店鎮、深坑鄉、石碇鄉、坪林鄉、烏來鄉","in_office":true,"contact_details":null,"term_start":"1994-03-01","term_end":{"date":"1998-02-28"},"education":"國立政治大學外交系畢業","experience":"臺北縣議會第13、15、16屆議員\n臺北縣生命關懷協會理事長\n臺北縣環境關懷文教基金會董事長\n臺北市兒童交通博物館館長\n民國96年5月23日歿","remark":null,"image":"http://www.ntp.gov.tw/UpFile/CouncilorFile/TTCC1360.jpg","links":[{"url":"http://www.ntp.gov.tw/content/history/history01-5-p.aspx?sid=473","note":"議會個人官網"}],"social_media":null,"platform":"","param":null,"councilor":"40b4b76f27164d65885a4489c2244e7f"}],"uid":"40b4b76f27164d65885a4489c2244e7f","name":"吳善九","birth":null,"former_names":"","identifiers":["吳善九"]},{"url":"http://councils.g0v.tw/api/councilors/657/","each_terms":[{"url":"http://councils.g0v.tw/api/councilors_terms/1156/","election_year":"1994","name":"胡憲章","gender":"","party":"","title":"議員","constituency":9,"county":"新北市","district":"瑞芳鎮、雙溪鄉、貢寮鄉、平溪鄉","in_office":true,"contact_details":null,"term_start":"1994-03-01","term_end":{"date":"1998-02-28"},"education":"瑞芳國小\n瑞芳高工初級部\n方曙高工畢業","experience":"臺北縣議會第13屆議員\n瑞芳國際獅子會第5屆會長\n瑞芳青年聯誼會創會會長\n臺北地方法院士林分院榮譽觀護人\n青年救國團瑞芳團委會委員\n軍管區後備軍輔導幹部139期學員長\n瑞芳義勇消防分隊顧問","remark":null,"image":"http://www.ntp.gov.tw/UpFile/CouncilorFile/TTCC1358.jpg","links":[{"url":"http://www.ntp.gov.tw/content/history/history01-5-p.aspx?sid=472","note":"議會個人官網"}],"social_media":null,"platform":"","param":null,"councilor":"2c102661952a477683e363ca68e09923"}],"uid":"2c102661952a477683e363ca68e09923","name":"胡憲章","birth":null,"former_names":"","identifiers":["胡憲章"]},{"url":"http://councils.g0v.tw/api/councilors/658/","each_terms":[{"url":"http://councils.g0v.tw/api/councilors_terms/1160/","election_year":"1994","name":"林義仁","gender":"","party":"","title":"議員","constituency":8,"county":"新北市","district":"汐止鎮、金山鄉、萬里鄉","in_office":true,"contact_details":null,"term_start":"1994-03-01","term_end":{"date":"1998-02-28"},"education":"萬里國小\n金山初中\n東海中學\n陸戰隊士官學校3期\n後幹班10期","experience":"佳進工程股份有限公司顧問\n萬里鄉第9、10屆鄉長\n萬里鄉民代表會第10屆代表\n第11屆萬里鄉民代表會主席\n中國國民黨臺北縣黨部委員與評議委員\n國民黨萬里鄉黨部常委臺北縣團管區發展委員、顧問\n萬里鄉後備軍人輔導中心主任\n萬里鄉義警分隊長\n萬里鄉義消隊員兼顧問\n萬里鄉兵役協會理事長\n萬里鄉國際獅子會創會會長\n第20分區主席金山鄉國際青商會顧問\n萬里鄉老人會\n婦女會、青商會、義警、義消、民防等顧問\n臺北縣議會第13屆議員","remark":null,"image":"http://www.ntp.gov.tw/UpFile/CouncilorFile/TTCC1354.jpg","links":[{"url":"http://www.ntp.gov.tw/content/history/history01-5-p.aspx?sid=471","note":"議會個人官網"}],"social_media":null,"platform":"","param":null,"councilor":"020954d232e444e2a509ccbba3ef25ea"}],"uid":"020954d232e444e2a509ccbba3ef25ea","name":"林義仁","birth":null,"former_names":"","identifiers":["林義仁","林義仁"]},{"url":"http://councils.g0v.tw/api/councilors/905/","each_terms":[{"url":"http://councils.g0v.tw/api/councilors_terms/1604/","election_year":"1955","name":"楊曹壹","gender":"","party":"","title":"議員","constituency":7,"county":"新北市","district":"瑞芳鎮、貢寮鄉、雙溪鄉、平溪鄉","in_office":true,"contact_details":null,"term_start":"1955-01-16","term_end":{"date":"1958-02-20"},"education":"臺北師專","experience":"國小教師\n瑞芳鎮濂洞國小國小校長\n土城鄉頂埔國小國小校長\n板橋市沙崙國小校長\n石碇國小國小校長\n樹林鎮育德國小校長\n武林國小校長\n鎮婦女會常務理事\n省、縣婦女會代表、理事\n臺北縣議會第3屆議員\n中國國民黨樹林鎮黨部小組長及考紀委員\n民國96年3月15日歿","remark":null,"image":"http://www.ntp.gov.tw/UpFile/CouncilorFile/TTCC0356.jpg","links":[{"url":"http://www.ntp.gov.tw/content/history/history01-5-p.aspx?sid=179","note":"議會個人官網"}],"social_media":null,"platform":"","param":null,"councilor":"d4e8fda9df20413db8a448730caf516b"}],"uid":"d4e8fda9df20413db8a448730caf516b","name":"楊曹壹","birth":null,"former_names":"","identifiers":["楊曹壹"]}]}