{"count":1904,"next":"http://councils.g0v.tw/api/councilors/?page=33","previous":"http://councils.g0v.tw/api/councilors/?page=31","results":[{"url":"http://councils.g0v.tw/api/councilors/906/","each_terms":[{"url":"http://councils.g0v.tw/api/councilors_terms/1606/","election_year":"1955","name":"林松枝","gender":"","party":"","title":"議員","constituency":7,"county":"新北市","district":"瑞芳鎮、貢寮鄉、雙溪鄉、平溪鄉","in_office":true,"contact_details":null,"term_start":"1955-01-16","term_end":{"date":"1958-02-20"},"education":"金瓜石尋常高等小學高等科畢業","experience":"臺灣省菸酒配銷聯合會理事\n公賣品瑞芳配銷所主任\n鎮農會評議委員\n鎮民代表\n臺北縣議會第3、4屆議員","remark":null,"image":"http://www.ntp.gov.tw/UpFile/CouncilorFile/TTCC0354.jpg","links":[{"url":"http://www.ntp.gov.tw/content/history/history01-5-p.aspx?sid=177","note":"議會個人官網"}],"social_media":null,"platform":"","param":null,"councilor":"e06e93c379a84074b978455cc4ce8ee8"},{"url":"http://councils.g0v.tw/api/councilors_terms/1676/","election_year":"1958","name":"林松枝","gender":"","party":"","title":"議員","constituency":7,"county":"新北市","district":"瑞芳鎮、貢寮鄉、雙溪鄉、平溪鄉","in_office":true,"contact_details":null,"term_start":"1958-02-21","term_end":{"date":"1961-02-20"},"education":"金瓜石尋常高等小學高等科畢業","experience":"臺灣省菸酒配銷聯合會理事\n公賣品瑞芳配銷所主任\n鎮農會評議委員\n鎮民代表\n臺北縣議會第3、4屆議員","remark":null,"image":"http://www.ntp.gov.tw/UpFile/CouncilorFile/TTCC0354.jpg","links":[{"url":"http://www.ntp.gov.tw/content/history/history01-5-p.aspx?sid=177","note":"議會個人官網"}],"social_media":null,"platform":"","param":null,"councilor":"e06e93c379a84074b978455cc4ce8ee8"}],"uid":"e06e93c379a84074b978455cc4ce8ee8","name":"林松枝","birth":null,"former_names":"","identifiers":["林松枝","林松枝"]},{"url":"http://councils.g0v.tw/api/councilors/907/","each_terms":[{"url":"http://councils.g0v.tw/api/councilors_terms/1607/","election_year":"1955","name":"吳文象","gender":"","party":"","title":"議員","constituency":7,"county":"新北市","district":"瑞芳鎮、貢寮鄉、雙溪鄉、平溪鄉","in_office":true,"contact_details":null,"term_start":"1955-01-16","term_end":{"date":"1958-02-20"},"education":"臺北師專","experience":"小學教師、主任、校長\n自由時報主任秘書\n三重市及貢寮鄉民眾服務站理事長\n臺北縣教育會及體育會理監事，全國青年代表大會主席團主席\n臺北縣議會第3、4、5、6屆議員","remark":null,"image":"http://www.ntp.gov.tw/UpFile/CouncilorFile/TTCC0353.jpg","links":[{"url":"http://www.ntp.gov.tw/content/history/history01-5-p.aspx?sid=176","note":"議會個人官網"}],"social_media":null,"platform":"","param":null,"councilor":"65ee29b96e6d4d4b9c849ef4c4e2076a"}],"uid":"65ee29b96e6d4d4b9c849ef4c4e2076a","name":"吳文象","birth":null,"former_names":"","identifiers":["吳文象"]},{"url":"http://councils.g0v.tw/api/councilors/257/","each_terms":[{"url":"http://councils.g0v.tw/api/councilors_terms/554/","election_year":"1973","name":"蔣淦生","gender":"男","party":"中國國民黨","title":"議員","constituency":null,"county":"臺北市","district":"","in_office":true,"contact_details":null,"term_start":"1973-12-25","term_end":{"date":"1977-12-25"},"education":"財政部稅務學校畢業。","experience":"副主任、主任、委員、顧問、秘書長、臺灣省第三屆議會議員、臺北市省轄市議會第四、五屆議員及直轄市議會第一屆議員。","remark":"","image":"http://www.tcc.gov.tw/../upload/photo/%E8%94%A3%E6%B7%A6%E7%94%9F10.jpg","links":[{"url":"http://www.tcc.gov.tw/Councilor_Content_All.aspx?s=2140&d=150905&n=%E8%94%A3%E6%B7%A6%E7%94%9F","note":"議會個人官網"}],"social_media":null,"platform":"","param":null,"councilor":"0d8a1ec487544eaea3459b1e3f49cee1"},{"url":"http://councils.g0v.tw/api/councilors_terms/507/","election_year":"1977","name":"蔣淦生","gender":"男","party":"中國國民黨","title":"議員","constituency":null,"county":"臺北市","district":"","in_office":true,"contact_details":null,"term_start":"1977-12-25","term_end":{"date":"1981-12-25"},"education":"財政部稅務學校畢業。","experience":"科員、主任、顧問、秘書長、副大隊長、里長、省議員、副總幹事、董事長、臺北市省轄市議會第四、五屆及直轄市議會第一、二屆議員。","remark":"","image":"http://www.tcc.gov.tw/../upload/photo/%E8%94%A3%E6%B7%A6%E7%94%9F11.jpg","links":[{"url":"http://www.tcc.gov.tw/Councilor_Content_All.aspx?s=1473&d=150905&n=%E8%94%A3%E6%B7%A6%E7%94%9F","note":"議會個人官網"}],"social_media":null,"platform":"","param":null,"councilor":"0d8a1ec487544eaea3459b1e3f49cee1"},{"url":"http://councils.g0v.tw/api/councilors_terms/602/","election_year":"1969","name":"蔣淦生","gender":"男","party":"中國國民黨","title":"議員","constituency":null,"county":"臺北市","district":"","in_office":true,"contact_details":null,"term_start":"1969-12-25","term_end":{"date":"1973-12-25"},"education":"財政部稅務學校畢業。","experience":"里長、顧問、總經理、臺北市省轄市議會第四、五屆議員。","remark":"","image":"http://www.tcc.gov.tw/../upload/photo/%E8%94%A3%E6%B7%A6%E7%94%9F09.jpg","links":[{"url":"http://www.tcc.gov.tw/Councilor_Content_All.aspx?s=1463&d=150905&n=%E8%94%A3%E6%B7%A6%E7%94%9F","note":"議會個人官網"}],"social_media":null,"platform":"","param":null,"councilor":"0d8a1ec487544eaea3459b1e3f49cee1"}],"uid":"0d8a1ec487544eaea3459b1e3f49cee1","name":"蔣淦生","birth":"1915-09-05","former_names":"","identifiers":["蔣淦生"]},{"url":"http://councils.g0v.tw/api/councilors/258/","each_terms":[{"url":"http://councils.g0v.tw/api/councilors_terms/508/","election_year":"1977","name":"潘天祿","gender":"男","party":"中國國民黨","title":"議員","constituency":null,"county":"臺北市","district":"","in_office":true,"contact_details":null,"term_start":"1977-12-25","term_end":{"date":"1981-12-25"},"education":"國立英士大學畢業、國立政治大學畢業、政戰學校政戰研究班、後備幹部訓練班。","experience":"青年軍訓導員、教官、軍事學校政治教官、師、軍、防衛部科長、秘書、主任、經理、總幹事、秘書長、臺北市議會第一、二屆議員。","remark":"","image":"http://www.tcc.gov.tw/../upload/photo/%E6%BD%98%E5%A4%A9%E7%A5%BF11.jpg","links":[{"url":"http://www.tcc.gov.tw/Councilor_Content_All.aspx?s=1362&d=221121&n=%E6%BD%98%E5%A4%A9%E7%A5%BF","note":"議會個人官網"}],"social_media":null,"platform":"","param":null,"councilor":"3b398dac3cc14aa8adc3d8ccd19eccfc"},{"url":"http://councils.g0v.tw/api/councilors_terms/555/","election_year":"1973","name":"潘天祿","gender":"男","party":"中國國民黨","title":"議員","constituency":null,"county":"臺北市","district":"","in_office":true,"contact_details":null,"term_start":"1973-12-25","term_end":{"date":"1977-12-25"},"education":"國立英士大學法學院政治系畢業、政戰學校政治作戰研究班畢業。","experience":"青年軍訓導員、教官、軍事學校教官、師、軍、防衛部科長、主任、臺北市第一屆議會議員。","remark":"","image":"http://www.tcc.gov.tw/../upload/photo/%E6%BD%98%E5%A4%A9%E7%A5%BF10.jpg","links":[{"url":"http://www.tcc.gov.tw/Councilor_Content_All.aspx?s=1928&d=221121&n=%E6%BD%98%E5%A4%A9%E7%A5%BF","note":"議會個人官網"}],"social_media":null,"platform":"","param":null,"councilor":"3b398dac3cc14aa8adc3d8ccd19eccfc"},{"url":"http://councils.g0v.tw/api/councilors_terms/603/","election_year":"1969","name":"潘天祿","gender":"男","party":"中國國民黨","title":"議員","constituency":null,"county":"臺北市","district":"","in_office":true,"contact_details":null,"term_start":"1969-12-25","term_end":{"date":"1973-12-25"},"education":"國立英士大學法學院政治系畢業。","experience":"訓導員、教官、科長、主任、經理。","remark":"","image":"http://www.tcc.gov.tw/../upload/photo/%E6%BD%98%E5%A4%A9%E7%A5%BF09.jpg","links":[{"url":"http://www.tcc.gov.tw/Councilor_Content_All.aspx?s=2243&d=221121&n=%E6%BD%98%E5%A4%A9%E7%A5%BF","note":"議會個人官網"}],"social_media":null,"platform":"","param":null,"councilor":"3b398dac3cc14aa8adc3d8ccd19eccfc"}],"uid":"3b398dac3cc14aa8adc3d8ccd19eccfc","name":"潘天祿","birth":"1922-11-21","former_names":"","identifiers":["潘天祿"]},{"url":"http://councils.g0v.tw/api/councilors/259/","each_terms":[{"url":"http://councils.g0v.tw/api/councilors_terms/509/","election_year":"1977","name":"葉有正","gender":"男","party":"中國國民黨","title":"議員","constituency":null,"county":"臺北市","district":"","in_office":true,"contact_details":null,"term_start":"1977-12-25","term_end":{"date":"1981-12-25"},"education":"國立成功大學會計統計系畢業。","experience":"和昌實業股份有限公司總經理、克昌橡膠工業股份有限公司經理。","remark":"","image":"http://www.tcc.gov.tw/../upload/photo/%E8%91%89%E6%9C%89%E6%AD%A311.jpg","links":[{"url":"http://www.tcc.gov.tw/Councilor_Content_All.aspx?s=1472&d=360228&n=%E8%91%89%E6%9C%89%E6%AD%A3","note":"議會個人官網"}],"social_media":null,"platform":"","param":null,"councilor":"e02660c4d03e4c4b87662662b87efc9c"}],"uid":"e02660c4d03e4c4b87662662b87efc9c","name":"葉有正","birth":"1936-02-28","former_names":"","identifiers":["葉有正"]},{"url":"http://councils.g0v.tw/api/councilors/481/","each_terms":[{"url":"http://councils.g0v.tw/api/councilors_terms/827/","election_year":"1973","name":"尤坤煌","gender":"","party":"","title":"議員","constituency":4,"county":"新北市","district":"三重市","in_office":true,"contact_details":null,"term_start":"1973-05-01","term_end":{"date":"1977-12-29"},"education":"鹿港中學畢業","experience":"臺灣柔道委員會主任委員\n彰化同鄉會會長\n臺北縣議會第8屆議員","remark":null,"image":"http://www.ntp.gov.tw/UpFile/CouncilorFile/TTCC0834.jpg","links":[{"url":"http://www.ntp.gov.tw/content/history/history01-5-p.aspx?sid=314","note":"議會個人官網"}],"social_media":null,"platform":"","param":null,"councilor":"4e68568006fd42cabff69570a82515d5"}],"uid":"4e68568006fd42cabff69570a82515d5","name":"尤坤煌","birth":null,"former_names":"","identifiers":["尤坤煌"]},{"url":"http://councils.g0v.tw/api/councilors/533/","each_terms":[{"url":"http://councils.g0v.tw/api/councilors_terms/906/","election_year":"1977","name":"劉盛良","gender":"","party":"","title":"議員","constituency":7,"county":"新北市","district":"新店鎮、深坑鄉、石碇鄉、坪林鄉、烏來鄉山地鄉","in_office":true,"contact_details":null,"term_start":"1977-12-30","term_end":{"date":"1982-02-28"},"education":"新店市大豐國小\n國立師大附中\n臺北市立成淵高中\n大同工學院工商管理系畢\n陸軍通信學校畢\n美國加州人文大學社會科學榮譽博士\n後幹班１０３期結業","experience":"新店鎮鎮民代表\n國民黨臺北縣議會黨團副書記\n新店市後備軍人輔導中心主任\n立法院立法委員\n臺北縣警察之友會理事長\n臺北縣議會第9、10、11屆議員","remark":null,"image":"http://www.ntp.gov.tw/UpFile/CouncilorFile/TTCC0953.jpg","links":[{"url":"http://www.ntp.gov.tw/content/history/history01-5-p.aspx?sid=346","note":"議會個人官網"}],"social_media":null,"platform":"","param":null,"councilor":"0c5e4a3af0a74f8f9853993cdca59d68"},{"url":"http://councils.g0v.tw/api/councilors_terms/966/","election_year":"1986","name":"劉盛良","gender":"","party":"","title":"議員","constituency":9,"county":"新北市","district":"新店市、深坑鄉、石碇鄉、坪林鄉、烏來鄉","in_office":true,"contact_details":null,"term_start":"1986-03-01","term_end":{"date":"1990-02-28"},"education":"新店市大豐國小\n國立師大附中\n臺北市立成淵高中\n大同工學院工商管理系畢\n陸軍通信學校畢\n美國加州人文大學社會科學榮譽博士\n後幹班１０３期結業","experience":"新店鎮鎮民代表\n國民黨臺北縣議會黨團副書記\n新店市後備軍人輔導中心主任\n立法院立法委員\n臺北縣警察之友會理事長\n臺北縣議會第9、10、11屆議員","remark":null,"image":"http://www.ntp.gov.tw/UpFile/CouncilorFile/TTCC0953.jpg","links":[{"url":"http://www.ntp.gov.tw/content/history/history01-5-p.aspx?sid=346","note":"議會個人官網"}],"social_media":null,"platform":"","param":null,"councilor":"0c5e4a3af0a74f8f9853993cdca59d68"},{"url":"http://councils.g0v.tw/api/councilors_terms/1012/","election_year":"1982","name":"劉盛良","gender":"","party":"","title":"議員","constituency":9,"county":"新北市","district":"新店市、深坑鄉、石碇鄉、坪林鄉、烏來鄉","in_office":true,"contact_details":null,"term_start":"1982-03-01","term_end":{"date":"1986-02-28"},"education":"新店市大豐國小\n國立師大附中\n臺北市立成淵高中\n大同工學院工商管理系畢\n陸軍通信學校畢\n美國加州人文大學社會科學榮譽博士\n後幹班１０３期結業","experience":"新店鎮鎮民代表\n國民黨臺北縣議會黨團副書記\n新店市後備軍人輔導中心主任\n立法院立法委員\n臺北縣警察之友會理事長\n臺北縣議會第9、10、11屆議員","remark":null,"image":"http://www.ntp.gov.tw/UpFile/CouncilorFile/TTCC0953.jpg","links":[{"url":"http://www.ntp.gov.tw/content/history/history01-5-p.aspx?sid=346","note":"議會個人官網"}],"social_media":null,"platform":"","param":null,"councilor":"0c5e4a3af0a74f8f9853993cdca59d68"}],"uid":"0c5e4a3af0a74f8f9853993cdca59d68","name":"劉盛良","birth":null,"former_names":"","identifiers":["劉盛良","劉盛良"]},{"url":"http://councils.g0v.tw/api/councilors/534/","each_terms":[{"url":"http://councils.g0v.tw/api/councilors_terms/914/","election_year":"1968","name":"李儒聰","gender":"","party":"","title":"議員","constituency":7,"county":"新北市","district":"瑞芳鎮、雙溪鄉、貢寮鄉、平溪鄉","in_office":true,"contact_details":null,"term_start":"1968-02-21","term_end":{"date":"1973-04-30"},"education":"日本東京法政中學","experience":"臺北縣議會第1、2、3、4、5屆縣議員\n臺北縣議會第6、7屆議長\n第一產物保險公司副總經理及董事長\n海山煤礦公司常務董事\n青島通運董事長\n世界李氏宗親會總會名譽理事長\n財團法人仁濟院常務董事\n民國95年10月26日歿","remark":null,"image":"http://www.ntp.gov.tw/UpFile/CouncilorFile/TTCC0143.jpg","links":[{"url":"http://www.ntp.gov.tw/content/history/history01-5-p.aspx?sid=106","note":"議會個人官網"}],"social_media":null,"platform":"","param":null,"councilor":"856795c0fc2d49c29a872a011ca5966b"},{"url":"http://councils.g0v.tw/api/councilors_terms/1490/","election_year":"1951","name":"李儒聰","gender":"","party":"","title":"議員","constituency":7,"county":"新北市","district":"瑞芳鎮、貢寮鄉、雙溪鄉、平溪鄉","in_office":true,"contact_details":null,"term_start":"1951-01-04","term_end":{"date":"1953-01-05"},"education":"日本東京法政中學","experience":"臺北縣議會第1、2、3、4、5屆縣議員\n臺北縣議會第6、7屆議長\n第一產物保險公司副總經理及董事長\n海山煤礦公司常務董事\n青島通運董事長\n世界李氏宗親會總會名譽理事長\n財團法人仁濟院常務董事\n民國95年10月26日歿","remark":null,"image":"http://www.ntp.gov.tw/UpFile/CouncilorFile/TTCC0143.jpg","links":[{"url":"http://www.ntp.gov.tw/content/history/history01-5-p.aspx?sid=106","note":"議會個人官網"}],"social_media":null,"platform":"","param":null,"councilor":"856795c0fc2d49c29a872a011ca5966b"},{"url":"http://councils.g0v.tw/api/councilors_terms/1549/","election_year":"1953","name":"李儒聰","gender":"","party":"","title":"議員","constituency":7,"county":"新北市","district":"瑞芳鎮、貢寮鄉、雙溪鄉、平溪鄉","in_office":true,"contact_details":null,"term_start":"1953-01-16","term_end":{"date":"1955-01-15"},"education":"日本東京法政中學","experience":"臺北縣議會第1、2、3、4、5屆縣議員\n臺北縣議會第6、7屆議長\n第一產物保險公司副總經理及董事長\n海山煤礦公司常務董事\n青島通運董事長\n世界李氏宗親會總會名譽理事長\n財團法人仁濟院常務董事\n民國95年10月26日歿","remark":null,"image":"http://www.ntp.gov.tw/UpFile/CouncilorFile/TTCC0143.jpg","links":[{"url":"http://www.ntp.gov.tw/content/history/history01-5-p.aspx?sid=106","note":"議會個人官網"}],"social_media":null,"platform":"","param":null,"councilor":"856795c0fc2d49c29a872a011ca5966b"},{"url":"http://councils.g0v.tw/api/councilors_terms/1612/","election_year":"1955","name":"李儒聰","gender":"","party":"","title":"議員","constituency":7,"county":"新北市","district":"瑞芳鎮、貢寮鄉、雙溪鄉、平溪鄉","in_office":true,"contact_details":null,"term_start":"1955-01-16","term_end":{"date":"1958-02-20"},"education":"日本東京法政中學","experience":"臺北縣議會第1、2、3、4、5屆縣議員\n臺北縣議會第6、7屆議長\n第一產物保險公司副總經理及董事長\n海山煤礦公司常務董事\n青島通運董事長\n世界李氏宗親會總會名譽理事長\n財團法人仁濟院常務董事\n民國95年10月26日歿","remark":null,"image":"http://www.ntp.gov.tw/UpFile/CouncilorFile/TTCC0143.jpg","links":[{"url":"http://www.ntp.gov.tw/content/history/history01-5-p.aspx?sid=106","note":"議會個人官網"}],"social_media":null,"platform":"","param":null,"councilor":"856795c0fc2d49c29a872a011ca5966b"},{"url":"http://councils.g0v.tw/api/councilors_terms/1682/","election_year":"1958","name":"李儒聰","gender":"","party":"","title":"議員","constituency":7,"county":"新北市","district":"瑞芳鎮、貢寮鄉、雙溪鄉、平溪鄉","in_office":true,"contact_details":null,"term_start":"1958-02-21","term_end":{"date":"1961-02-20"},"education":"日本東京法政中學","experience":"臺北縣議會第1、2、3、4、5屆縣議員\n臺北縣議會第6、7屆議長\n第一產物保險公司副總經理及董事長\n海山煤礦公司常務董事\n青島通運董事長\n世界李氏宗親會總會名譽理事長\n財團法人仁濟院常務董事\n民國95年10月26日歿","remark":null,"image":"http://www.ntp.gov.tw/UpFile/CouncilorFile/TTCC0143.jpg","links":[{"url":"http://www.ntp.gov.tw/content/history/history01-5-p.aspx?sid=106","note":"議會個人官網"}],"social_media":null,"platform":"","param":null,"councilor":"856795c0fc2d49c29a872a011ca5966b"},{"url":"http://councils.g0v.tw/api/councilors_terms/1757/","election_year":"1961","name":"李儒聰","gender":"","party":"","title":"議員","constituency":7,"county":"新北市","district":"瑞芳鎮、貢寮鄉、雙溪鄉、平溪鄉","in_office":true,"contact_details":null,"term_start":"1961-02-21","term_end":{"date":"1964-02-20"},"education":"日本東京法政中學","experience":"臺北縣議會第1、2、3、4、5屆縣議員\n臺北縣議會第6、7屆議長\n第一產物保險公司副總經理及董事長\n海山煤礦公司常務董事\n青島通運董事長\n世界李氏宗親會總會名譽理事長\n財團法人仁濟院常務董事\n民國95年10月26日歿","remark":null,"image":"http://www.ntp.gov.tw/UpFile/CouncilorFile/TTCC0143.jpg","links":[{"url":"http://www.ntp.gov.tw/content/history/history01-5-p.aspx?sid=106","note":"議會個人官網"}],"social_media":null,"platform":"","param":null,"councilor":"856795c0fc2d49c29a872a011ca5966b"},{"url":"http://councils.g0v.tw/api/councilors_terms/1817/","election_year":"1964","name":"李儒聰","gender":"","party":"","title":"議長","constituency":8,"county":"新北市","district":"瑞芳鎮、雙溪鄉、貢寮鄉、平溪鄉","in_office":true,"contact_details":null,"term_start":"1964-02-21","term_end":{"date":"1968-02-20"},"education":"日本東京法政中學","experience":"臺北縣議會第1、2、3、4、5屆縣議員\n臺北縣議會第6、7屆議長\n第一產物保險公司副總經理及董事長\n海山煤礦公司常務董事\n青島通運董事長\n世界李氏宗親會總會名譽理事長\n財團法人仁濟院常務董事\n民國95年10月26日歿","remark":null,"image":"http://www.ntp.gov.tw/UpFile/CouncilorFile/TTCC0143.jpg","links":[{"url":"http://www.ntp.gov.tw/content/history/history01-5-p.aspx?sid=106","note":"議會個人官網"}],"social_media":null,"platform":"","param":null,"councilor":"856795c0fc2d49c29a872a011ca5966b"}],"uid":"856795c0fc2d49c29a872a011ca5966b","name":"李儒聰","birth":null,"former_names":"","identifiers":["李儒聰","李儒聰"]},{"url":"http://councils.g0v.tw/api/councilors/692/","each_terms":[{"url":"http://councils.g0v.tw/api/councilors_terms/1236/","election_year":"1998","name":"黃中興","gender":"","party":"","title":"議員","constituency":6,"county":"新北市","district":"新莊市、泰山鄉、五股鄉、林口鄉","in_office":true,"contact_details":null,"term_start":"1998-03-01","term_end":{"date":"2002-02-28"},"education":"泰山國小\n省立臺北商職\n國立中興大學會計系","experience":"泰山鄉農會常務監事\n第11、12屆泰山鄉鄉長\n第14屆臺北縣議員","remark":null,"image":"http://www.ntp.gov.tw/UpFile/CouncilorFile/TTCC1442.jpg","links":[{"url":"http://www.ntp.gov.tw/content/history/history01-5-p.aspx?sid=490","note":"議會個人官網"}],"social_media":null,"platform":"","param":null,"councilor":"7099ceb5c91e4d288475bb984589f83e"}],"uid":"7099ceb5c91e4d288475bb984589f83e","name":"黃中興","birth":null,"former_names":"","identifiers":["黄中興","黃中興"]},{"url":"http://councils.g0v.tw/api/councilors/693/","each_terms":[{"url":"http://councils.g0v.tw/api/councilors_terms/1239/","election_year":"1998","name":"周慶陽","gender":"","party":"","title":"議員","constituency":5,"county":"新北市","district":"三重市、蘆洲市","in_office":true,"contact_details":null,"term_start":"1998-03-01","term_end":{"date":"2002-02-28"},"education":"中國文化大學政治研究所","experience":"臺北縣議會第14屆議員\n蘆洲鄉第12、13屆鄉民代表\n蘆洲鄉第11、12屆鄉長\n蘆洲市第1屆市長","remark":null,"image":"http://www.ntp.gov.tw/UpFile/CouncilorFile/TTCC1439.jpg","links":[{"url":"http://www.ntp.gov.tw/content/history/history01-5-p.aspx?sid=489","note":"議會個人官網"}],"social_media":null,"platform":"","param":null,"councilor":"ee9d173aa51548f9a4d5e7b22dbcb67b"}],"uid":"ee9d173aa51548f9a4d5e7b22dbcb67b","name":"周慶陽","birth":null,"former_names":"","identifiers":["周慶陽"]}]}