{"count":1904,"next":"http://councils.g0v.tw/api/councilors/?page=34","previous":"http://councils.g0v.tw/api/councilors/?page=32","results":[{"url":"http://councils.g0v.tw/api/councilors/694/","each_terms":[{"url":"http://councils.g0v.tw/api/councilors_terms/1240/","election_year":"1998","name":"林淑芬","gender":"","party":"","title":"議員","constituency":5,"county":"新北市","district":"三重市、蘆洲市","in_office":true,"contact_details":null,"term_start":"1998-03-01","term_end":{"date":"2002-02-28"},"education":"彰化女中\n國立中興大學法商學院社會系\n世新大學社會發展研究所碩士班","experience":"第6屆立法委員\n五月學運「全學聯」學生代表\n中興法商女研社創社長\n省議員張清芳國代張倉顯聯合服務處秘書\n消防局婦女防火宣導隊大隊長\n文化新浪潮協會理事長\n議會環保衛生警政消防預算審查召集人\n臺北縣議會第14屆議員","remark":null,"image":"http://www.ntp.gov.tw/UpFile/CouncilorFile/TTCC1438.jpg","links":[{"url":"http://www.ntp.gov.tw/content/history/history01-5-p.aspx?sid=488","note":"議會個人官網"}],"social_media":null,"platform":"","param":null,"councilor":"86c1db04555940e3a009fdb154ba26bf"},{"url":"http://councils.g0v.tw/api/councilors_terms/1303/","election_year":"2002","name":"林淑芬","gender":"","party":"","title":"議員","constituency":5,"county":"新北市","district":"三重市、蘆洲市","in_office":true,"contact_details":null,"term_start":"2002-03-01","term_end":{"date":"2006-02-28"},"education":"彰化女中\n國立中興大學法商學院社會系\n世新大學社會發展研究所碩士班","experience":"第6屆立法委員\n五月學運「全學聯」學生代表\n中興法商女研社創社長\n省議員張清芳國代張倉顯聯合服務處秘書\n消防局婦女防火宣導隊大隊長\n文化新浪潮協會理事長\n議會環保衛生警政消防預算審查召集人\n臺北縣議會第14屆議員","remark":null,"image":"http://www.ntp.gov.tw/UpFile/CouncilorFile/TTCC1438.jpg","links":[{"url":"http://www.ntp.gov.tw/content/history/history01-5-p.aspx?sid=488","note":"議會個人官網"}],"social_media":null,"platform":"","param":null,"councilor":"86c1db04555940e3a009fdb154ba26bf"}],"uid":"86c1db04555940e3a009fdb154ba26bf","name":"林淑芬","birth":null,"former_names":"","identifiers":["林淑芬","林淑芬"]},{"url":"http://councils.g0v.tw/api/councilors/74/","each_terms":[{"url":"http://councils.g0v.tw/api/councilors_terms/76/","election_year":"1989","name":"顏錦福","gender":"男","party":"民主進步黨","title":"議員","constituency":null,"county":"臺北市","district":"","in_office":false,"contact_details":null,"term_start":"1989-12-25","term_end":{"date":"1993-01-31","reason":"82年1月31日當選第2屆立法委員，辭職轉任國會議員。"},"education":"北港初中畢業、省立嘉義中學高中畢業、國立臺灣師範大學畢業、交大電腦研究。","experience":"省立臺中女中教師，省立板橋高中教師，臺北一女中教師，眾志機械股份有限公司董事長、臺北市直轄市議會第五屆議員。","remark":"82年1月31日當選第2屆立法委員，辭職轉任國會議員。","image":"http://www.tcc.gov.tw/../upload/photo/%E9%A1%8F%E9%8C%A6%E7%A6%8F14.jpg","links":[{"url":"http://www.tcc.gov.tw/Councilor_Content_All.aspx?s=1517&d=370302&n=%E9%A1%8F%E9%8C%A6%E7%A6%8F","note":"議會個人官網"}],"social_media":null,"platform":"","param":null,"councilor":"99ec20cd99724f089b6e75867bdf7744"},{"url":"http://councils.g0v.tw/api/councilors_terms/399/","election_year":"1985","name":"顏錦福","gender":"男","party":"民主進步黨","title":"議員","constituency":null,"county":"臺北市","district":"","in_office":true,"contact_details":null,"term_start":"1985-12-25","term_end":{"date":"1989-12-25"},"education":"國立臺灣師範大學物理系畢業、國立交通大學電腦研究班畢業。","experience":"省立臺中女中教師、省立板橋高中教師、臺北第一女中教師、眾志機械工業公司董事長。","remark":"","image":"http://www.tcc.gov.tw/../upload/photo/%E9%A1%8F%E9%8C%A6%E7%A6%8F13.jpg","links":[{"url":"http://www.tcc.gov.tw/Councilor_Content_All.aspx?s=2179&d=370302&n=%E9%A1%8F%E9%8C%A6%E7%A6%8F","note":"議會個人官網"}],"social_media":null,"platform":"","param":null,"councilor":"99ec20cd99724f089b6e75867bdf7744"}],"uid":"99ec20cd99724f089b6e75867bdf7744","name":"顏錦福","birth":"1937-03-02","former_names":"","identifiers":["顏錦福","顏錦褔"]},{"url":"http://councils.g0v.tw/api/councilors/668/","each_terms":[{"url":"http://councils.g0v.tw/api/councilors_terms/1186/","election_year":"1994","name":"盧嘉辰","gender":"","party":"","title":"議員","constituency":4,"county":"新北市","district":"樹林鎮、鶯歌鎮、三峽鎮、土城鄉","in_office":true,"contact_details":null,"term_start":"1994-03-01","term_end":{"date":"1998-02-28"},"education":"土城國小\n三峽初中\n光華商職\n空軍防空學校M9指揮儀維護班\n軍管區後幹班第165期\n中華大學科技管理研究所畢業","experience":"土城市市長\n臺北縣議會第13、14屆議員\n救國團義工\n土城市體育會理事長\n土城市體育會山岳委員會高山嚮導\n臺北縣體育會理事\n臺北縣勞資爭議仲裁委員\n土城國際獅子會理事\n土城國際青商會理事\n土城市市民代表\n臺北縣兵役協會委員\n臺北縣土城市改善民俗實踐會委員\n雲林、嘉義同鄉會首席顧問\n土城市民防義警顧問團團長\n土城市後備軍人輔導中心主任","remark":null,"image":"http://www.ntp.gov.tw/UpFile/CouncilorFile/TTCC1328.jpg","links":[{"url":"http://www.ntp.gov.tw/content/history/history01-5-p.aspx?sid=462","note":"議會個人官網"}],"social_media":null,"platform":"","param":null,"councilor":"f421745cb8284b58bbeaac836a1c5a2d"},{"url":"http://councils.g0v.tw/api/councilors_terms/1248/","election_year":"1998","name":"盧嘉辰","gender":"","party":"","title":"議員","constituency":4,"county":"新北市","district":"土城市、樹林市、鶯歌鎮、三峽鎮","in_office":true,"contact_details":null,"term_start":"1998-03-01","term_end":{"date":"2002-02-28"},"education":"土城國小\n三峽初中\n光華商職\n空軍防空學校M9指揮儀維護班\n軍管區後幹班第165期\n中華大學科技管理研究所畢業","experience":"土城市市長\n臺北縣議會第13、14屆議員\n救國團義工\n土城市體育會理事長\n土城市體育會山岳委員會高山嚮導\n臺北縣體育會理事\n臺北縣勞資爭議仲裁委員\n土城國際獅子會理事\n土城國際青商會理事\n土城市市民代表\n臺北縣兵役協會委員\n臺北縣土城市改善民俗實踐會委員\n雲林、嘉義同鄉會首席顧問\n土城市民防義警顧問團團長\n土城市後備軍人輔導中心主任","remark":null,"image":"http://www.ntp.gov.tw/UpFile/CouncilorFile/TTCC1328.jpg","links":[{"url":"http://www.ntp.gov.tw/content/history/history01-5-p.aspx?sid=462","note":"議會個人官網"}],"social_media":null,"platform":"","param":null,"councilor":"f421745cb8284b58bbeaac836a1c5a2d"}],"uid":"f421745cb8284b58bbeaac836a1c5a2d","name":"盧嘉辰","birth":null,"former_names":"","identifiers":["盧嘉辰"]},{"url":"http://councils.g0v.tw/api/councilors/611/","each_terms":[{"url":"http://councils.g0v.tw/api/councilors_terms/1054/","election_year":"1986","name":"吳雪峰","gender":"","party":"","title":"議員","constituency":1,"county":"新北市","district":"板橋市、土城鄉","in_office":true,"contact_details":null,"term_start":"1986-03-01","term_end":{"date":"1990-02-28"},"education":"板橋國小\n板橋初級中學\n光華高職高級部肄","experience":"板橋市第3屆聚安里里長\n板橋市第4屆市民代表兼黨團書記\n板橋市中山實驗國民小學家長會長\n板橋市調解委員會委員\n板橋國中家長委員會常務委員\n板橋市信用合作社社員代表\n77年臺灣區運臺北縣棒球代表隊領隊\n中國國民黨第1區黨部委員，分部常委，縣代表，小組長\n民眾板橋分社理事\n翔好建設股份有限公司監察人\n勻銘建設股份有限公司監察人\n臺北縣議會第11、12屆議員\n臺北縣體育會棒球委員會主任委員\n臺北農產運銷股份有限公司董事\n臺北縣建築投資商業同業公會代表\n臺北縣禮儀用品職業工會顧問\n臺北縣魚貨搬運業職業工會顧問\n臺北縣雲林同鄉會顧問\n臺北縣吳姓宗親會顧問\n上泰建設股份有限公司董事長\n海山證券股份有限公司常務董事\n板橋開發股份有限公司董事\n板橋市農會會員代表兼理事\n板橋市後備軍人輔導中心顧問\n民國96年10月20日歿","remark":null,"image":"http://www.ntp.gov.tw/UpFile/CouncilorFile/TTCC1102.jpg","links":[{"url":"http://www.ntp.gov.tw/content/history/history01-5-p.aspx?sid=391","note":"議會個人官網"}],"social_media":null,"platform":"","param":null,"councilor":"09ba839bd8ad43d6b9d21d6561a9e22a"},{"url":"http://councils.g0v.tw/api/councilors_terms/1144/","election_year":"1990","name":"吳雪峰","gender":"","party":"","title":"議員","constituency":1,"county":"新北市","district":"板橋市","in_office":true,"contact_details":null,"term_start":"1990-03-01","term_end":{"date":"1994-02-28"},"education":"板橋國小\n板橋初級中學\n光華高職高級部肄","experience":"板橋市第3屆聚安里里長\n板橋市第4屆市民代表兼黨團書記\n板橋市中山實驗國民小學家長會長\n板橋市調解委員會委員\n板橋國中家長委員會常務委員\n板橋市信用合作社社員代表\n77年臺灣區運臺北縣棒球代表隊領隊\n中國國民黨第1區黨部委員，分部常委，縣代表，小組長\n民眾板橋分社理事\n翔好建設股份有限公司監察人\n勻銘建設股份有限公司監察人\n臺北縣議會第11、12屆議員\n臺北縣體育會棒球委員會主任委員\n臺北農產運銷股份有限公司董事\n臺北縣建築投資商業同業公會代表\n臺北縣禮儀用品職業工會顧問\n臺北縣魚貨搬運業職業工會顧問\n臺北縣雲林同鄉會顧問\n臺北縣吳姓宗親會顧問\n上泰建設股份有限公司董事長\n海山證券股份有限公司常務董事\n板橋開發股份有限公司董事\n板橋市農會會員代表兼理事\n板橋市後備軍人輔導中心顧問\n民國96年10月20日歿","remark":null,"image":"http://www.ntp.gov.tw/UpFile/CouncilorFile/TTCC1102.jpg","links":[{"url":"http://www.ntp.gov.tw/content/history/history01-5-p.aspx?sid=391","note":"議會個人官網"}],"social_media":null,"platform":"","param":null,"councilor":"09ba839bd8ad43d6b9d21d6561a9e22a"}],"uid":"09ba839bd8ad43d6b9d21d6561a9e22a","name":"吳雪峰","birth":null,"former_names":"","identifiers":["吳雪峰","吳雪峯"]},{"url":"http://councils.g0v.tw/api/councilors/612/","each_terms":[{"url":"http://councils.g0v.tw/api/councilors_terms/1056/","election_year":"1982","name":"詹清火","gender":"","party":"","title":"議員","constituency":3,"county":"新北市","district":"樹林鎮、鶯歌鎮、三峽鎮","in_office":true,"contact_details":null,"term_start":"1982-03-01","term_end":{"date":"1986-02-28"},"education":"省立桃園農校","experience":"鶯歌鎮公所幹事\n鶯歌鎮民代表會秘書\n中國國民黨臺北縣委員\n鶯歌鎮第10、11屆鎮長\n臺北縣議會第10屆縣議員","remark":null,"image":"http://www.ntp.gov.tw/UpFile/CouncilorFile/TTCC1029.jpg","links":[{"url":"http://www.ntp.gov.tw/content/history/history01-5-p.aspx?sid=369","note":"議會個人官網"}],"social_media":null,"platform":"","param":null,"councilor":"a3ced9fd02f54956a50c453a9d540e53"}],"uid":"a3ced9fd02f54956a50c453a9d540e53","name":"詹清火","birth":null,"former_names":"","identifiers":["詹清火"]},{"url":"http://councils.g0v.tw/api/councilors/613/","each_terms":[{"url":"http://councils.g0v.tw/api/councilors_terms/1063/","election_year":"1986","name":"郭祐福","gender":"","party":"","title":"議員","constituency":1,"county":"新北市","district":"板橋市、土城鄉","in_office":true,"contact_details":null,"term_start":"1986-03-01","term_end":{"date":"1990-02-28"},"education":"板橋中學畢\n淡江文理學院","experience":"錦隆造紙廠廠長\n良友雲石股份有限公司廠長、總經理\n板橋市港嘴里長\n市民代表\n信用合作社理事\n亞冠企業有限公司董事長","remark":null,"image":"http://www.ntp.gov.tw/UpFile/CouncilorFile/TTCC1003.jpg","links":[{"url":"http://www.ntp.gov.tw/content/history/history01-5-p.aspx?sid=352","note":"議會個人官網"}],"social_media":null,"platform":"","param":null,"councilor":"fe2fd3b347b44ef886da9ea57956ecb1"},{"url":"http://councils.g0v.tw/api/councilors_terms/1083/","election_year":"1982","name":"郭祐福","gender":"","party":"","title":"議員","constituency":1,"county":"新北市","district":"板橋市、土城鄉","in_office":true,"contact_details":null,"term_start":"1982-03-01","term_end":{"date":"1986-02-28"},"education":"板橋中學畢\n淡江文理學院","experience":"錦隆造紙廠廠長\n良友雲石股份有限公司廠長、總經理\n板橋市港嘴里長\n市民代表\n信用合作社理事\n亞冠企業有限公司董事長","remark":null,"image":"http://www.ntp.gov.tw/UpFile/CouncilorFile/TTCC1003.jpg","links":[{"url":"http://www.ntp.gov.tw/content/history/history01-5-p.aspx?sid=352","note":"議會個人官網"}],"social_media":null,"platform":"","param":null,"councilor":"fe2fd3b347b44ef886da9ea57956ecb1"}],"uid":"fe2fd3b347b44ef886da9ea57956ecb1","name":"郭祐福","birth":null,"former_names":"","identifiers":["郭祐福","郭祐褔"]},{"url":"http://councils.g0v.tw/api/councilors/614/","each_terms":[{"url":"http://councils.g0v.tw/api/councilors_terms/1070/","election_year":"1982","name":"蔡榮隆","gender":"","party":"","title":"議員","constituency":2,"county":"新北市","district":"中和市、永和市","in_office":true,"contact_details":null,"term_start":"1982-03-01","term_end":{"date":"1986-02-28"},"education":"溪州國民小學\n勵行中學\n臺北市立高級農業職業學校","experience":"榮美關係企業董事長\n介翔貿易股份有限公司董事長\n救國團永和團委員總幹事\n永和市國際獅子會理事\n義警分隊長\n永和市代表\n臺北縣議會第10屆議員","remark":null,"image":"http://www.ntp.gov.tw/UpFile/CouncilorFile/TTCC1015.jpg","links":[{"url":"http://www.ntp.gov.tw/content/history/history01-5-p.aspx?sid=361","note":"議會個人官網"}],"social_media":null,"platform":"","param":null,"councilor":"ac2ac04fd46e46db9660490f663e0613"}],"uid":"ac2ac04fd46e46db9660490f663e0613","name":"蔡榮隆","birth":null,"former_names":"","identifiers":["蔡榮隆"]},{"url":"http://councils.g0v.tw/api/councilors/180/","each_terms":[{"url":"http://councils.g0v.tw/api/councilors_terms/307/","election_year":"1994","name":"楊鎮雄","gender":"男","party":"新黨","title":"議員","constituency":null,"county":"臺北市","district":"","in_office":true,"contact_details":null,"term_start":"1994-12-25","term_end":{"date":"1998-12-25"},"education":"美國普渡大學工學博士、美國克雷孟遜大學碩士、國立臺灣大學機械學士、高雄中學畢業。","experience":"臺北捷運工程局副總工程司、技正、國立交通大學控制工程系副教授、臺北捷運公司籌備處副總工程司、通用電子(氣)公司資深工程師。","remark":"","image":"http://www.tcc.gov.tw/../upload/photo/%E6%A5%8A%E9%8E%AE%E9%9B%8415.jpg","links":[{"url":"http://www.tcc.gov.tw/Councilor_Content_All.aspx?s=1731&d=501130&n=%E6%A5%8A%E9%8E%AE%E9%9B%84","note":"議會個人官網"}],"social_media":null,"platform":"","param":null,"councilor":"fd46620575744a03857d60171df92546"}],"uid":"fd46620575744a03857d60171df92546","name":"楊鎮雄","birth":"1950-11-30","former_names":"","identifiers":["楊鎭雄","楊鎮雄"]},{"url":"http://councils.g0v.tw/api/councilors/1069/","each_terms":[{"url":"http://councils.g0v.tw/api/councilors_terms/11772/","election_year":"2014","name":"謝希誠","gender":"男","party":"中國國民黨","title":null,"constituency":1,"county":"新竹市","district":"東區","in_office":false,"contact_details":null,"term_start":"2014-12-25","term_end":{"date":"2016-04-26","judicial_links":"","reason":"當選無效","ref":"http://www.cec.gov.tw/central/cms/bulletin/1390","replacement":"段孝芳"},"education":null,"experience":null,"remark":null,"image":"","links":null,"social_media":null,"platform":"","param":{"suggestions_years":{"count":13,"sum":1569125,"years":[{"count":10,"sum":1305000,"suggest_year":"2015","small_purchase":9},{"count":3,"sum":264125,"suggest_year":"2016","small_purchase":1}]},"suggestions_associations":[{"count":1,"sum":99000,"label":"社區發展協會"},{"count":0,"sum":0,"label":"學會"},{"count":0,"sum":0,"label":"商會"},{"count":0,"sum":0,"label":"公會"},{"count":0,"sum":0,"label":"協進會"},{"count":0,"sum":0,"label":"促進會"},{"count":0,"sum":0,"label":"研習會"},{"count":0,"sum":0,"label":"婦聯會"},{"count":0,"sum":0,"label":"婦女會"},{"count":0,"sum":0,"label":"體育會"},{"count":0,"sum":0,"label":"同心會"},{"count":0,"sum":0,"label":"農會"},{"count":0,"sum":0,"label":"早起會"},{"count":0,"sum":0,"label":"健身會"},{"count":0,"sum":0,"label":"宗親會"},{"count":0,"sum":0,"label":"功德會"},{"count":0,"sum":0,"label":"商業會"},{"count":0,"sum":0,"label":"長青會"},{"count":0,"sum":0,"label":"民眾服務社"},{"count":0,"sum":0,"label":"聯盟"}],"suggestions_piles":[{"count":9,"tokens":"國中|國小","sum":802000,"label":"國中、國小"},{"count":2,"tokens":"協會|學會|商會|公會|協進會|促進會|研習會|婦聯會|婦女會|體育會|同心會|農會|早起會|健身會|宗親會|功德會|商業會|長青會|民眾服務社|聯盟","sum":158000,"label":"協會"},{"count":0,"tokens":"辦公室|辦公處","sum":0,"label":"辦公室"},{"count":0,"tokens":"廟|宮","sum":0,"label":"廟"},{"count":0,"tokens":"警察局|分局","sum":0,"label":"警察局"},{"count":0,"tokens":"消防局|消防隊|分隊|中隊","sum":0,"label":"消防局"}]},"councilor":"78cc15264bb042d09df80fa405a1baff"},{"url":"http://councils.g0v.tw/api/councilors_terms/1994/","election_year":"2009","name":"謝希誠","gender":"男","party":"中國國民黨","title":"議員","constituency":1,"county":"新竹市","district":"東區","in_office":true,"contact_details":[{"type":"address","value":"新竹市東大路一段116之1號","label":"服務處地址"},{"type":"voice","value":"03-5357215","label":"服務電話"},{"type":"cell","value":"0915-386336","label":"行動電話"}],"term_start":"2009-12-25","term_end":{"date":"2014-12-25"},"education":null,"experience":null,"remark":null,"image":"http://www.hsinchu-cc.gov.tw/content/image/%E8%AC%9D%E5%B8%8C%E8%AA%A0.jpg","links":[{"url":"http://www.hsinchu-cc.gov.tw/content/%E8%AC%9D%E5%B8%8C%E8%AA%A0.htm","note":"議會個人官網"}],"social_media":null,"platform":"一、建設東區新風貌。\n二、振興東門舊商圈。\n三、推動新竹市成為台灣第一的綠能城市。\n四、舉辦世界科技博覽會在新竹，帶動整體城市發展。\n五、督促政府提振工商，繁榮經濟，發展觀光。\n六、 照顧弱勢族群，重視老人福利，提高社會福利預算。\n七、力促國民教育向下紮根，提高兒童教育券之輔助。\n八、廢除十八尖山自由車場，改建摩天輪廣場及停車場發展觀光，讓十八尖山成為看夜\n景最佳的地方。\n九、中正台夜市、大成街等應立即改建、都市更新、推行行人徒步區讓市中心商圈活絡\n起來。\n十、風城購物中心應該活化、如市政府搬遷進駐或外貿協會進駐結合園區辦理商展。","param":{"bills_role_statistics":{"total":20,"priproposer":3,"sponsor":7,"cosponsor":13},"suggestions_years":{"count":7,"sum":1774733,"years":[{"count":3,"sum":1233333,"suggest_year":"2013","small_purchase":1},{"count":4,"sum":541400,"suggest_year":"2014","small_purchase":2}]},"suggestions_associations":[{"count":0,"sum":0,"label":"社區發展協會"},{"count":0,"sum":0,"label":"學會"},{"count":0,"sum":0,"label":"商會"},{"count":0,"sum":0,"label":"公會"},{"count":0,"sum":0,"label":"協進會"},{"count":0,"sum":0,"label":"促進會"},{"count":0,"sum":0,"label":"研習會"},{"count":0,"sum":0,"label":"婦聯會"},{"count":0,"sum":0,"label":"婦女會"},{"count":0,"sum":0,"label":"體育會"},{"count":0,"sum":0,"label":"同心會"},{"count":0,"sum":0,"label":"農會"},{"count":0,"sum":0,"label":"早起會"},{"count":0,"sum":0,"label":"健身會"},{"count":0,"sum":0,"label":"宗親會"},{"count":0,"sum":0,"label":"功德會"},{"count":0,"sum":0,"label":"商業會"},{"count":0,"sum":0,"label":"長青會"},{"count":0,"sum":0,"label":"民眾服務社"},{"count":0,"sum":0,"label":"聯盟"}],"suggestions_piles":[{"count":6,"tokens":"國中|國小","sum":1674733,"label":"國中、國小"},{"count":1,"tokens":"警察局|分局","sum":100000,"label":"警察局"},{"count":0,"tokens":"協會|學會|商會|公會|協進會|促進會|研習會|婦聯會|婦女會|體育會|同心會|農會|早起會|健身會|宗親會|功德會|商業會|長青會|民眾服務社|聯盟","sum":0,"label":"協會"},{"count":0,"tokens":"辦公室|辦公處","sum":0,"label":"辦公室"},{"count":0,"tokens":"廟|宮","sum":0,"label":"廟"},{"count":0,"tokens":"消防局|消防隊|分隊|中隊","sum":0,"label":"消防局"}],"bills_party_diversity":[{"party":"中國國民黨","ratio":0.40555555555555556},{"party":"無黨籍","ratio":0.3888888888888889},{"party":"民主進步黨","ratio":0.20555555555555555}]},"councilor":"78cc15264bb042d09df80fa405a1baff"}],"uid":"78cc15264bb042d09df80fa405a1baff","name":"謝希誠","birth":null,"former_names":"","identifiers":["謝希誠"]},{"url":"http://councils.g0v.tw/api/councilors/574/","each_terms":[{"url":"http://councils.g0v.tw/api/councilors_terms/984/","election_year":"1986","name":"林孝光","gender":"","party":"","title":"議員","constituency":4,"county":"新北市","district":"三重市、蘆洲鄉","in_office":true,"contact_details":null,"term_start":"1986-03-01","term_end":{"date":"1990-02-28"},"education":"私立喬治高級工商職業學校初中部畢業\n三重市私立東海高級中學畢業\n軍管區後幹班103期結業\n革命實踐研究院80年黨政班結業","experience":"臺北縣議會第11、12、13、14、15屆議員\n臺北師管部發展委員\n三重市後備軍人輔導中心主任\n臺北縣兵役協會常務委員\n三重市攤販協會顧問\n三重市體育會早健委員會主任委員\n早操委員會顧問\n三重、重陽、慈福義消分隊顧問","remark":null,"image":"http://www.ntp.gov.tw/UpFile/CouncilorFile/TTCC1142.jpg","links":[{"url":"http://www.ntp.gov.tw/content/history/history01-5-p.aspx?sid=403","note":"議會個人官網"}],"social_media":null,"platform":"","param":null,"councilor":"f7657b7df9bb4cb98bd2fda64071bced"},{"url":"http://councils.g0v.tw/api/councilors_terms/1114/","election_year":"1990","name":"林孝光","gender":"","party":"","title":"議員","constituency":5,"county":"新北市","district":"三重市、蘆洲鄉","in_office":true,"contact_details":null,"term_start":"1990-03-01","term_end":{"date":"1994-02-28"},"education":"私立喬治高級工商職業學校初中部畢業\n三重市私立東海高級中學畢業\n軍管區後幹班103期結業\n革命實踐研究院80年黨政班結業","experience":"臺北縣議會第11、12、13、14、15屆議員\n臺北師管部發展委員\n三重市後備軍人輔導中心主任\n臺北縣兵役協會常務委員\n三重市攤販協會顧問\n三重市體育會早健委員會主任委員\n早操委員會顧問\n三重、重陽、慈福義消分隊顧問","remark":null,"image":"http://www.ntp.gov.tw/UpFile/CouncilorFile/TTCC1142.jpg","links":[{"url":"http://www.ntp.gov.tw/content/history/history01-5-p.aspx?sid=403","note":"議會個人官網"}],"social_media":null,"platform":"","param":null,"councilor":"f7657b7df9bb4cb98bd2fda64071bced"},{"url":"http://councils.g0v.tw/api/councilors_terms/1175/","election_year":"1994","name":"林孝光","gender":"","party":"","title":"議員","constituency":5,"county":"新北市","district":"三重市、蘆洲鄉","in_office":true,"contact_details":null,"term_start":"1994-03-01","term_end":{"date":"1998-02-28"},"education":"私立喬治高級工商職業學校初中部畢業\n三重市私立東海高級中學畢業\n軍管區後幹班103期結業\n革命實踐研究院80年黨政班結業","experience":"臺北縣議會第11、12、13、14、15屆議員\n臺北師管部發展委員\n三重市後備軍人輔導中心主任\n臺北縣兵役協會常務委員\n三重市攤販協會顧問\n三重市體育會早健委員會主任委員\n早操委員會顧問\n三重、重陽、慈福義消分隊顧問","remark":null,"image":"http://www.ntp.gov.tw/UpFile/CouncilorFile/TTCC1142.jpg","links":[{"url":"http://www.ntp.gov.tw/content/history/history01-5-p.aspx?sid=403","note":"議會個人官網"}],"social_media":null,"platform":"","param":null,"councilor":"f7657b7df9bb4cb98bd2fda64071bced"},{"url":"http://councils.g0v.tw/api/councilors_terms/1238/","election_year":"1998","name":"林孝光","gender":"","party":"","title":"議員","constituency":5,"county":"新北市","district":"三重市、蘆洲市","in_office":true,"contact_details":null,"term_start":"1998-03-01","term_end":{"date":"2002-02-28"},"education":"私立喬治高級工商職業學校初中部畢業\n三重市私立東海高級中學畢業\n軍管區後幹班103期結業\n革命實踐研究院80年黨政班結業","experience":"臺北縣議會第11、12、13、14、15屆議員\n臺北師管部發展委員\n三重市後備軍人輔導中心主任\n臺北縣兵役協會常務委員\n三重市攤販協會顧問\n三重市體育會早健委員會主任委員\n早操委員會顧問\n三重、重陽、慈福義消分隊顧問","remark":null,"image":"http://www.ntp.gov.tw/UpFile/CouncilorFile/TTCC1142.jpg","links":[{"url":"http://www.ntp.gov.tw/content/history/history01-5-p.aspx?sid=403","note":"議會個人官網"}],"social_media":null,"platform":"","param":null,"councilor":"f7657b7df9bb4cb98bd2fda64071bced"},{"url":"http://councils.g0v.tw/api/councilors_terms/1309/","election_year":"2002","name":"林孝光","gender":"","party":"","title":"議員","constituency":5,"county":"新北市","district":"三重市、蘆洲市","in_office":true,"contact_details":null,"term_start":"2002-03-01","term_end":{"date":"2006-02-28"},"education":"私立喬治高級工商職業學校初中部畢業\n三重市私立東海高級中學畢業\n軍管區後幹班103期結業\n革命實踐研究院80年黨政班結業","experience":"臺北縣議會第11、12、13、14、15屆議員\n臺北師管部發展委員\n三重市後備軍人輔導中心主任\n臺北縣兵役協會常務委員\n三重市攤販協會顧問\n三重市體育會早健委員會主任委員\n早操委員會顧問\n三重、重陽、慈福義消分隊顧問","remark":null,"image":"http://www.ntp.gov.tw/UpFile/CouncilorFile/TTCC1142.jpg","links":[{"url":"http://www.ntp.gov.tw/content/history/history01-5-p.aspx?sid=403","note":"議會個人官網"}],"social_media":null,"platform":"","param":null,"councilor":"f7657b7df9bb4cb98bd2fda64071bced"}],"uid":"f7657b7df9bb4cb98bd2fda64071bced","name":"林孝光","birth":null,"former_names":"","identifiers":["林孝光","林孝光"]}]}