{"count":1904,"next":"http://councils.g0v.tw/api/councilors/?page=35","previous":"http://councils.g0v.tw/api/councilors/?page=33","results":[{"url":"http://councils.g0v.tw/api/councilors/1075/","each_terms":[{"url":"http://councils.g0v.tw/api/councilors_terms/2000/","election_year":"2009","name":"林智堅","gender":"男","party":"民主進步黨","title":"議員","constituency":1,"county":"新竹市","district":"東區","in_office":true,"contact_details":[{"type":"address","value":"新竹市民族路217號","label":"服務處地址"},{"type":"voice","value":"03-5358696","label":"服務電話"},{"type":"cell","value":"","label":"行動電話"}],"term_start":"2009-12-25","term_end":{"date":"2014-12-25"},"education":null,"experience":null,"remark":null,"image":"http://www.hsinchu-cc.gov.tw/content/image/%E6%9E%97%E6%99%BA%E5%A0%85.jpg","links":[{"url":"http://www.hsinchu-cc.gov.tw/content/%E6%9E%97%E6%99%BA%E5%A0%85.htm","note":"議會個人官網"}],"social_media":null,"platform":"智堅的主張\n一、打造十八尖山成為藝術森林公園。\n二、推動免費公共自行車，解決交通問題。\n三、結合政府、企業及各慈善機構資源協助服務弱勢。\n四、營造優質與幸福社區生活。\n五、用心打拚、深耕基層、清廉改革、監督市政。","param":{"bills_role_statistics":{"total":61,"priproposer":23,"sponsor":26,"cosponsor":35},"suggestions_years":{"count":3,"sum":248000,"years":[{"count":2,"sum":149000,"suggest_year":"2013","small_purchase":2},{"count":1,"sum":99000,"suggest_year":"2014","small_purchase":1}]},"suggestions_associations":[{"count":0,"sum":0,"label":"社區發展協會"},{"count":0,"sum":0,"label":"學會"},{"count":0,"sum":0,"label":"商會"},{"count":0,"sum":0,"label":"公會"},{"count":0,"sum":0,"label":"協進會"},{"count":0,"sum":0,"label":"促進會"},{"count":0,"sum":0,"label":"研習會"},{"count":0,"sum":0,"label":"婦聯會"},{"count":0,"sum":0,"label":"婦女會"},{"count":0,"sum":0,"label":"體育會"},{"count":0,"sum":0,"label":"同心會"},{"count":0,"sum":0,"label":"農會"},{"count":0,"sum":0,"label":"早起會"},{"count":0,"sum":0,"label":"健身會"},{"count":0,"sum":0,"label":"宗親會"},{"count":0,"sum":0,"label":"功德會"},{"count":0,"sum":0,"label":"商業會"},{"count":0,"sum":0,"label":"長青會"},{"count":0,"sum":0,"label":"民眾服務社"},{"count":0,"sum":0,"label":"聯盟"}],"suggestions_piles":[{"count":2,"tokens":"國中|國小","sum":152000,"label":"國中、國小"},{"count":1,"tokens":"辦公室|辦公處","sum":96000,"label":"辦公室"},{"count":1,"tokens":"警察局|分局","sum":96000,"label":"警察局"},{"count":0,"tokens":"協會|學會|商會|公會|協進會|促進會|研習會|婦聯會|婦女會|體育會|同心會|農會|早起會|健身會|宗親會|功德會|商業會|長青會|民眾服務社|聯盟","sum":0,"label":"協會"},{"count":0,"tokens":"廟|宮","sum":0,"label":"廟"},{"count":0,"tokens":"消防局|消防隊|分隊|中隊","sum":0,"label":"消防局"}],"bills_party_diversity":[{"party":"民主進步黨","ratio":0.42147117296222664},{"party":"無黨籍","ratio":0.36381709741550694},{"party":"中國國民黨","ratio":0.2147117296222664}]},"councilor":"ee186bfd107c4897aaba549b2f6e8d2d"}],"uid":"ee186bfd107c4897aaba549b2f6e8d2d","name":"林智堅","birth":null,"former_names":"","identifiers":["林智堅","林智堅"]},{"url":"http://councils.g0v.tw/api/councilors/749/","each_terms":[{"url":"http://councils.g0v.tw/api/councilors_terms/1388/","election_year":"2006","name":"江永昌","gender":"","party":"","title":"議員","constituency":2,"county":"新北市","district":"中和市","in_office":true,"contact_details":null,"term_start":"2006-03-01","term_end":{"date":"2010-12-24"},"education":"中和國小\n海山國中\n建國高中\n中興大學物理學士\n台灣師範大學政治學研究所碩士","experience":"台北縣第16屆議員\n台北大學法律學院碩士學分班\n立委趙永清第4、5、6屆國會助理\n中和市第7屆市民代表\n台北縣95年度社會優秀青年\n紅十字會台北縣分會理事\n中和義消分隊副分隊長\n凱達格蘭學校校友會監事\n陽光之友協會理事長","remark":null,"image":"http://www.ntp.gov.tw/UpFile/CouncilorFile/TTCC1615.jpg","links":[{"url":"http://www.ntp.gov.tw/content/history/history01-5-p.aspx?sid=527","note":"議會個人官網"}],"social_media":null,"platform":"","param":null,"councilor":"0f5e3f3a681048ca86368abc051ac70b"},{"url":"http://councils.g0v.tw/api/councilors_terms/11721/","election_year":"2014","name":"江永昌","gender":"男","party":"民主進步黨","title":null,"constituency":5,"county":"新北市","district":"中和區","in_office":false,"contact_details":null,"term_start":"2014-12-25","term_end":{"date":"2016-01-31","judicial_links":"","reason":"請辭，就任立委","ref":"","replacement":""},"education":null,"experience":null,"remark":null,"image":"","links":null,"social_media":null,"platform":"","param":{"suggestions_years":{"count":17,"sum":4703000,"years":[{"count":17,"sum":4703000,"suggest_year":"2015","small_purchase":5}]},"bills_role_statistics":{"total":161,"priproposer":7,"sponsor":32,"cosponsor":129},"attendance_statistics":{"absent":14,"total":60},"suggestions_associations":[{"count":0,"sum":0,"label":"社區發展協會"},{"count":0,"sum":0,"label":"學會"},{"count":0,"sum":0,"label":"商會"},{"count":0,"sum":0,"label":"公會"},{"count":0,"sum":0,"label":"協進會"},{"count":0,"sum":0,"label":"促進會"},{"count":0,"sum":0,"label":"研習會"},{"count":0,"sum":0,"label":"婦聯會"},{"count":0,"sum":0,"label":"婦女會"},{"count":0,"sum":0,"label":"體育會"},{"count":0,"sum":0,"label":"同心會"},{"count":0,"sum":0,"label":"農會"},{"count":0,"sum":0,"label":"早起會"},{"count":0,"sum":0,"label":"健身會"},{"count":0,"sum":0,"label":"宗親會"},{"count":0,"sum":0,"label":"功德會"},{"count":0,"sum":0,"label":"商業會"},{"count":0,"sum":0,"label":"長青會"},{"count":0,"sum":0,"label":"民眾服務社"},{"count":0,"sum":0,"label":"聯盟"}],"bills_party_diversity":[{"party":"民主進步黨","ratio":0.7396996534462842},{"party":"中國國民黨","ratio":0.17558721601848287},{"party":"無黨籍","ratio":0.03273007316134001},{"party":"無黨團結聯盟","ratio":0.030804774740084712},{"party":"臺灣團結聯盟","ratio":0.02117828263380824}],"suggestions_piles":[{"count":14,"tokens":"國中|國小","sum":3467000,"label":"國中、國小"},{"count":1,"tokens":"辦公室|辦公處","sum":320000,"label":"辦公室"},{"count":1,"tokens":"消防局|消防隊|分隊|中隊","sum":140000,"label":"消防局"},{"count":0,"tokens":"協會|學會|商會|公會|協進會|促進會|研習會|婦聯會|婦女會|體育會|同心會|農會|早起會|健身會|宗親會|功德會|商業會|長青會|民眾服務社|聯盟","sum":0,"label":"協會"},{"count":0,"tokens":"廟|宮","sum":0,"label":"廟"},{"count":0,"tokens":"警察局|分局","sum":0,"label":"警察局"}]},"councilor":"0f5e3f3a681048ca86368abc051ac70b"},{"url":"http://councils.g0v.tw/api/councilors_terms/1915/","election_year":"2010","name":"江永昌","gender":"","party":"民主進步黨","title":"議員","constituency":5,"county":"新北市","district":"中和區","in_office":true,"contact_details":[{"type":"voice","value":"02-22497899","label":"電話"},{"type":"fax","value":"02-22497999","label":"傳真"},{"type":"address","value":"23575新北市中和區中和路44號2樓","label":"通訊處"},{"type":"email","value":"ve.ca@msa.hinet.net","label":"E-mail"}],"term_start":"2010-12-25","term_end":{"date":"2014-12-24"},"education":"中和國小\n海山國中\n建國高中\n中興大學物理學士\n台灣師範大學政治學研究所碩士","experience":"台北縣第16屆議員\n台北大學法律學院碩士學分班\n立委趙永清第4、5、6屆國會助理\n中和市第7屆市民代表\n台北縣95年度社會優秀青年\n紅十字會台北縣分會理事\n中和義消分隊副分隊長\n凱達格蘭學校校友會監事\n陽光之友協會理事長","remark":null,"image":"http://www.ntp.gov.tw/UpFile/CouncilorFile/TTCC1615.jpg","links":[{"url":"http://www.ntp.gov.tw/content/list/list01-1-03-1.aspx?sid=527&cid=172","note":"議會個人官網"}],"social_media":null,"platform":"四通八達新中和：①主張新北市捷運主導權，以環狀線、萬大線、南北線結合既有中和線運輸系統，讓地區交通更便利。② 增設高架道路上下匝道，形成整體流暢路網，建立完整接駁公車系統，提升大眾運輸，以減少車輛擁塞並節約能源提高環境品質。③ 建構友善的人行空間及號誌標線，為身心障礙及年長者創造真正安全無障礙空間。\n健康樂活新中和：① 整治瓦磘溝河岸工程，規劃為親水綠帶供居民休憩，媲美韓國清溪川風采。②爭取國防管理學院前後山坡地變更為自然步道森林公園。③推動閒置公有土地綠化，廣設公園提供民眾運動休閒，讓生活更優質。④ 因應高齡化趨勢，完善社區照護醫療網絡，讓弱勢族群、老人及小孩享有居家照顧與社會關懷。\n藝術人文新中和：① 增設長青文康會館與樂齡學習中心，滿足銀髮族身心靈健康舒展，生活更加豐富。② 舉辦各項藝術活動，使人文蓬勃發展，推動地方傳統民俗薪火相傳，讓民間力量多元化，探尋在地記憶，展望中和獨特風貌。\n經濟發展新中和：①協助老舊社區改頭換面，加速都市更新發展。② 中坑彈藥庫遷移後，積極市地重劃，打造生化科技園區或數位軟體研創園區，促使產業進駐，提升在地青年就業機會。③ 要求政府輔導商圈及市場，保障基層民生經濟小型行業持續熱絡繁榮。④反對政府過度舉債，嚴格監督公共工程品質，避免預算浮濫浪費公帑。\n平安幸福新中和：①推動公幼托育延長2小時，補助幼兒就讀私托，輔導低收入戶工作，減輕打拼生活的負擔，讓民眾感受幸福。② 提高清寒獎助，降低貧困學子就學壓力，使其能安心受教育。③要求改善警察風紀，促其致力打擊犯罪維護治安，保護婦孺安全。","param":{"attendance_statistics":{"absent":14,"total":124},"bills_role_statistics":{"total":110,"priproposer":5,"sponsor":24,"cosponsor":86},"diversity":{"中國國民黨":0.1591206011269538,"無黨團結聯盟":0.015547197681751153,"民主進步黨":0.8218713173457957,"無黨籍":0.0034608838454992306},"bills_party_diversity":[{"party":"民主進步黨","ratio":0.7155009451795841},{"party":"中國國民黨","ratio":0.19092627599243855},{"party":"無黨籍","ratio":0.03497164461247637},{"party":"無黨團結聯盟","ratio":0.0330812854442344},{"party":"臺灣團結聯盟","ratio":0.02551984877126654}]},"councilor":"0f5e3f3a681048ca86368abc051ac70b"}],"uid":"0f5e3f3a681048ca86368abc051ac70b","name":"江永昌","birth":null,"former_names":"","identifiers":["江永昌"]},{"url":"http://councils.g0v.tw/api/councilors/751/","each_terms":[{"url":"http://councils.g0v.tw/api/councilors_terms/1392/","election_year":"2006","name":"李肇南","gender":"","party":"","title":"議員","constituency":2,"county":"新北市","district":"中和市","in_office":true,"contact_details":null,"term_start":"2006-03-01","term_end":{"date":"2010-12-24"},"education":"金門金城國小\n中和興南國小\n中和秀山國小\n永和國中\n新埔工專","experience":"臺北縣議會第16屆議員\n榮民子弟客家女婿　湖南省新化縣人\n暨南大學國際關係研究所法學碩士\n台北縣議會現任議員\n中和市第6、7屆市民代表\n連宋中和競選總部發言人\n馬蕭中和後援會副主委","remark":null,"image":"http://www.ntp.gov.tw/UpFile/CouncilorFile/TTCC1616.jpg","links":[{"url":"http://www.ntp.gov.tw/content/history/history01-5-p.aspx?sid=528","note":"議會個人官網"}],"social_media":null,"platform":"","param":null,"councilor":"ba0a138fb6124159823008d0d07d39ed"}],"uid":"ba0a138fb6124159823008d0d07d39ed","name":"李肇南","birth":null,"former_names":"","identifiers":["李肇南","李肇南"]},{"url":"http://councils.g0v.tw/api/councilors/752/","each_terms":[{"url":"http://councils.g0v.tw/api/councilors_terms/1396/","election_year":"2006","name":"王月明","gender":"","party":"","title":"議員","constituency":1,"county":"新北市","district":"板橋市","in_office":true,"contact_details":null,"term_start":"2006-03-01","term_end":{"date":"2010-12-24"},"education":"南投僑建國民小學\n縣立南投國中\n省立草屯商工","experience":"臺北縣議會第16屆議員\n板橋市代表會第八、九屆代表\n板橋市中山社區第二、三屆理事長\n台北縣南投同鄉會板橋分會副會長\n台北縣議會警察、衛生、環保、消防委員會召集人\n榮獲內政部頒發志工銅質獎章、板橋市公所志工金質獎章\n民進黨台北縣議會黨團幹事長\n致理技術學院生態與環保班","remark":null,"image":"http://www.ntp.gov.tw/UpFile/CouncilorFile/TTCC1609.jpg","links":[{"url":"http://www.ntp.gov.tw/content/history/history01-5-p.aspx?sid=526","note":"議會個人官網"}],"social_media":null,"platform":"","param":null,"councilor":"5164eba7ee6446f8bc320f390d33e91e"}],"uid":"5164eba7ee6446f8bc320f390d33e91e","name":"王月明","birth":null,"former_names":"","identifiers":["王月明"]},{"url":"http://councils.g0v.tw/api/councilors/754/","each_terms":[{"url":"http://councils.g0v.tw/api/councilors_terms/1403/","election_year":"2006","name":"趙燕昭","gender":"","party":"","title":"議員","constituency":1,"county":"新北市","district":"板橋市","in_office":true,"contact_details":null,"term_start":"2006-03-01","term_end":{"date":"2010-12-24"},"education":"員林國小。\n員林國中。\n省立崇實高中。\n陸軍官校專修班四十期。","experience":"臺北縣議會第16屆議員。\n溪崑義消分隊長。\n台北縣音樂操協會創會理事長。\n板橋市關懷老兵協會理事長。\n板橋市後備軍人輔導中心主任。\n板橋市關懷後備軍人協會理事長。\n黃復興黨部區黨部主任、常委。\n溪崑國中、華僑中學家長會榮譽會長。","remark":null,"image":"http://www.ntp.gov.tw/UpFile/CouncilorFile/TTCC1602.jpg","links":[{"url":"http://www.ntp.gov.tw/content/history/history01-5-p.aspx?sid=525","note":"議會個人官網"}],"social_media":null,"platform":"","param":null,"councilor":"bf999d1ce98c4dac9c8c2b346c4f381c"}],"uid":"bf999d1ce98c4dac9c8c2b346c4f381c","name":"趙燕昭","birth":null,"former_names":"","identifiers":["趙燕昭"]},{"url":"http://councils.g0v.tw/api/councilors/755/","each_terms":[{"url":"http://councils.g0v.tw/api/councilors_terms/1405/","election_year":"1946","name":"王初學","gender":"","party":"","title":"議員","constituency":null,"county":"新北市","district":"","in_office":true,"contact_details":null,"term_start":"1946-04-15","term_end":{"date":"1950-12-31"},"education":"","experience":"*民國三十六年劃入基隆市轄","remark":null,"image":"http://www.ntp.gov.tw/UpFile/CouncilorFile/TTCC0070.jpg","links":[{"url":"http://www.ntp.gov.tw/content/history/history01-5-p.aspx?sid=70","note":"議會個人官網"}],"social_media":null,"platform":"","param":null,"councilor":"912dbeb91b7b4df18c38b1a5a6b88c8e"}],"uid":"912dbeb91b7b4df18c38b1a5a6b88c8e","name":"王初學","birth":null,"former_names":"","identifiers":["王初學"]},{"url":"http://councils.g0v.tw/api/councilors/756/","each_terms":[{"url":"http://councils.g0v.tw/api/councilors_terms/1406/","election_year":"1946","name":"游仲健","gender":"","party":"","title":"議員","constituency":null,"county":"新北市","district":"","in_office":true,"contact_details":null,"term_start":"1946-04-15","term_end":{"date":"1950-12-31"},"education":"省行政幹部訓練團畢業。","experience":"警察\n鄉長","remark":null,"image":"http://www.ntp.gov.tw/UpFile/CouncilorFile/TTCC0069.jpg","links":[{"url":"http://www.ntp.gov.tw/content/history/history01-5-p.aspx?sid=69","note":"議會個人官網"}],"social_media":null,"platform":"","param":null,"councilor":"b1aa3d941116403c9cd0cc7a2d3ecb91"}],"uid":"b1aa3d941116403c9cd0cc7a2d3ecb91","name":"游仲健","birth":null,"former_names":"","identifiers":["游仲健"]},{"url":"http://councils.g0v.tw/api/councilors/765/","each_terms":[{"url":"http://councils.g0v.tw/api/councilors_terms/1415/","election_year":"1946","name":"林儀賓","gender":"","party":"","title":"議員","constituency":null,"county":"新北市","district":"","in_office":true,"contact_details":null,"term_start":"1946-04-15","term_end":{"date":"1950-12-31"},"education":"","experience":"*當選鄉長辭？","remark":null,"image":"http://www.ntp.gov.tw/UpFile/CouncilorFile/TTCC0059.jpg","links":[{"url":"http://www.ntp.gov.tw/content/history/history01-5-p.aspx?sid=59","note":"議會個人官網"}],"social_media":null,"platform":"","param":null,"councilor":"14e8ee658ec140ada9c7cead8d874bb4"}],"uid":"14e8ee658ec140ada9c7cead8d874bb4","name":"林儀賓","birth":null,"former_names":"","identifiers":["林儀賓","林儀賓"]},{"url":"http://councils.g0v.tw/api/councilors/766/","each_terms":[{"url":"http://councils.g0v.tw/api/councilors_terms/1416/","election_year":"1946","name":"陳裕後","gender":"","party":"","title":"議員","constituency":null,"county":"新北市","district":"","in_office":true,"contact_details":null,"term_start":"1946-04-15","term_end":{"date":"1950-12-31"},"education":"臺北師範學校畢業。","experience":"員山鄉長\n五結鄉民代表會主席\n臺灣製材有限公司董事\n*補張方溥缺","remark":null,"image":"http://www.ntp.gov.tw/UpFile/CouncilorFile/TTCC0058.jpg","links":[{"url":"http://www.ntp.gov.tw/content/history/history01-5-p.aspx?sid=58","note":"議會個人官網"}],"social_media":null,"platform":"","param":null,"councilor":"1d5ded1761964203bc25631045bbdb8f"}],"uid":"1d5ded1761964203bc25631045bbdb8f","name":"陳裕後","birth":null,"former_names":"","identifiers":["陳裕後"]},{"url":"http://councils.g0v.tw/api/councilors/767/","each_terms":[{"url":"http://councils.g0v.tw/api/councilors_terms/1417/","election_year":"1946","name":"張方溥","gender":"","party":"","title":"議員","constituency":null,"county":"新北市","district":"","in_office":true,"contact_details":null,"term_start":"1946-04-15","term_end":{"date":"1950-12-31"},"education":"五結公學校畢業。","experience":"役場會計役\n農會理事\n*補林木火缺？旋辭？","remark":null,"image":"http://www.ntp.gov.tw/UpFile/CouncilorFile/TTCC0057.jpg","links":[{"url":"http://www.ntp.gov.tw/content/history/history01-5-p.aspx?sid=57","note":"議會個人官網"}],"social_media":null,"platform":"","param":null,"councilor":"f0f46daeab994ea49a279e78f30c9b78"}],"uid":"f0f46daeab994ea49a279e78f30c9b78","name":"張方溥","birth":null,"former_names":"","identifiers":["張方溥"]}]}