{"count":1904,"next":"http://councils.g0v.tw/api/councilors/?page=36","previous":"http://councils.g0v.tw/api/councilors/?page=34","results":[{"url":"http://councils.g0v.tw/api/councilors/768/","each_terms":[{"url":"http://councils.g0v.tw/api/councilors_terms/1418/","election_year":"1946","name":"林木火","gender":"","party":"","title":"議員","constituency":null,"county":"新北市","district":"","in_office":true,"contact_details":null,"term_start":"1946-04-15","term_end":{"date":"1950-12-31"},"education":"","experience":"組合理事\n自動車公司副社長\n*因事辭？","remark":null,"image":"http://www.ntp.gov.tw/UpFile/CouncilorFile/TTCC0056.jpg","links":[{"url":"http://www.ntp.gov.tw/content/history/history01-5-p.aspx?sid=56","note":"議會個人官網"}],"social_media":null,"platform":"","param":null,"councilor":"5e81697124564658be598d3288b2cdc8"}],"uid":"5e81697124564658be598d3288b2cdc8","name":"林木火","birth":null,"former_names":"","identifiers":["林木火","林木火"]},{"url":"http://councils.g0v.tw/api/councilors/769/","each_terms":[{"url":"http://councils.g0v.tw/api/councilors_terms/1419/","election_year":"1946","name":"吳阿泉","gender":"","party":"","title":"議員","constituency":null,"county":"新北市","district":"","in_office":true,"contact_details":null,"term_start":"1946-04-15","term_end":{"date":"1950-12-31"},"education":"臺北第二中學畢業\n東京大東文化學院畢業。","experience":"省立宜蘭中學教務主任\n三星初中校長","remark":null,"image":"http://www.ntp.gov.tw/UpFile/CouncilorFile/TTCC0055.jpg","links":[{"url":"http://www.ntp.gov.tw/content/history/history01-5-p.aspx?sid=55","note":"議會個人官網"}],"social_media":null,"platform":"","param":null,"councilor":"c6f17b5df4c949c794001ce63fa1f3be"}],"uid":"c6f17b5df4c949c794001ce63fa1f3be","name":"吳阿泉","birth":null,"former_names":"","identifiers":["吳阿泉"]},{"url":"http://councils.g0v.tw/api/councilors/1647/","each_terms":[{"url":"http://councils.g0v.tw/api/councilors_terms/2573/","election_year":"2009","name":"張太陽","gender":"","party":"","title":"","constituency":3,"county":"苗栗縣","district":"通霄鎮、苑裡鎮","in_office":true,"contact_details":null,"term_start":"2009-12-25","term_end":{"date":"2014-12-25"},"education":null,"experience":null,"remark":null,"image":"http://www.mcc.gov.tw/admin/upload/small_news_201003131641320.jpg","links":[{"url":"http://www.mcc.gov.tw/imgtxt_list.php?menu=27&typeid=42&typeid2=668","note":"議會個人官網"}],"social_media":null,"platform":"","param":null,"councilor":"c7b99d29b94e4676b1599a1d2a0f3391"}],"uid":"c7b99d29b94e4676b1599a1d2a0f3391","name":"張太陽","birth":null,"former_names":"","identifiers":["張太陽"]},{"url":"http://councils.g0v.tw/api/councilors/1648/","each_terms":[{"url":"http://councils.g0v.tw/api/councilors_terms/2574/","election_year":"2009","name":"張家靜","gender":"","party":"","title":"","constituency":2,"county":"苗栗縣","district":"三義鄉、銅鑼鄉、西湖鄉","in_office":true,"contact_details":null,"term_start":"2009-12-25","term_end":{"date":"2014-12-25"},"education":null,"experience":null,"remark":null,"image":"http://www.mcc.gov.tw/admin/upload/small_news_201003131638530.jpg","links":[{"url":"http://www.mcc.gov.tw/imgtxt_list.php?menu=27&typeid=42&typeid2=667","note":"議會個人官網"}],"social_media":null,"platform":"","param":{"suggestions_years":{"count":2,"sum":881500,"years":[{"count":2,"sum":881500,"suggest_year":"2014","small_purchase":0}]},"suggestions_associations":[{"count":0,"sum":0,"label":"社區發展協會"},{"count":0,"sum":0,"label":"學會"},{"count":0,"sum":0,"label":"商會"},{"count":0,"sum":0,"label":"公會"},{"count":0,"sum":0,"label":"協進會"},{"count":0,"sum":0,"label":"促進會"},{"count":0,"sum":0,"label":"研習會"},{"count":0,"sum":0,"label":"婦聯會"},{"count":0,"sum":0,"label":"婦女會"},{"count":0,"sum":0,"label":"體育會"},{"count":0,"sum":0,"label":"同心會"},{"count":0,"sum":0,"label":"農會"},{"count":0,"sum":0,"label":"早起會"},{"count":0,"sum":0,"label":"健身會"},{"count":0,"sum":0,"label":"宗親會"},{"count":0,"sum":0,"label":"功德會"},{"count":0,"sum":0,"label":"商業會"},{"count":0,"sum":0,"label":"長青會"},{"count":0,"sum":0,"label":"民眾服務社"},{"count":0,"sum":0,"label":"聯盟"}],"suggestions_piles":[{"count":0,"tokens":"協會|學會|商會|公會|協進會|促進會|研習會|婦聯會|婦女會|體育會|同心會|農會|早起會|健身會|宗親會|功德會|商業會|長青會|民眾服務社|聯盟","sum":0,"label":"協會"},{"count":0,"tokens":"辦公室|辦公處","sum":0,"label":"辦公室"},{"count":0,"tokens":"廟|宮","sum":0,"label":"廟"},{"count":0,"tokens":"警察局|分局","sum":0,"label":"警察局"},{"count":0,"tokens":"消防局|消防隊|分隊|中隊","sum":0,"label":"消防局"},{"count":0,"tokens":"國中|國小","sum":0,"label":"國中、國小"}]},"councilor":"6711bd00a1f94bb4bf5192793e282d0e"},{"url":"http://councils.g0v.tw/api/councilors_terms/12148/","election_year":"2014","name":"張家靜","gender":"女","party":"中國國民黨","title":null,"constituency":2,"county":"苗栗縣","district":"三義鄉、銅鑼鄉、西湖鄉","in_office":false,"contact_details":null,"term_start":"2014-12-25","term_end":{"date":"2015-09-16","judicial_links":"","reason":"當選無效","ref":"http://www.cec.gov.tw/central/cms/bulletin/15795","replacement":"羅貴星"},"education":null,"experience":null,"remark":null,"image":"","links":null,"social_media":null,"platform":"","param":{"bills_role_statistics":{"total":4,"priproposer":1,"sponsor":1,"cosponsor":3},"bills_party_diversity":[{"party":"中國國民黨","ratio":0.5357142857142857},{"party":"無黨籍","ratio":0.39285714285714285},{"party":"民主進步黨","ratio":0.07142857142857142}]},"councilor":"6711bd00a1f94bb4bf5192793e282d0e"}],"uid":"6711bd00a1f94bb4bf5192793e282d0e","name":"張家靜","birth":null,"former_names":"","identifiers":["張家静","張家靜"]},{"url":"http://councils.g0v.tw/api/councilors/1652/","each_terms":[{"url":"http://councils.g0v.tw/api/councilors_terms/2578/","election_year":"2009","name":"涂春榮","gender":"","party":"","title":"","constituency":1,"county":"苗栗縣","district":"苗栗市、公館鄉、頭屋鄉","in_office":true,"contact_details":null,"term_start":"2009-12-25","term_end":{"date":"2014-12-25"},"education":null,"experience":null,"remark":null,"image":"http://www.mcc.gov.tw/admin/upload/small_news_201003131637050.jpg","links":[{"url":"http://www.mcc.gov.tw/imgtxt_list.php?menu=27&typeid=42&typeid2=665","note":"議會個人官網"}],"social_media":null,"platform":"","param":{"suggestions_years":{"count":3,"sum":2110000,"years":[{"count":2,"sum":710000,"suggest_year":"2012","small_purchase":0},{"count":1,"sum":1400000,"suggest_year":"2014","small_purchase":0}]},"suggestions_associations":[{"count":0,"sum":0,"label":"社區發展協會"},{"count":0,"sum":0,"label":"學會"},{"count":0,"sum":0,"label":"商會"},{"count":0,"sum":0,"label":"公會"},{"count":0,"sum":0,"label":"協進會"},{"count":0,"sum":0,"label":"促進會"},{"count":0,"sum":0,"label":"研習會"},{"count":0,"sum":0,"label":"婦聯會"},{"count":0,"sum":0,"label":"婦女會"},{"count":0,"sum":0,"label":"體育會"},{"count":0,"sum":0,"label":"同心會"},{"count":0,"sum":0,"label":"農會"},{"count":0,"sum":0,"label":"早起會"},{"count":0,"sum":0,"label":"健身會"},{"count":0,"sum":0,"label":"宗親會"},{"count":0,"sum":0,"label":"功德會"},{"count":0,"sum":0,"label":"商業會"},{"count":0,"sum":0,"label":"長青會"},{"count":0,"sum":0,"label":"民眾服務社"},{"count":0,"sum":0,"label":"聯盟"}],"suggestions_piles":[{"count":0,"tokens":"協會|學會|商會|公會|協進會|促進會|研習會|婦聯會|婦女會|體育會|同心會|農會|早起會|健身會|宗親會|功德會|商業會|長青會|民眾服務社|聯盟","sum":0,"label":"協會"},{"count":0,"tokens":"辦公室|辦公處","sum":0,"label":"辦公室"},{"count":0,"tokens":"廟|宮","sum":0,"label":"廟"},{"count":0,"tokens":"警察局|分局","sum":0,"label":"警察局"},{"count":0,"tokens":"消防局|消防隊|分隊|中隊","sum":0,"label":"消防局"},{"count":0,"tokens":"國中|國小","sum":0,"label":"國中、國小"}]},"councilor":"fa32b20275b14a8e936274c465f364a7"}],"uid":"fa32b20275b14a8e936274c465f364a7","name":"涂春榮","birth":null,"former_names":"","identifiers":["涂春榮"]},{"url":"http://councils.g0v.tw/api/councilors/720/","each_terms":[{"url":"http://councils.g0v.tw/api/councilors_terms/1316/","election_year":"2002","name":"陳文錄","gender":"","party":"","title":"議員","constituency":4,"county":"新北市","district":"土城市、樹林市、鶯歌鎮、三峽鎮","in_office":true,"contact_details":null,"term_start":"2002-03-01","term_end":{"date":"2006-02-28"},"education":"國中","experience":"臺北縣議會第16屆議員\n臺北縣農會理事長\n第15屆台北縣議員。\n15屆台北縣農會理事長。\n13、14屆鶯歌鎮農會理事長。\n15屆鶯歌鎮代表會主席。\n14屆鶯歌鎮代表會副主席、鎮民代表。\n8、9屆鶯歌鎮體育會理事長。\n1、2屆鶯歌鎮陳氏宗親會理事長。\n96~97年鶯歌同濟會會長。\n第7屆鶯歌國際青年商會OB主席。\n鶯歌鎮民眾服務社常務監事。\n鶯歌國小家長會長。","remark":null,"image":"http://www.ntp.gov.tw/UpFile/CouncilorFile/TTCC1526.jpg","links":[{"url":"http://www.ntp.gov.tw/content/history/history01-5-p.aspx?sid=510","note":"議會個人官網"}],"social_media":null,"platform":"","param":null,"councilor":"34cb870969ed480cbcae024603afadf2"},{"url":"http://councils.g0v.tw/api/councilors_terms/1379/","election_year":"2006","name":"陳文錄","gender":"","party":"","title":"議員","constituency":4,"county":"新北市","district":"土城市、樹林市、鶯歌鎮、三峽鎮","in_office":true,"contact_details":null,"term_start":"2006-03-01","term_end":{"date":"2010-12-24"},"education":"國中","experience":"臺北縣議會第16屆議員\n臺北縣農會理事長\n第15屆台北縣議員。\n15屆台北縣農會理事長。\n13、14屆鶯歌鎮農會理事長。\n15屆鶯歌鎮代表會主席。\n14屆鶯歌鎮代表會副主席、鎮民代表。\n8、9屆鶯歌鎮體育會理事長。\n1、2屆鶯歌鎮陳氏宗親會理事長。\n96~97年鶯歌同濟會會長。\n第7屆鶯歌國際青年商會OB主席。\n鶯歌鎮民眾服務社常務監事。\n鶯歌國小家長會長。","remark":null,"image":"http://www.ntp.gov.tw/UpFile/CouncilorFile/TTCC1526.jpg","links":[{"url":"http://www.ntp.gov.tw/content/history/history01-5-p.aspx?sid=510","note":"議會個人官網"}],"social_media":null,"platform":"","param":null,"councilor":"34cb870969ed480cbcae024603afadf2"}],"uid":"34cb870969ed480cbcae024603afadf2","name":"陳文錄","birth":null,"former_names":"","identifiers":["陳文錄"]},{"url":"http://councils.g0v.tw/api/councilors/721/","each_terms":[{"url":"http://councils.g0v.tw/api/councilors_terms/1319/","election_year":"2002","name":"余有澄","gender":"","party":"","title":"議員","constituency":4,"county":"新北市","district":"土城市、樹林市、鶯歌鎮、三峽鎮","in_office":true,"contact_details":null,"term_start":"2002-03-01","term_end":{"date":"2006-02-28"},"education":"國立中央大學化工系畢業\n臺北市立建國高中畢業\n臺北市立大安初中畢\n土城國小畢業","experience":"臺北縣議會第15屆議員\n土城市殘障福利服務協會顧問\n土城市敦親睦鄰協會理事\n土城國際青年商會會長\n救國團土城團委會會長\n土城後備軍人輔導中心主任\n土城市藝文促進會理事長\n土城市第二、三屆市民代表","remark":null,"image":"http://www.ntp.gov.tw/UpFile/CouncilorFile/TTCC1523.jpg","links":[{"url":"http://www.ntp.gov.tw/content/history/history01-5-p.aspx?sid=509","note":"議會個人官網"}],"social_media":null,"platform":"","param":null,"councilor":"749a7b32a24d46348ca98fd3a213052b"}],"uid":"749a7b32a24d46348ca98fd3a213052b","name":"余有澄","birth":null,"former_names":"","identifiers":["余有澄"]},{"url":"http://councils.g0v.tw/api/councilors/487/","each_terms":[{"url":"http://councils.g0v.tw/api/councilors_terms/833/","election_year":"1973","name":"曾植","gender":"","party":"","title":"議員","constituency":1,"county":"新北市","district":"板橋市、中和鄉、永和鎮、土城鄉","in_office":true,"contact_details":null,"term_start":"1973-05-01","term_end":{"date":"1977-12-29"},"education":"中央警官學校\n私立漢中法政學院","experience":"少尉\n上校\n政府機關之科員\n政府機關之組長\n政府機關之處長\n福建省政府參議\n臺北縣議會第6、7、8、9、10屆議員","remark":null,"image":"http://www.ntp.gov.tw/UpFile/CouncilorFile/TTCC0610.jpg","links":[{"url":"http://www.ntp.gov.tw/content/history/history01-5-p.aspx?sid=252","note":"議會個人官網"}],"social_media":null,"platform":"","param":null,"councilor":"cac1ee25f1654fc39de15fc62cec50d7"},{"url":"http://councils.g0v.tw/api/councilors_terms/892/","election_year":"1968","name":"曾植","gender":"","party":"","title":"議員","constituency":1,"county":"新北市","district":"板橋鎮、中和鄉、永和鎮、土城鄉","in_office":true,"contact_details":null,"term_start":"1968-02-21","term_end":{"date":"1973-04-30"},"education":"中央警官學校\n私立漢中法政學院","experience":"少尉\n上校\n政府機關之科員\n政府機關之組長\n政府機關之處長\n福建省政府參議\n臺北縣議會第6、7、8、9、10屆議員","remark":null,"image":"http://www.ntp.gov.tw/UpFile/CouncilorFile/TTCC0610.jpg","links":[{"url":"http://www.ntp.gov.tw/content/history/history01-5-p.aspx?sid=252","note":"議會個人官網"}],"social_media":null,"platform":"","param":null,"councilor":"cac1ee25f1654fc39de15fc62cec50d7"},{"url":"http://councils.g0v.tw/api/councilors_terms/953/","election_year":"1977","name":"曾植","gender":"","party":"","title":"議員","constituency":1,"county":"新北市","district":"板橋市、中和鄉、永和鎮、土城鄉","in_office":true,"contact_details":null,"term_start":"1977-12-30","term_end":{"date":"1982-02-28"},"education":"中央警官學校\n私立漢中法政學院","experience":"少尉\n上校\n政府機關之科員\n政府機關之組長\n政府機關之處長\n福建省政府參議\n臺北縣議會第6、7、8、9、10屆議員","remark":null,"image":"http://www.ntp.gov.tw/UpFile/CouncilorFile/TTCC0610.jpg","links":[{"url":"http://www.ntp.gov.tw/content/history/history01-5-p.aspx?sid=252","note":"議會個人官網"}],"social_media":null,"platform":"","param":null,"councilor":"cac1ee25f1654fc39de15fc62cec50d7"},{"url":"http://councils.g0v.tw/api/councilors_terms/1060/","election_year":"1982","name":"曾植","gender":"","party":"","title":"議員","constituency":2,"county":"新北市","district":"中和市、永和市","in_office":true,"contact_details":null,"term_start":"1982-03-01","term_end":{"date":"1986-02-28"},"education":"中央警官學校\n私立漢中法政學院","experience":"少尉\n上校\n政府機關之科員\n政府機關之組長\n政府機關之處長\n福建省政府參議\n臺北縣議會第6、7、8、9、10屆議員","remark":null,"image":"http://www.ntp.gov.tw/UpFile/CouncilorFile/TTCC0610.jpg","links":[{"url":"http://www.ntp.gov.tw/content/history/history01-5-p.aspx?sid=252","note":"議會個人官網"}],"social_media":null,"platform":"","param":null,"councilor":"cac1ee25f1654fc39de15fc62cec50d7"},{"url":"http://councils.g0v.tw/api/councilors_terms/1856/","election_year":"1964","name":"曾植","gender":"","party":"","title":"議員","constituency":1,"county":"新北市","district":"板橋鎮、中和鄉、永和鎮、土城鄉","in_office":true,"contact_details":null,"term_start":"1964-02-21","term_end":{"date":"1968-02-20"},"education":"中央警官學校\n私立漢中法政學院","experience":"少尉\n上校\n政府機關之科員\n政府機關之組長\n政府機關之處長\n福建省政府參議\n臺北縣議會第6、7、8、9、10屆議員","remark":null,"image":"http://www.ntp.gov.tw/UpFile/CouncilorFile/TTCC0610.jpg","links":[{"url":"http://www.ntp.gov.tw/content/history/history01-5-p.aspx?sid=252","note":"議會個人官網"}],"social_media":null,"platform":"","param":null,"councilor":"cac1ee25f1654fc39de15fc62cec50d7"}],"uid":"cac1ee25f1654fc39de15fc62cec50d7","name":"曾植","birth":null,"former_names":"","identifiers":["曽植","曾植"]},{"url":"http://councils.g0v.tw/api/councilors/144/","each_terms":[{"url":"http://councils.g0v.tw/api/councilors_terms/171/","election_year":"2006","name":"侯冠群","gender":"男","party":"新黨","title":"議員","constituency":null,"county":"臺北市","district":"","in_office":true,"contact_details":null,"term_start":"2006-12-25","term_end":{"date":"2010-12-25"},"education":"台北市仁愛國民小學、台北市仁愛國民中學、私立華岡藝術學校國劇科。","experience":"中國電視公司基本演員、大陸遊學經商八年、吳兆南相聲劇藝社社長、第九屆台北市議員、第九屆台北市議會第三會期紀律委員會召集人、第五會期民政委員會召集人、第七、八會期新黨黨團召集人。","remark":"","image":"http://www.tcc.gov.tw/../upload/photo/%E4%BE%AF%E5%86%A0%E7%BE%A4.jpg","links":[{"url":"http://www.tcc.gov.tw/Councilor_Content_All.aspx?s=2270&d=650328&n=%E4%BE%AF%E5%86%A0%E7%BE%A4","note":"議會個人官網"}],"social_media":null,"platform":"","param":null,"councilor":"7bd2e4fa9ebc46349cb5ec04678c62be"},{"url":"http://councils.g0v.tw/api/councilors_terms/224/","election_year":"2002","name":"侯冠群","gender":"男","party":"新黨","title":"議員","constituency":null,"county":"臺北市","district":"","in_office":true,"contact_details":null,"term_start":"2002-12-25","term_end":{"date":"2006-12-25"},"education":"臺北市仁愛國民小學、臺北市仁愛國民中學、私立華岡藝術學校國劇科。","experience":"中國電視公司基本演員、大陸遊學經商八年、電視、廣播節目主持人、侯冠群表演工作室負責人，吳兆南相聲劇藝社團長。","remark":"","image":"http://www.tcc.gov.tw/../upload/photo/%E4%BE%AF%E5%86%A0%E7%BE%A417.bmp","links":[{"url":"http://www.tcc.gov.tw/Councilor_Content_All.aspx?s=1371&d=650328&n=%E4%BE%AF%E5%86%A0%E7%BE%A4","note":"議會個人官網"}],"social_media":null,"platform":"","param":null,"councilor":"7bd2e4fa9ebc46349cb5ec04678c62be"}],"uid":"7bd2e4fa9ebc46349cb5ec04678c62be","name":"侯冠群","birth":"1965-03-28","former_names":"","identifiers":["侯冠群","侯冠羣"]},{"url":"http://councils.g0v.tw/api/councilors/43464/","each_terms":[{"url":"http://councils.g0v.tw/api/councilors_terms/26406/","election_year":"2009","name":"吳文相","gender":"男","party":"無黨籍","title":"議員","constituency":1,"county":"澎湖縣","district":"","in_office":true,"contact_details":null,"term_start":null,"term_end":{},"education":null,"experience":null,"remark":null,"image":"","links":null,"social_media":null,"platform":"","param":{"bills_role_statistics":{"total":12,"priproposer":0,"sponsor":0,"cosponsor":12},"suggestions_years":{"count":82,"sum":4760500,"years":[{"count":13,"sum":570000,"suggest_year":"2012","small_purchase":13},{"count":25,"sum":1723000,"suggest_year":"2013","small_purchase":24},{"count":44,"sum":2467500,"suggest_year":"2014","small_purchase":43}]},"suggestions_associations":[{"count":6,"sum":220000,"label":"公會"},{"count":2,"sum":80000,"label":"社區發展協會"},{"count":2,"sum":70000,"label":"協進會"},{"count":2,"sum":50000,"label":"學會"},{"count":1,"sum":20000,"label":"研習會"},{"count":0,"sum":0,"label":"商會"},{"count":0,"sum":0,"label":"促進會"},{"count":0,"sum":0,"label":"婦聯會"},{"count":0,"sum":0,"label":"婦女會"},{"count":0,"sum":0,"label":"體育會"},{"count":0,"sum":0,"label":"同心會"},{"count":0,"sum":0,"label":"農會"},{"count":0,"sum":0,"label":"早起會"},{"count":0,"sum":0,"label":"健身會"},{"count":0,"sum":0,"label":"宗親會"},{"count":0,"sum":0,"label":"功德會"},{"count":0,"sum":0,"label":"商業會"},{"count":0,"sum":0,"label":"長青會"},{"count":0,"sum":0,"label":"民眾服務社"},{"count":0,"sum":0,"label":"聯盟"}],"suggestions_piles":[{"count":13,"tokens":"廟|宮","sum":939900,"label":"廟"},{"count":15,"tokens":"辦公室|辦公處","sum":675600,"label":"辦公室"},{"count":15,"tokens":"協會|學會|商會|公會|協進會|促進會|研習會|婦聯會|婦女會|體育會|同心會|農會|早起會|健身會|宗親會|功德會|商業會|長青會|民眾服務社|聯盟","sum":510000,"label":"協會"},{"count":2,"tokens":"國中|國小","sum":150000,"label":"國中、國小"},{"count":0,"tokens":"警察局|分局","sum":0,"label":"警察局"},{"count":0,"tokens":"消防局|消防隊|分隊|中隊","sum":0,"label":"消防局"}]},"councilor":"749eafdcbf514b8ea002c041d2fd277d"},{"url":"http://councils.g0v.tw/api/councilors_terms/26501/","election_year":"2014","name":"吳文相","gender":null,"party":"無黨籍","title":null,"constituency":1,"county":"澎湖縣","district":null,"in_office":false,"contact_details":null,"term_start":"2014-12-25","term_end":{"date":"2015-12-08","judicial_links":"","reason":"當選無效","ref":"http://www.cec.gov.tw/central/cms/bulletin/7795","replacement":"蘇陳綉色"},"education":null,"experience":null,"remark":null,"image":null,"links":null,"social_media":null,"platform":null,"param":{"suggestions_years":{"count":10,"sum":694871,"years":[{"count":10,"sum":694871,"suggest_year":"2015","small_purchase":9}]},"suggestions_associations":[{"count":0,"sum":0,"label":"社區發展協會"},{"count":0,"sum":0,"label":"學會"},{"count":0,"sum":0,"label":"商會"},{"count":0,"sum":0,"label":"公會"},{"count":0,"sum":0,"label":"協進會"},{"count":0,"sum":0,"label":"促進會"},{"count":0,"sum":0,"label":"研習會"},{"count":0,"sum":0,"label":"婦聯會"},{"count":0,"sum":0,"label":"婦女會"},{"count":0,"sum":0,"label":"體育會"},{"count":0,"sum":0,"label":"同心會"},{"count":0,"sum":0,"label":"農會"},{"count":0,"sum":0,"label":"早起會"},{"count":0,"sum":0,"label":"健身會"},{"count":0,"sum":0,"label":"宗親會"},{"count":0,"sum":0,"label":"功德會"},{"count":0,"sum":0,"label":"商業會"},{"count":0,"sum":0,"label":"長青會"},{"count":0,"sum":0,"label":"民眾服務社"},{"count":0,"sum":0,"label":"聯盟"}],"suggestions_piles":[{"count":1,"tokens":"廟|宮","sum":100000,"label":"廟"},{"count":2,"tokens":"辦公室|辦公處","sum":99245,"label":"辦公室"},{"count":0,"tokens":"協會|學會|商會|公會|協進會|促進會|研習會|婦聯會|婦女會|體育會|同心會|農會|早起會|健身會|宗親會|功德會|商業會|長青會|民眾服務社|聯盟","sum":0,"label":"協會"},{"count":0,"tokens":"警察局|分局","sum":0,"label":"警察局"},{"count":0,"tokens":"消防局|消防隊|分隊|中隊","sum":0,"label":"消防局"},{"count":0,"tokens":"國中|國小","sum":0,"label":"國中、國小"}],"bills_party_diversity":null},"councilor":"749eafdcbf514b8ea002c041d2fd277d"}],"uid":"749eafdcbf514b8ea002c041d2fd277d","name":"吳文相","birth":"1948-01-01","former_names":"","identifiers":["吳文相"]}]}