{"count":1904,"next":"http://councils.g0v.tw/api/councilors/?page=37","previous":"http://councils.g0v.tw/api/councilors/?page=35","results":[{"url":"http://councils.g0v.tw/api/councilors/781/","each_terms":[{"url":"http://councils.g0v.tw/api/councilors_terms/1431/","election_year":"1946","name":"陳燦棋","gender":"","party":"","title":"議員","constituency":null,"county":"新北市","district":"","in_office":true,"contact_details":null,"term_start":"1946-04-15","term_end":{"date":"1950-12-31"},"education":"汐止國小  17年-23年\n臺北二中 (成功中學)  23年-29年\n臺北帝大醫專  29年-33年。","experience":"現職(況)：汐止民生診所院長\n(民國34年起至今)\n*民國38年4月辭","remark":null,"image":"http://www.ntp.gov.tw/UpFile/CouncilorFile/TTCC0044.jpg","links":[{"url":"http://www.ntp.gov.tw/content/history/history01-5-p.aspx?sid=44","note":"議會個人官網"}],"social_media":null,"platform":"","param":null,"councilor":"c932e67a007a46c1a5328cea98128032"}],"uid":"c932e67a007a46c1a5328cea98128032","name":"陳燦棋","birth":null,"former_names":"","identifiers":["陳燦棋"]},{"url":"http://councils.g0v.tw/api/councilors/782/","each_terms":[{"url":"http://councils.g0v.tw/api/councilors_terms/1432/","election_year":"1946","name":"連乞來","gender":"","party":"","title":"議員","constituency":null,"county":"新北市","district":"","in_office":true,"contact_details":null,"term_start":"1946-04-15","term_end":{"date":"1950-12-31"},"education":"","experience":"巡查，書記，保正\n協議會員，組合監事\n*改名為連鴻英，補柯啟業缺？","remark":null,"image":"http://www.ntp.gov.tw/UpFile/CouncilorFile/TTCC0043.jpg","links":[{"url":"http://www.ntp.gov.tw/content/history/history01-5-p.aspx?sid=43","note":"議會個人官網"}],"social_media":null,"platform":"","param":null,"councilor":"85a2a0bd413c4e8b8af3012ff5103725"}],"uid":"85a2a0bd413c4e8b8af3012ff5103725","name":"連乞來","birth":null,"former_names":"","identifiers":["連乞來"]},{"url":"http://councils.g0v.tw/api/councilors/1076/","each_terms":[{"url":"http://councils.g0v.tw/api/councilors_terms/2001/","election_year":"2009","name":"林漢淇","gender":"男","party":"民主進步黨","title":"議員","constituency":5,"county":"新竹市","district":"香山區","in_office":true,"contact_details":[{"type":"address","value":"新竹市中華路六段97巷34弄11號","label":"服務處地址"},{"type":"voice","value":"03-5372049","label":"服務電話"},{"type":"cell","value":"0932-177571","label":"行動電話"}],"term_start":"2009-12-25","term_end":{"date":"2014-12-25"},"education":null,"experience":null,"remark":null,"image":"http://www.hsinchu-cc.gov.tw/content/image/%E6%9E%97%E6%BC%A2%E6%B7%87.jpg","links":[{"url":"http://www.hsinchu-cc.gov.tw/content/%E6%9E%97%E6%BC%A2%E6%B7%87.htm","note":"議會個人官網"}],"social_media":null,"platform":"用心打拼　　深耕基層\n清廉改革　　監督市政","param":{"bills_role_statistics":{"total":75,"priproposer":11,"sponsor":11,"cosponsor":64},"suggestions_years":{"count":9,"sum":1094618,"years":[{"count":1,"sum":99000,"suggest_year":"2013","small_purchase":1},{"count":8,"sum":995618,"suggest_year":"2014","small_purchase":5}]},"suggestions_associations":[{"count":0,"sum":0,"label":"社區發展協會"},{"count":0,"sum":0,"label":"學會"},{"count":0,"sum":0,"label":"商會"},{"count":0,"sum":0,"label":"公會"},{"count":0,"sum":0,"label":"協進會"},{"count":0,"sum":0,"label":"促進會"},{"count":0,"sum":0,"label":"研習會"},{"count":0,"sum":0,"label":"婦聯會"},{"count":0,"sum":0,"label":"婦女會"},{"count":0,"sum":0,"label":"體育會"},{"count":0,"sum":0,"label":"同心會"},{"count":0,"sum":0,"label":"農會"},{"count":0,"sum":0,"label":"早起會"},{"count":0,"sum":0,"label":"健身會"},{"count":0,"sum":0,"label":"宗親會"},{"count":0,"sum":0,"label":"功德會"},{"count":0,"sum":0,"label":"商業會"},{"count":0,"sum":0,"label":"長青會"},{"count":0,"sum":0,"label":"民眾服務社"},{"count":0,"sum":0,"label":"聯盟"}],"suggestions_piles":[{"count":9,"tokens":"國中|國小","sum":1094618,"label":"國中、國小"},{"count":0,"tokens":"協會|學會|商會|公會|協進會|促進會|研習會|婦聯會|婦女會|體育會|同心會|農會|早起會|健身會|宗親會|功德會|商業會|長青會|民眾服務社|聯盟","sum":0,"label":"協會"},{"count":0,"tokens":"辦公室|辦公處","sum":0,"label":"辦公室"},{"count":0,"tokens":"廟|宮","sum":0,"label":"廟"},{"count":0,"tokens":"警察局|分局","sum":0,"label":"警察局"},{"count":0,"tokens":"消防局|消防隊|分隊|中隊","sum":0,"label":"消防局"}],"bills_party_diversity":[{"party":"民主進步黨","ratio":0.4222222222222222},{"party":"無黨籍","ratio":0.3688888888888889},{"party":"中國國民黨","ratio":0.2088888888888889}]},"councilor":"74362d18d5c8440cb300140caeb38801"}],"uid":"74362d18d5c8440cb300140caeb38801","name":"林漢淇","birth":null,"former_names":"","identifiers":["林漢淇","林漢淇"]},{"url":"http://councils.g0v.tw/api/councilors/1080/","each_terms":[{"url":"http://councils.g0v.tw/api/councilors_terms/2005/","election_year":"2009","name":"蔡錕鈺","gender":"男","party":"無黨籍","title":"議員","constituency":4,"county":"新竹市","district":"北區","in_office":true,"contact_details":[{"type":"address","value":"新竹市中正路616號","label":"服務處地址"},{"type":"voice","value":"03-5422969","label":"服務電話"},{"type":"cell","value":"","label":"行動電話"}],"term_start":"2009-12-25","term_end":{"date":"2014-12-25"},"education":null,"experience":null,"remark":null,"image":"http://www.hsinchu-cc.gov.tw/content/image/%E8%94%A1%E9%8C%95%E9%88%BA.jpg","links":[{"url":"http://www.hsinchu-cc.gov.tw/content/%E8%94%A1%E9%8C%95%E9%88%BA.htm","note":"議會個人官網"}],"social_media":null,"platform":"‧落實監督市政預算\n‧重視市郊地區教育\n‧推展文化產業教育\n‧致力社區發展\n‧協助眷村拆遷改建\n‧危險道路口增設交通號誌\n‧增設觀光地區照明設備\n‧加強觀光地區治安維護\n‧打通市區不良巷道改善交通\n‧增設里內消防設備\n‧推廣家戶聯防系統\n‧照顧弱勢團體\n‧置設獨居老人關懷中心","param":{"bills_role_statistics":{"total":59,"priproposer":4,"sponsor":7,"cosponsor":52},"suggestions_years":{"count":6,"sum":2463667,"years":[{"count":3,"sum":1720667,"suggest_year":"2013","small_purchase":0},{"count":3,"sum":743000,"suggest_year":"2014","small_purchase":2}]},"suggestions_associations":[{"count":0,"sum":0,"label":"社區發展協會"},{"count":0,"sum":0,"label":"學會"},{"count":0,"sum":0,"label":"商會"},{"count":0,"sum":0,"label":"公會"},{"count":0,"sum":0,"label":"協進會"},{"count":0,"sum":0,"label":"促進會"},{"count":0,"sum":0,"label":"研習會"},{"count":0,"sum":0,"label":"婦聯會"},{"count":0,"sum":0,"label":"婦女會"},{"count":0,"sum":0,"label":"體育會"},{"count":0,"sum":0,"label":"同心會"},{"count":0,"sum":0,"label":"農會"},{"count":0,"sum":0,"label":"早起會"},{"count":0,"sum":0,"label":"健身會"},{"count":0,"sum":0,"label":"宗親會"},{"count":0,"sum":0,"label":"功德會"},{"count":0,"sum":0,"label":"商業會"},{"count":0,"sum":0,"label":"長青會"},{"count":0,"sum":0,"label":"民眾服務社"},{"count":0,"sum":0,"label":"聯盟"}],"suggestions_piles":[{"count":4,"tokens":"國中|國小","sum":1257000,"label":"國中、國小"},{"count":0,"tokens":"協會|學會|商會|公會|協進會|促進會|研習會|婦聯會|婦女會|體育會|同心會|農會|早起會|健身會|宗親會|功德會|商業會|長青會|民眾服務社|聯盟","sum":0,"label":"協會"},{"count":0,"tokens":"辦公室|辦公處","sum":0,"label":"辦公室"},{"count":0,"tokens":"廟|宮","sum":0,"label":"廟"},{"count":0,"tokens":"警察局|分局","sum":0,"label":"警察局"},{"count":0,"tokens":"消防局|消防隊|分隊|中隊","sum":0,"label":"消防局"}],"bills_party_diversity":[{"party":"無黨籍","ratio":0.4594594594594595},{"party":"民主進步黨","ratio":0.30236486486486486},{"party":"中國國民黨","ratio":0.23817567567567569}]},"councilor":"02bff0333e6c40c5bd89d4f281bbb8d6"}],"uid":"02bff0333e6c40c5bd89d4f281bbb8d6","name":"蔡錕鈺","birth":null,"former_names":"","identifiers":["蔡錕鈺"]},{"url":"http://councils.g0v.tw/api/councilors/1088/","each_terms":[{"url":"http://councils.g0v.tw/api/councilors_terms/2013/","election_year":"2009","name":"彭昆耀","gender":"男","party":"無黨籍","title":"議員","constituency":4,"county":"新竹市","district":"北區","in_office":true,"contact_details":[{"type":"address","value":"新竹市南寮街42巷7號","label":"服務處地址"},{"type":"voice","value":"03-5363904","label":"服務電話"},{"type":"cell","value":"","label":"行動電話"}],"term_start":"2009-12-25","term_end":{"date":"2014-12-25"},"education":null,"experience":null,"remark":null,"image":"http://www.hsinchu-cc.gov.tw/content/image/%E5%BD%AD%E6%98%86%E8%80%80.jpg","links":[{"url":"http://www.hsinchu-cc.gov.tw/content/%E5%BD%AD%E6%98%86%E8%80%80.htm","note":"議會個人官網"}],"social_media":null,"platform":"一、東大路飛機場路段截彎取直，建造機場地下道直通天府路、東大路。\n二、監督頭前溪整治防汛工程加速完成，另東西向快速道路延伸至新竹漁港，促使北區\n成為新竹交通樞杻。\n三、開闢中清路由天府路至港北里，形成棋盤式交通網，帶動新竹漁港特定區繁榮發\n展。\n四、打造17公里海岸線成為休閒遊憩黃金景點，帶動商機創造就業機會。\n五、加速完成全市納入都市計畫案，以利本市繁榮發展。\n六、國中小教材應全市統一版本，減輕學生讀書壓力，加強教育改革之推動。\n七、重視青少年生命教育及兩性教育之輔導。\n八、增設公立幼稚園，補助中低收入戶學童午餐費。\n九、支持警政，改善提昇治安品質，強化社區治安聯防系統。\n十、全力消弭城市危險空間，還給人民一個安全的環境。\n十一、加強落實老人及弱勢團體各項福利政策。","param":{"bills_role_statistics":{"total":22,"priproposer":0,"sponsor":4,"cosponsor":18},"suggestions_years":{"count":3,"sum":586050,"years":[{"count":2,"sum":490000,"suggest_year":"2013","small_purchase":1},{"count":1,"sum":96050,"suggest_year":"2014","small_purchase":1}]},"suggestions_associations":[{"count":0,"sum":0,"label":"社區發展協會"},{"count":0,"sum":0,"label":"學會"},{"count":0,"sum":0,"label":"商會"},{"count":0,"sum":0,"label":"公會"},{"count":0,"sum":0,"label":"協進會"},{"count":0,"sum":0,"label":"促進會"},{"count":0,"sum":0,"label":"研習會"},{"count":0,"sum":0,"label":"婦聯會"},{"count":0,"sum":0,"label":"婦女會"},{"count":0,"sum":0,"label":"體育會"},{"count":0,"sum":0,"label":"同心會"},{"count":0,"sum":0,"label":"農會"},{"count":0,"sum":0,"label":"早起會"},{"count":0,"sum":0,"label":"健身會"},{"count":0,"sum":0,"label":"宗親會"},{"count":0,"sum":0,"label":"功德會"},{"count":0,"sum":0,"label":"商業會"},{"count":0,"sum":0,"label":"長青會"},{"count":0,"sum":0,"label":"民眾服務社"},{"count":0,"sum":0,"label":"聯盟"}],"suggestions_piles":[{"count":1,"tokens":"辦公室|辦公處","sum":96050,"label":"辦公室"},{"count":1,"tokens":"消防局|消防隊|分隊|中隊","sum":96050,"label":"消防局"},{"count":1,"tokens":"國中|國小","sum":95000,"label":"國中、國小"},{"count":0,"tokens":"協會|學會|商會|公會|協進會|促進會|研習會|婦聯會|婦女會|體育會|同心會|農會|早起會|健身會|宗親會|功德會|商業會|長青會|民眾服務社|聯盟","sum":0,"label":"協會"},{"count":0,"tokens":"廟|宮","sum":0,"label":"廟"},{"count":0,"tokens":"警察局|分局","sum":0,"label":"警察局"}],"bills_party_diversity":[{"party":"無黨籍","ratio":0.41263940520446096},{"party":"民主進步黨","ratio":0.29739776951672864},{"party":"中國國民黨","ratio":0.2899628252788104}]},"councilor":"eefc0b182bbf46a68d25f87735d43b2f"}],"uid":"eefc0b182bbf46a68d25f87735d43b2f","name":"彭昆耀","birth":null,"former_names":"","identifiers":["彭昆耀"]},{"url":"http://councils.g0v.tw/api/councilors/1089/","each_terms":[{"url":"http://councils.g0v.tw/api/councilors_terms/2014/","election_year":"2009","name":"呂於台","gender":"男","party":"中國國民黨","title":"議員","constituency":3,"county":"新竹市","district":"西區","in_office":true,"contact_details":[{"type":"address","value":"新竹市崧嶺路168號","label":"服務處地址"},{"type":"voice","value":"0928-206005","label":"服務電話"},{"type":"cell","value":"0928-206005","label":"行動電話"}],"term_start":"2009-12-25","term_end":{"date":"2014-12-25"},"education":null,"experience":null,"remark":null,"image":"http://www.hsinchu-cc.gov.tw/content/image/%E5%91%82%E6%96%BC%E5%8F%B0.jpg","links":[{"url":"http://www.hsinchu-cc.gov.tw/content/%E5%91%82%E6%96%BC%E5%8F%B0.htm","note":"議會個人官網"}],"social_media":null,"platform":"一、監督市政。\n二、為民服務。","param":{"bills_role_statistics":{"total":59,"priproposer":9,"sponsor":9,"cosponsor":50},"suggestions_years":{"count":7,"sum":1360500,"years":[{"count":2,"sum":264500,"suggest_year":"2013","small_purchase":1},{"count":5,"sum":1096000,"suggest_year":"2014","small_purchase":2}]},"suggestions_associations":[{"count":0,"sum":0,"label":"社區發展協會"},{"count":0,"sum":0,"label":"學會"},{"count":0,"sum":0,"label":"商會"},{"count":0,"sum":0,"label":"公會"},{"count":0,"sum":0,"label":"協進會"},{"count":0,"sum":0,"label":"促進會"},{"count":0,"sum":0,"label":"研習會"},{"count":0,"sum":0,"label":"婦聯會"},{"count":0,"sum":0,"label":"婦女會"},{"count":0,"sum":0,"label":"體育會"},{"count":0,"sum":0,"label":"同心會"},{"count":0,"sum":0,"label":"農會"},{"count":0,"sum":0,"label":"早起會"},{"count":0,"sum":0,"label":"健身會"},{"count":0,"sum":0,"label":"宗親會"},{"count":0,"sum":0,"label":"功德會"},{"count":0,"sum":0,"label":"商業會"},{"count":0,"sum":0,"label":"長青會"},{"count":0,"sum":0,"label":"民眾服務社"},{"count":0,"sum":0,"label":"聯盟"}],"suggestions_piles":[{"count":5,"tokens":"國中|國小","sum":870000,"label":"國中、國小"},{"count":0,"tokens":"協會|學會|商會|公會|協進會|促進會|研習會|婦聯會|婦女會|體育會|同心會|農會|早起會|健身會|宗親會|功德會|商業會|長青會|民眾服務社|聯盟","sum":0,"label":"協會"},{"count":0,"tokens":"辦公室|辦公處","sum":0,"label":"辦公室"},{"count":0,"tokens":"廟|宮","sum":0,"label":"廟"},{"count":0,"tokens":"警察局|分局","sum":0,"label":"警察局"},{"count":0,"tokens":"消防局|消防隊|分隊|中隊","sum":0,"label":"消防局"}],"bills_party_diversity":[{"party":"中國國民黨","ratio":0.41392649903288203},{"party":"無黨籍","ratio":0.344294003868472},{"party":"民主進步黨","ratio":0.24177949709864605}]},"councilor":"71cefdbf4c2745d88e135a53775b7bfc"}],"uid":"71cefdbf4c2745d88e135a53775b7bfc","name":"呂於台","birth":null,"former_names":"","identifiers":["呂於台"]},{"url":"http://councils.g0v.tw/api/councilors/1094/","each_terms":[{"url":"http://councils.g0v.tw/api/councilors_terms/2019/","election_year":"2009","name":"魏秀珍","gender":"女","party":"民主進步黨","title":"議員","constituency":2,"county":"新竹市","district":"南區","in_office":true,"contact_details":[{"type":"address","value":"新竹市南大路428號之1","label":"服務處地址"},{"type":"voice","value":"03-5302277","label":"服務電話"},{"type":"cell","value":"","label":"行動電話"}],"term_start":"2009-12-25","term_end":{"date":"2014-12-25"},"education":null,"experience":null,"remark":null,"image":"http://www.hsinchu-cc.gov.tw/content/image/%E9%AD%8F%E7%A7%80%E7%8F%8D.jpg","links":[{"url":"http://www.hsinchu-cc.gov.tw/content/%E9%AD%8F%E7%A7%80%E7%8F%8D.htm","note":"議會個人官網"}],"social_media":null,"platform":"用心打拼，深耕基層、清廉改革，監督市政。\n（一） 監督政府對社會福利資源的合理分配，加強婦幼保護，維護老人、身心障礙者\n、低收入戶以及中高齡失業民眾等弱勢族群的生活權益，給予弱勢民眾最實質\n的幫助。\n（二）闢建社區公園或綠地、休閒步道，提升社區居住品質。\n（三）逐年增加公立幼托整合班數。\n（四）展望未來，首要急務是持續監督、加速火車站後站都市更新計劃的落實，並同\n時改善、建立周邊地區交通網路，全面帶動南區繁榮發展。","param":{"bills_role_statistics":{"total":34,"priproposer":1,"sponsor":1,"cosponsor":33},"suggestions_years":{"count":3,"sum":903333,"years":[{"count":1,"sum":403333,"suggest_year":"2013","small_purchase":0},{"count":2,"sum":500000,"suggest_year":"2014","small_purchase":0}]},"suggestions_associations":[{"count":0,"sum":0,"label":"社區發展協會"},{"count":0,"sum":0,"label":"學會"},{"count":0,"sum":0,"label":"商會"},{"count":0,"sum":0,"label":"公會"},{"count":0,"sum":0,"label":"協進會"},{"count":0,"sum":0,"label":"促進會"},{"count":0,"sum":0,"label":"研習會"},{"count":0,"sum":0,"label":"婦聯會"},{"count":0,"sum":0,"label":"婦女會"},{"count":0,"sum":0,"label":"體育會"},{"count":0,"sum":0,"label":"同心會"},{"count":0,"sum":0,"label":"農會"},{"count":0,"sum":0,"label":"早起會"},{"count":0,"sum":0,"label":"健身會"},{"count":0,"sum":0,"label":"宗親會"},{"count":0,"sum":0,"label":"功德會"},{"count":0,"sum":0,"label":"商業會"},{"count":0,"sum":0,"label":"長青會"},{"count":0,"sum":0,"label":"民眾服務社"},{"count":0,"sum":0,"label":"聯盟"}],"suggestions_piles":[{"count":2,"tokens":"國中|國小","sum":500000,"label":"國中、國小"},{"count":0,"tokens":"協會|學會|商會|公會|協進會|促進會|研習會|婦聯會|婦女會|體育會|同心會|農會|早起會|健身會|宗親會|功德會|商業會|長青會|民眾服務社|聯盟","sum":0,"label":"協會"},{"count":0,"tokens":"辦公室|辦公處","sum":0,"label":"辦公室"},{"count":0,"tokens":"廟|宮","sum":0,"label":"廟"},{"count":0,"tokens":"警察局|分局","sum":0,"label":"警察局"},{"count":0,"tokens":"消防局|消防隊|分隊|中隊","sum":0,"label":"消防局"}],"bills_party_diversity":[{"party":"民主進步黨","ratio":0.4444444444444444},{"party":"無黨籍","ratio":0.37037037037037035},{"party":"中國國民黨","ratio":0.18518518518518517}]},"councilor":"d702d52e09d04385a2b2d13baa7166cb"}],"uid":"d702d52e09d04385a2b2d13baa7166cb","name":"魏秀珍","birth":null,"former_names":"","identifiers":["魏秀珍"]},{"url":"http://councils.g0v.tw/api/councilors/241/","each_terms":[{"url":"http://councils.g0v.tw/api/councilors_terms/448/","election_year":"1985","name":"張建邦","gender":"男","party":"中國國民黨","title":"議長","constituency":null,"county":"臺北市","district":"","in_office":false,"contact_details":null,"term_start":"1985-12-25","term_end":{"date":"1989-12-25","reason":"民國七十八年六月一日榮任交通部長，辭議員職。"},"education":"上海聖約翰大學農業經濟學士、美國伊利諾大學教育博士。","experience":"國立臺灣大學教授、政治大學教授、淡江文理學院院長、臺北市教育會理事長、臺北市直轄市議會第一、二、三屆副議長、第四屆議長。","remark":"民國七十八年六月一日榮任交通部長，辭議員職。","image":"http://www.tcc.gov.tw/../upload/photo/%E5%BC%B5%E5%BB%BA%E9%82%A613.jpg","links":[{"url":"http://www.tcc.gov.tw/Councilor_Content_All.aspx?s=2160&d=290115&n=%E5%BC%B5%E5%BB%BA%E9%82%A6","note":"議會個人官網"}],"social_media":null,"platform":"","param":null,"councilor":"23a7a6cecb40412a87800c40d07ea252"},{"url":"http://councils.g0v.tw/api/councilors_terms/498/","election_year":"1981","name":"張建邦","gender":"男","party":"中國國民黨","title":"議長","constituency":null,"county":"臺北市","district":"","in_office":false,"contact_details":null,"term_start":"1981-12-25","term_end":{"date":"1985-12-25","reason":"民國七十八年六月一日榮任交通部長，辭議員職。"},"education":"上海聖約翰大學畢業、美國伊利諾大學碩士、美國伊利諾大學博士、美國北俄亥俄大學榮譽博士、菲律賓碧瑤大學榮譽博士、韓國檀國大學榮譽博士、革命實踐研究院台建會二期、國防研究院七期。","experience":"國立臺灣大學教授、淡江文理學院院長、臺北市教育會理事長、中華民國出席聯合國代表團顧問、臺北市直轄市議會第一、二、三屆副議長。","remark":"民國七十八年六月一日榮任交通部長，辭議員職。","image":"http://www.tcc.gov.tw/../upload/photo/%E5%BC%B5%E5%BB%BA%E9%82%A612.jpg","links":[{"url":"http://www.tcc.gov.tw/Councilor_Content_All.aspx?s=1600&d=290315&n=%E5%BC%B5%E5%BB%BA%E9%82%A6","note":"議會個人官網"}],"social_media":null,"platform":"","param":null,"councilor":"23a7a6cecb40412a87800c40d07ea252"},{"url":"http://councils.g0v.tw/api/councilors_terms/547/","election_year":"1977","name":"張建邦","gender":"男","party":"中國國民黨","title":"副議長","constituency":null,"county":"臺北市","district":"","in_office":false,"contact_details":null,"term_start":"1977-12-25","term_end":{"date":"1981-12-25","reason":"民國七十八年六月一日榮任交通部長，辭議員職。"},"education":"上海聖約翰大學畢業、美國伊利諾大學碩士、美國北俄亥俄大學榮譽博士、國防研究院第七期結業。","experience":"臺灣大學教授、淡江英專教授、中華民國出席聯合國代表團顧問，臺北市直轄市議會第一、二屆副議長。","remark":"民國七十八年六月一日榮任交通部長，辭議員職。","image":"http://www.tcc.gov.tw/../upload/photo/%E5%BC%B5%E5%BB%BA%E9%82%A611.jpg","links":[{"url":"http://www.tcc.gov.tw/Councilor_Content_All.aspx?s=1373&d=290315&n=%E5%BC%B5%E5%BB%BA%E9%82%A6","note":"議會個人官網"}],"social_media":null,"platform":"","param":null,"councilor":"23a7a6cecb40412a87800c40d07ea252"},{"url":"http://councils.g0v.tw/api/councilors_terms/595/","election_year":"1973","name":"張建邦","gender":"男","party":"中國國民黨","title":"副議長","constituency":null,"county":"臺北市","district":"","in_office":false,"contact_details":null,"term_start":"1973-12-25","term_end":{"date":"1977-12-25","reason":"民國七十八年六月一日榮任交通部長，辭議員職。"},"education":"上海聖約翰大學畢業、美國伊利諾大學碩士。","experience":"臺灣大學教授、我國出席聯大代表團顧問、我國出席聯教組織代表團顧問，臺北市直轄市議會第一屆副議長。","remark":"民國七十八年六月一日榮任交通部長，辭議員職。","image":"http://www.tcc.gov.tw/../upload/photo/%E5%BC%B5%E5%BB%BA%E9%82%A610.jpg","links":[{"url":"http://www.tcc.gov.tw/Councilor_Content_All.aspx?s=2116&d=290315&n=%E5%BC%B5%E5%BB%BA%E9%82%A6","note":"議會個人官網"}],"social_media":null,"platform":"","param":null,"councilor":"23a7a6cecb40412a87800c40d07ea252"},{"url":"http://councils.g0v.tw/api/councilors_terms/636/","election_year":"1969","name":"張建邦","gender":"男","party":"中國國民黨","title":"副議長","constituency":null,"county":"臺北市","district":"","in_office":false,"contact_details":null,"term_start":"1969-12-25","term_end":{"date":"1973-12-25","reason":"民國七十八年六月一日榮任交通部長，辭議員職。"},"education":"上海聖約翰大學畢業、美國伊利諾大學碩士。","experience":"臺灣大學教授、臺北市教育會理事長、淡江文理學院院長、我國出席聯大代表團顧問。","remark":"民國七十八年六月一日榮任交通部長，辭議員職。","image":"http://www.tcc.gov.tw/../upload/photo/%E5%BC%B5%E5%BB%BA%E9%82%A609.jpg","links":[{"url":"http://www.tcc.gov.tw/Councilor_Content_All.aspx?s=1861&d=290315&n=%E5%BC%B5%E5%BB%BA%E9%82%A6","note":"議會個人官網"}],"social_media":null,"platform":"","param":null,"councilor":"23a7a6cecb40412a87800c40d07ea252"}],"uid":"23a7a6cecb40412a87800c40d07ea252","name":"張建邦","birth":"1929-01-15","former_names":"","identifiers":["張建邦"]},{"url":"http://councils.g0v.tw/api/councilors/242/","each_terms":[{"url":"http://councils.g0v.tw/api/councilors_terms/454/","election_year":"1981","name":"鄭娟娥","gender":"女","party":"中國國民黨","title":"議員","constituency":null,"county":"臺北市","district":"","in_office":true,"contact_details":null,"term_start":"1981-12-25","term_end":{"date":"1985-12-25"},"education":"政治作戰學校四期政治科畢業、革命實踐研究院黨政班結業。","experience":"臺北市直轄市議會第一、二、三屆議員、教師、教官、講師。","remark":"","image":"http://www.tcc.gov.tw/../upload/photo/%E9%84%AD%E5%A8%9F%E5%A8%A512.jpg","links":[{"url":"http://www.tcc.gov.tw/Councilor_Content_All.aspx?s=2191&d=330325&n=%E9%84%AD%E5%A8%9F%E5%A8%A5","note":"議會個人官網"}],"social_media":null,"platform":"","param":null,"councilor":"21f652a5ea114c229e811570ccd2b74a"},{"url":"http://councils.g0v.tw/api/councilors_terms/506/","election_year":"1977","name":"鄭娟娥","gender":"女","party":"中國國民黨","title":"議員","constituency":null,"county":"臺北市","district":"","in_office":true,"contact_details":null,"term_start":"1977-12-25","term_end":{"date":"1981-12-25"},"education":"政治作戰學校四期政治科畢業、革命實踐研究院黨政班結業。","experience":"教員、臺北市議會議員。","remark":"","image":"http://www.tcc.gov.tw/../upload/photo/%E9%84%AD%E5%A8%9F%E5%A8%A511.jpg","links":[{"url":"http://www.tcc.gov.tw/Councilor_Content_All.aspx?s=2165&d=330325&n=%E9%84%AD%E5%A8%9F%E5%A8%A5","note":"議會個人官網"}],"social_media":null,"platform":"","param":null,"councilor":"21f652a5ea114c229e811570ccd2b74a"},{"url":"http://councils.g0v.tw/api/councilors_terms/553/","election_year":"1973","name":"鄭娟娥","gender":"女","party":"中國國民黨","title":"議員","constituency":null,"county":"臺北市","district":"","in_office":true,"contact_details":null,"term_start":"1973-12-25","term_end":{"date":"1977-12-25"},"education":"政治作戰學校政治系畢業、省立臺東女中高中畢業。","experience":"臺北市第一屆議會議員，中、小學教員，合會公司職員、金門馬祖心戰指揮中心播音官、陸軍預訓司令部教官。","remark":"","image":"http://www.tcc.gov.tw/../upload/photo/%E9%84%AD%E5%A8%9F%E5%A8%A510.jpg","links":[{"url":"http://www.tcc.gov.tw/Councilor_Content_All.aspx?s=1350&d=330325&n=%E9%84%AD%E5%A8%9F%E5%A8%A5","note":"議會個人官網"}],"social_media":null,"platform":"","param":null,"councilor":"21f652a5ea114c229e811570ccd2b74a"},{"url":"http://councils.g0v.tw/api/councilors_terms/601/","election_year":"1969","name":"鄭娟娥","gender":"女","party":"中國國民黨","title":"議員","constituency":null,"county":"臺北市","district":"","in_office":true,"contact_details":null,"term_start":"1969-12-25","term_end":{"date":"1973-12-25"},"education":"政工幹校本科。","experience":"工作員、播音員、教官。","remark":"","image":"http://www.tcc.gov.tw/../upload/photo/%E9%84%AD%E5%A8%9F%E5%A8%A509.jpg","links":[{"url":"http://www.tcc.gov.tw/Councilor_Content_All.aspx?s=1422&d=330325&n=%E9%84%AD%E5%A8%9F%E5%A8%A5","note":"議會個人官網"}],"social_media":null,"platform":"","param":null,"councilor":"21f652a5ea114c229e811570ccd2b74a"}],"uid":"21f652a5ea114c229e811570ccd2b74a","name":"鄭娟娥","birth":"1933-03-25","former_names":"","identifiers":["鄭娟娥"]},{"url":"http://councils.g0v.tw/api/councilors/243/","each_terms":[{"url":"http://councils.g0v.tw/api/councilors_terms/467/","election_year":"1981","name":"陳水扁","gender":"男","party":"無黨籍","title":"議員","constituency":null,"county":"臺北市","district":"","in_office":true,"contact_details":null,"term_start":"1981-12-25","term_end":{"date":"1985-12-25"},"education":"臺南一中畢業、國立臺灣大學法律系畢業、律師高考及格。","experience":"華夏海事商務法律事務所負責人、臺北市國際青商會章顧問、出席世界青商大會我國代表、中國比較法學基金會董事、青輔會企管人才訓練班講座。","remark":"","image":"http://www.tcc.gov.tw/../upload/photo/%E9%99%B3%E6%B0%B4%E6%89%8112.jpg","links":[{"url":"http://www.tcc.gov.tw/Councilor_Content_All.aspx?s=1594&d=510218&n=%E9%99%B3%E6%B0%B4%E6%89%81","note":"議會個人官網"}],"social_media":null,"platform":"","param":null,"councilor":"404ba26bffd8479d8665d4949fd27ef3"}],"uid":"404ba26bffd8479d8665d4949fd27ef3","name":"陳水扁","birth":"1951-02-18","former_names":"","identifiers":["陳水扁"]}]}