{"count":1904,"next":"http://councils.g0v.tw/api/councilors/?page=38","previous":"http://councils.g0v.tw/api/councilors/?page=36","results":[{"url":"http://councils.g0v.tw/api/councilors/453/","each_terms":[{"url":"http://councils.g0v.tw/api/councilors_terms/799/","election_year":"1973","name":"許秀夫","gender":"","party":"","title":"議員","constituency":8,"county":"新北市","district":"新店鎮、深坑鄉、石碇鄉、坪林鄉、烏來鄉山地鄉","in_office":true,"contact_details":null,"term_start":"1973-05-01","term_end":{"date":"1977-12-29"},"education":"新店安坑國小\n新店安坑國中\n文山高中\n陸軍運輸學校結業\n戰地黨務班３９期結業\n軍管區後幹班５５期結業\n革命實踐研究院黨政建設研究班６４期結業","experience":"新店鎮公所\n產物保險公司\n新店鎮第9屆鎮民代表會副主席\n臺北縣議會第8、9、10屆議員","remark":null,"image":"http://www.ntp.gov.tw/UpFile/CouncilorFile/TTCC0853.jpg","links":[{"url":"http://www.ntp.gov.tw/content/history/history01-5-p.aspx?sid=321","note":"議會個人官網"}],"social_media":null,"platform":"","param":null,"councilor":"14eebdd077414fc08cb5bb6c03be4d6c"},{"url":"http://councils.g0v.tw/api/councilors_terms/905/","election_year":"1977","name":"許秀夫","gender":"","party":"","title":"議員","constituency":7,"county":"新北市","district":"新店鎮、深坑鄉、石碇鄉、坪林鄉、烏來鄉山地鄉","in_office":true,"contact_details":null,"term_start":"1977-12-30","term_end":{"date":"1982-02-28"},"education":"新店安坑國小\n新店安坑國中\n文山高中\n陸軍運輸學校結業\n戰地黨務班３９期結業\n軍管區後幹班５５期結業\n革命實踐研究院黨政建設研究班６４期結業","experience":"新店鎮公所\n產物保險公司\n新店鎮第9屆鎮民代表會副主席\n臺北縣議會第8、9、10屆議員","remark":null,"image":"http://www.ntp.gov.tw/UpFile/CouncilorFile/TTCC0853.jpg","links":[{"url":"http://www.ntp.gov.tw/content/history/history01-5-p.aspx?sid=321","note":"議會個人官網"}],"social_media":null,"platform":"","param":null,"councilor":"14eebdd077414fc08cb5bb6c03be4d6c"},{"url":"http://councils.g0v.tw/api/councilors_terms/1010/","election_year":"1982","name":"許秀夫","gender":"","party":"","title":"議員","constituency":9,"county":"新北市","district":"新店市、深坑鄉、石碇鄉、坪林鄉、烏來鄉","in_office":true,"contact_details":null,"term_start":"1982-03-01","term_end":{"date":"1986-02-28"},"education":"新店安坑國小\n新店安坑國中\n文山高中\n陸軍運輸學校結業\n戰地黨務班３９期結業\n軍管區後幹班５５期結業\n革命實踐研究院黨政建設研究班６４期結業","experience":"新店鎮公所\n產物保險公司\n新店鎮第9屆鎮民代表會副主席\n臺北縣議會第8、9、10屆議員","remark":null,"image":"http://www.ntp.gov.tw/UpFile/CouncilorFile/TTCC0853.jpg","links":[{"url":"http://www.ntp.gov.tw/content/history/history01-5-p.aspx?sid=321","note":"議會個人官網"}],"social_media":null,"platform":"","param":null,"councilor":"14eebdd077414fc08cb5bb6c03be4d6c"}],"uid":"14eebdd077414fc08cb5bb6c03be4d6c","name":"許秀夫","birth":null,"former_names":"","identifiers":["許秀夫"]},{"url":"http://councils.g0v.tw/api/councilors/1488/","each_terms":[{"url":"http://councils.g0v.tw/api/councilors_terms/2414/","election_year":"2009","name":"杜傳","gender":"男","party":"中國國民黨","title":"","constituency":16,"county":"屏東縣","district":"霧台鄉","in_office":true,"contact_details":[{"type":"address","value":"屏東市華二街64巷12號","label":"通訊處"},{"type":"voice","value":"08-7360477","label":"電話"}],"term_start":"2009-12-25","term_end":{"date":"2014-12-25"},"education":null,"experience":null,"remark":null,"image":"http://www.ptcc.gov.tw/upload/upimage/9e115abd-9fbb-e547-a0d8-a0340f247db0-S.jpg","links":[{"url":"http://www.ptcc.gov.tw/?Page=PersionalDetail&Guid=b2f38f0f-6019-7e9d-97bd-d52161100288","note":"議會個人官網"}],"social_media":null,"platform":"一、訴求：清廉、勤政、愛民、效率。\n二、願景：文化霧台、基督霧台、觀光霧台、進步霧台、尊貴霧台、永續霧台。\n三、策略：抱持「人生以服務為目的」「民之所欲常在我心」的心願，全心全意為鄉親服務，堅持專業問政，貼心服務，爭取經造福霧台。","param":{"suggestions_years":{"count":128,"sum":7948000,"years":[{"count":14,"sum":280000,"suggest_year":"2012","small_purchase":14},{"count":22,"sum":1599000,"suggest_year":"2013","small_purchase":21},{"count":92,"sum":6069000,"suggest_year":"2014","small_purchase":88}]},"suggestions_associations":[{"count":37,"sum":1236000,"label":"社區發展協會"},{"count":2,"sum":80000,"label":"婦女會"},{"count":1,"sum":20000,"label":"體育會"},{"count":0,"sum":0,"label":"學會"},{"count":0,"sum":0,"label":"商會"},{"count":0,"sum":0,"label":"公會"},{"count":0,"sum":0,"label":"協進會"},{"count":0,"sum":0,"label":"促進會"},{"count":0,"sum":0,"label":"研習會"},{"count":0,"sum":0,"label":"婦聯會"},{"count":0,"sum":0,"label":"同心會"},{"count":0,"sum":0,"label":"農會"},{"count":0,"sum":0,"label":"早起會"},{"count":0,"sum":0,"label":"健身會"},{"count":0,"sum":0,"label":"宗親會"},{"count":0,"sum":0,"label":"功德會"},{"count":0,"sum":0,"label":"商業會"},{"count":0,"sum":0,"label":"長青會"},{"count":0,"sum":0,"label":"民眾服務社"},{"count":0,"sum":0,"label":"聯盟"}],"suggestions_piles":[{"count":63,"tokens":"協會|學會|商會|公會|協進會|促進會|研習會|婦聯會|婦女會|體育會|同心會|農會|早起會|健身會|宗親會|功德會|商業會|長青會|民眾服務社|聯盟","sum":2349000,"label":"協會"},{"count":9,"tokens":"國中|國小","sum":374000,"label":"國中、國小"},{"count":0,"tokens":"辦公室|辦公處","sum":0,"label":"辦公室"},{"count":0,"tokens":"廟|宮","sum":0,"label":"廟"},{"count":0,"tokens":"警察局|分局","sum":0,"label":"警察局"},{"count":0,"tokens":"消防局|消防隊|分隊|中隊","sum":0,"label":"消防局"}]},"councilor":"a9f14697ef604b4db8b4753c91222cf4"}],"uid":"a9f14697ef604b4db8b4753c91222cf4","name":"杜傳","birth":null,"former_names":"","identifiers":["杜傳"]},{"url":"http://councils.g0v.tw/api/councilors/868/","each_terms":[{"url":"http://councils.g0v.tw/api/councilors_terms/1537/","election_year":"1953","name":"張錫榮","gender":"","party":"","title":"議員","constituency":9,"county":"新北市","district":"新店鎮、景美鎮、木柵鄉、深坑鄉、石碇鄉、坪林鄉","in_office":true,"contact_details":null,"term_start":"1953-01-16","term_end":{"date":"1955-01-15"},"education":"成淵中學畢業。","experience":"新店文山區庶務課長\n新店協議會會員\n臺灣省林務局林產管理委員會採購股長兼材料課長\n農會安康里分會會長\n交通部交通研究委員\n臺北縣議會第2、3、5屆議員","remark":null,"image":"http://www.ntp.gov.tw/UpFile/CouncilorFile/TTCC0257.jpg","links":[{"url":"http://www.ntp.gov.tw/content/history/history01-5-p.aspx?sid=152","note":"議會個人官網"}],"social_media":null,"platform":"","param":null,"councilor":"409ffd52f0f149619db10fd7ded3a517"},{"url":"http://councils.g0v.tw/api/councilors_terms/1595/","election_year":"1955","name":"張錫榮","gender":"","party":"","title":"議員","constituency":9,"county":"新北市","district":"新店鎮、景美鎮、木柵鄉、深坑鄉、石碇鄉、坪林鄉","in_office":true,"contact_details":null,"term_start":"1955-01-16","term_end":{"date":"1958-02-20"},"education":"成淵中學畢業。","experience":"新店文山區庶務課長\n新店協議會會員\n臺灣省林務局林產管理委員會採購股長兼材料課長\n農會安康里分會會長\n交通部交通研究委員\n臺北縣議會第2、3、5屆議員","remark":null,"image":"http://www.ntp.gov.tw/UpFile/CouncilorFile/TTCC0257.jpg","links":[{"url":"http://www.ntp.gov.tw/content/history/history01-5-p.aspx?sid=152","note":"議會個人官網"}],"social_media":null,"platform":"","param":null,"councilor":"409ffd52f0f149619db10fd7ded3a517"},{"url":"http://councils.g0v.tw/api/councilors_terms/1741/","election_year":"1961","name":"張錫榮","gender":"","party":"","title":"議員","constituency":9,"county":"新北市","district":"新店鎮、景美鎮、木柵鄉、深坑鄉、石碇鄉、坪林鄉","in_office":true,"contact_details":null,"term_start":"1961-02-21","term_end":{"date":"1964-02-20"},"education":"成淵中學畢業。","experience":"新店文山區庶務課長\n新店協議會會員\n臺灣省林務局林產管理委員會採購股長兼材料課長\n農會安康里分會會長\n交通部交通研究委員\n臺北縣議會第2、3、5屆議員","remark":null,"image":"http://www.ntp.gov.tw/UpFile/CouncilorFile/TTCC0257.jpg","links":[{"url":"http://www.ntp.gov.tw/content/history/history01-5-p.aspx?sid=152","note":"議會個人官網"}],"social_media":null,"platform":"","param":null,"councilor":"409ffd52f0f149619db10fd7ded3a517"}],"uid":"409ffd52f0f149619db10fd7ded3a517","name":"張錫榮","birth":null,"former_names":"","identifiers":["張錫榮"]},{"url":"http://councils.g0v.tw/api/councilors/869/","each_terms":[{"url":"http://councils.g0v.tw/api/councilors_terms/1538/","election_year":"1953","name":"方賀田","gender":"","party":"","title":"議員","constituency":9,"county":"新北市","district":"新店鎮、景美鎮、木柵鄉、深坑鄉、石碇鄉、坪林鄉","in_office":true,"contact_details":null,"term_start":"1953-01-16","term_end":{"date":"1955-01-15"},"education":"日政警校畢業","experience":"日據時期刑警\n臺灣光復後刑事警官組長\n石碇鄉第6、7屆鄉長\n臺北縣議會第2屆議員\n中國國民黨臺北縣黨部諮詢委員\n民國93年8月14日歿","remark":null,"image":"http://www.ntp.gov.tw/UpFile/CouncilorFile/TTCC0256.jpg","links":[{"url":"http://www.ntp.gov.tw/content/history/history01-5-p.aspx?sid=151","note":"議會個人官網"}],"social_media":null,"platform":"","param":null,"councilor":"8cbdf3807fbe49029d09fa42f6cdf46e"}],"uid":"8cbdf3807fbe49029d09fa42f6cdf46e","name":"方賀田","birth":null,"former_names":"","identifiers":["方賀田"]},{"url":"http://councils.g0v.tw/api/councilors/870/","each_terms":[{"url":"http://councils.g0v.tw/api/councilors_terms/1540/","election_year":"1953","name":"李連旺","gender":"","party":"","title":"議員","constituency":8,"county":"新北市","district":"金山鄉、萬里鄉","in_office":true,"contact_details":null,"term_start":"1953-01-16","term_end":{"date":"1955-01-15"},"education":"臺北州立金山農業專修學校\n臺北縣反共抗俄幹部訓練班第一期\n臺灣省訓練團鄉長市長班結業","experience":"臺北縣貧民施醫審查委員\n臺北縣物價評定委員\n永安貨運公司董事\n金一汽車行經理\n義昌號負責人\n金山鄉第7、8屆鄉長\n中國國民黨第12屆全國代表大會代表\n臺北縣議會第2、3屆議員","remark":null,"image":"http://www.ntp.gov.tw/UpFile/CouncilorFile/TTCC0254.jpg","links":[{"url":"http://www.ntp.gov.tw/content/history/history01-5-p.aspx?sid=150","note":"議會個人官網"}],"social_media":null,"platform":"","param":null,"councilor":"dba24e2c2b234bbab8e51f9a4221c5f1"},{"url":"http://councils.g0v.tw/api/councilors_terms/1602/","election_year":"1955","name":"李連旺","gender":"","party":"","title":"議員","constituency":8,"county":"新北市","district":"金山鄉、萬里鄉","in_office":true,"contact_details":null,"term_start":"1955-01-16","term_end":{"date":"1958-02-20"},"education":"臺北州立金山農業專修學校\n臺北縣反共抗俄幹部訓練班第一期\n臺灣省訓練團鄉長市長班結業","experience":"臺北縣貧民施醫審查委員\n臺北縣物價評定委員\n永安貨運公司董事\n金一汽車行經理\n義昌號負責人\n金山鄉第7、8屆鄉長\n中國國民黨第12屆全國代表大會代表\n臺北縣議會第2、3屆議員","remark":null,"image":"http://www.ntp.gov.tw/UpFile/CouncilorFile/TTCC0254.jpg","links":[{"url":"http://www.ntp.gov.tw/content/history/history01-5-p.aspx?sid=150","note":"議會個人官網"}],"social_media":null,"platform":"","param":null,"councilor":"dba24e2c2b234bbab8e51f9a4221c5f1"}],"uid":"dba24e2c2b234bbab8e51f9a4221c5f1","name":"李連旺","birth":null,"former_names":"","identifiers":["李連旺","李連旺"]},{"url":"http://councils.g0v.tw/api/councilors/871/","each_terms":[{"url":"http://councils.g0v.tw/api/councilors_terms/1542/","election_year":"1953","name":"黃貴美","gender":"","party":"","title":"議員","constituency":7,"county":"新北市","district":"瑞芳鎮、貢寮鄉、雙溪鄉、平溪鄉","in_office":true,"contact_details":null,"term_start":"1953-01-16","term_end":{"date":"1955-01-15"},"education":"東京醫科大學畢業。","experience":"醫師\n臺北縣議會第2屆議員\n民國100年2月3日歿","remark":null,"image":"http://www.ntp.gov.tw/UpFile/CouncilorFile/TTCC0252.jpg","links":[{"url":"http://www.ntp.gov.tw/content/history/history01-5-p.aspx?sid=149","note":"議會個人官網"}],"social_media":null,"platform":"","param":null,"councilor":"a2651e5589af4db9b4bdb04d53b160de"}],"uid":"a2651e5589af4db9b4bdb04d53b160de","name":"黃貴美","birth":null,"former_names":"","identifiers":["黃貴美","黄貴美"]},{"url":"http://councils.g0v.tw/api/councilors/778/","each_terms":[{"url":"http://councils.g0v.tw/api/councilors_terms/1428/","election_year":"1946","name":"周碧","gender":"","party":"","title":"議員","constituency":null,"county":"新北市","district":"","in_office":true,"contact_details":null,"term_start":"1946-04-15","term_end":{"date":"1950-12-31"},"education":"國語學校師範科畢業。","experience":"瑞芳公學校  教職\n台陽股份有限公司\n北投鎮鎮長\n北投初級中學校長\n臺北縣參議會參議員\n陽明山管理局顧問\n軍民之友社陽明山分社理事，監事\n國際紅十字會陽明分會會長","remark":null,"image":"http://www.ntp.gov.tw/UpFile/CouncilorFile/TTCC0047.jpg","links":[{"url":"http://www.ntp.gov.tw/content/history/history01-5-p.aspx?sid=47","note":"議會個人官網"}],"social_media":null,"platform":"","param":null,"councilor":"f99a0536dde54b1ebef97a5a3c1fdf0e"}],"uid":"f99a0536dde54b1ebef97a5a3c1fdf0e","name":"周碧","birth":null,"former_names":"","identifiers":["周碧"]},{"url":"http://councils.g0v.tw/api/councilors/786/","each_terms":[{"url":"http://councils.g0v.tw/api/councilors_terms/1436/","election_year":"1946","name":"許海亮","gender":"","party":"","title":"議員","constituency":null,"county":"新北市","district":"","in_office":true,"contact_details":null,"term_start":"1946-04-15","term_end":{"date":"1950-12-31"},"education":"","experience":"","remark":null,"image":"http://www.ntp.gov.tw/UpFile/CouncilorFile/TTCC0039.jpg","links":[{"url":"http://www.ntp.gov.tw/content/history/history01-5-p.aspx?sid=39","note":"議會個人官網"}],"social_media":null,"platform":"","param":null,"councilor":"4c73433cc97a4aeb8b5f6ebeb8c43dcd"}],"uid":"4c73433cc97a4aeb8b5f6ebeb8c43dcd","name":"許海亮","birth":null,"former_names":"","identifiers":["許海亮"]},{"url":"http://councils.g0v.tw/api/councilors/787/","each_terms":[{"url":"http://councils.g0v.tw/api/councilors_terms/1481/","election_year":"1951","name":"林益長","gender":"","party":"","title":"議員","constituency":8,"county":"新北市","district":"金山鄉、萬里鄉","in_office":true,"contact_details":null,"term_start":"1951-01-04","term_end":{"date":"1953-01-05"},"education":"金山公學校","experience":"臺北縣參議員\n臺北縣議會第1、2屆議員\n鄉合作社理事主席\n鄉農會會長\n調解委員會主任委員","remark":null,"image":"http://www.ntp.gov.tw/UpFile/CouncilorFile/TTCC0038.jpg","links":[{"url":"http://www.ntp.gov.tw/content/history/history01-5-p.aspx?sid=38","note":"議會個人官網"}],"social_media":null,"platform":"","param":null,"councilor":"d514bd1eedec4332909f28983c64764e"},{"url":"http://councils.g0v.tw/api/councilors_terms/1541/","election_year":"1953","name":"林益長","gender":"","party":"","title":"議員","constituency":8,"county":"新北市","district":"金山鄉、萬里鄉","in_office":true,"contact_details":null,"term_start":"1953-01-16","term_end":{"date":"1955-01-15"},"education":"金山公學校","experience":"臺北縣參議員\n臺北縣議會第1、2屆議員\n鄉合作社理事主席\n鄉農會會長\n調解委員會主任委員","remark":null,"image":"http://www.ntp.gov.tw/UpFile/CouncilorFile/TTCC0038.jpg","links":[{"url":"http://www.ntp.gov.tw/content/history/history01-5-p.aspx?sid=38","note":"議會個人官網"}],"social_media":null,"platform":"","param":null,"councilor":"d514bd1eedec4332909f28983c64764e"},{"url":"http://councils.g0v.tw/api/councilors_terms/1437/","election_year":"1946","name":"林益長","gender":"","party":"","title":"議員","constituency":null,"county":"新北市","district":"","in_office":true,"contact_details":null,"term_start":"1946-04-15","term_end":{"date":"1950-12-31"},"education":"金山公學校","experience":"臺北縣參議員\n臺北縣議會第1、2屆議員\n鄉合作社理事主席\n鄉農會會長\n調解委員會主任委員","remark":null,"image":"http://www.ntp.gov.tw/UpFile/CouncilorFile/TTCC0038.jpg","links":[{"url":"http://www.ntp.gov.tw/content/history/history01-5-p.aspx?sid=38","note":"議會個人官網"}],"social_media":null,"platform":"","param":null,"councilor":"d514bd1eedec4332909f28983c64764e"}],"uid":"d514bd1eedec4332909f28983c64764e","name":"林益長","birth":null,"former_names":"","identifiers":["林益長","林益長"]},{"url":"http://councils.g0v.tw/api/councilors/788/","each_terms":[{"url":"http://councils.g0v.tw/api/councilors_terms/1438/","election_year":"1946","name":"蔡石勇","gender":"","party":"","title":"議員","constituency":null,"county":"新北市","district":"","in_office":true,"contact_details":null,"term_start":"1946-04-15","term_end":{"date":"1950-12-31"},"education":"初中畢業。","experience":"縣總工會理事\n省總工會常務監事\n鄉合作社理事\n現任國大代表","remark":null,"image":"http://www.ntp.gov.tw/UpFile/CouncilorFile/TTCC0037.jpg","links":[{"url":"http://www.ntp.gov.tw/content/history/history01-5-p.aspx?sid=37","note":"議會個人官網"}],"social_media":null,"platform":"","param":null,"councilor":"3412a516652243c0ad2d539eefab74c3"}],"uid":"3412a516652243c0ad2d539eefab74c3","name":"蔡石勇","birth":null,"former_names":"","identifiers":["蔡石勇"]}]}