{"count":1904,"next":"http://councils.g0v.tw/api/councilors/?page=39","previous":"http://councils.g0v.tw/api/councilors/?page=37","results":[{"url":"http://councils.g0v.tw/api/councilors/789/","each_terms":[{"url":"http://councils.g0v.tw/api/councilors_terms/1439/","election_year":"1946","name":"呂來傳","gender":"","party":"","title":"議員","constituency":null,"county":"新北市","district":"","in_office":true,"contact_details":null,"term_start":"1946-04-15","term_end":{"date":"1950-12-31"},"education":"農業試驗場農科畢業。","experience":"曾任莊長\n組合理事\n街協議會員\n*補戴德發缺？","remark":null,"image":"http://www.ntp.gov.tw/UpFile/CouncilorFile/TTCC0036.jpg","links":[{"url":"http://www.ntp.gov.tw/content/history/history01-5-p.aspx?sid=36","note":"議會個人官網"}],"social_media":null,"platform":"","param":null,"councilor":"27d71265cbd14e61a2cfe84dcabd08e7"}],"uid":"27d71265cbd14e61a2cfe84dcabd08e7","name":"呂來傳","birth":null,"former_names":"","identifiers":["呂來傳"]},{"url":"http://councils.g0v.tw/api/councilors/790/","each_terms":[{"url":"http://councils.g0v.tw/api/councilors_terms/1491/","election_year":"1951","name":"戴德發","gender":"","party":"","title":"議長","constituency":7,"county":"新北市","district":"瑞芳鎮、貢寮鄉、雙溪鄉、平溪鄉","in_office":true,"contact_details":null,"term_start":"1951-01-04","term_end":{"date":"1953-01-05"},"education":"臺北醫學專門學校","experience":"臺北縣參議員\n臺北縣議會第1、2屆議長\n臺北縣第2、3屆縣長\n中國化學製藥股份有限公司董事兼總經理\n華南產物保險股份有限公司董事長\n臺灣工礦股份有限公司總經理\n臺北市保險商業公會理事長\n臺灣區青果輸出業同業公會理事長\n中華民國商業總會常務理事\n中國國民黨臺北縣黨部委員會第1屆至第2屆委員\n中國國民黨臺灣省委員會第8、9屆評議員\n中國國民黨中華航業海員黨部委員會第10屆委員\n*民國74年3月26日歿","remark":null,"image":"http://www.ntp.gov.tw/UpFile/CouncilorFile/TTCC0035.jpg","links":[{"url":"http://www.ntp.gov.tw/content/history/history01-5-p.aspx?sid=35","note":"議會個人官網"}],"social_media":null,"platform":"","param":null,"councilor":"e013b102f5d8438e9d9a1ef664d8eb6d"},{"url":"http://councils.g0v.tw/api/councilors_terms/1550/","election_year":"1953","name":"戴德發","gender":"","party":"","title":"議員","constituency":7,"county":"新北市","district":"瑞芳鎮、貢寮鄉、雙溪鄉、平溪鄉","in_office":true,"contact_details":null,"term_start":"1953-01-16","term_end":{"date":"1955-01-15"},"education":"臺北醫學專門學校","experience":"臺北縣參議員\n臺北縣議會第1、2屆議長\n臺北縣第2、3屆縣長\n中國化學製藥股份有限公司董事兼總經理\n華南產物保險股份有限公司董事長\n臺灣工礦股份有限公司總經理\n臺北市保險商業公會理事長\n臺灣區青果輸出業同業公會理事長\n中華民國商業總會常務理事\n中國國民黨臺北縣黨部委員會第1屆至第2屆委員\n中國國民黨臺灣省委員會第8、9屆評議員\n中國國民黨中華航業海員黨部委員會第10屆委員\n*民國74年3月26日歿","remark":null,"image":"http://www.ntp.gov.tw/UpFile/CouncilorFile/TTCC0035.jpg","links":[{"url":"http://www.ntp.gov.tw/content/history/history01-5-p.aspx?sid=35","note":"議會個人官網"}],"social_media":null,"platform":"","param":null,"councilor":"e013b102f5d8438e9d9a1ef664d8eb6d"},{"url":"http://councils.g0v.tw/api/councilors_terms/1440/","election_year":"1946","name":"戴德發","gender":"","party":"","title":"議員","constituency":null,"county":"新北市","district":"","in_office":true,"contact_details":null,"term_start":"1946-04-15","term_end":{"date":"1950-12-31"},"education":"臺北醫學專門學校","experience":"臺北縣參議員\n臺北縣議會第1、2屆議長\n臺北縣第2、3屆縣長\n中國化學製藥股份有限公司董事兼總經理\n華南產物保險股份有限公司董事長\n臺灣工礦股份有限公司總經理\n臺北市保險商業公會理事長\n臺灣區青果輸出業同業公會理事長\n中華民國商業總會常務理事\n中國國民黨臺北縣黨部委員會第1屆至第2屆委員\n中國國民黨臺灣省委員會第8、9屆評議員\n中國國民黨中華航業海員黨部委員會第10屆委員\n*民國74年3月26日歿","remark":null,"image":"http://www.ntp.gov.tw/UpFile/CouncilorFile/TTCC0035.jpg","links":[{"url":"http://www.ntp.gov.tw/content/history/history01-5-p.aspx?sid=35","note":"議會個人官網"}],"social_media":null,"platform":"","param":null,"councilor":"e013b102f5d8438e9d9a1ef664d8eb6d"}],"uid":"e013b102f5d8438e9d9a1ef664d8eb6d","name":"戴德發","birth":null,"former_names":"","identifiers":["戴德發"]},{"url":"http://councils.g0v.tw/api/councilors/791/","each_terms":[{"url":"http://councils.g0v.tw/api/councilors_terms/1477/","election_year":"1951","name":"林阿友","gender":"","party":"","title":"議員","constituency":9,"county":"新北市","district":"新店鎮、景美鎮、木柵鄉、深坑鄉、石碇鄉、坪林鄉","in_office":true,"contact_details":null,"term_start":"1951-01-04","term_end":{"date":"1953-01-05"},"education":"坪林國民學校畢業","experience":"村長\n坪林鄉農會理事長\n第1屆鄉民代表\n臺灣省汽車運輸商業聯會理事\n坪林汽車貨運公司董事長\n省商會聯合會監事\n坪林鄉第6屆鄉長\n臺北縣參議員\n臺北縣議會第1、2、3、4屆議員","remark":null,"image":"http://www.ntp.gov.tw/UpFile/CouncilorFile/TTCC0034.jpg","links":[{"url":"http://www.ntp.gov.tw/content/history/history01-5-p.aspx?sid=34","note":"議會個人官網"}],"social_media":null,"platform":"","param":null,"councilor":"38e726d8e61647a58ca8e14517ad0d57"},{"url":"http://councils.g0v.tw/api/councilors_terms/1535/","election_year":"1953","name":"林阿友","gender":"","party":"","title":"議員","constituency":9,"county":"新北市","district":"新店鎮、景美鎮、木柵鄉、深坑鄉、石碇鄉、坪林鄉","in_office":true,"contact_details":null,"term_start":"1953-01-16","term_end":{"date":"1955-01-15"},"education":"坪林國民學校畢業","experience":"村長\n坪林鄉農會理事長\n第1屆鄉民代表\n臺灣省汽車運輸商業聯會理事\n坪林汽車貨運公司董事長\n省商會聯合會監事\n坪林鄉第6屆鄉長\n臺北縣參議員\n臺北縣議會第1、2、3、4屆議員","remark":null,"image":"http://www.ntp.gov.tw/UpFile/CouncilorFile/TTCC0034.jpg","links":[{"url":"http://www.ntp.gov.tw/content/history/history01-5-p.aspx?sid=34","note":"議會個人官網"}],"social_media":null,"platform":"","param":null,"councilor":"38e726d8e61647a58ca8e14517ad0d57"},{"url":"http://councils.g0v.tw/api/councilors_terms/1594/","election_year":"1955","name":"林阿友","gender":"","party":"","title":"議員","constituency":9,"county":"新北市","district":"新店鎮、景美鎮、木柵鄉、深坑鄉、石碇鄉、坪林鄉","in_office":true,"contact_details":null,"term_start":"1955-01-16","term_end":{"date":"1958-02-20"},"education":"坪林國民學校畢業","experience":"村長\n坪林鄉農會理事長\n第1屆鄉民代表\n臺灣省汽車運輸商業聯會理事\n坪林汽車貨運公司董事長\n省商會聯合會監事\n坪林鄉第6屆鄉長\n臺北縣參議員\n臺北縣議會第1、2、3、4屆議員","remark":null,"image":"http://www.ntp.gov.tw/UpFile/CouncilorFile/TTCC0034.jpg","links":[{"url":"http://www.ntp.gov.tw/content/history/history01-5-p.aspx?sid=34","note":"議會個人官網"}],"social_media":null,"platform":"","param":null,"councilor":"38e726d8e61647a58ca8e14517ad0d57"},{"url":"http://councils.g0v.tw/api/councilors_terms/1662/","election_year":"1958","name":"林阿友","gender":"","party":"","title":"議員","constituency":9,"county":"新北市","district":"新店鎮、景美鎮、木柵鄉、深坑鄉、石碇鄉、坪林鄉","in_office":true,"contact_details":null,"term_start":"1958-02-21","term_end":{"date":"1961-02-20"},"education":"坪林國民學校畢業","experience":"村長\n坪林鄉農會理事長\n第1屆鄉民代表\n臺灣省汽車運輸商業聯會理事\n坪林汽車貨運公司董事長\n省商會聯合會監事\n坪林鄉第6屆鄉長\n臺北縣參議員\n臺北縣議會第1、2、3、4屆議員","remark":null,"image":"http://www.ntp.gov.tw/UpFile/CouncilorFile/TTCC0034.jpg","links":[{"url":"http://www.ntp.gov.tw/content/history/history01-5-p.aspx?sid=34","note":"議會個人官網"}],"social_media":null,"platform":"","param":null,"councilor":"38e726d8e61647a58ca8e14517ad0d57"},{"url":"http://councils.g0v.tw/api/councilors_terms/1441/","election_year":"1946","name":"林阿友","gender":"","party":"","title":"議員","constituency":null,"county":"新北市","district":"","in_office":true,"contact_details":null,"term_start":"1946-04-15","term_end":{"date":"1950-12-31"},"education":"坪林國民學校畢業","experience":"村長\n坪林鄉農會理事長\n第1屆鄉民代表\n臺灣省汽車運輸商業聯會理事\n坪林汽車貨運公司董事長\n省商會聯合會監事\n坪林鄉第6屆鄉長\n臺北縣參議員\n臺北縣議會第1、2、3、4屆議員","remark":null,"image":"http://www.ntp.gov.tw/UpFile/CouncilorFile/TTCC0034.jpg","links":[{"url":"http://www.ntp.gov.tw/content/history/history01-5-p.aspx?sid=34","note":"議會個人官網"}],"social_media":null,"platform":"","param":null,"councilor":"38e726d8e61647a58ca8e14517ad0d57"}],"uid":"38e726d8e61647a58ca8e14517ad0d57","name":"林阿友","birth":null,"former_names":"","identifiers":["林阿友","林阿友"]},{"url":"http://councils.g0v.tw/api/councilors/618/","each_terms":[{"url":"http://councils.g0v.tw/api/councilors_terms/1081/","election_year":"1986","name":"吳清池","gender":"","party":"","title":"議員","constituency":1,"county":"新北市","district":"板橋市、土城鄉","in_office":true,"contact_details":null,"term_start":"1986-03-01","term_end":{"date":"1990-02-28"},"education":"沙崙國小\n光華高商畢\n國立政治大學法律實務結業","experience":"埔墘聯進鐵工學徒\n大同公司作業員\n鈴木公司技工\n黃石市場攤販\n交通義警中隊長\n民防中隊副中隊長\n青年聯誼會會長\n觀護人協會榮譽觀護人\n文德國小、江翠國\n新埔國中顧問\n青年團結大會宣言起草人\n慈惠宮老人會顧問\n中山國中家長會副會長\n皇天宮顧問\n福大文具公司顧問\n勤泰建設公司負責人\n板橋市第6屆市長\n臺北縣議會第11屆議員","remark":null,"image":"http://www.ntp.gov.tw/UpFile/CouncilorFile/TTCC1101.jpg","links":[{"url":"http://www.ntp.gov.tw/content/history/history01-5-p.aspx?sid=390","note":"議會個人官網"}],"social_media":null,"platform":"","param":null,"councilor":"5cfe6015ddcf41258db4ea71bc0306af"}],"uid":"5cfe6015ddcf41258db4ea71bc0306af","name":"吳清池","birth":null,"former_names":"","identifiers":["吳清池"]},{"url":"http://councils.g0v.tw/api/councilors/619/","each_terms":[{"url":"http://councils.g0v.tw/api/councilors_terms/1085/","election_year":"1990","name":"林文治","gender":"","party":"","title":"議員","constituency":11,"county":"新北市","district":"居住全縣各鄉鎮之平地山胞","in_office":true,"contact_details":null,"term_start":"1990-03-01","term_end":{"date":"1994-02-28"},"education":"臺灣省警察專科學校巡佐班","experience":"警員\n刑警隊員\n北投分局、中山分局等局之刑事組\n臺北縣議會第12屆議員","remark":null,"image":"http://www.ntp.gov.tw/UpFile/CouncilorFile/TTCC1264.jpg","links":[{"url":"http://www.ntp.gov.tw/content/history/history01-5-p.aspx?sid=448","note":"議會個人官網"}],"social_media":null,"platform":"","param":null,"councilor":"a6eeb4529c024948a89a997463156f1d"}],"uid":"a6eeb4529c024948a89a997463156f1d","name":"林文治","birth":null,"former_names":"","identifiers":["林文治","林文治"]},{"url":"http://councils.g0v.tw/api/councilors/620/","each_terms":[{"url":"http://councils.g0v.tw/api/councilors_terms/1086/","election_year":"1982","name":"林明雄","gender":"","party":"","title":"議員","constituency":1,"county":"新北市","district":"板橋市、土城鄉","in_office":true,"contact_details":null,"term_start":"1982-03-01","term_end":{"date":"1986-02-28"},"education":"板橋江翠國校畢\n臺北市立大同初中","experience":"北縣液化氣體燃料同業公會理事長\n永昌煤氣公司負責人\n板橋市體育會板農體操會會長\n北基加油站董事\n臺北縣議會第10、11、12屆議員\n民國96年6月20日歿","remark":null,"image":"http://www.ntp.gov.tw/UpFile/CouncilorFile/TTCC1004.jpg","links":[{"url":"http://www.ntp.gov.tw/content/history/history01-5-p.aspx?sid=353","note":"議會個人官網"}],"social_media":null,"platform":"","param":null,"councilor":"12511674a88d46beabcd10c9f8082f5f"},{"url":"http://councils.g0v.tw/api/councilors_terms/1142/","election_year":"1990","name":"林明雄","gender":"","party":"","title":"議員","constituency":1,"county":"新北市","district":"板橋市","in_office":true,"contact_details":null,"term_start":"1990-03-01","term_end":{"date":"1994-02-28"},"education":"板橋江翠國校畢\n臺北市立大同初中","experience":"北縣液化氣體燃料同業公會理事長\n永昌煤氣公司負責人\n板橋市體育會板農體操會會長\n北基加油站董事\n臺北縣議會第10、11、12屆議員\n民國96年6月20日歿","remark":null,"image":"http://www.ntp.gov.tw/UpFile/CouncilorFile/TTCC1004.jpg","links":[{"url":"http://www.ntp.gov.tw/content/history/history01-5-p.aspx?sid=353","note":"議會個人官網"}],"social_media":null,"platform":"","param":null,"councilor":"12511674a88d46beabcd10c9f8082f5f"},{"url":"http://councils.g0v.tw/api/councilors_terms/1866/","election_year":"1986","name":"林明雄","gender":"","party":"","title":"議員","constituency":1,"county":"新北市","district":"板橋市、土城鄉","in_office":true,"contact_details":null,"term_start":"1986-03-01","term_end":{"date":"1990-02-28"},"education":"板橋江翠國校畢\n臺北市立大同初中","experience":"北縣液化氣體燃料同業公會理事長\n永昌煤氣公司負責人\n板橋市體育會板農體操會會長\n北基加油站董事\n臺北縣議會第10、11、12屆議員\n民國96年6月20日歿","remark":null,"image":"http://www.ntp.gov.tw/UpFile/CouncilorFile/TTCC1004.jpg","links":[{"url":"http://www.ntp.gov.tw/content/history/history01-5-p.aspx?sid=353","note":"議會個人官網"}],"social_media":null,"platform":"","param":null,"councilor":"12511674a88d46beabcd10c9f8082f5f"}],"uid":"12511674a88d46beabcd10c9f8082f5f","name":"林明雄","birth":null,"former_names":"","identifiers":["林明雄","林明雄"]},{"url":"http://councils.g0v.tw/api/councilors/900/","each_terms":[{"url":"http://councils.g0v.tw/api/councilors_terms/1587/","election_year":"1953","name":"雷毓清","gender":"","party":"","title":"議員","constituency":1,"county":"新北市","district":"板橋鎮、中和鄉、土城鄉","in_office":true,"contact_details":null,"term_start":"1953-01-16","term_end":{"date":"1955-01-15"},"education":"貴州省立女子師範學院肄業","experience":"貴州日報編譯\n昆明貨物稅局事務員\n湖南兒童第一保育院主任\n菸酒公賣局製樽廠課員\n烏來國校校長\n臺北市內湖區衛生所秘書與代理所長\n臺北縣黨部委員、人事審核員\n臺北市鴻佑清潔有限公司副總經理\n臺北縣婦女運動委員會主任委員\n臺北市中山區婦女會義務幹事\n臺北縣議會第2、4、5屆議員\n民國94年1月1日歿","remark":null,"image":"http://www.ntp.gov.tw/UpFile/CouncilorFile/TTCC0207.jpg","links":[{"url":"http://www.ntp.gov.tw/content/history/history01-5-p.aspx?sid=120","note":"議會個人官網"}],"social_media":null,"platform":"","param":null,"councilor":"76f6dc10bc59431392fe8494e1c20624"},{"url":"http://councils.g0v.tw/api/councilors_terms/1729/","election_year":"1958","name":"雷毓清","gender":"","party":"","title":"議員","constituency":1,"county":"新北市","district":"板橋鎮、中和鄉、土城鄉","in_office":true,"contact_details":null,"term_start":"1958-02-21","term_end":{"date":"1961-02-20"},"education":"貴州省立女子師範學院肄業","experience":"貴州日報編譯\n昆明貨物稅局事務員\n湖南兒童第一保育院主任\n菸酒公賣局製樽廠課員\n烏來國校校長\n臺北市內湖區衛生所秘書與代理所長\n臺北縣黨部委員、人事審核員\n臺北市鴻佑清潔有限公司副總經理\n臺北縣婦女運動委員會主任委員\n臺北市中山區婦女會義務幹事\n臺北縣議會第2、4、5屆議員\n民國94年1月1日歿","remark":null,"image":"http://www.ntp.gov.tw/UpFile/CouncilorFile/TTCC0207.jpg","links":[{"url":"http://www.ntp.gov.tw/content/history/history01-5-p.aspx?sid=120","note":"議會個人官網"}],"social_media":null,"platform":"","param":null,"councilor":"76f6dc10bc59431392fe8494e1c20624"},{"url":"http://councils.g0v.tw/api/councilors_terms/1795/","election_year":"1961","name":"雷毓清","gender":"","party":"","title":"議員","constituency":1,"county":"新北市","district":"板橋鎮、中和鄉、永和鎮、土城鄉","in_office":true,"contact_details":null,"term_start":"1961-02-21","term_end":{"date":"1964-02-20"},"education":"貴州省立女子師範學院肄業","experience":"貴州日報編譯\n昆明貨物稅局事務員\n湖南兒童第一保育院主任\n菸酒公賣局製樽廠課員\n烏來國校校長\n臺北市內湖區衛生所秘書與代理所長\n臺北縣黨部委員、人事審核員\n臺北市鴻佑清潔有限公司副總經理\n臺北縣婦女運動委員會主任委員\n臺北市中山區婦女會義務幹事\n臺北縣議會第2、4、5屆議員\n民國94年1月1日歿","remark":null,"image":"http://www.ntp.gov.tw/UpFile/CouncilorFile/TTCC0207.jpg","links":[{"url":"http://www.ntp.gov.tw/content/history/history01-5-p.aspx?sid=120","note":"議會個人官網"}],"social_media":null,"platform":"","param":null,"councilor":"76f6dc10bc59431392fe8494e1c20624"}],"uid":"76f6dc10bc59431392fe8494e1c20624","name":"雷毓清","birth":null,"former_names":"","identifiers":["雷毓清"]},{"url":"http://councils.g0v.tw/api/councilors/901/","each_terms":[{"url":"http://councils.g0v.tw/api/councilors_terms/1590/","election_year":"1953","name":"羅古鐘","gender":"","party":"","title":"議員","constituency":1,"county":"新北市","district":"板橋鎮、中和鄉、土城鄉","in_office":true,"contact_details":null,"term_start":"1953-01-16","term_end":{"date":"1955-01-15"},"education":"宜蘭農林學校畢業","experience":"土城鄉農會理事長\n土城鄉合作社理事主席\n土城鄉第3屆鄉民代表會主席\n*民國78年1月歿","remark":null,"image":"http://www.ntp.gov.tw/UpFile/CouncilorFile/TTCC0204.jpg","links":[{"url":"http://www.ntp.gov.tw/content/history/history01-5-p.aspx?sid=570","note":"議會個人官網"}],"social_media":null,"platform":"","param":null,"councilor":"f789f1b48bc04656b9d850a7a36e490e"}],"uid":"f789f1b48bc04656b9d850a7a36e490e","name":"羅古鐘","birth":null,"former_names":"","identifiers":["羅古鐘"]},{"url":"http://councils.g0v.tw/api/councilors/1279/","each_terms":[{"url":"http://councils.g0v.tw/api/councilors_terms/2205/","election_year":"2009","name":"許粧","gender":"女","party":"中國國民黨","title":"議員","constituency":2,"county":"南投縣","district":"草屯鎮、中寮鄉","in_office":true,"contact_details":[{"type":"address","value":"草屯鎮中正里中正路705號","label":"通訊處"}],"term_start":"2009-12-25","term_end":{"date":"2014-12-25"},"education":"亞洲大學生活應用科學學系","experience":"草屯鎮婦工會會長、草屯鎮婦聯青溪主委、\n草屯鎮婦聯會主委、中國醫藥大學推廣兼任\n講師、明道大學彩妝社教師、山城廣播電台\n美容講師、台中美容工會講師、南投縣美容\n工會顧問、南投縣消防局鳳凰志工大隊副大\n隊長。","remark":null,"image":"http://image.kmt.org.tw/people/20110812092351.jpg","links":null,"social_media":null,"platform":"一、清廉問政：廉能問政，不利益輸送，不貪污，嚴格監督縣政，建立廉能政府。\n二、觀光發展：1.督促縣府振興草屯中寮形象商圈 2.強化地方觀光導覽，規劃南投地區觀光旅遊車。\n3.推動中潭公路規劃為觀光藝術大道。4.整治九九峰成為國際化多功能休閒園區。\n5.旅館、民宿業管理優質化，吸引民間投資國際級觀光飯店，促進觀光產業國際化、優質化，活化觀光動線。\n三、農業再造：1.支持繼續發放老農津貼，提升農民收入，改善農民生活。\n2.建議縣府發展高價產品，扭轉農民低所得宿命3.強化產銷班隊企業化、健全農民組織，推動農村再生計畫，建立富麗新農村。\n四、教育文化：1.督促縣府落實教學要尊重教師專業，奠定良好之孝親尊師價值觀基礎。\n2.落實小班制，營造教師、學童雙贏教學環境。3.扶助關懷教育弱勢。\n五、社會福利：1.督促縣府增加對孤獨老幼、婦女單親家庭、身心障礙低收入戶等弱勢族群福利與照顧。2.落實老人安養政策，提\n倡敬老風氣，公辦托老所，真正落實關懷老弱婦幼。3.重視新住民福利與專長培訓。4.建議設立急難救助體系。\n六、搶救失業：1.督促縣府創造就業機會，降低高學歷高失業問題。\n2.建議縣府成立專責機構，積極招商，提昇就業率。\n3.推動教育訓練，觀光產業ｅ化培訓，農業產銷班企業化ｅ化培訓，地方觀光導覽員培訓，手工藝研習製造。\n七、環保綠化：督促縣府及水保局做好水土保持，推動植樹造林計劃，加強土石流防範、消防演練及救災裝備，重視市容景觀提昇生活品質。","param":{"bills_role_statistics":{"total":15,"priproposer":4,"sponsor":4,"cosponsor":11},"suggestions_piles":[{"count":12,"tokens":"國中|國小","sum":2212000,"label":"國中、國小"},{"count":2,"tokens":"警察局|分局","sum":247000,"label":"警察局"},{"count":2,"tokens":"辦公室|辦公處","sum":195000,"label":"辦公室"},{"count":2,"tokens":"消防局|消防隊|分隊|中隊","sum":160000,"label":"消防局"},{"count":0,"tokens":"協會|學會|商會|公會|協進會|促進會|研習會|婦聯會|婦女會|體育會|同心會|農會|早起會|健身會|宗親會|功德會|商業會|長青會|民眾服務社|聯盟","sum":0,"label":"協會"},{"count":0,"tokens":"廟|宮","sum":0,"label":"廟"}],"suggestions_associations":[{"count":0,"sum":0,"label":"社區發展協會"},{"count":0,"sum":0,"label":"學會"},{"count":0,"sum":0,"label":"商會"},{"count":0,"sum":0,"label":"公會"},{"count":0,"sum":0,"label":"協進會"},{"count":0,"sum":0,"label":"促進會"},{"count":0,"sum":0,"label":"研習會"},{"count":0,"sum":0,"label":"婦聯會"},{"count":0,"sum":0,"label":"婦女會"},{"count":0,"sum":0,"label":"體育會"},{"count":0,"sum":0,"label":"同心會"},{"count":0,"sum":0,"label":"農會"},{"count":0,"sum":0,"label":"早起會"},{"count":0,"sum":0,"label":"健身會"},{"count":0,"sum":0,"label":"宗親會"},{"count":0,"sum":0,"label":"功德會"},{"count":0,"sum":0,"label":"商業會"},{"count":0,"sum":0,"label":"長青會"},{"count":0,"sum":0,"label":"民眾服務社"},{"count":0,"sum":0,"label":"聯盟"}],"diversity":{"中國國民黨":0.8166666666666667,"民主進步黨":0.18333333333333332,"無黨籍":0.0},"suggestions_years":{"count":22,"sum":3109000,"years":[{"count":22,"sum":3109000,"suggest_year":"2014","small_purchase":14}]}},"councilor":"1166e4065b2c44d1889025dfa8ebef9c"}],"uid":"1166e4065b2c44d1889025dfa8ebef9c","name":"許粧","birth":"1963-09-08","former_names":"","identifiers":["許粧"]},{"url":"http://councils.g0v.tw/api/councilors/513/","each_terms":[{"url":"http://councils.g0v.tw/api/councilors_terms/863/","election_year":"1968","name":"劉鴻卿","gender":"","party":"","title":"議員","constituency":4,"county":"新北市","district":"三重市","in_office":true,"contact_details":null,"term_start":"1968-02-21","term_end":{"date":"1973-04-30"},"education":"山東省立師範學校\n中國文化學院","experience":"海軍總部澎湖海軍子弟學校\n臺北縣澳底、石碇、泰山、三光國校教員\n天光托兒所與國華幼稚園負責人\n三重鎮民代表\n臺北縣婦女會理事\n婦聯支會委員\n三重鎮消費合作社理事主席\n臺北縣議會第4、6、7屆議員","remark":null,"image":"http://www.ntp.gov.tw/UpFile/CouncilorFile/TTCC0434.jpg","links":[{"url":"http://www.ntp.gov.tw/content/history/history01-5-p.aspx?sid=204","note":"議會個人官網"}],"social_media":null,"platform":"","param":null,"councilor":"4cc02da64b93408eb251a10ecb9435f3"},{"url":"http://councils.g0v.tw/api/councilors_terms/1706/","election_year":"1958","name":"劉鴻卿","gender":"","party":"","title":"議員","constituency":3,"county":"新北市","district":"新莊鎮、泰山鄉、三重鎮、五股鄉、林口鄉、蘆洲鄉","in_office":true,"contact_details":null,"term_start":"1958-02-21","term_end":{"date":"1961-02-20"},"education":"山東省立師範學校\n中國文化學院","experience":"海軍總部澎湖海軍子弟學校\n臺北縣澳底、石碇、泰山、三光國校教員\n天光托兒所與國華幼稚園負責人\n三重鎮民代表\n臺北縣婦女會理事\n婦聯支會委員\n三重鎮消費合作社理事主席\n臺北縣議會第4、6、7屆議員","remark":null,"image":"http://www.ntp.gov.tw/UpFile/CouncilorFile/TTCC0434.jpg","links":[{"url":"http://www.ntp.gov.tw/content/history/history01-5-p.aspx?sid=204","note":"議會個人官網"}],"social_media":null,"platform":"","param":null,"councilor":"4cc02da64b93408eb251a10ecb9435f3"},{"url":"http://councils.g0v.tw/api/councilors_terms/1837/","election_year":"1964","name":"劉鴻卿","gender":"","party":"","title":"議員","constituency":4,"county":"新北市","district":"三重市","in_office":true,"contact_details":null,"term_start":"1964-02-21","term_end":{"date":"1968-02-20"},"education":"山東省立師範學校\n中國文化學院","experience":"海軍總部澎湖海軍子弟學校\n臺北縣澳底、石碇、泰山、三光國校教員\n天光托兒所與國華幼稚園負責人\n三重鎮民代表\n臺北縣婦女會理事\n婦聯支會委員\n三重鎮消費合作社理事主席\n臺北縣議會第4、6、7屆議員","remark":null,"image":"http://www.ntp.gov.tw/UpFile/CouncilorFile/TTCC0434.jpg","links":[{"url":"http://www.ntp.gov.tw/content/history/history01-5-p.aspx?sid=204","note":"議會個人官網"}],"social_media":null,"platform":"","param":null,"councilor":"4cc02da64b93408eb251a10ecb9435f3"}],"uid":"4cc02da64b93408eb251a10ecb9435f3","name":"劉鴻卿","birth":null,"former_names":"","identifiers":["劉鴻卿","劉鴻卿"]}]}