{"count":1904,"next":"http://councils.g0v.tw/api/councilors/?page=40","previous":"http://councils.g0v.tw/api/councilors/?page=38","results":[{"url":"http://councils.g0v.tw/api/councilors/263/","each_terms":[{"url":"http://councils.g0v.tw/api/councilors_terms/514/","election_year":"1977","name":"陳順珍","gender":"男","party":"中國國民黨","title":"議員","constituency":null,"county":"臺北市","district":"","in_office":true,"contact_details":null,"term_start":"1977-12-25","term_end":{"date":"1981-12-25"},"education":"臺北師範普師科畢業、師範大學藝術系畢業、師範大學三民主義研究所教育碩士。","experience":"中、小學教師、校長、憲兵少尉排長、師範大學講師、醒吾商專副教授。","remark":"","image":"http://www.tcc.gov.tw/../upload/photo/%E9%99%B3%E9%A0%86%E7%8F%8D11.jpg","links":[{"url":"http://www.tcc.gov.tw/Councilor_Content_All.aspx?s=2147&d=390928&n=%E9%99%B3%E9%A0%86%E7%8F%8D","note":"議會個人官網"}],"social_media":null,"platform":"","param":null,"councilor":"e82f9f37bba8434b83b22c0dcf04c8e4"}],"uid":"e82f9f37bba8434b83b22c0dcf04c8e4","name":"陳順珍","birth":"1939-09-28","former_names":"","identifiers":["陳順珍"]},{"url":"http://councils.g0v.tw/api/councilors/1422/","each_terms":[{"url":"http://councils.g0v.tw/api/councilors_terms/2348/","election_year":"2009","name":"鄭玲惠","gender":"","party":"","title":"","constituency":4,"county":"雲林縣","district":"西螺鎮、二崙鄉、崙背鄉","in_office":true,"contact_details":[],"term_start":"2009-12-25","term_end":{"date":"2014-12-25"},"education":null,"experience":null,"remark":null,"image":"http://www.ylcc.gov.tw/images/4-4.jpg","links":[{"url":"http://www.ylcc.gov.tw/index.php?inner=member_precinct4","note":"議會個人官網"}],"social_media":null,"platform":"","param":{"bills_role_statistics":{"total":11,"priproposer":11,"sponsor":11,"cosponsor":0},"suggestions_piles":[{"count":6,"tokens":"國中|國小","sum":4085000,"label":"國中、國小"},{"count":2,"tokens":"警察局|分局","sum":600000,"label":"警察局"},{"count":1,"tokens":"協會|學會|商會|公會|協進會|促進會|研習會|婦聯會|婦女會|體育會|同心會|農會|早起會|健身會|宗親會|功德會|商業會|長青會|民眾服務社|聯盟","sum":200000,"label":"協會"},{"count":0,"tokens":"辦公室|辦公處","sum":0,"label":"辦公室"},{"count":0,"tokens":"廟|宮","sum":0,"label":"廟"},{"count":0,"tokens":"消防局|消防隊|分隊|中隊","sum":0,"label":"消防局"}],"suggestions_associations":[{"count":1,"sum":200000,"label":"農會"},{"count":0,"sum":0,"label":"社區發展協會"},{"count":0,"sum":0,"label":"學會"},{"count":0,"sum":0,"label":"商會"},{"count":0,"sum":0,"label":"公會"},{"count":0,"sum":0,"label":"協進會"},{"count":0,"sum":0,"label":"促進會"},{"count":0,"sum":0,"label":"研習會"},{"count":0,"sum":0,"label":"婦聯會"},{"count":0,"sum":0,"label":"婦女會"},{"count":0,"sum":0,"label":"體育會"},{"count":0,"sum":0,"label":"同心會"},{"count":0,"sum":0,"label":"早起會"},{"count":0,"sum":0,"label":"健身會"},{"count":0,"sum":0,"label":"宗親會"},{"count":0,"sum":0,"label":"功德會"},{"count":0,"sum":0,"label":"商業會"},{"count":0,"sum":0,"label":"長青會"},{"count":0,"sum":0,"label":"民眾服務社"},{"count":0,"sum":0,"label":"聯盟"}],"diversity":{"":1.0,"中國國民黨":0.0,"民主進步黨":0.0,"臺灣團結聯盟":0.0,"無黨籍":0.0},"suggestions_years":{"count":12,"sum":11526800,"years":[{"count":4,"sum":619800,"suggest_year":"2011","small_purchase":1},{"count":5,"sum":7407000,"suggest_year":"2012","small_purchase":0},{"count":1,"sum":200000,"suggest_year":"2013","small_purchase":0},{"count":2,"sum":3300000,"suggest_year":"2014","small_purchase":0}]}},"councilor":"5ff9b13cdd4e469cbc7387d8d7ee3fca"}],"uid":"5ff9b13cdd4e469cbc7387d8d7ee3fca","name":"鄭玲惠","birth":null,"former_names":"","identifiers":["鄭玲惠","鄭玲惠"]},{"url":"http://councils.g0v.tw/api/councilors/529/","each_terms":[{"url":"http://councils.g0v.tw/api/councilors_terms/898/","election_year":"1977","name":"陳鍋坼","gender":"","party":"","title":"議員","constituency":7,"county":"新北市","district":"新店鎮、深坑鄉、石碇鄉、坪林鄉、烏來鄉山地鄉","in_office":true,"contact_details":null,"term_start":"1977-12-30","term_end":{"date":"1982-02-28"},"education":"臺中師範畢業","experience":"石碇、福山國小教員\n國校校長\n臺北縣議會第9屆議員\n民國98年9月17日歿","remark":null,"image":"http://www.ntp.gov.tw/UpFile/CouncilorFile/TTCC0958.jpg","links":[{"url":"http://www.ntp.gov.tw/content/history/history01-5-p.aspx?sid=349","note":"議會個人官網"}],"social_media":null,"platform":"","param":null,"councilor":"19581f0c712d474bbc2bc8652e57cfa9"}],"uid":"19581f0c712d474bbc2bc8652e57cfa9","name":"陳鍋坼","birth":null,"former_names":"","identifiers":["陳鍋坼"]},{"url":"http://councils.g0v.tw/api/councilors/530/","each_terms":[{"url":"http://councils.g0v.tw/api/councilors_terms/900/","election_year":"1977","name":"郭儒鈞","gender":"","party":"","title":"議員","constituency":7,"county":"新北市","district":"新店鎮、深坑鄉、石碇鄉、坪林鄉、烏來鄉山地鄉","in_office":true,"contact_details":null,"term_start":"1977-12-30","term_end":{"date":"1982-02-28"},"education":"宜蘭市光復國民學校\n縣立宜蘭初中\n省立蘭陽女子高級中學\n國立空中大學社會系肄\n革命實踐研究院講習班７７期\n婦工班第１期結業","experience":"大豐國小代課老師\n新店國小代課老師\n新店市婦女會理事長\n臺北縣第25區國民黨黨部委員\n國民大會代表\n臺北縣議會第9屆議員","remark":null,"image":"http://www.ntp.gov.tw/UpFile/CouncilorFile/TTCC0957.jpg","links":[{"url":"http://www.ntp.gov.tw/content/history/history01-5-p.aspx?sid=348","note":"議會個人官網"}],"social_media":null,"platform":"","param":null,"councilor":"2b2d06bb44bc4585b0956260d72be15c"}],"uid":"2b2d06bb44bc4585b0956260d72be15c","name":"郭儒鈞","birth":null,"former_names":"","identifiers":["郭儒鈞"]},{"url":"http://councils.g0v.tw/api/councilors/531/","each_terms":[{"url":"http://councils.g0v.tw/api/councilors_terms/903/","election_year":"1968","name":"葉萬順","gender":"","party":"","title":"議員","constituency":1,"county":"新北市","district":"板橋鎮、中和鄉、永和鎮、土城鄉","in_office":true,"contact_details":null,"term_start":"1968-02-21","term_end":{"date":"1973-04-30"},"education":"臺灣省立法商學院經濟系","experience":"臺北市立商業職校庶務組長、教員\n北縣體育會常務理事\n臺北區合會板橋分公司經理\n臺北縣議會第3、4、5、6、7屆議員\n臺北企業銀行副總經理\n華國大飯店董事\n民國97年9月23日歿","remark":null,"image":"http://www.ntp.gov.tw/UpFile/CouncilorFile/TTCC0306.jpg","links":[{"url":"http://www.ntp.gov.tw/content/history/history01-5-p.aspx?sid=158","note":"議會個人官網"}],"social_media":null,"platform":"","param":null,"councilor":"6335570e8a294d5694be9ac0af771884"},{"url":"http://councils.g0v.tw/api/councilors_terms/1655/","election_year":"1955","name":"葉萬順","gender":"","party":"","title":"議員","constituency":1,"county":"新北市","district":"板橋鎮、中和鄉、土城鄉","in_office":true,"contact_details":null,"term_start":"1955-01-16","term_end":{"date":"1958-02-20"},"education":"臺灣省立法商學院經濟系","experience":"臺北市立商業職校庶務組長、教員\n北縣體育會常務理事\n臺北區合會板橋分公司經理\n臺北縣議會第3、4、5、6、7屆議員\n臺北企業銀行副總經理\n華國大飯店董事\n民國97年9月23日歿","remark":null,"image":"http://www.ntp.gov.tw/UpFile/CouncilorFile/TTCC0306.jpg","links":[{"url":"http://www.ntp.gov.tw/content/history/history01-5-p.aspx?sid=158","note":"議會個人官網"}],"social_media":null,"platform":"","param":null,"councilor":"6335570e8a294d5694be9ac0af771884"},{"url":"http://councils.g0v.tw/api/councilors_terms/1738/","election_year":"1958","name":"葉萬順","gender":"","party":"","title":"議員","constituency":1,"county":"新北市","district":"板橋鎮、中和鄉、土城鄉","in_office":true,"contact_details":null,"term_start":"1958-02-21","term_end":{"date":"1961-02-20"},"education":"臺灣省立法商學院經濟系","experience":"臺北市立商業職校庶務組長、教員\n北縣體育會常務理事\n臺北區合會板橋分公司經理\n臺北縣議會第3、4、5、6、7屆議員\n臺北企業銀行副總經理\n華國大飯店董事\n民國97年9月23日歿","remark":null,"image":"http://www.ntp.gov.tw/UpFile/CouncilorFile/TTCC0306.jpg","links":[{"url":"http://www.ntp.gov.tw/content/history/history01-5-p.aspx?sid=158","note":"議會個人官網"}],"social_media":null,"platform":"","param":null,"councilor":"6335570e8a294d5694be9ac0af771884"},{"url":"http://councils.g0v.tw/api/councilors_terms/1800/","election_year":"1961","name":"葉萬順","gender":"","party":"","title":"議員","constituency":1,"county":"新北市","district":"板橋鎮、中和鄉、永和鎮、土城鄉","in_office":true,"contact_details":null,"term_start":"1961-02-21","term_end":{"date":"1964-02-20"},"education":"臺灣省立法商學院經濟系","experience":"臺北市立商業職校庶務組長、教員\n北縣體育會常務理事\n臺北區合會板橋分公司經理\n臺北縣議會第3、4、5、6、7屆議員\n臺北企業銀行副總經理\n華國大飯店董事\n民國97年9月23日歿","remark":null,"image":"http://www.ntp.gov.tw/UpFile/CouncilorFile/TTCC0306.jpg","links":[{"url":"http://www.ntp.gov.tw/content/history/history01-5-p.aspx?sid=158","note":"議會個人官網"}],"social_media":null,"platform":"","param":null,"councilor":"6335570e8a294d5694be9ac0af771884"},{"url":"http://councils.g0v.tw/api/councilors_terms/1865/","election_year":"1964","name":"葉萬順","gender":"","party":"","title":"議員","constituency":1,"county":"新北市","district":"板橋鎮、中和鄉、永和鎮、土城鄉","in_office":true,"contact_details":null,"term_start":"1964-02-21","term_end":{"date":"1968-02-20"},"education":"臺灣省立法商學院經濟系","experience":"臺北市立商業職校庶務組長、教員\n北縣體育會常務理事\n臺北區合會板橋分公司經理\n臺北縣議會第3、4、5、6、7屆議員\n臺北企業銀行副總經理\n華國大飯店董事\n民國97年9月23日歿","remark":null,"image":"http://www.ntp.gov.tw/UpFile/CouncilorFile/TTCC0306.jpg","links":[{"url":"http://www.ntp.gov.tw/content/history/history01-5-p.aspx?sid=158","note":"議會個人官網"}],"social_media":null,"platform":"","param":null,"councilor":"6335570e8a294d5694be9ac0af771884"}],"uid":"6335570e8a294d5694be9ac0af771884","name":"葉萬順","birth":null,"former_names":"","identifiers":["葉萬順"]},{"url":"http://councils.g0v.tw/api/councilors/532/","each_terms":[{"url":"http://councils.g0v.tw/api/councilors_terms/904/","election_year":"1977","name":"李葆民","gender":"","party":"","title":"議員","constituency":7,"county":"新北市","district":"新店鎮、深坑鄉、石碇鄉、坪林鄉、烏來鄉山地鄉","in_office":true,"contact_details":null,"term_start":"1977-12-30","term_end":{"date":"1982-02-28"},"education":"陸軍官校１９期畢業\n朝陽大學肄業\n政工幹校高７期\n行政學校史政第１２期\n戰地政務班４期\n淡水政幹班１期\n黨務訓練班４期","experience":"排連營長、參謀主任、教官主任\n南強中學教員兼訓育組長\n山東同鄉會理事長\n臺北縣兵役協會常務理事\n國民黨部常務委員\n臺北縣議會第9屆議員","remark":null,"image":"http://www.ntp.gov.tw/UpFile/CouncilorFile/TTCC0955.jpg","links":[{"url":"http://www.ntp.gov.tw/content/history/history01-5-p.aspx?sid=347","note":"議會個人官網"}],"social_media":null,"platform":"","param":null,"councilor":"50d9111d460c41ea93ef4724f0786066"}],"uid":"50d9111d460c41ea93ef4724f0786066","name":"李葆民","birth":null,"former_names":"","identifiers":["李葆民","李葆民"]},{"url":"http://councils.g0v.tw/api/councilors/70/","each_terms":[{"url":"http://councils.g0v.tw/api/councilors_terms/70/","election_year":"1969","name":"林振永","gender":"男","party":"中國國民黨","title":"議員","constituency":null,"county":"臺北市","district":"","in_office":true,"contact_details":null,"term_start":"1969-12-25","term_end":{"date":"1973-12-25"},"education":"師範大學、省訓團水利幹部研究班。","experience":"教員、校長、副教授、工程師、會長、董事長。","remark":"","image":"http://www.tcc.gov.tw/../upload/photo/%E6%9E%97%E6%8C%AF%E6%B0%B809.jpg","links":[{"url":"http://www.tcc.gov.tw/Councilor_Content_All.aspx?s=1567&d=281227&n=%E6%9E%97%E6%8C%AF%E6%B0%B8","note":"議會個人官網"}],"social_media":null,"platform":"","param":null,"councilor":"30bc721aeaa94c02b3e536282278cfd7"},{"url":"http://councils.g0v.tw/api/councilors_terms/531/","election_year":"1977","name":"林振永","gender":"男","party":"中國國民黨","title":"議員","constituency":null,"county":"臺北市","district":"","in_office":true,"contact_details":null,"term_start":"1977-12-25","term_end":{"date":"1981-12-25"},"education":"師範大學畢業。","experience":"教員、校長、副教授、工程師、七星水利會會長、臺北市議會第一、二屆議員、金井化學工業公司董事長、林昇建設公司董事長。","remark":"","image":"http://www.tcc.gov.tw/../upload/photo/%E6%9E%97%E6%8C%AF%E6%B0%B811.jpg","links":[{"url":"http://www.tcc.gov.tw/Councilor_Content_All.aspx?s=1934&d=281227&n=%E6%9E%97%E6%8C%AF%E6%B0%B8","note":"議會個人官網"}],"social_media":null,"platform":"","param":null,"councilor":"30bc721aeaa94c02b3e536282278cfd7"},{"url":"http://councils.g0v.tw/api/councilors_terms/581/","election_year":"1973","name":"林振永","gender":"男","party":"中國國民黨","title":"議員","constituency":null,"county":"臺北市","district":"","in_office":true,"contact_details":null,"term_start":"1973-12-25","term_end":{"date":"1977-12-25"},"education":"國立臺灣師範大學畢業、省訓團水利幹部研究班結業、戰地政務研究班結業。","experience":"社子國校校長、中央警官學校副教授、七星農田水利會會長、臺北市第一屆議會議員。","remark":"","image":"http://www.tcc.gov.tw/../upload/photo/%E6%9E%97%E6%8C%AF%E6%B0%B810.jpg","links":[{"url":"http://www.tcc.gov.tw/Councilor_Content_All.aspx?s=2138&d=281227&n=%E6%9E%97%E6%8C%AF%E6%B0%B8","note":"議會個人官網"}],"social_media":null,"platform":"","param":null,"councilor":"30bc721aeaa94c02b3e536282278cfd7"}],"uid":"30bc721aeaa94c02b3e536282278cfd7","name":"林振永","birth":"1928-12-27","former_names":"","identifiers":["林振永","林振永"]},{"url":"http://councils.g0v.tw/api/councilors/1451/","each_terms":[{"url":"http://councils.g0v.tw/api/councilors_terms/2611/","election_year":"2014","name":"莊榮欽","gender":"男","party":"中國國民黨","title":"議員","constituency":3,"county":"基隆市","district":"仁愛區","in_office":true,"contact_details":[{"type":"address","value":"基隆市延平街7-1號3樓","label":"服務處"},{"type":"voice","value":"(02) 2429-1232","label":"連絡電話"},{"type":"fax","value":"(02) 2424-7721","label":"傳真號碼"}],"term_start":"2014-12-25","term_end":{"date":"2018-12-24"},"education":null,"experience":"","remark":null,"image":"http://www.kmc.gov.tw/images/website/others/km11.jpg","links":[{"url":"http://www.kmc.gov.tw/members/120-member11","note":"議會個人官網"}],"social_media":null,"platform":"","param":{"suggestions_years":{"count":8,"sum":1090000,"years":[{"count":4,"sum":342000,"suggest_year":"2015","small_purchase":3},{"count":4,"sum":748000,"suggest_year":"2016","small_purchase":2}]},"bills_role_statistics":{"total":34,"priproposer":0,"sponsor":25,"cosponsor":9},"attendance_statistics":{"absent":0,"total":66},"suggestions_associations":[{"count":0,"sum":0,"label":"社區發展協會"},{"count":0,"sum":0,"label":"學會"},{"count":0,"sum":0,"label":"商會"},{"count":0,"sum":0,"label":"公會"},{"count":0,"sum":0,"label":"協進會"},{"count":0,"sum":0,"label":"促進會"},{"count":0,"sum":0,"label":"研習會"},{"count":0,"sum":0,"label":"婦聯會"},{"count":0,"sum":0,"label":"婦女會"},{"count":0,"sum":0,"label":"體育會"},{"count":0,"sum":0,"label":"同心會"},{"count":0,"sum":0,"label":"農會"},{"count":0,"sum":0,"label":"早起會"},{"count":0,"sum":0,"label":"健身會"},{"count":0,"sum":0,"label":"宗親會"},{"count":0,"sum":0,"label":"功德會"},{"count":0,"sum":0,"label":"商業會"},{"count":0,"sum":0,"label":"長青會"},{"count":0,"sum":0,"label":"民眾服務社"},{"count":0,"sum":0,"label":"聯盟"}],"bills_party_diversity":[{"party":"中國國民黨","ratio":0.7134831460674157},{"party":"無黨籍","ratio":0.12078651685393259},{"party":"民主進步黨","ratio":0.09831460674157304},{"party":"親民黨","ratio":0.05056179775280899},{"party":"民國黨","ratio":0.016853932584269662}],"suggestions_piles":[{"count":6,"tokens":"國中|國小","sum":833000,"label":"國中、國小"},{"count":0,"tokens":"協會|學會|商會|公會|協進會|促進會|研習會|婦聯會|婦女會|體育會|同心會|農會|早起會|健身會|宗親會|功德會|商業會|長青會|民眾服務社|聯盟","sum":0,"label":"協會"},{"count":0,"tokens":"辦公室|辦公處","sum":0,"label":"辦公室"},{"count":0,"tokens":"廟|宮","sum":0,"label":"廟"},{"count":0,"tokens":"警察局|分局","sum":0,"label":"警察局"},{"count":0,"tokens":"消防局|消防隊|分隊|中隊","sum":0,"label":"消防局"}]},"councilor":"3420e88632ee44eebd491ee30f57405a"},{"url":"http://councils.g0v.tw/api/councilors_terms/2377/","election_year":"2009","name":"莊榮欽","gender":"男","party":"中國國民黨","title":"","constituency":3,"county":"基隆市","district":"仁愛區","in_office":true,"contact_details":[{"type":"email","value":"15505@kmc.gov.tw","label":"電子信箱"},{"type":"voice","value":"(02) 2429-1232","label":"電話"},{"type":"fax","value":"(02) 2424-7721","label":"傳真"},{"type":"address","value":"基隆市延平街7-1號3樓","label":"通訊處"}],"term_start":"2009-12-25","term_end":{"date":"2014-12-25"},"education":"．省立基隆海事","experience":"．基隆市第十三、十四、十五、十六屆市議員\n．基隆市體育會理事長\n．中國國民黨基隆市青工會總會長\n．基隆市議會財政小組召集人\n．仁愛國小家長會長\n．銘傳國中家長會副會長\n．馬英九、吳伯雄競選黨主席基隆後援會會長\n．基隆家庭扶助中心扶幼委員會顧問\n．救國團基隆市團委會指導委員\n．UCLA&HLU環保與市政規劃研習班結業","remark":null,"image":"http://www.kmc.gov.tw/kmcii/images/councillor_012.gif","links":[{"url":"http://www.kmc.gov.tw/KMCII/coun_info_12.aspx","note":"議會個人官網"}],"social_media":null,"platform":"．提昇本市觀光資源之管理及規劃，加強資訊及宣導行銷政策，多元化經營市區及重要景點，增加經濟競爭力。\n．持續監督並推動市容整頓，規劃電線、電纜地下化，以達到城鄉新風貌，提升城市居住品質。\n．推展社會福利，落實老人、婦幼福利政策，照顧弱勢、身障族群，及社會救助措施之完善。\n．徹底解決高地給水及防洪、排水設施，給市民一個理想安全的居住環境。\n．嚴督政府注重教育品質、增強學子多元的學習，達到有效的教學方針。\n．推動全民環保意識，加強公害之取締，給後代子孫一個乾淨、安全的成長環境。\n．督促市府持續推動民生汐止線捷運延伸至基隆，及火車站至海生館之東一輕軌線。\n．爭取設置國民健康運動中心，提升運動環境。\n．強化治安設備及制度，維護警、民之安全。\n．督促市府推動都市更新計劃。\n","param":{"suggestions_years":{"count":1,"sum":176000,"years":[{"count":1,"sum":176000,"suggest_year":"2014","small_purchase":0}]},"suggestions_associations":[{"count":0,"sum":0,"label":"社區發展協會"},{"count":0,"sum":0,"label":"學會"},{"count":0,"sum":0,"label":"商會"},{"count":0,"sum":0,"label":"公會"},{"count":0,"sum":0,"label":"協進會"},{"count":0,"sum":0,"label":"促進會"},{"count":0,"sum":0,"label":"研習會"},{"count":0,"sum":0,"label":"婦聯會"},{"count":0,"sum":0,"label":"婦女會"},{"count":0,"sum":0,"label":"體育會"},{"count":0,"sum":0,"label":"同心會"},{"count":0,"sum":0,"label":"農會"},{"count":0,"sum":0,"label":"早起會"},{"count":0,"sum":0,"label":"健身會"},{"count":0,"sum":0,"label":"宗親會"},{"count":0,"sum":0,"label":"功德會"},{"count":0,"sum":0,"label":"商業會"},{"count":0,"sum":0,"label":"長青會"},{"count":0,"sum":0,"label":"民眾服務社"},{"count":0,"sum":0,"label":"聯盟"}],"suggestions_piles":[{"count":1,"tokens":"國中|國小","sum":176000,"label":"國中、國小"},{"count":0,"tokens":"協會|學會|商會|公會|協進會|促進會|研習會|婦聯會|婦女會|體育會|同心會|農會|早起會|健身會|宗親會|功德會|商業會|長青會|民眾服務社|聯盟","sum":0,"label":"協會"},{"count":0,"tokens":"辦公室|辦公處","sum":0,"label":"辦公室"},{"count":0,"tokens":"廟|宮","sum":0,"label":"廟"},{"count":0,"tokens":"警察局|分局","sum":0,"label":"警察局"},{"count":0,"tokens":"消防局|消防隊|分隊|中隊","sum":0,"label":"消防局"}]},"councilor":"3420e88632ee44eebd491ee30f57405a"}],"uid":"3420e88632ee44eebd491ee30f57405a","name":"莊榮欽","birth":"1957-02-02","former_names":"","identifiers":["莊榮欽"]},{"url":"http://councils.g0v.tw/api/councilors/783/","each_terms":[{"url":"http://councils.g0v.tw/api/councilors_terms/1433/","election_year":"1946","name":"柯啟業","gender":"","party":"","title":"議員","constituency":null,"county":"新北市","district":"","in_office":true,"contact_details":null,"term_start":"1946-04-15","term_end":{"date":"1950-12-31"},"education":"帝大醫專。","experience":"帝大醫院副手醫師\n*因遷居辭","remark":null,"image":"http://www.ntp.gov.tw/UpFile/CouncilorFile/TTCC0042.jpg","links":[{"url":"http://www.ntp.gov.tw/content/history/history01-5-p.aspx?sid=42","note":"議會個人官網"}],"social_media":null,"platform":"","param":null,"councilor":"a61a6b11b2264e72b21fd5b2272a554f"}],"uid":"a61a6b11b2264e72b21fd5b2272a554f","name":"柯啟業","birth":null,"former_names":"","identifiers":["柯啟業","柯啓業"]},{"url":"http://councils.g0v.tw/api/councilors/43465/","each_terms":[{"url":"http://councils.g0v.tw/api/councilors_terms/26507/","election_year":"2014","name":"歐陽洲","gender":null,"party":"無黨籍","title":null,"constituency":2,"county":"澎湖縣","district":null,"in_office":false,"contact_details":null,"term_start":"2014-12-25","term_end":{"date":"2015-12-18","judicial_links":"","reason":"當選無效","ref":"http://www.cec.gov.tw/central/cms/bulletin/17565","replacement":"蔡清續"},"education":null,"experience":null,"remark":null,"image":null,"links":null,"social_media":null,"platform":null,"param":{"bills_role_statistics":{"total":2,"priproposer":0,"sponsor":0,"cosponsor":2},"suggestions_years":{"count":46,"sum":1959800,"years":[{"count":46,"sum":1959800,"suggest_year":"2015","small_purchase":45}]},"suggestions_associations":[{"count":2,"sum":80000,"label":"研習會"},{"count":1,"sum":25000,"label":"協進會"},{"count":0,"sum":0,"label":"社區發展協會"},{"count":0,"sum":0,"label":"學會"},{"count":0,"sum":0,"label":"商會"},{"count":0,"sum":0,"label":"公會"},{"count":0,"sum":0,"label":"促進會"},{"count":0,"sum":0,"label":"婦聯會"},{"count":0,"sum":0,"label":"婦女會"},{"count":0,"sum":0,"label":"體育會"},{"count":0,"sum":0,"label":"同心會"},{"count":0,"sum":0,"label":"農會"},{"count":0,"sum":0,"label":"早起會"},{"count":0,"sum":0,"label":"健身會"},{"count":0,"sum":0,"label":"宗親會"},{"count":0,"sum":0,"label":"功德會"},{"count":0,"sum":0,"label":"商業會"},{"count":0,"sum":0,"label":"長青會"},{"count":0,"sum":0,"label":"民眾服務社"},{"count":0,"sum":0,"label":"聯盟"}],"suggestions_piles":[{"count":5,"tokens":"廟|宮","sum":280000,"label":"廟"},{"count":6,"tokens":"協會|學會|商會|公會|協進會|促進會|研習會|婦聯會|婦女會|體育會|同心會|農會|早起會|健身會|宗親會|功德會|商業會|長青會|民眾服務社|聯盟","sum":215000,"label":"協會"},{"count":5,"tokens":"辦公室|辦公處","sum":170000,"label":"辦公室"},{"count":4,"tokens":"國中|國小","sum":120000,"label":"國中、國小"},{"count":0,"tokens":"警察局|分局","sum":0,"label":"警察局"},{"count":0,"tokens":"消防局|消防隊|分隊|中隊","sum":0,"label":"消防局"}],"bills_party_diversity":[{"party":"中國國民黨","ratio":0.5},{"party":"無黨籍","ratio":0.375},{"party":"無黨團結聯盟","ratio":0.125}]},"councilor":"cac07b1e345f4d90b39cc5d56fdd9c72"},{"url":"http://councils.g0v.tw/api/councilors_terms/26407/","election_year":"2009","name":"歐陽洲","gender":"男","party":"無黨籍","title":"議員","constituency":2,"county":"澎湖縣","district":"","in_office":true,"contact_details":null,"term_start":null,"term_end":{},"education":null,"experience":null,"remark":null,"image":"","links":null,"social_media":null,"platform":"","param":{"bills_role_statistics":{"total":13,"priproposer":0,"sponsor":0,"cosponsor":13},"suggestions_years":{"count":141,"sum":5861450,"years":[{"count":37,"sum":1729000,"suggest_year":"2011","small_purchase":37},{"count":22,"sum":710000,"suggest_year":"2012","small_purchase":22},{"count":44,"sum":1815800,"suggest_year":"2013","small_purchase":44},{"count":38,"sum":1606650,"suggest_year":"2014","small_purchase":38}]},"suggestions_associations":[{"count":18,"sum":652000,"label":"社區發展協會"},{"count":9,"sum":215000,"label":"協進會"},{"count":2,"sum":80000,"label":"婦女會"},{"count":2,"sum":70000,"label":"學會"},{"count":2,"sum":60000,"label":"公會"},{"count":0,"sum":0,"label":"商會"},{"count":0,"sum":0,"label":"促進會"},{"count":0,"sum":0,"label":"研習會"},{"count":0,"sum":0,"label":"婦聯會"},{"count":0,"sum":0,"label":"體育會"},{"count":0,"sum":0,"label":"同心會"},{"count":0,"sum":0,"label":"農會"},{"count":0,"sum":0,"label":"早起會"},{"count":0,"sum":0,"label":"健身會"},{"count":0,"sum":0,"label":"宗親會"},{"count":0,"sum":0,"label":"功德會"},{"count":0,"sum":0,"label":"商業會"},{"count":0,"sum":0,"label":"長青會"},{"count":0,"sum":0,"label":"民眾服務社"},{"count":0,"sum":0,"label":"聯盟"}],"suggestions_piles":[{"count":38,"tokens":"協會|學會|商會|公會|協進會|促進會|研習會|婦聯會|婦女會|體育會|同心會|農會|早起會|健身會|宗親會|功德會|商業會|長青會|民眾服務社|聯盟","sum":1182000,"label":"協會"},{"count":18,"tokens":"辦公室|辦公處","sum":545800,"label":"辦公室"},{"count":4,"tokens":"國中|國小","sum":285000,"label":"國中、國小"},{"count":5,"tokens":"廟|宮","sum":192000,"label":"廟"},{"count":0,"tokens":"警察局|分局","sum":0,"label":"警察局"},{"count":0,"tokens":"消防局|消防隊|分隊|中隊","sum":0,"label":"消防局"}]},"councilor":"cac07b1e345f4d90b39cc5d56fdd9c72"}],"uid":"cac07b1e345f4d90b39cc5d56fdd9c72","name":"歐陽洲","birth":"1972-01-01","former_names":"","identifiers":["歐陽洲"]}]}