{"count":1904,"next":"http://councils.g0v.tw/api/councilors/?page=5","previous":"http://councils.g0v.tw/api/councilors/?page=3","results":[{"url":"http://councils.g0v.tw/api/councilors/1535/","each_terms":[{"url":"http://councils.g0v.tw/api/councilors_terms/3404/","election_year":"2014","name":"陳貴忠","gender":"男","party":"中國國民黨","title":"議員","constituency":2,"county":"連江縣","district":"竿鄉鄉","in_office":true,"contact_details":[{"type":"address","value":"連江縣北竿鄉塘歧村197號","label":"服務處地址"},{"type":"voice","value":"0836-55220、0910-2809497","label":"服務處電話"}],"term_start":"2014-12-25","term_end":{"date":"2018-12-25"},"education":"馬祖高中\n空中行專","experience":"1. 北竿鄉鄉民代表\n2. 連江縣政諮詢代表會代表\n3. 連江縣臨時縣議會議員\n4. 連江縣議會第一至五屆縣議員\n5. 北竿文化推展協會理事長\n6. 連江縣議會第四屆副議長\n7. 連江縣議會第五屆議長","remark":null,"image":"http://www.mtcc.gov.tw/images/legislator-chenqueichung.jpg","links":[{"url":"http://www.mtcc.gov.tw/ab_speaker.html","note":"議會個人官網"}],"social_media":null,"platform":"1. 永續北竿—黃岐航線航行創造一日生活圈。\n2. 推動白沙碼頭港埠建設長遠規劃興建。\n3. 推動北竿塘岐馬鼻灣避風港休閒設施。\n4. 橋仔漁業休閒碼頭規劃興建。\n5. 公投博弈發展觀光渡假國際中心。\n6. 增加立榮航空北竿班次。\n7. 推動開發高登島大坵設施。\n8. 擴建北竿醫療大樓興建。\n9. 改善塘后道為橋樑式及沙灘垃圾。\n10. 推動北竿免稅島免稅商店。\n11. 規劃船席上架設施漁民冷凍設備。\n12. 永續芹壁聚落橋仔漁村白沙商港設施。\n13. 推動后沃活動中心村辦公室景觀設施。\n14. 全面檢討舊有房屋權狀發換。\n15. 永續多元就業各社區員額配置充實人力。\n16. 擴展馬管處.里旅遊服務中心。\n17. 提昇塘岐商店街商品包裝輔導產業升級。\n18. 增進旅行人潮帶動塘岐商業景象。\n19. 永續戰爭和平公園設施與發展。\n20. 提昇.里農業收入漁民船舶安全設施。\n21. 提昇各校教學設施充實幼托環境設施。\n22. 重視漁農工商工作權益社會福利。","param":{"bills_role_statistics":{"total":6,"priproposer":4,"sponsor":6,"cosponsor":0},"suggestions_years":{"count":4,"sum":2163000,"years":[{"count":2,"sum":163000,"suggest_year":"2015","small_purchase":2},{"count":2,"sum":2000000,"suggest_year":"2016","small_purchase":0}]},"suggestions_associations":[{"count":0,"sum":0,"label":"社區發展協會"},{"count":0,"sum":0,"label":"學會"},{"count":0,"sum":0,"label":"商會"},{"count":0,"sum":0,"label":"公會"},{"count":0,"sum":0,"label":"協進會"},{"count":0,"sum":0,"label":"促進會"},{"count":0,"sum":0,"label":"研習會"},{"count":0,"sum":0,"label":"婦聯會"},{"count":0,"sum":0,"label":"婦女會"},{"count":0,"sum":0,"label":"體育會"},{"count":0,"sum":0,"label":"同心會"},{"count":0,"sum":0,"label":"農會"},{"count":0,"sum":0,"label":"早起會"},{"count":0,"sum":0,"label":"健身會"},{"count":0,"sum":0,"label":"宗親會"},{"count":0,"sum":0,"label":"功德會"},{"count":0,"sum":0,"label":"商業會"},{"count":0,"sum":0,"label":"長青會"},{"count":0,"sum":0,"label":"民眾服務社"},{"count":0,"sum":0,"label":"聯盟"}],"suggestions_piles":[{"count":0,"tokens":"協會|學會|商會|公會|協進會|促進會|研習會|婦聯會|婦女會|體育會|同心會|農會|早起會|健身會|宗親會|功德會|商業會|長青會|民眾服務社|聯盟","sum":0,"label":"協會"},{"count":0,"tokens":"辦公室|辦公處","sum":0,"label":"辦公室"},{"count":0,"tokens":"廟|宮","sum":0,"label":"廟"},{"count":0,"tokens":"警察局|分局","sum":0,"label":"警察局"},{"count":0,"tokens":"消防局|消防隊|分隊|中隊","sum":0,"label":"消防局"},{"count":0,"tokens":"國中|國小","sum":0,"label":"國中、國小"}],"bills_party_diversity":[{"party":"中國國民黨","ratio":0.9},{"party":"無黨籍","ratio":0.1}]},"councilor":"3ec01444e58449abad96243b3bfda492"},{"url":"http://councils.g0v.tw/api/councilors_terms/2461/","election_year":"2009","name":"陳貴忠","gender":"男","party":"無黨籍","title":"","constituency":2,"county":"連江縣","district":"北竿鄉","in_office":true,"contact_details":[{"type":"address","value":"連江縣北竿鄉塘歧村197號","label":"通訊處"},{"type":"voice","value":"0836-55220、0910-280949","label":"電話"}],"term_start":"2009-12-25","term_end":{"date":"2014-12-25"},"education":null,"experience":"","remark":null,"image":"http://www.mtcc.gov.tw/representative/ChenQueiChung.jpg","links":[{"url":"http://www.mtcc.gov.tw/ab_speaker.htm","note":"議會個人官網"}],"social_media":null,"platform":"1. 推動規劃擴建一座標準北竿機場提昇觀光發展。\n2. 永續推動規劃興建南北大橋共創馬祖新紀元。\n3. 推動兩岸辦事機構暨北竿黃岐港航線促進兩岸交流。\n4. 永續推動白沙港港埠設施浮動碼頭以利旅客安全。\n5. 打造塘岐商店街形象商圈惠民市場商業文化活動中心。\n6. 推動塘岐沃口護堤親水海岸公園增進休閒功能。\n7. 推展馬祖風景管理處工程戰爭和平公園區功能。\n8. 擴大舉辦北竿元宵觀光文化節結合民俗文化。\n9. 后沃堤岸景觀海水浴場漁業設施建置以利休閒觀光。\n10. 永續橋仔富利漁村碼頭延長帶動大坵休閒觀光。\n11. 輔導板里農民產業加工研發帶動社區休閒文化。\n12. 永續芹壁聚落文化發展再造人文文化活動。\n13. 健全教育環境提昇教育品質深化學生文化內涵。\n14. 永續經營家鄉的願景提昇我們的生活空間。","param":null,"councilor":"3ec01444e58449abad96243b3bfda492"}],"uid":"3ec01444e58449abad96243b3bfda492","name":"陳貴忠","birth":null,"former_names":"","identifiers":["陳貴忠"]},{"url":"http://councils.g0v.tw/api/councilors/1926/","each_terms":[{"url":"http://councils.g0v.tw/api/councilors_terms/3405/","election_year":"2014","name":"周瑞國","gender":"男","party":"中國國民黨","title":"議員","constituency":2,"county":"連江縣","district":"北竿鄉","in_office":true,"contact_details":[{"type":"address","value":"連江縣北竿鄉塘岐村151號","label":"服務處地址"},{"type":"voice","value":"0836-55501、0933-239793","label":"服務處電話"}],"term_start":"2014-12-25","term_end":{"date":"2018-12-25"},"education":"復興商工","experience":"1. 塘岐社區發展協會理事長\n2. 板里國小家長會會長\n3. 中山國中家長會會長\n4. 第六屆北竿鄉民代表會主席\n5. 第九屆北竿鄉鄉長","remark":null,"image":"http://www.mtcc.gov.tw/images/legislator-chou.jpg","links":[{"url":"http://www.mtcc.gov.tw/cu_legislator_chou.html","note":"議會個人官網"}],"social_media":null,"platform":"1.加強白沙港配套措施及客運大樓等港埠建設。\n2.爭取南北竿島際票價補貼，朝鄉民免費搭乘目標努力。\n3.加速推動「北竿—黃岐生活一日圈」，提昇北竿競爭力。\n4.爭取高登島釋出，開放觀光。\n5.為落實本鄉環境保護政策，爭取增加基層維護人力員額。\n6.爭取成立北竿分院，增加專業人員編制，提升鄉內醫療服務品質。\n7.爭取全面整建塘岐運動場，給鄉親一個安全的運動場所。\n8.加強老人、兒童社會福利政策。\n9.爭取大坵航班全年常態化，以利觀光發展。\n10.推動整合各項觀光資源、經費，達到最有效行銷並帶動地方觀光發展。\n11.爭取北竿鄉各項地方建設。\n12.以豐富之行政歷驗，督促縣政之推動，應以四鄉五島均衡發展之前提下，分配經費給北竿鄉，以利地方文化、觀光、環保、交通等事務之推動。","param":{"bills_role_statistics":{"total":37,"priproposer":24,"sponsor":24,"cosponsor":13},"suggestions_years":{"count":7,"sum":3054000,"years":[{"count":5,"sum":1054000,"suggest_year":"2015","small_purchase":4},{"count":2,"sum":2000000,"suggest_year":"2016","small_purchase":0}]},"suggestions_associations":[{"count":0,"sum":0,"label":"社區發展協會"},{"count":0,"sum":0,"label":"學會"},{"count":0,"sum":0,"label":"商會"},{"count":0,"sum":0,"label":"公會"},{"count":0,"sum":0,"label":"協進會"},{"count":0,"sum":0,"label":"促進會"},{"count":0,"sum":0,"label":"研習會"},{"count":0,"sum":0,"label":"婦聯會"},{"count":0,"sum":0,"label":"婦女會"},{"count":0,"sum":0,"label":"體育會"},{"count":0,"sum":0,"label":"同心會"},{"count":0,"sum":0,"label":"農會"},{"count":0,"sum":0,"label":"早起會"},{"count":0,"sum":0,"label":"健身會"},{"count":0,"sum":0,"label":"宗親會"},{"count":0,"sum":0,"label":"功德會"},{"count":0,"sum":0,"label":"商業會"},{"count":0,"sum":0,"label":"長青會"},{"count":0,"sum":0,"label":"民眾服務社"},{"count":0,"sum":0,"label":"聯盟"}],"suggestions_piles":[{"count":1,"tokens":"廟|宮","sum":99000,"label":"廟"},{"count":0,"tokens":"協會|學會|商會|公會|協進會|促進會|研習會|婦聯會|婦女會|體育會|同心會|農會|早起會|健身會|宗親會|功德會|商業會|長青會|民眾服務社|聯盟","sum":0,"label":"協會"},{"count":0,"tokens":"辦公室|辦公處","sum":0,"label":"辦公室"},{"count":0,"tokens":"警察局|分局","sum":0,"label":"警察局"},{"count":0,"tokens":"消防局|消防隊|分隊|中隊","sum":0,"label":"消防局"},{"count":0,"tokens":"國中|國小","sum":0,"label":"國中、國小"}],"bills_party_diversity":[{"party":"中國國民黨","ratio":0.9864864864864865},{"party":"無黨籍","ratio":0.013513513513513514}]},"councilor":"4e483e08d9314d9e81f0dde1565fb04b"}],"uid":"4e483e08d9314d9e81f0dde1565fb04b","name":"周瑞國","birth":null,"former_names":"","identifiers":["周瑞國"]},{"url":"http://councils.g0v.tw/api/councilors/1927/","each_terms":[{"url":"http://councils.g0v.tw/api/councilors_terms/3406/","election_year":"2014","name":"林明揚","gender":"男","party":"中國國民黨","title":"議員","constituency":1,"county":"連江縣","district":"南竿鄉","in_office":true,"contact_details":[{"type":"address","value":"連江縣南竿鄉清水村140號4樓","label":"服務處地址"},{"type":"voice","value":"0932-356951","label":"服務處電話"}],"term_start":"2014-12-25","term_end":{"date":"2018-12-25"},"education":"治平高中","experience":"1. 南竿鄉第七屆鄉民代表\n2. 南竿鄉第八屆鄉代主席\n3. 南竿鄉第九屆鄉民代表\n4. 福沃社區發展協會理事長","remark":null,"image":"http://www.mtcc.gov.tw/images/legislator-linminyang.jpg","links":[{"url":"http://www.mtcc.gov.tw/cu_legislator_linminyang.html","note":"議會個人官網"}],"social_media":null,"platform":"1.善盡為民喉舌職責，掌握地區動脈，深入關切基層需求與反應民意，竭誠服務鄉親，做好民眾與政府溝通的橋樑。\n2.全力爭取基層建設經費，以利鄉村發展，提昇鄉親生活品質。\n3.督促縣府加強連江縣各島美化建設及休憩功能品質，創造優質生活休閒環境。\n4.規劃福沃設置綜合黃昏市場，帶動經濟，提昇居民生活機能便利性。\n5.推廣在地方言教學，讓新移(住)民更易融入在地民俗風情。\n6.爭取連江縣民年滿65歲以上老人免費裝置假牙。","param":{"bills_role_statistics":{"total":38,"priproposer":13,"sponsor":15,"cosponsor":23},"suggestions_years":{"count":4,"sum":2100000,"years":[{"count":1,"sum":100000,"suggest_year":"2015","small_purchase":1},{"count":3,"sum":2000000,"suggest_year":"2016","small_purchase":0}]},"suggestions_associations":[{"count":0,"sum":0,"label":"社區發展協會"},{"count":0,"sum":0,"label":"學會"},{"count":0,"sum":0,"label":"商會"},{"count":0,"sum":0,"label":"公會"},{"count":0,"sum":0,"label":"協進會"},{"count":0,"sum":0,"label":"促進會"},{"count":0,"sum":0,"label":"研習會"},{"count":0,"sum":0,"label":"婦聯會"},{"count":0,"sum":0,"label":"婦女會"},{"count":0,"sum":0,"label":"體育會"},{"count":0,"sum":0,"label":"同心會"},{"count":0,"sum":0,"label":"農會"},{"count":0,"sum":0,"label":"早起會"},{"count":0,"sum":0,"label":"健身會"},{"count":0,"sum":0,"label":"宗親會"},{"count":0,"sum":0,"label":"功德會"},{"count":0,"sum":0,"label":"商業會"},{"count":0,"sum":0,"label":"長青會"},{"count":0,"sum":0,"label":"民眾服務社"},{"count":0,"sum":0,"label":"聯盟"}],"suggestions_piles":[{"count":1,"tokens":"廟|宮","sum":600000,"label":"廟"},{"count":0,"tokens":"協會|學會|商會|公會|協進會|促進會|研習會|婦聯會|婦女會|體育會|同心會|農會|早起會|健身會|宗親會|功德會|商業會|長青會|民眾服務社|聯盟","sum":0,"label":"協會"},{"count":0,"tokens":"辦公室|辦公處","sum":0,"label":"辦公室"},{"count":0,"tokens":"警察局|分局","sum":0,"label":"警察局"},{"count":0,"tokens":"消防局|消防隊|分隊|中隊","sum":0,"label":"消防局"},{"count":0,"tokens":"國中|國小","sum":0,"label":"國中、國小"}],"bills_party_diversity":[{"party":"中國國民黨","ratio":0.7619047619047619},{"party":"無黨籍","ratio":0.23809523809523808}]},"councilor":"3484ad505d16455f98adf83c30033050"}],"uid":"3484ad505d16455f98adf83c30033050","name":"林明揚","birth":null,"former_names":"","identifiers":["林明揚","林明揚"]},{"url":"http://councils.g0v.tw/api/councilors/1530/","each_terms":[{"url":"http://councils.g0v.tw/api/councilors_terms/2456/","election_year":"2009","name":"曹丞君","gender":"女","party":"無黨籍","title":"","constituency":1,"county":"連江縣","district":"南竿鄉","in_office":true,"contact_details":[{"type":"address","value":"連江縣南竿鄉復興村145-1號","label":"通訊處"},{"type":"voice","value":"0836-25359、0912-575488","label":"電話"}],"term_start":"2009-12-25","term_end":{"date":"2014-12-25"},"education":null,"experience":"1. 連江縣計程車工會常務理事\n2. 連江縣愛心關懷協會理事\n3. 犯罪被害人保護協會委員\n4. 馬祖防衛指揮部志工媽媽\n5. 南竿鄉第八屆鄉民代表會副主席","remark":null,"image":"http://www.mtcc.gov.tw/representative/ChauChenChine.jpg","links":[{"url":"http://www.mtcc.gov.tw/cu_representative4.htm","note":"議會個人官網"}],"social_media":null,"platform":"督促縣府協調中央持續專案辦理招收地區年青生力軍加入海岸巡防工作，保護家園。\n督促縣府加速推動福澳國內商港建設進度，以促進地區經濟發展。\n監督縣府彩券盈餘分配款，專款專用，落實照顧老人生活及殘障鄉親福利。\n督促縣府賡續積極培育地區專科醫師，充實醫療設備，以提昇醫療能力。\n督促縣府爭取車輛運送臺馬間運費補助。\n督促縣府規劃建購第二艘台馬輪，吸引觀光人潮，促進地方繁榮。\n督促縣府重新修法，全面解決土地異議與紛爭，還地於民。\n協調軍方釋出廢棄碉堡、陣地，營造具有特色之戰地景觀。\n督促縣府開闢馬祖四鄉五島沿岸為海上風景區，定時航行飽覽海岸美麗風光，以發展地區觀光特色活絡商機。","param":null,"councilor":"5902bdd8f5874937a789a1ed21cfe8e8"},{"url":"http://councils.g0v.tw/api/councilors_terms/3407/","election_year":"2014","name":"曹丞君","gender":"女","party":"無黨籍","title":"議員","constituency":1,"county":"連江縣","district":"南竿鄉","in_office":true,"contact_details":[{"type":"address","value":"連江縣南竿鄉復興村145-1號","label":"服務處地址"},{"type":"voice","value":"0836-25359、0912-575488","label":"服務處電話"}],"term_start":"2014-12-25","term_end":{"date":"2018-12-25"},"education":"桃園縣立成功工商","experience":"1. 連江縣計程車工會常務理事\n2. 連江縣愛心關懷協會理事\n3. 犯罪被害人保護協會委員\n4. 馬祖防衛指揮部志工媽媽\n5. 南竿鄉第八屆鄉民代表會副主席\n6. 馬祖曹氏發展聯誼協會理事長","remark":null,"image":"http://www.mtcc.gov.tw/images/legislator-ChauChenChine.jpg","links":[{"url":"http://www.mtcc.gov.tw/cu_legislator_chauchenchine.html","note":"議會個人官網"}],"social_media":null,"platform":"1.督促縣府檢討土地問題，謀求解決方法，落實還地於民政策之實現，造福民眾。\n2.發展休閒漁業、農業，開發觀光產業，活絡經濟。\n3.監督縣府提高南、北機場有效飛航率，讓回家之路更順暢。\n4.監督縣府持續向中央爭取經費興建南、北竿跨海大橋，實現南、北竿共同生活圈之目標，縮短城鄉差距。\n5.監督縣府持續落實照顧居家老人生活及身障者福利。\n6.監督縣府積極規劃開發新景點，俾利發展觀光。\n7.監督縣長施政計畫，落實競選政見，造福縣民。","param":{"bills_role_statistics":{"total":22,"priproposer":9,"sponsor":11,"cosponsor":11},"suggestions_years":{"count":4,"sum":2479000,"years":[{"count":3,"sum":679000,"suggest_year":"2015","small_purchase":2},{"count":1,"sum":1800000,"suggest_year":"2016","small_purchase":0}]},"suggestions_associations":[{"count":0,"sum":0,"label":"社區發展協會"},{"count":0,"sum":0,"label":"學會"},{"count":0,"sum":0,"label":"商會"},{"count":0,"sum":0,"label":"公會"},{"count":0,"sum":0,"label":"協進會"},{"count":0,"sum":0,"label":"促進會"},{"count":0,"sum":0,"label":"研習會"},{"count":0,"sum":0,"label":"婦聯會"},{"count":0,"sum":0,"label":"婦女會"},{"count":0,"sum":0,"label":"體育會"},{"count":0,"sum":0,"label":"同心會"},{"count":0,"sum":0,"label":"農會"},{"count":0,"sum":0,"label":"早起會"},{"count":0,"sum":0,"label":"健身會"},{"count":0,"sum":0,"label":"宗親會"},{"count":0,"sum":0,"label":"功德會"},{"count":0,"sum":0,"label":"商業會"},{"count":0,"sum":0,"label":"長青會"},{"count":0,"sum":0,"label":"民眾服務社"},{"count":0,"sum":0,"label":"聯盟"}],"suggestions_piles":[{"count":0,"tokens":"協會|學會|商會|公會|協進會|促進會|研習會|婦聯會|婦女會|體育會|同心會|農會|早起會|健身會|宗親會|功德會|商業會|長青會|民眾服務社|聯盟","sum":0,"label":"協會"},{"count":0,"tokens":"辦公室|辦公處","sum":0,"label":"辦公室"},{"count":0,"tokens":"廟|宮","sum":0,"label":"廟"},{"count":0,"tokens":"警察局|分局","sum":0,"label":"警察局"},{"count":0,"tokens":"消防局|消防隊|分隊|中隊","sum":0,"label":"消防局"},{"count":0,"tokens":"國中|國小","sum":0,"label":"國中、國小"}],"bills_party_diversity":[{"party":"中國國民黨","ratio":0.5769230769230769},{"party":"無黨籍","ratio":0.4230769230769231}]},"councilor":"5902bdd8f5874937a789a1ed21cfe8e8"}],"uid":"5902bdd8f5874937a789a1ed21cfe8e8","name":"曹丞君","birth":null,"former_names":"","identifiers":["曹丞君"]},{"url":"http://councils.g0v.tw/api/councilors/1928/","each_terms":[{"url":"http://councils.g0v.tw/api/councilors_terms/3408/","election_year":"2014","name":"林貽祥","gender":"男","party":"中國國民黨","title":"議員","constituency":1,"county":"連江縣","district":"南竿鄉","in_office":true,"contact_details":[{"type":"address","value":"連江縣南竿鄉福沃村65號3樓","label":"服務處地址"},{"type":"voice","value":"0836-22633、0933-008093","label":"服務處電話"}],"term_start":"2014-12-25","term_end":{"date":"2018-12-25"},"education":"中正理工學院","experience":"1. 連江縣工會總幹事\n2. 連江縣後備軍人輔導中心主任\n3. 連江縣身心障礙者保護委員會委員\n4. 福建金門地方法院調解委員\n5. 連江縣議會第二屆副議長；三、四屆縣議員\n6. 連江縣議會機要秘書","remark":null,"image":"http://www.mtcc.gov.tw/images/legislator-lin.jpg","links":[{"url":"http://www.mtcc.gov.tw/cu_legislator_linyishan.html","note":"議會個人官網"}],"social_media":null,"platform":"1.監督縣府促其修法，儘速還地於民，以減民怨。\n2.監督強化緊急醫療及空中救護系統，充實醫療設施，培育醫護人才，以提昇醫療品質。\n3.督促爭取南竿—高雄等地空中航線，俾利觀光發展。\n4.督促爭取南竿—琅岐船運航線，以提昇小三通競爭力。\n5.推動開發觀光產業，以促進地方觀光發展。\n6.落實預算編列，照顧弱勢團體及新住民福祉。\n7.爭取教育經費，改善教育環境，提昇教育品質。\n8.爭取興建漁貨交易中心或黃昏市場，滿足鄉親需求及促進觀光發展。\n9.督促縣府全面檢討都市計劃，推動工商建設開發方案。\n10.督促馬祖酒廠全面公司化，健全人事制度暨產銷功能，增加盈餘，分享員工，以提昇工作士氣。\n11.督促推動福沃國內商港及電信大樓興建工程完工啟用。\n12.推動縣府在福州設立辦事處，以提供鄉親觀光、旅遊、醫療、經商、就學等諮詢服務。","param":{"bills_role_statistics":{"total":23,"priproposer":19,"sponsor":21,"cosponsor":2},"suggestions_years":{"count":4,"sum":1499000,"years":[{"count":4,"sum":1499000,"suggest_year":"2015","small_purchase":3}]},"suggestions_associations":[{"count":0,"sum":0,"label":"社區發展協會"},{"count":0,"sum":0,"label":"學會"},{"count":0,"sum":0,"label":"商會"},{"count":0,"sum":0,"label":"公會"},{"count":0,"sum":0,"label":"協進會"},{"count":0,"sum":0,"label":"促進會"},{"count":0,"sum":0,"label":"研習會"},{"count":0,"sum":0,"label":"婦聯會"},{"count":0,"sum":0,"label":"婦女會"},{"count":0,"sum":0,"label":"體育會"},{"count":0,"sum":0,"label":"同心會"},{"count":0,"sum":0,"label":"農會"},{"count":0,"sum":0,"label":"早起會"},{"count":0,"sum":0,"label":"健身會"},{"count":0,"sum":0,"label":"宗親會"},{"count":0,"sum":0,"label":"功德會"},{"count":0,"sum":0,"label":"商業會"},{"count":0,"sum":0,"label":"長青會"},{"count":0,"sum":0,"label":"民眾服務社"},{"count":0,"sum":0,"label":"聯盟"}],"suggestions_piles":[{"count":0,"tokens":"協會|學會|商會|公會|協進會|促進會|研習會|婦聯會|婦女會|體育會|同心會|農會|早起會|健身會|宗親會|功德會|商業會|長青會|民眾服務社|聯盟","sum":0,"label":"協會"},{"count":0,"tokens":"辦公室|辦公處","sum":0,"label":"辦公室"},{"count":0,"tokens":"廟|宮","sum":0,"label":"廟"},{"count":0,"tokens":"警察局|分局","sum":0,"label":"警察局"},{"count":0,"tokens":"消防局|消防隊|分隊|中隊","sum":0,"label":"消防局"},{"count":0,"tokens":"國中|國小","sum":0,"label":"國中、國小"}],"bills_party_diversity":[{"party":"中國國民黨","ratio":0.5925925925925926},{"party":"無黨籍","ratio":0.4074074074074074}]},"councilor":"6f6e01b0ad224dccaf79bdf58fd191ae"}],"uid":"6f6e01b0ad224dccaf79bdf58fd191ae","name":"林貽祥","birth":null,"former_names":"","identifiers":["林貽祥","林貽祥"]},{"url":"http://councils.g0v.tw/api/councilors/76/","each_terms":[{"url":"http://councils.g0v.tw/api/councilors_terms/78/","election_year":"1998","name":"羅宗勝","gender":"男","party":"民主進步黨","title":"議員","constituency":null,"county":"臺北市","district":"","in_office":true,"contact_details":null,"term_start":"1998-12-25","term_end":{"date":"2002-12-25"},"education":"國立中興大學企管系肄業。","experience":"臺北市大同區星明里第七屆里長。民進黨臺北市黨部第六、七屆執行委員兼財務委員。臺北市建築物管理公會理事長。臺北市保全同業公會常務理事。臺北市社區安全協會常務理事。臺北市環保義工大隊副中隊長。臺北市救難協會顧問。臺北市宜蘭縣同鄉會會員。臺北市彰友會會員。臺北市賴羅傅宗親會會員。臺北市大稻埕地區發展促進會顧問。臺北市濱江地區發展促進會顧問。","remark":"","image":"http://www.tcc.gov.tw/../upload/photo/%E7%BE%85%E5%AE%97%E5%8B%9D16.jpg","links":[{"url":"http://www.tcc.gov.tw/Councilor_Content_All.aspx?s=1412&d=640106&n=%E7%BE%85%E5%AE%97%E5%8B%9D","note":"議會個人官網"}],"social_media":null,"platform":"","param":null,"councilor":"c10d1cbb26d7439486e6edf9e910db2a"},{"url":"http://councils.g0v.tw/api/councilors_terms/79/","election_year":"2002","name":"羅宗勝","gender":"男","party":"民主進步黨","title":"議員","constituency":null,"county":"臺北市","district":"","in_office":true,"contact_details":null,"term_start":"2002-12-25","term_end":{"date":"2006-12-25"},"education":"基隆市立信義國小、基隆市立銘傳國中、臺北市立復興高中、國立中興大學企管系肄業。","experience":"阿扁立委北區服務處副主任、阿扁競選第一、二屆市長及第十屆總統副總幹事、臺北市黨部及正義連線執委、臺北市議會黨團幹事長及工務、警衛、交通委員會召集人、臺北市宜蘭縣同鄉會常務理事、彰友會、大同青商會、吉林獅子會、臺北市直轄市議會第八屆議員。","remark":"","image":"http://www.tcc.gov.tw/../upload/photo/%E7%BE%85%E5%AE%97%E5%8B%9D17.bmp","links":[{"url":"http://www.tcc.gov.tw/Councilor_Content_All.aspx?s=2256&d=640106&n=%E7%BE%85%E5%AE%97%E5%8B%9D","note":"議會個人官網"}],"social_media":null,"platform":"","param":null,"councilor":"c10d1cbb26d7439486e6edf9e910db2a"}],"uid":"c10d1cbb26d7439486e6edf9e910db2a","name":"羅宗勝","birth":"1964-01-06","former_names":"","identifiers":["羅宗勝"]},{"url":"http://councils.g0v.tw/api/councilors/491/","each_terms":[{"url":"http://councils.g0v.tw/api/councilors_terms/837/","election_year":"1973","name":"周大業","gender":"","party":"","title":"議員","constituency":1,"county":"新北市","district":"板橋市、中和鄉、永和鎮、土城鄉","in_office":true,"contact_details":null,"term_start":"1973-05-01","term_end":{"date":"1977-12-29"},"education":"長春大學\n東北情幹部第1期\n政工幹校政戰班","experience":"東北行轅上尉情報組員\n東北行轅上尉情報組長\n東北行轅上尉情報代主任\n青年軍二○七師衛生營少校\n青年軍二○七師衛生營連長\n中華戰略學會軍事研究員\n立法委員\n第2屆國民大會代表\n臺北縣議會第8、9屆議員\n民國96年8月歿","remark":null,"image":"http://www.ntp.gov.tw/UpFile/CouncilorFile/TTCC0812.jpg","links":[{"url":"http://www.ntp.gov.tw/content/history/history01-5-p.aspx?sid=302","note":"議會個人官網"}],"social_media":null,"platform":"","param":null,"councilor":"8ff1d9a00ca546d2b07e6d0d0011c1ef"},{"url":"http://councils.g0v.tw/api/councilors_terms/960/","election_year":"1977","name":"周大業","gender":"","party":"","title":"議員","constituency":1,"county":"新北市","district":"板橋市、中和鄉、永和鎮、土城鄉","in_office":true,"contact_details":null,"term_start":"1977-12-30","term_end":{"date":"1982-02-28"},"education":"長春大學\n東北情幹部第1期\n政工幹校政戰班","experience":"東北行轅上尉情報組員\n東北行轅上尉情報組長\n東北行轅上尉情報代主任\n青年軍二○七師衛生營少校\n青年軍二○七師衛生營連長\n中華戰略學會軍事研究員\n立法委員\n第2屆國民大會代表\n臺北縣議會第8、9屆議員\n民國96年8月歿","remark":null,"image":"http://www.ntp.gov.tw/UpFile/CouncilorFile/TTCC0812.jpg","links":[{"url":"http://www.ntp.gov.tw/content/history/history01-5-p.aspx?sid=302","note":"議會個人官網"}],"social_media":null,"platform":"","param":null,"councilor":"8ff1d9a00ca546d2b07e6d0d0011c1ef"}],"uid":"8ff1d9a00ca546d2b07e6d0d0011c1ef","name":"周大業","birth":null,"former_names":"","identifiers":["周大業"]},{"url":"http://councils.g0v.tw/api/councilors/492/","each_terms":[{"url":"http://councils.g0v.tw/api/councilors_terms/838/","election_year":"1973","name":"蔡文地","gender":"","party":"","title":"議員","constituency":1,"county":"新北市","district":"板橋市、中和鄉、永和鎮、土城鄉","in_office":true,"contact_details":null,"term_start":"1973-05-01","term_end":{"date":"1977-12-29"},"education":"省立臺北工業職業學校（今臺北工專）","experience":"大昌化工廠技工\n永勝化工廠負責人\n江翠國小家長會長\n莒光國小家長會長\n江翠國中家長會長\n臺北縣議會第8、9屆議員\n臺北企銀板橋分行經理\n臺北縣銀行公會理事\n臺灣省銀行公會理事\n板橋潮和宮管理委員會主任委員\n板橋保安宮管理委員會主任委員\n民國101年2月15日歿","remark":null,"image":"http://www.ntp.gov.tw/UpFile/CouncilorFile/TTCC0806.jpg","links":[{"url":"http://www.ntp.gov.tw/content/history/history01-5-p.aspx?sid=299","note":"議會個人官網"}],"social_media":null,"platform":"","param":null,"councilor":"ed81426c919f438982a2788c89cd62f6"},{"url":"http://councils.g0v.tw/api/councilors_terms/952/","election_year":"1977","name":"蔡文地","gender":"","party":"","title":"議員","constituency":1,"county":"新北市","district":"板橋市、中和鄉、永和鎮、土城鄉","in_office":true,"contact_details":null,"term_start":"1977-12-30","term_end":{"date":"1982-02-28"},"education":"省立臺北工業職業學校（今臺北工專）","experience":"大昌化工廠技工\n永勝化工廠負責人\n江翠國小家長會長\n莒光國小家長會長\n江翠國中家長會長\n臺北縣議會第8、9屆議員\n臺北企銀板橋分行經理\n臺北縣銀行公會理事\n臺灣省銀行公會理事\n板橋潮和宮管理委員會主任委員\n板橋保安宮管理委員會主任委員\n民國101年2月15日歿","remark":null,"image":"http://www.ntp.gov.tw/UpFile/CouncilorFile/TTCC0806.jpg","links":[{"url":"http://www.ntp.gov.tw/content/history/history01-5-p.aspx?sid=299","note":"議會個人官網"}],"social_media":null,"platform":"","param":null,"councilor":"ed81426c919f438982a2788c89cd62f6"}],"uid":"ed81426c919f438982a2788c89cd62f6","name":"蔡文地","birth":null,"former_names":"","identifiers":["蔡文地"]},{"url":"http://councils.g0v.tw/api/councilors/493/","each_terms":[{"url":"http://councils.g0v.tw/api/councilors_terms/839/","election_year":"1973","name":"趙長江","gender":"","party":"","title":"議員","constituency":1,"county":"新北市","district":"板橋市、中和鄉、永和鎮、土城鄉","in_office":true,"contact_details":null,"term_start":"1973-05-01","term_end":{"date":"1977-12-29"},"education":"屏東商業學校\n文化大學政治系\n革命實踐院","experience":"農林廳臺北特產科股長\n國民大會主席團主席\n臺北縣義勇消防警察大隊長\n中央日報社董事\n中華民國建築公會理事\n臺北縣議會第7、8、9屆議員","remark":null,"image":"http://www.ntp.gov.tw/UpFile/CouncilorFile/TTCC0703.jpg","links":[{"url":"http://www.ntp.gov.tw/content/history/history01-5-p.aspx?sid=277","note":"議會個人官網"}],"social_media":null,"platform":"","param":null,"councilor":"3d2188c06d3c49dda823bd7fdae49bbb"},{"url":"http://councils.g0v.tw/api/councilors_terms/897/","election_year":"1968","name":"趙長江","gender":"","party":"","title":"議員","constituency":1,"county":"新北市","district":"板橋鎮、中和鄉、永和鎮、土城鄉","in_office":true,"contact_details":null,"term_start":"1968-02-21","term_end":{"date":"1973-04-30"},"education":"屏東商業學校\n文化大學政治系\n革命實踐院","experience":"農林廳臺北特產科股長\n國民大會主席團主席\n臺北縣義勇消防警察大隊長\n中央日報社董事\n中華民國建築公會理事\n臺北縣議會第7、8、9屆議員","remark":null,"image":"http://www.ntp.gov.tw/UpFile/CouncilorFile/TTCC0703.jpg","links":[{"url":"http://www.ntp.gov.tw/content/history/history01-5-p.aspx?sid=277","note":"議會個人官網"}],"social_media":null,"platform":"","param":null,"councilor":"3d2188c06d3c49dda823bd7fdae49bbb"},{"url":"http://councils.g0v.tw/api/councilors_terms/958/","election_year":"1977","name":"趙長江","gender":"","party":"","title":"議員","constituency":1,"county":"新北市","district":"板橋市、中和鄉、永和鎮、土城鄉","in_office":true,"contact_details":null,"term_start":"1977-12-30","term_end":{"date":"1982-02-28"},"education":"屏東商業學校\n文化大學政治系\n革命實踐院","experience":"農林廳臺北特產科股長\n國民大會主席團主席\n臺北縣義勇消防警察大隊長\n中央日報社董事\n中華民國建築公會理事\n臺北縣議會第7、8、9屆議員","remark":null,"image":"http://www.ntp.gov.tw/UpFile/CouncilorFile/TTCC0703.jpg","links":[{"url":"http://www.ntp.gov.tw/content/history/history01-5-p.aspx?sid=277","note":"議會個人官網"}],"social_media":null,"platform":"","param":null,"councilor":"3d2188c06d3c49dda823bd7fdae49bbb"}],"uid":"3d2188c06d3c49dda823bd7fdae49bbb","name":"趙長江","birth":null,"former_names":"","identifiers":["趙長江"]},{"url":"http://councils.g0v.tw/api/councilors/467/","each_terms":[{"url":"http://councils.g0v.tw/api/councilors_terms/813/","election_year":"1973","name":"張明陽","gender":"","party":"","title":"議員","constituency":6,"county":"新北市","district":"汐止鎮、萬里鄉、金山鄉","in_office":true,"contact_details":null,"term_start":"1973-05-01","term_end":{"date":"1977-12-29"},"education":"農業專修學校","experience":"金山庄役場財務股主任\n金山鄉大同村村長\n金山鄉民眾服務站理事長\n萬里鄉公所課長\n臺北縣兵役協會主委\n臺北縣議會第3至10屆議員\n財政小組委員會召集人","remark":null,"image":"http://www.ntp.gov.tw/UpFile/CouncilorFile/TTCC0358_.jpg","links":[{"url":"http://www.ntp.gov.tw/content/history/history01-5-p.aspx?sid=180","note":"議會個人官網"}],"social_media":null,"platform":"","param":null,"councilor":"e008cec86e754b74a16558a2a47e5b00"},{"url":"http://councils.g0v.tw/api/councilors_terms/868/","election_year":"1968","name":"張明陽","gender":"","party":"","title":"議員","constituency":6,"county":"新北市","district":"汐止鎮、萬里鄉、金山鄉","in_office":true,"contact_details":null,"term_start":"1968-02-21","term_end":{"date":"1973-04-30"},"education":"農業專修學校","experience":"金山庄役場財務股主任\n金山鄉大同村村長\n金山鄉民眾服務站理事長\n萬里鄉公所課長\n臺北縣兵役協會主委\n臺北縣議會第3至10屆議員\n財政小組委員會召集人","remark":null,"image":"http://www.ntp.gov.tw/UpFile/CouncilorFile/TTCC0358_.jpg","links":[{"url":"http://www.ntp.gov.tw/content/history/history01-5-p.aspx?sid=180","note":"議會個人官網"}],"social_media":null,"platform":"","param":null,"councilor":"e008cec86e754b74a16558a2a47e5b00"},{"url":"http://councils.g0v.tw/api/councilors_terms/912/","election_year":"1977","name":"張明陽","gender":"","party":"","title":"議員","constituency":5,"county":"新北市","district":"汐止鎮、萬里鄉、金山鄉","in_office":true,"contact_details":null,"term_start":"1977-12-30","term_end":{"date":"1982-02-28"},"education":"農業專修學校","experience":"金山庄役場財務股主任\n金山鄉大同村村長\n金山鄉民眾服務站理事長\n萬里鄉公所課長\n臺北縣兵役協會主委\n臺北縣議會第3至10屆議員\n財政小組委員會召集人","remark":null,"image":"http://www.ntp.gov.tw/UpFile/CouncilorFile/TTCC0358_.jpg","links":[{"url":"http://www.ntp.gov.tw/content/history/history01-5-p.aspx?sid=180","note":"議會個人官網"}],"social_media":null,"platform":"","param":null,"councilor":"e008cec86e754b74a16558a2a47e5b00"},{"url":"http://councils.g0v.tw/api/councilors_terms/1017/","election_year":"1982","name":"張明陽","gender":"","party":"","title":"議員","constituency":7,"county":"新北市","district":"汐止鎮、金山鄉、萬里鄉","in_office":true,"contact_details":null,"term_start":"1982-03-01","term_end":{"date":"1986-02-28"},"education":"農業專修學校","experience":"金山庄役場財務股主任\n金山鄉大同村村長\n金山鄉民眾服務站理事長\n萬里鄉公所課長\n臺北縣兵役協會主委\n臺北縣議會第3至10屆議員\n財政小組委員會召集人","remark":null,"image":"http://www.ntp.gov.tw/UpFile/CouncilorFile/TTCC0358_.jpg","links":[{"url":"http://www.ntp.gov.tw/content/history/history01-5-p.aspx?sid=180","note":"議會個人官網"}],"social_media":null,"platform":"","param":null,"councilor":"e008cec86e754b74a16558a2a47e5b00"},{"url":"http://councils.g0v.tw/api/councilors_terms/1603/","election_year":"1955","name":"張明陽","gender":"","party":"","title":"議員","constituency":8,"county":"新北市","district":"金山鄉、萬里鄉","in_office":true,"contact_details":null,"term_start":"1955-01-16","term_end":{"date":"1958-02-20"},"education":"農業專修學校","experience":"金山庄役場財務股主任\n金山鄉大同村村長\n金山鄉民眾服務站理事長\n萬里鄉公所課長\n臺北縣兵役協會主委\n臺北縣議會第3至10屆議員\n財政小組委員會召集人","remark":null,"image":"http://www.ntp.gov.tw/UpFile/CouncilorFile/TTCC0358_.jpg","links":[{"url":"http://www.ntp.gov.tw/content/history/history01-5-p.aspx?sid=180","note":"議會個人官網"}],"social_media":null,"platform":"","param":null,"councilor":"e008cec86e754b74a16558a2a47e5b00"},{"url":"http://councils.g0v.tw/api/councilors_terms/1673/","election_year":"1958","name":"張明陽","gender":"","party":"","title":"議員","constituency":8,"county":"新北市","district":"金山鄉、萬里鄉","in_office":true,"contact_details":null,"term_start":"1958-02-21","term_end":{"date":"1961-02-20"},"education":"農業專修學校","experience":"金山庄役場財務股主任\n金山鄉大同村村長\n金山鄉民眾服務站理事長\n萬里鄉公所課長\n臺北縣兵役協會主委\n臺北縣議會第3至10屆議員\n財政小組委員會召集人","remark":null,"image":"http://www.ntp.gov.tw/UpFile/CouncilorFile/TTCC0358_.jpg","links":[{"url":"http://www.ntp.gov.tw/content/history/history01-5-p.aspx?sid=180","note":"議會個人官網"}],"social_media":null,"platform":"","param":null,"councilor":"e008cec86e754b74a16558a2a47e5b00"},{"url":"http://councils.g0v.tw/api/councilors_terms/1748/","election_year":"1961","name":"張明陽","gender":"","party":"","title":"議員","constituency":8,"county":"新北市","district":"金山鄉、萬里鄉","in_office":true,"contact_details":null,"term_start":"1961-02-21","term_end":{"date":"1964-02-20"},"education":"農業專修學校","experience":"金山庄役場財務股主任\n金山鄉大同村村長\n金山鄉民眾服務站理事長\n萬里鄉公所課長\n臺北縣兵役協會主委\n臺北縣議會第3至10屆議員\n財政小組委員會召集人","remark":null,"image":"http://www.ntp.gov.tw/UpFile/CouncilorFile/TTCC0358_.jpg","links":[{"url":"http://www.ntp.gov.tw/content/history/history01-5-p.aspx?sid=180","note":"議會個人官網"}],"social_media":null,"platform":"","param":null,"councilor":"e008cec86e754b74a16558a2a47e5b00"},{"url":"http://councils.g0v.tw/api/councilors_terms/1829/","election_year":"1964","name":"張明陽","gender":"","party":"","title":"議員","constituency":6,"county":"新北市","district":"內湖鄉、南港鎮、汐止鎮、萬里鄉、金山鄉","in_office":true,"contact_details":null,"term_start":"1964-02-21","term_end":{"date":"1968-02-20"},"education":"農業專修學校","experience":"金山庄役場財務股主任\n金山鄉大同村村長\n金山鄉民眾服務站理事長\n萬里鄉公所課長\n臺北縣兵役協會主委\n臺北縣議會第3至10屆議員\n財政小組委員會召集人","remark":null,"image":"http://www.ntp.gov.tw/UpFile/CouncilorFile/TTCC0358_.jpg","links":[{"url":"http://www.ntp.gov.tw/content/history/history01-5-p.aspx?sid=180","note":"議會個人官網"}],"social_media":null,"platform":"","param":null,"councilor":"e008cec86e754b74a16558a2a47e5b00"}],"uid":"e008cec86e754b74a16558a2a47e5b00","name":"張明陽","birth":null,"former_names":"","identifiers":["張明陽"]}]}