{"count":1904,"next":"http://councils.g0v.tw/api/councilors/?page=42","previous":"http://councils.g0v.tw/api/councilors/?page=40","results":[{"url":"http://councils.g0v.tw/api/councilors/21197/","each_terms":[{"url":"http://councils.g0v.tw/api/councilors_terms/11628/","election_year":"2014","name":"陳昭忠","gender":"男","party":"中國國民黨","title":"","constituency":13,"county":"屏東縣","district":"春日鄉","in_office":false,"contact_details":null,"term_start":"2014-12-25","term_end":{"date":"2016-05-24","judicial_links":"","reason":"當選無效","ref":"http://www.cec.gov.tw/central/cms/bulletin/12701","replacement":"林輝雄"},"education":null,"experience":null,"remark":null,"image":"","links":null,"social_media":null,"platform":"","param":{"suggestions_years":{"count":131,"sum":6392000,"years":[{"count":46,"sum":2888000,"suggest_year":"2015","small_purchase":42},{"count":85,"sum":3504000,"suggest_year":"2016","small_purchase":79}]},"suggestions_associations":[{"count":27,"sum":971000,"label":"社區發展協會"},{"count":5,"sum":772000,"label":"農會"},{"count":5,"sum":75000,"label":"學會"},{"count":5,"sum":75000,"label":"體育會"},{"count":2,"sum":40000,"label":"協進會"},{"count":1,"sum":20000,"label":"商會"},{"count":1,"sum":20000,"label":"研習會"},{"count":0,"sum":0,"label":"公會"},{"count":0,"sum":0,"label":"促進會"},{"count":0,"sum":0,"label":"婦聯會"},{"count":0,"sum":0,"label":"婦女會"},{"count":0,"sum":0,"label":"同心會"},{"count":0,"sum":0,"label":"早起會"},{"count":0,"sum":0,"label":"健身會"},{"count":0,"sum":0,"label":"宗親會"},{"count":0,"sum":0,"label":"功德會"},{"count":0,"sum":0,"label":"商業會"},{"count":0,"sum":0,"label":"長青會"},{"count":0,"sum":0,"label":"民眾服務社"},{"count":0,"sum":0,"label":"聯盟"}],"suggestions_piles":[{"count":72,"tokens":"協會|學會|商會|公會|協進會|促進會|研習會|婦聯會|婦女會|體育會|同心會|農會|早起會|健身會|宗親會|功德會|商業會|長青會|民眾服務社|聯盟","sum":2628000,"label":"協會"},{"count":10,"tokens":"國中|國小","sum":335000,"label":"國中、國小"},{"count":4,"tokens":"警察局|分局","sum":170000,"label":"警察局"},{"count":4,"tokens":"廟|宮","sum":80000,"label":"廟"},{"count":2,"tokens":"消防局|消防隊|分隊|中隊","sum":60000,"label":"消防局"},{"count":0,"tokens":"辦公室|辦公處","sum":0,"label":"辦公室"}],"bills_party_diversity":null},"councilor":"a152f23419b449429868343d21781157"}],"uid":"a152f23419b449429868343d21781157","name":"陳昭忠","birth":"1957-01-01","former_names":"","identifiers":["陳昭忠"]},{"url":"http://councils.g0v.tw/api/councilors/186/","each_terms":[{"url":"http://councils.g0v.tw/api/councilors_terms/322/","election_year":"1994","name":"郭石吉","gender":"男","party":"中國國民黨","title":"議員","constituency":null,"county":"臺北市","district":"","in_office":true,"contact_details":null,"term_start":"1994-12-25","term_end":{"date":"1998-12-25"},"education":"士林國小、開南商工、政治大學會計班、舊金山大學公共管理系、中國文化大學三研所。","experience":"臺北市直轄市議會第四、五、六屆議員、臺北市議會第五屆副議長、臺北市後備憲兵聯絡中心主任、臺北市郭氏宗親會理事長、醒吾商專兼任講師、郭欽定文教基金會董事長、臺北市推動社區發展協會理事長、郭元益雜誌發行人、郭元益食品關係企業董事長。","remark":"","image":"http://www.tcc.gov.tw/../upload/photo/%E9%83%AD%E7%9F%B3%E5%90%8915.jpg","links":[{"url":"http://www.tcc.gov.tw/Councilor_Content_All.aspx?s=1690&d=390922&n=%E9%83%AD%E7%9F%B3%E5%90%89","note":"議會個人官網"}],"social_media":null,"platform":"","param":null,"councilor":"eedc4d5cc0124cc3bba602fc9ad0d30e"},{"url":"http://councils.g0v.tw/api/councilors_terms/372/","election_year":"1989","name":"郭石吉","gender":"男","party":"中國國民黨","title":"議員","constituency":null,"county":"臺北市","district":"","in_office":true,"contact_details":null,"term_start":"1989-12-25","term_end":{"date":"1994-12-25"},"education":"士林國小、開南商工、政治大學會計班、美國舊金山大學公共行政系畢業、憲兵學校。","experience":"臺北市直轄市議會副議長、郭源益食品公司副董事長、士林國中、國小家長會會長、士林國際獅子會長，臺北市直轄市議會第四、五屆議員。","remark":"","image":"http://www.tcc.gov.tw/../upload/photo/%E9%83%AD%E7%9F%B3%E5%90%8914.jpg","links":[{"url":"http://www.tcc.gov.tw/Councilor_Content_All.aspx?s=1569&d=390922&n=%E9%83%AD%E7%9F%B3%E5%90%89","note":"議會個人官網"}],"social_media":null,"platform":"","param":null,"councilor":"eedc4d5cc0124cc3bba602fc9ad0d30e"},{"url":"http://councils.g0v.tw/api/councilors_terms/422/","election_year":"1985","name":"郭石吉","gender":"男","party":"中國國民黨","title":"議員","constituency":null,"county":"臺北市","district":"","in_office":true,"contact_details":null,"term_start":"1985-12-25","term_end":{"date":"1989-12-25"},"education":"士林國小、開南商工、憲兵學校、國立政治大學會計班、美國舊金山大學公共行政系。","experience":"郭元益食品公司總經理、士林區體育會理事長、士林國小、國中家長會長、臺北市直轄市議會第四屆議員。","remark":"","image":"http://www.tcc.gov.tw/../upload/photo/%E9%83%AD%E7%9F%B3%E5%90%8913.jpg","links":[{"url":"http://www.tcc.gov.tw/Councilor_Content_All.aspx?s=2177&d=390922&n=%E9%83%AD%E7%9F%B3%E5%90%89","note":"議會個人官網"}],"social_media":null,"platform":"","param":null,"councilor":"eedc4d5cc0124cc3bba602fc9ad0d30e"},{"url":"http://councils.g0v.tw/api/councilors_terms/469/","election_year":"1981","name":"郭石吉","gender":"男","party":"中國國民黨","title":"議員","constituency":null,"county":"臺北市","district":"","in_office":true,"contact_details":null,"term_start":"1981-12-25","term_end":{"date":"1985-12-25"},"education":"士林國小、開南商工、政治大學會計班。","experience":"士林國際獅子會會長、陽明山糕餅罐頭同業公會理事長、郭元益食品公司總經理、士林區體育會理事長、士林國民中、小學家長會會長。","remark":"","image":"http://www.tcc.gov.tw/../upload/photo/%E9%83%AD%E7%9F%B3%E5%90%8912.jpg","links":[{"url":"http://www.tcc.gov.tw/Councilor_Content_All.aspx?s=1593&d=390922&n=%E9%83%AD%E7%9F%B3%E5%90%89","note":"議會個人官網"}],"social_media":null,"platform":"","param":null,"councilor":"eedc4d5cc0124cc3bba602fc9ad0d30e"}],"uid":"eedc4d5cc0124cc3bba602fc9ad0d30e","name":"郭石吉","birth":"1939-09-22","former_names":"","identifiers":["郭石吉"]},{"url":"http://councils.g0v.tw/api/councilors/187/","each_terms":[{"url":"http://councils.g0v.tw/api/councilors_terms/324/","election_year":"1994","name":"許木元","gender":"男","party":"民主進步黨","title":"議員","constituency":null,"county":"臺北市","district":"","in_office":true,"contact_details":null,"term_start":"1994-12-25","term_end":{"date":"1998-12-25"},"education":"鹿港中學、臺中師專畢業、臺灣師範大學地理系畢業、政治大學教育研究所。","experience":"大理國小、古亭國小教師，新興國中、五常國中教師，民進黨北市黨部第一屆執委，臺北市直轄市議會第六屆議員。","remark":"","image":"http://www.tcc.gov.tw/../upload/photo/%E8%A8%B1%E6%9C%A8%E5%85%8315.jpg","links":[{"url":"http://www.tcc.gov.tw/Councilor_Content_All.aspx?s=1700&d=421013&n=%E8%A8%B1%E6%9C%A8%E5%85%83","note":"議會個人官網"}],"social_media":null,"platform":"","param":null,"councilor":"28e26492105b4eef860394ff4a0d06db"},{"url":"http://councils.g0v.tw/api/councilors_terms/373/","election_year":"1989","name":"許木元","gender":"男","party":"民主進步黨","title":"議員","constituency":null,"county":"臺北市","district":"","in_office":true,"contact_details":null,"term_start":"1989-12-25","term_end":{"date":"1994-12-25"},"education":"鹿港中學、臺中師範學院、臺灣師範大學、政治大學教育研究所畢業。","experience":"臺北市大理、古亭國小、新興、五常國中教師、臺灣人公共事務會臺灣分會執行長、教師人權促進會北市分會理事。","remark":"","image":"http://www.tcc.gov.tw/../upload/photo/%E8%A8%B1%E6%9C%A8%E5%85%8314.jpg","links":[{"url":"http://www.tcc.gov.tw/Councilor_Content_All.aspx?s=2238&d=421013&n=%E8%A8%B1%E6%9C%A8%E5%85%83","note":"議會個人官網"}],"social_media":null,"platform":"","param":null,"councilor":"28e26492105b4eef860394ff4a0d06db"}],"uid":"28e26492105b4eef860394ff4a0d06db","name":"許木元","birth":"1942-10-13","former_names":"","identifiers":["許木元"]},{"url":"http://councils.g0v.tw/api/councilors/188/","each_terms":[{"url":"http://councils.g0v.tw/api/councilors_terms/429/","election_year":"1985","name":"康水木","gender":"男","party":"民主進步黨","title":"議員","constituency":null,"county":"臺北市","district":"","in_office":true,"contact_details":null,"term_start":"1985-12-25","term_end":{"date":"1989-12-25"},"education":"東海高中畢業。","experience":"工人、推銷員、攤販、計程車司機、臺北市直轄市議會第三、四屆議員、美麗島雜誌社社務委員。","remark":"","image":"http://www.tcc.gov.tw/../upload/photo/%E5%BA%B7%E6%B0%B4%E6%9C%A813.jpg","links":[{"url":"http://www.tcc.gov.tw/Councilor_Content_All.aspx?s=1461&d=380722&n=%E5%BA%B7%E6%B0%B4%E6%9C%A8","note":"議會個人官網"}],"social_media":null,"platform":"","param":null,"councilor":"b7ed1df1ca5847969c003a3db0097b82"},{"url":"http://councils.g0v.tw/api/councilors_terms/378/","election_year":"1989","name":"康水木","gender":"男","party":"民主進步黨","title":"議員","constituency":null,"county":"臺北市","district":"","in_office":true,"contact_details":null,"term_start":"1989-12-25","term_end":{"date":"1994-12-25"},"education":"東海中學高中部畢業。","experience":"美麗島雜誌社社務委員、臺北市直轄市議會第三、四、五屆議員、臺灣文化促進會理事。","remark":"","image":"http://www.tcc.gov.tw/../upload/photo/%E5%BA%B7%E6%B0%B4%E6%9C%A814.jpg","links":[{"url":"http://www.tcc.gov.tw/Councilor_Content_All.aspx?s=1401&d=380722&n=%E5%BA%B7%E6%B0%B4%E6%9C%A8","note":"議會個人官網"}],"social_media":null,"platform":"","param":null,"councilor":"b7ed1df1ca5847969c003a3db0097b82"},{"url":"http://councils.g0v.tw/api/councilors_terms/325/","election_year":"1994","name":"康水木","gender":"男","party":"民主進步黨","title":"議員","constituency":null,"county":"臺北市","district":"","in_office":true,"contact_details":null,"term_start":"1994-12-25","term_end":{"date":"1998-12-25"},"education":"高中畢業。","experience":"臺北市直轄市議會第三、四、五、六屆議員、民進黨第一屆臺北市黨部主任委員。民進黨中央黨部執行委員。民進黨中央黨部評議委員。人民制憲會議委員。國是會議委員。","remark":"","image":"http://www.tcc.gov.tw/../upload/photo/%E5%BA%B7%E6%B0%B4%E6%9C%A815.jpg","links":[{"url":"http://www.tcc.gov.tw/Councilor_Content_All.aspx?s=1696&d=380722&n=%E5%BA%B7%E6%B0%B4%E6%9C%A8","note":"議會個人官網"}],"social_media":null,"platform":"","param":null,"councilor":"b7ed1df1ca5847969c003a3db0097b82"},{"url":"http://councils.g0v.tw/api/councilors_terms/476/","election_year":"1981","name":"康水木","gender":"男","party":"無黨籍","title":"議員","constituency":null,"county":"臺北市","district":"","in_office":true,"contact_details":null,"term_start":"1981-12-25","term_end":{"date":"1985-12-25"},"education":"東海高中畢業。","experience":"臺北市直轄市議會第三屆議員、工人、攤販、推銷員、司機。","remark":"","image":"http://www.tcc.gov.tw/../upload/photo/%E5%BA%B7%E6%B0%B4%E6%9C%A812.jpg","links":[{"url":"http://www.tcc.gov.tw/Councilor_Content_All.aspx?s=1978&d=380722&n=%E5%BA%B7%E6%B0%B4%E6%9C%A8","note":"議會個人官網"}],"social_media":null,"platform":"","param":null,"councilor":"b7ed1df1ca5847969c003a3db0097b82"},{"url":"http://councils.g0v.tw/api/councilors_terms/524/","election_year":"1977","name":"康水木","gender":"男","party":"無黨籍","title":"議員","constituency":null,"county":"臺北市","district":"","in_office":true,"contact_details":null,"term_start":"1977-12-25","term_end":{"date":"1981-12-25"},"education":"東海高中畢業。","experience":"工人、計程車、貨車、自用車等司機。","remark":"","image":"http://www.tcc.gov.tw/../upload/photo/%E5%BA%B7%E6%B0%B4%E6%9C%A811.jpg","links":[{"url":"http://www.tcc.gov.tw/Councilor_Content_All.aspx?s=2232&d=380722&n=%E5%BA%B7%E6%B0%B4%E6%9C%A8","note":"議會個人官網"}],"social_media":null,"platform":"","param":null,"councilor":"b7ed1df1ca5847969c003a3db0097b82"}],"uid":"b7ed1df1ca5847969c003a3db0097b82","name":"康水木","birth":"1938-07-22","former_names":"","identifiers":["康水木"]},{"url":"http://councils.g0v.tw/api/councilors/853/","each_terms":[{"url":"http://councils.g0v.tw/api/councilors_terms/1513/","election_year":"1951","name":"洪水塗","gender":"","party":"","title":"議員","constituency":3,"county":"新北市","district":"新莊鎮、泰山鄉、三重鎮、五股鄉、蘆洲鄉、林口鄉","in_office":true,"contact_details":null,"term_start":"1951-01-04","term_end":{"date":"1953-01-05"},"education":"臺北師範學校","experience":"國校校長\n新莊鎮民代表會主席\n縣教育會理事長\n臺北縣議會第1、3、4屆議員","remark":null,"image":"http://www.ntp.gov.tw/UpFile/CouncilorFile/TTCC0120.jpg","links":[{"url":"http://www.ntp.gov.tw/content/history/history01-5-p.aspx?sid=86","note":"議會個人官網"}],"social_media":null,"platform":"","param":null,"councilor":"20aef5fd72e547d19efc033c0a5300c7"},{"url":"http://councils.g0v.tw/api/councilors_terms/1635/","election_year":"1955","name":"洪水塗","gender":"","party":"","title":"議員","constituency":3,"county":"新北市","district":"新莊鎮、泰山鄉、三重鎮、五股鄉、蘆洲鄉、林口鄉","in_office":true,"contact_details":null,"term_start":"1955-01-16","term_end":{"date":"1958-02-20"},"education":"臺北師範學校","experience":"國校校長\n新莊鎮民代表會主席\n縣教育會理事長\n臺北縣議會第1、3、4屆議員","remark":null,"image":"http://www.ntp.gov.tw/UpFile/CouncilorFile/TTCC0120.jpg","links":[{"url":"http://www.ntp.gov.tw/content/history/history01-5-p.aspx?sid=86","note":"議會個人官網"}],"social_media":null,"platform":"","param":null,"councilor":"20aef5fd72e547d19efc033c0a5300c7"},{"url":"http://councils.g0v.tw/api/councilors_terms/1710/","election_year":"1958","name":"洪水塗","gender":"","party":"","title":"議員","constituency":3,"county":"新北市","district":"新莊鎮、泰山鄉、三重鎮、五股鄉、林口鄉、蘆洲鄉","in_office":true,"contact_details":null,"term_start":"1958-02-21","term_end":{"date":"1961-02-20"},"education":"臺北師範學校","experience":"國校校長\n新莊鎮民代表會主席\n縣教育會理事長\n臺北縣議會第1、3、4屆議員","remark":null,"image":"http://www.ntp.gov.tw/UpFile/CouncilorFile/TTCC0120.jpg","links":[{"url":"http://www.ntp.gov.tw/content/history/history01-5-p.aspx?sid=86","note":"議會個人官網"}],"social_media":null,"platform":"","param":null,"councilor":"20aef5fd72e547d19efc033c0a5300c7"}],"uid":"20aef5fd72e547d19efc033c0a5300c7","name":"洪水塗","birth":null,"former_names":"","identifiers":["洪水塗"]},{"url":"http://councils.g0v.tw/api/councilors/854/","each_terms":[{"url":"http://councils.g0v.tw/api/councilors_terms/1514/","election_year":"1951","name":"林炳燦","gender":"","party":"","title":"議員","constituency":3,"county":"新北市","district":"新莊鎮、泰山鄉、三重鎮、五股鄉、蘆洲鄉、林口鄉","in_office":true,"contact_details":null,"term_start":"1951-01-04","term_end":{"date":"1953-01-05"},"education":"三重埔公學校","experience":"大新鐵工廠監事\n東洋製紙顧問\n三重戲院總經理\n臺北縣議會第1屆議員","remark":null,"image":"http://www.ntp.gov.tw/UpFile/CouncilorFile/TTCC0119.jpg","links":[{"url":"http://www.ntp.gov.tw/content/history/history01-5-p.aspx?sid=85","note":"議會個人官網"}],"social_media":null,"platform":"","param":null,"councilor":"710791945ba344f49b1c897a5366e5c1"}],"uid":"710791945ba344f49b1c897a5366e5c1","name":"林炳燦","birth":null,"former_names":"","identifiers":["林炳燦","林炳燦"]},{"url":"http://councils.g0v.tw/api/councilors/857/","each_terms":[{"url":"http://councils.g0v.tw/api/councilors_terms/1518/","election_year":"1951","name":"蔡詩祥","gender":"","party":"","title":"議員","constituency":3,"county":"新北市","district":"新莊鎮、泰山鄉、三重鎮、五股鄉、蘆洲鄉、林口鄉","in_office":true,"contact_details":null,"term_start":"1951-01-04","term_end":{"date":"1953-01-05"},"education":"三重埔國校","experience":"永和木材公司總經理\n永祥行董事長\n三重証券\n國勝建設公司董事長\n臺北縣義消大隊三重分隊長\n臺北縣警察之友會三重辦事處主任\n臺北縣議會第1屆議員","remark":null,"image":"http://www.ntp.gov.tw/UpFile/CouncilorFile/TTCC0115.jpg","links":[{"url":"http://www.ntp.gov.tw/content/history/history01-5-p.aspx?sid=82","note":"議會個人官網"}],"social_media":null,"platform":"","param":null,"councilor":"0c7e15de8444448b912ee496ce02a9a5"}],"uid":"0c7e15de8444448b912ee496ce02a9a5","name":"蔡詩祥","birth":null,"former_names":"","identifiers":["蔡詩祥"]},{"url":"http://councils.g0v.tw/api/councilors/858/","each_terms":[{"url":"http://councils.g0v.tw/api/councilors_terms/1519/","election_year":"1951","name":"賴岩敦","gender":"","party":"","title":"議員","constituency":2,"county":"新北市","district":"三峽鎮、鶯歌鎮、樹林鎮","in_office":true,"contact_details":null,"term_start":"1951-01-04","term_end":{"date":"1953-01-05"},"education":"成淵高中畢業","experience":"鶯歌、樹林鎮民代表\n農事小組長\n臺北縣議會第1屆議員\n民國95年12月12日歿","remark":null,"image":"http://www.ntp.gov.tw/UpFile/CouncilorFile/TTCC0114.jpg","links":[{"url":"http://www.ntp.gov.tw/content/history/history01-5-p.aspx?sid=81","note":"議會個人官網"}],"social_media":null,"platform":"","param":null,"councilor":"593fc1c8f14248518e38454c1e09bd4f"}],"uid":"593fc1c8f14248518e38454c1e09bd4f","name":"賴岩敦","birth":null,"former_names":"","identifiers":["賴岩敦","頼岩敦"]},{"url":"http://councils.g0v.tw/api/councilors/859/","each_terms":[{"url":"http://councils.g0v.tw/api/councilors_terms/1520/","election_year":"1951","name":"葉雙麟","gender":"","party":"","title":"議員","constituency":2,"county":"新北市","district":"三峽鎮、鶯歌鎮、樹林鎮","in_office":true,"contact_details":null,"term_start":"1951-01-04","term_end":{"date":"1953-01-05"},"education":"私立工商學校","experience":"縣衛生院醫師\n臺北縣議會第1屆議員","remark":null,"image":"http://www.ntp.gov.tw/UpFile/CouncilorFile/TTCC0113.jpg","links":[{"url":"http://www.ntp.gov.tw/content/history/history01-5-p.aspx?sid=80","note":"議會個人官網"}],"social_media":null,"platform":"","param":null,"councilor":"ad5cba56acf34249ab77f91b196054fa"}],"uid":"ad5cba56acf34249ab77f91b196054fa","name":"葉雙麟","birth":null,"former_names":"","identifiers":["葉雙麟"]},{"url":"http://councils.g0v.tw/api/councilors/108/","each_terms":[{"url":"http://councils.g0v.tw/api/councilors_terms/278/","election_year":"1998","name":"秦儷舫","gender":"女","party":"中國國民黨","title":"議員","constituency":null,"county":"臺北市","district":"","in_office":true,"contact_details":null,"term_start":"1998-12-25","term_end":{"date":"2002-12-25"},"education":"國立成功大學電機工程系畢業。","experience":"臺北市直轄市議會第七屆議員。新黨全委會委員。新黨市議會黨團召集人。警察電臺節目主持人。飛碟電臺週末飛碟晚餐主持人。","remark":"","image":"http://www.tcc.gov.tw/../upload/photo/%E7%A7%A6%E5%84%B7%E8%88%AB16.jpg","links":[{"url":"http://www.tcc.gov.tw/Councilor_Content_All.aspx?s=1758&d=581110&n=%E7%A7%A6%E5%84%B7%E8%88%AB","note":"議會個人官網"}],"social_media":null,"platform":"","param":null,"councilor":"b42e7e088a6a4fd68f63dbd9e302acdf"},{"url":"http://councils.g0v.tw/api/councilors_terms/168/","election_year":"2006","name":"秦儷舫","gender":"女","party":"中國國民黨","title":"議員","constituency":null,"county":"臺北市","district":"","in_office":true,"contact_details":null,"term_start":"2006-12-25","term_end":{"date":"2010-12-25"},"education":"國立成功大學電機系畢業","experience":"警察廣播金鐘獎最佳主持人，飛碟電台DJ，台北市議會第七、八、九屆議員","remark":"","image":"http://www.tcc.gov.tw/../upload/photo/%E7%A7%A6%E5%84%B7%E8%88%AB17-.bmp","links":[{"url":"http://www.tcc.gov.tw/Councilor_Content_All.aspx?s=2300&d=581110&n=%E7%A7%A6%E5%84%B7%E8%88%AB","note":"議會個人官網"}],"social_media":null,"platform":"","param":null,"councilor":"b42e7e088a6a4fd68f63dbd9e302acdf"},{"url":"http://councils.g0v.tw/api/councilors_terms/112/","election_year":"2010","name":"秦儷舫","gender":"女","party":"中國國民黨","title":"議員","constituency":null,"county":"臺北市","district":"","in_office":false,"contact_details":null,"term_start":"2010-12-25","term_end":{"date":"2014-02-27","reason":"103年2月27日轉任臺北漁產運銷股份有限公司董事長"},"education":"國立成功大學電機系畢業","experience":"台北市議會第七、第八、第九、第十屆議員\r\n台北市議會國民黨團書記長\r\n台北市議會警政、交通、各委員會召集人\r\n警察廣播電台金鐘獎最佳主持人","remark":"103年2月27日轉任臺北漁產運銷股份有限公司董事長","image":"http://www.tcc.gov.tw/../upload/photo/%E7%A7%A6%E5%84%B7%E8%88%AB17-.bmp","links":[{"url":"http://www.tcc.gov.tw/Councilor_Content_All.aspx?s=1080&d=581110&n=%E7%A7%A6%E5%84%B7%E8%88%AB","note":"議會個人官網"}],"social_media":null,"platform":"","param":{"bills_role_statistics":{"total":79,"priproposer":1,"sponsor":79,"cosponsor":0},"votes_decision_statistics":{"abstain":1,"disagree":35,"not_voting":17,"total":57,"agree":4,"conflict":1},"diversity":{"臺灣團結聯盟":0.02106554941821146,"親民黨":0.023309071678801054,"無黨籍":0.017752970772774695,"中國國民黨":0.6034693498593086,"新黨":0.03098429948667366,"民主進步黨":0.30341875878423036},"suggestions_years":{"count":36,"sum":19666000,"years":[{"count":1,"sum":374000,"suggest_year":"2011","small_purchase":0},{"count":11,"sum":3050000,"suggest_year":"2012","small_purchase":4},{"count":16,"sum":10416000,"suggest_year":"2013","small_purchase":1},{"count":8,"sum":5826000,"suggest_year":"2014","small_purchase":1}]},"attendance_statistics":{"absent":2,"total":117},"suggestions_associations":[{"count":0,"sum":0,"label":"社區發展協會"},{"count":0,"sum":0,"label":"學會"},{"count":0,"sum":0,"label":"商會"},{"count":0,"sum":0,"label":"公會"},{"count":0,"sum":0,"label":"協進會"},{"count":0,"sum":0,"label":"促進會"},{"count":0,"sum":0,"label":"研習會"},{"count":0,"sum":0,"label":"婦聯會"},{"count":0,"sum":0,"label":"婦女會"},{"count":0,"sum":0,"label":"體育會"},{"count":0,"sum":0,"label":"同心會"},{"count":0,"sum":0,"label":"農會"},{"count":0,"sum":0,"label":"早起會"},{"count":0,"sum":0,"label":"健身會"},{"count":0,"sum":0,"label":"宗親會"},{"count":0,"sum":0,"label":"功德會"},{"count":0,"sum":0,"label":"商業會"},{"count":0,"sum":0,"label":"長青會"},{"count":0,"sum":0,"label":"民眾服務社"},{"count":0,"sum":0,"label":"聯盟"}],"bills_party_diversity":[{"party":"中國國民黨","ratio":0.5968992248062015},{"party":"民主進步黨","ratio":0.31053351573187415},{"party":"新黨","ratio":0.030551755585955312},{"party":"親民黨","ratio":0.023255813953488372},{"party":"無黨籍","ratio":0.02051983584131327},{"party":"臺灣團結聯盟","ratio":0.01823985408116735}],"suggestions_piles":[{"count":1,"tokens":"廟|宮","sum":1025000,"label":"廟"},{"count":0,"tokens":"協會|學會|商會|公會|協進會|促進會|研習會|婦聯會|婦女會|體育會|同心會|農會|早起會|健身會|宗親會|功德會|商業會|長青會|民眾服務社|聯盟","sum":0,"label":"協會"},{"count":0,"tokens":"辦公室|辦公處","sum":0,"label":"辦公室"},{"count":0,"tokens":"警察局|分局","sum":0,"label":"警察局"},{"count":0,"tokens":"消防局|消防隊|分隊|中隊","sum":0,"label":"消防局"},{"count":0,"tokens":"國中|國小","sum":0,"label":"國中、國小"}]},"councilor":"b42e7e088a6a4fd68f63dbd9e302acdf"},{"url":"http://councils.g0v.tw/api/councilors_terms/326/","election_year":"1994","name":"秦儷舫","gender":"女","party":"新黨","title":"議員","constituency":null,"county":"臺北市","district":"","in_office":true,"contact_details":null,"term_start":"1994-12-25","term_end":{"date":"1998-12-25"},"education":"國立成功大學電機系畢業。","experience":"警察廣播電台名節目主持人。","remark":"","image":"http://www.tcc.gov.tw/../upload/photo/%E7%A7%A6%E5%84%B7%E8%88%AB15.jpg","links":[{"url":"http://www.tcc.gov.tw/Councilor_Content_All.aspx?s=1695&d=581110&n=%E7%A7%A6%E5%84%B7%E8%88%AB","note":"議會個人官網"}],"social_media":null,"platform":"","param":null,"councilor":"b42e7e088a6a4fd68f63dbd9e302acdf"},{"url":"http://councils.g0v.tw/api/councilors_terms/221/","election_year":"2002","name":"秦儷舫","gender":"女","party":"中國國民黨","title":"議員","constituency":null,"county":"臺北市","district":"","in_office":false,"contact_details":null,"term_start":"2002-12-25","term_end":{"date":"2003-03-07","reason":"本屆以無黨籍身分參選，於次年92.03.07加入國民黨。"},"education":"國立成功大學電機系畢業。","experience":"臺北市直轄市議會第七、第八屆議員。清流文教協會理事長。警察電臺金鐘獎最佳主持人。飛碟電臺Ｄ．Ｊ。","remark":"本屆以無黨籍身分參選，於次年92.03.07加入國民黨。","image":"http://www.tcc.gov.tw/../upload/photo/%E7%AC%AC%E5%85%AB%E5%B1%86%E7%A7%A6%E5%84%B7%E8%88%AB016.jpg","links":[{"url":"http://www.tcc.gov.tw/Councilor_Content_All.aspx?s=1551&d=581110&n=%E7%A7%A6%E5%84%B7%E8%88%AB","note":"議會個人官網"}],"social_media":null,"platform":"","param":null,"councilor":"b42e7e088a6a4fd68f63dbd9e302acdf"}],"uid":"b42e7e088a6a4fd68f63dbd9e302acdf","name":"秦儷舫","birth":"1958-11-10","former_names":"","identifiers":["秦儷舫"]}]}