{"count":1904,"next":"http://councils.g0v.tw/api/councilors/?page=43","previous":"http://councils.g0v.tw/api/councilors/?page=41","results":[{"url":"http://councils.g0v.tw/api/councilors/1220/","each_terms":[{"url":"http://councils.g0v.tw/api/councilors_terms/2146/","election_year":"2009","name":"廖輝星","gender":"","party":"","title":"議員","constituency":1,"county":"桃園縣","district":"桃園市","in_office":true,"contact_details":[{"type":"email","value":"liao891.a68@msa.hinet.net","label":"EMAIL"},{"type":"email","value":"tycca101@tycc.gov.tw","label":"EMAIL"},{"type":"address","value":"桃園市春日路1057號","label":"服務處"},{"type":"voice","value":"357-1578","label":"電話"}],"term_start":"2009-12-25","term_end":{"date":"2014-12-25"},"education":"清雲科技大學工業管理系畢業\n開南科技大學公共事務管理學碩士","experience":"桃園縣議會第16屆議員\n桃園縣議會民進黨黨團第16屆幹事長、第17屆總召\n民進黨市黨部主任委員、民進黨縣黨部執評委\n民進黨第14、15屆全國黨代表\n虎頭山青春陽光隊顧問\n桃園青商會會長、陽光獅子會09~10會長\n信光里兩任里長、第8~9屆市民代表\n市農會代表、桃市早泳會創會長,1~2屆理事長\n桃園市張簡廖宗親會理事長、嘉義、台南同鄉會顧問\n北門國小、慈文國小、同德國中、文昌國中家長會副會長\n桃園縣雲林同鄉會復會發起人","remark":null,"image":"http://www.tycc.gov.tw/file%5Cperson%5Capp%5Ca634641661601001349%E5%BB%96%E8%BC%9D%E6%98%9F%E8%AD%B0%E5%93%A1.jpg","links":[{"url":"http://www.tycc.gov.tw/page.aspx?wtp=1&wnd=204&id=34","note":"議會個人官網"},{"url":"http://www.wretch.cc/blog/liao3571578","note":"部落格"},{"url":"http://www.facebook.com/?ref=logo#!/profile.php?id=100001994356561","note":"臉書"}],"social_media":null,"platform":"堅持理想　廉能問政\n一、全力爭取大廈、社區公設電費補助，均衡權力分配\n二、全力推動學校運動場開闢地下停車場、維護學童接送安全、夜間作為學校社區停車場，解決學校周邊交通打結問題\n三、綠化南崁溪，加蓋規劃長達十公里的市民腳踏車專用道。改善河川環境。創造人文經濟利用價值、提供市民舒適、優質、安全的戶外休閒運動空間","param":null,"councilor":"50332169c39942b7bd4f5e44ff1cb64e"}],"uid":"50332169c39942b7bd4f5e44ff1cb64e","name":"廖輝星","birth":null,"former_names":"","identifiers":["廖輝星"]},{"url":"http://councils.g0v.tw/api/councilors/1224/","each_terms":[{"url":"http://councils.g0v.tw/api/councilors_terms/2150/","election_year":"2009","name":"張文瑜","gender":"","party":"","title":"議員","constituency":3,"county":"桃園縣","district":"八德市","in_office":true,"contact_details":[{"type":"email","value":"tycca083@tycc.gov.tw","label":"EMAIL"},{"type":"address","value":"八德市桃德路153巷1號","label":"服務處"},{"type":"voice","value":"366-7438","label":"電話"},{"type":"fax","value":"367-3011","label":"傳真"}],"term_start":"2009-12-25","term_end":{"date":"2014-12-25"},"education":"開南大學公共事務管理學系畢業","experience":"桃園縣第16屆議員\n八德市市民代表\n民進黨桃園縣黨部評議委員\n民進黨桃園縣黨部執行委員\n真善美婦女舞蹈推廣協會理事長","remark":null,"image":"http://www.tycc.gov.tw/file%5Cperson%5Capp%5Ca634641659277377268%E5%BC%B5%E6%96%87%E7%91%9C%E8%AD%B0%E5%93%A1.jpg","links":[{"url":"http://www.tycc.gov.tw/page.aspx?wtp=1&wnd=204&id=50","note":"議會個人官網"},{"url":"http://tw.myblog.yahoo.com/jw!03I6NtGdHhJDfhotiW.qekd5","note":"部落格"},{"url":"http://www.facebook.com/profile.php?id=100002086591541","note":"臉書"}],"social_media":null,"platform":"1.爭取公立大學進駐，加速八德整體學育發展。\n2.加強義警、民防、巡守隊等之裝備，全力爭取福利。\n3.爭取預算，增設公立托兒所之班數。\n4.改善市民飲用水之品質，解決市內淹水問題。\n5.爭取運動公園、圖書館之興建及偏遠鄉鎮綜合醫院之進駐。\n6.監督縣政，濟弱扶貧，捍衛民意，打造清廉效率。","param":null,"councilor":"cdf5405b294041599fb683a1bc1defb8"}],"uid":"cdf5405b294041599fb683a1bc1defb8","name":"張文瑜","birth":null,"former_names":"","identifiers":["張文瑜"]},{"url":"http://councils.g0v.tw/api/councilors/1225/","each_terms":[{"url":"http://councils.g0v.tw/api/councilors_terms/2151/","election_year":"2009","name":"趙正宇","gender":"","party":"","title":"議員","constituency":3,"county":"桃園縣","district":"八德市","in_office":true,"contact_details":[{"type":"email","value":"tycca020@tycc.gov.tw","label":"EMAIL"},{"type":"address","value":"八德市永福西街38號","label":"服務處"},{"type":"voice","value":"366-1613","label":"電話"},{"type":"fax","value":"361-7569","label":"傳真"}],"term_start":"2009-12-25","term_end":{"date":"2014-12-25"},"education":"革命實踐研究所\n中興大學公共研究班\n銘傳大學公共事務學研究所碩士","experience":"桃園縣第15、16屆縣議員\n八德市公所秘書\n八德市民代表\n退伍軍人協會八德分會會長\n太極拳委員會八德分會主委\n八德市桌球委員會主委\n八德市音樂操健康會理事長\n八德市太極氣功發展協會會長\n中國國民黨十六、十七全黨代表\n黃園德區黨部主任\n八德市大成國小家長會會長","remark":null,"image":"http://www.tycc.gov.tw/file%5Cperson%5Capp%5Ca634641659480489625%E8%B6%99%E6%AD%A3%E5%AE%87%E8%AD%B0%E5%93%A1.jpg","links":[{"url":"http://www.tycc.gov.tw/page.aspx?wtp=1&wnd=204&id=49","note":"議會個人官網"},{"url":"http://www.wretch.cc/blog/Jhaojhengyu","note":"部落格"},{"url":"http://www.facebook.com/profile.php?id=100001662662964","note":"臉書"}],"social_media":null,"platform":"１.爭取台北捷運至八德。\n２.爭取桃園市國際路至八德市國際路之拓寬。\n３.爭取德至內壢之石門大圳水溝加蓋，縮短行車里程，紓解交通瓶頸。\n４.爭取八德市垃圾全面轉運至焚化場，封閉大安掩埋場興建環保公園。\n５.爭取分局警察、義警、義消、各巡守隊提昇裝備並改善治安。\n６.爭取八德市增設國小、國中、高中學校各一所，解決八德市學子就學的問題及市內老\n舊教室設備汰舊換新與整建。\n７.爭取各里里民活動中心之興建。\n８.爭取市內淹水道路及下水道系統整修與興建。\n９.爭取大湳水上樂園整修及綠化，創造當年繁榮景象，帶動地方繁榮。\n１０.爭取八德市社區公園之興建。\n１１.爭取八德地區老舊水管汰舊換新、改善水質。\n１２.爭取經費改善國宅修繕的問題。\n１３.爭取榮民、榮眷、農民應有的權利","param":null,"councilor":"eb78e413df0b4db591d56c9763508528"},{"url":"http://councils.g0v.tw/api/councilors_terms/11825/","election_year":"2014","name":"趙正宇","gender":"男","party":"無黨籍","title":null,"constituency":3,"county":"桃園市","district":"八德市","in_office":false,"contact_details":null,"term_start":"2014-12-25","term_end":{"date":"2016-01-31","judicial_links":"","reason":"請辭，就任立委","ref":"","replacement":""},"education":null,"experience":null,"remark":null,"image":"","links":null,"social_media":null,"platform":"","param":{"suggestions_years":{"count":13,"sum":7412500,"years":[{"count":12,"sum":7012500,"suggest_year":"2015","small_purchase":0},{"count":1,"sum":400000,"suggest_year":"2016","small_purchase":0}]},"bills_role_statistics":{"total":89,"priproposer":0,"sponsor":0,"cosponsor":89},"attendance_statistics":{"absent":8,"total":59},"suggestions_associations":[{"count":0,"sum":0,"label":"社區發展協會"},{"count":0,"sum":0,"label":"學會"},{"count":0,"sum":0,"label":"商會"},{"count":0,"sum":0,"label":"公會"},{"count":0,"sum":0,"label":"協進會"},{"count":0,"sum":0,"label":"促進會"},{"count":0,"sum":0,"label":"研習會"},{"count":0,"sum":0,"label":"婦聯會"},{"count":0,"sum":0,"label":"婦女會"},{"count":0,"sum":0,"label":"體育會"},{"count":0,"sum":0,"label":"同心會"},{"count":0,"sum":0,"label":"農會"},{"count":0,"sum":0,"label":"早起會"},{"count":0,"sum":0,"label":"健身會"},{"count":0,"sum":0,"label":"宗親會"},{"count":0,"sum":0,"label":"功德會"},{"count":0,"sum":0,"label":"商業會"},{"count":0,"sum":0,"label":"長青會"},{"count":0,"sum":0,"label":"民眾服務社"},{"count":0,"sum":0,"label":"聯盟"}],"bills_party_diversity":[{"party":"無黨團結聯盟","ratio":0.2880886426592798},{"party":"中國國民黨","ratio":0.2742382271468144},{"party":"無黨籍","ratio":0.24653739612188366},{"party":"民主進步黨","ratio":0.19113573407202217}],"suggestions_piles":[{"count":7,"tokens":"國中|國小","sum":5189000,"label":"國中、國小"},{"count":0,"tokens":"協會|學會|商會|公會|協進會|促進會|研習會|婦聯會|婦女會|體育會|同心會|農會|早起會|健身會|宗親會|功德會|商業會|長青會|民眾服務社|聯盟","sum":0,"label":"協會"},{"count":0,"tokens":"辦公室|辦公處","sum":0,"label":"辦公室"},{"count":0,"tokens":"廟|宮","sum":0,"label":"廟"},{"count":0,"tokens":"警察局|分局","sum":0,"label":"警察局"},{"count":0,"tokens":"消防局|消防隊|分隊|中隊","sum":0,"label":"消防局"}]},"councilor":"eb78e413df0b4db591d56c9763508528"}],"uid":"eb78e413df0b4db591d56c9763508528","name":"趙正宇","birth":null,"former_names":"","identifiers":["趙正宇"]},{"url":"http://councils.g0v.tw/api/councilors/509/","each_terms":[{"url":"http://councils.g0v.tw/api/councilors_terms/857/","election_year":"1968","name":"鄭逢時","gender":"","party":"","title":"議員","constituency":7,"county":"新北市","district":"瑞芳鎮、雙溪鄉、貢寮鄉、平溪鄉","in_office":true,"contact_details":null,"term_start":"1968-02-21","term_end":{"date":"1973-04-30"},"education":"雙溪國小畢\n雙溪初中畢業\n光隆商職畢業\n政治大學行政專科","experience":"國民大會代表\n國民大會主席團主席\n臺灣省議會議員\n臺北縣黨部委員\n團管區後備軍人發展委員\n輔導中心主任\n國際獅子會會長\n救國團臺北縣團委會主任委員\n臺北縣議會第7屆議員","remark":null,"image":"http://www.ntp.gov.tw/UpFile/CouncilorFile/TTCC0745.jpg","links":[{"url":"http://www.ntp.gov.tw/content/history/history01-5-p.aspx?sid=291","note":"議會個人官網"}],"social_media":null,"platform":"","param":null,"councilor":"1026ba5fcc884d13a2e4e10707a2b5bb"}],"uid":"1026ba5fcc884d13a2e4e10707a2b5bb","name":"鄭逢時","birth":null,"former_names":"","identifiers":["鄭逢時"]},{"url":"http://councils.g0v.tw/api/councilors/510/","each_terms":[{"url":"http://councils.g0v.tw/api/councilors_terms/859/","election_year":"1968","name":"白金泉","gender":"","party":"","title":"議員","constituency":5,"county":"新北市","district":"淡水鎮、八里鄉、三芝鄉、石門鄉","in_office":true,"contact_details":null,"term_start":"1968-02-21","term_end":{"date":"1973-04-30"},"education":"東亞商業學校","experience":"臺北縣議會第1、4、6、7屆議員\n臺北縣議會第3屆議長\n臺北縣議會第5屆副議長\n淡水鎮第2、3屆鎮民代表\n臺灣省臨時省議員第1屆議員\n臺灣省政府參議\n中國國民黨臺北縣委員會委員\n臺北縣體育會理事長\n永聯汽車貨運公司董事長\n臺北區菸酒配銷聯合會理事長\n淡水鎮農會理事長\n民國82年歿","remark":null,"image":"http://www.ntp.gov.tw/UpFile/CouncilorFile/TTCC0128.jpg","links":[{"url":"http://www.ntp.gov.tw/content/history/history01-5-p.aspx?sid=92","note":"議會個人官網"}],"social_media":null,"platform":"","param":null,"councilor":"2e1299e831404af987ce871186c79735"},{"url":"http://councils.g0v.tw/api/councilors_terms/1505/","election_year":"1951","name":"白金泉","gender":"","party":"","title":"議員","constituency":4,"county":"新北市","district":"淡水鎮、三芝鄉、石門鄉、八里鄉","in_office":true,"contact_details":null,"term_start":"1951-01-04","term_end":{"date":"1953-01-05"},"education":"東亞商業學校","experience":"臺北縣議會第1、4、6、7屆議員\n臺北縣議會第3屆議長\n臺北縣議會第5屆副議長\n淡水鎮第2、3屆鎮民代表\n臺灣省臨時省議員第1屆議員\n臺灣省政府參議\n中國國民黨臺北縣委員會委員\n臺北縣體育會理事長\n永聯汽車貨運公司董事長\n臺北區菸酒配銷聯合會理事長\n淡水鎮農會理事長\n民國82年歿","remark":null,"image":"http://www.ntp.gov.tw/UpFile/CouncilorFile/TTCC0128.jpg","links":[{"url":"http://www.ntp.gov.tw/content/history/history01-5-p.aspx?sid=92","note":"議會個人官網"}],"social_media":null,"platform":"","param":null,"councilor":"2e1299e831404af987ce871186c79735"},{"url":"http://councils.g0v.tw/api/councilors_terms/1631/","election_year":"1955","name":"白金泉","gender":"","party":"","title":"議員","constituency":4,"county":"新北市","district":"淡水鎮、三芝鄉、石門鄉、八里鄉","in_office":true,"contact_details":null,"term_start":"1955-01-16","term_end":{"date":"1958-02-20"},"education":"東亞商業學校","experience":"臺北縣議會第1、4、6、7屆議員\n臺北縣議會第3屆議長\n臺北縣議會第5屆副議長\n淡水鎮第2、3屆鎮民代表\n臺灣省臨時省議員第1屆議員\n臺灣省政府參議\n中國國民黨臺北縣委員會委員\n臺北縣體育會理事長\n永聯汽車貨運公司董事長\n臺北區菸酒配銷聯合會理事長\n淡水鎮農會理事長\n民國82年歿","remark":null,"image":"http://www.ntp.gov.tw/UpFile/CouncilorFile/TTCC0128.jpg","links":[{"url":"http://www.ntp.gov.tw/content/history/history01-5-p.aspx?sid=92","note":"議會個人官網"}],"social_media":null,"platform":"","param":null,"councilor":"2e1299e831404af987ce871186c79735"},{"url":"http://councils.g0v.tw/api/councilors_terms/1705/","election_year":"1958","name":"白金泉","gender":"","party":"","title":"議員","constituency":4,"county":"新北市","district":"淡水鎮、三芝鄉、石門鄉、八里鄉","in_office":true,"contact_details":null,"term_start":"1958-02-21","term_end":{"date":"1961-02-20"},"education":"東亞商業學校","experience":"臺北縣議會第1、4、6、7屆議員\n臺北縣議會第3屆議長\n臺北縣議會第5屆副議長\n淡水鎮第2、3屆鎮民代表\n臺灣省臨時省議員第1屆議員\n臺灣省政府參議\n中國國民黨臺北縣委員會委員\n臺北縣體育會理事長\n永聯汽車貨運公司董事長\n臺北區菸酒配銷聯合會理事長\n淡水鎮農會理事長\n民國82年歿","remark":null,"image":"http://www.ntp.gov.tw/UpFile/CouncilorFile/TTCC0128.jpg","links":[{"url":"http://www.ntp.gov.tw/content/history/history01-5-p.aspx?sid=92","note":"議會個人官網"}],"social_media":null,"platform":"","param":null,"councilor":"2e1299e831404af987ce871186c79735"},{"url":"http://councils.g0v.tw/api/councilors_terms/1772/","election_year":"1961","name":"白金泉","gender":"","party":"","title":"副議長","constituency":4,"county":"新北市","district":"淡水鎮、三芝鄉、石門鄉、八里鄉","in_office":true,"contact_details":null,"term_start":"1961-02-21","term_end":{"date":"1964-02-20"},"education":"東亞商業學校","experience":"臺北縣議會第1、4、6、7屆議員\n臺北縣議會第3屆議長\n臺北縣議會第5屆副議長\n淡水鎮第2、3屆鎮民代表\n臺灣省臨時省議員第1屆議員\n臺灣省政府參議\n中國國民黨臺北縣委員會委員\n臺北縣體育會理事長\n永聯汽車貨運公司董事長\n臺北區菸酒配銷聯合會理事長\n淡水鎮農會理事長\n民國82年歿","remark":null,"image":"http://www.ntp.gov.tw/UpFile/CouncilorFile/TTCC0128.jpg","links":[{"url":"http://www.ntp.gov.tw/content/history/history01-5-p.aspx?sid=92","note":"議會個人官網"}],"social_media":null,"platform":"","param":null,"councilor":"2e1299e831404af987ce871186c79735"},{"url":"http://councils.g0v.tw/api/councilors_terms/1834/","election_year":"1964","name":"白金泉","gender":"","party":"","title":"議員","constituency":5,"county":"新北市","district":"淡水鎮、八里鄉、三芝鄉、石門鄉","in_office":true,"contact_details":null,"term_start":"1964-02-21","term_end":{"date":"1968-02-20"},"education":"東亞商業學校","experience":"臺北縣議會第1、4、6、7屆議員\n臺北縣議會第3屆議長\n臺北縣議會第5屆副議長\n淡水鎮第2、3屆鎮民代表\n臺灣省臨時省議員第1屆議員\n臺灣省政府參議\n中國國民黨臺北縣委員會委員\n臺北縣體育會理事長\n永聯汽車貨運公司董事長\n臺北區菸酒配銷聯合會理事長\n淡水鎮農會理事長\n民國82年歿","remark":null,"image":"http://www.ntp.gov.tw/UpFile/CouncilorFile/TTCC0128.jpg","links":[{"url":"http://www.ntp.gov.tw/content/history/history01-5-p.aspx?sid=92","note":"議會個人官網"}],"social_media":null,"platform":"","param":null,"councilor":"2e1299e831404af987ce871186c79735"}],"uid":"2e1299e831404af987ce871186c79735","name":"白金泉","birth":null,"former_names":"","identifiers":["白金泉"]},{"url":"http://councils.g0v.tw/api/councilors/511/","each_terms":[{"url":"http://councils.g0v.tw/api/councilors_terms/860/","election_year":"1968","name":"黃財","gender":"","party":"","title":"議員","constituency":7,"county":"新北市","district":"瑞芳鎮、雙溪鄉、貢寮鄉、平溪鄉","in_office":true,"contact_details":null,"term_start":"1968-02-21","term_end":{"date":"1973-04-30"},"education":"日本東京興亞醫專畢業\n臺灣省訓練團醫藥班第１期結業\n國防部衛勤講習班結業","experience":"省立臺北醫院醫師\n陸軍臨時醫院軍醫中尉\n臺北縣瑞芳鎮衛生所主任兼醫師\n私立成蹊醫院院長\n瑞芳鎮民代表、\n瑞芳義勇消防隊長\n臺北縣議會第5、7屆議員\n民國97年6月28日歿","remark":null,"image":"http://www.ntp.gov.tw/UpFile/CouncilorFile/TTCC0549.jpg","links":[{"url":"http://www.ntp.gov.tw/content/history/history01-5-p.aspx?sid=242","note":"議會個人官網"}],"social_media":null,"platform":"","param":null,"councilor":"2d997650967b40cca6bf6bf4ccc154e5"},{"url":"http://councils.g0v.tw/api/councilors_terms/1754/","election_year":"1961","name":"黃財","gender":"","party":"","title":"議員","constituency":7,"county":"新北市","district":"瑞芳鎮、貢寮鄉、雙溪鄉、平溪鄉","in_office":true,"contact_details":null,"term_start":"1961-02-21","term_end":{"date":"1964-02-20"},"education":"日本東京興亞醫專畢業\n臺灣省訓練團醫藥班第１期結業\n國防部衛勤講習班結業","experience":"省立臺北醫院醫師\n陸軍臨時醫院軍醫中尉\n臺北縣瑞芳鎮衛生所主任兼醫師\n私立成蹊醫院院長\n瑞芳鎮民代表、\n瑞芳義勇消防隊長\n臺北縣議會第5、7屆議員\n民國97年6月28日歿","remark":null,"image":"http://www.ntp.gov.tw/UpFile/CouncilorFile/TTCC0549.jpg","links":[{"url":"http://www.ntp.gov.tw/content/history/history01-5-p.aspx?sid=242","note":"議會個人官網"}],"social_media":null,"platform":"","param":null,"councilor":"2d997650967b40cca6bf6bf4ccc154e5"}],"uid":"2d997650967b40cca6bf6bf4ccc154e5","name":"黃財","birth":null,"former_names":"","identifiers":["黃財","黄財"]},{"url":"http://councils.g0v.tw/api/councilors/512/","each_terms":[{"url":"http://councils.g0v.tw/api/councilors_terms/861/","election_year":"1968","name":"簡震裕","gender":"","party":"","title":"議員","constituency":5,"county":"新北市","district":"淡水鎮、八里鄉、三芝鄉、石門鄉","in_office":true,"contact_details":null,"term_start":"1968-02-21","term_end":{"date":"1973-04-30"},"education":"三芝國民學校高等科\n革命實踐研究院結業\n日本航空機材科肄業","experience":"臺北縣議會第4、5、6、7屆議員\n*民國70年3月4日歿","remark":null,"image":"http://www.ntp.gov.tw/UpFile/CouncilorFile/TTCC0438.jpg","links":[{"url":"http://www.ntp.gov.tw/content/history/history01-5-p.aspx?sid=206","note":"議會個人官網"}],"social_media":null,"platform":"","param":null,"councilor":"e47fa1a9e64241bdbb7d200af335d3ce"},{"url":"http://councils.g0v.tw/api/councilors_terms/1704/","election_year":"1958","name":"簡震裕","gender":"","party":"","title":"議員","constituency":4,"county":"新北市","district":"淡水鎮、三芝鄉、石門鄉、八里鄉","in_office":true,"contact_details":null,"term_start":"1958-02-21","term_end":{"date":"1961-02-20"},"education":"三芝國民學校高等科\n革命實踐研究院結業\n日本航空機材科肄業","experience":"臺北縣議會第4、5、6、7屆議員\n*民國70年3月4日歿","remark":null,"image":"http://www.ntp.gov.tw/UpFile/CouncilorFile/TTCC0438.jpg","links":[{"url":"http://www.ntp.gov.tw/content/history/history01-5-p.aspx?sid=206","note":"議會個人官網"}],"social_media":null,"platform":"","param":null,"councilor":"e47fa1a9e64241bdbb7d200af335d3ce"},{"url":"http://councils.g0v.tw/api/councilors_terms/1775/","election_year":"1961","name":"簡震裕","gender":"","party":"","title":"議員","constituency":4,"county":"新北市","district":"淡水鎮、三芝鄉、石門鄉、八里鄉","in_office":true,"contact_details":null,"term_start":"1961-02-21","term_end":{"date":"1964-02-20"},"education":"三芝國民學校高等科\n革命實踐研究院結業\n日本航空機材科肄業","experience":"臺北縣議會第4、5、6、7屆議員\n*民國70年3月4日歿","remark":null,"image":"http://www.ntp.gov.tw/UpFile/CouncilorFile/TTCC0438.jpg","links":[{"url":"http://www.ntp.gov.tw/content/history/history01-5-p.aspx?sid=206","note":"議會個人官網"}],"social_media":null,"platform":"","param":null,"councilor":"e47fa1a9e64241bdbb7d200af335d3ce"},{"url":"http://councils.g0v.tw/api/councilors_terms/1835/","election_year":"1964","name":"簡震裕","gender":"","party":"","title":"議員","constituency":5,"county":"新北市","district":"淡水鎮、八里鄉、三芝鄉、石門鄉","in_office":true,"contact_details":null,"term_start":"1964-02-21","term_end":{"date":"1968-02-20"},"education":"三芝國民學校高等科\n革命實踐研究院結業\n日本航空機材科肄業","experience":"臺北縣議會第4、5、6、7屆議員\n*民國70年3月4日歿","remark":null,"image":"http://www.ntp.gov.tw/UpFile/CouncilorFile/TTCC0438.jpg","links":[{"url":"http://www.ntp.gov.tw/content/history/history01-5-p.aspx?sid=206","note":"議會個人官網"}],"social_media":null,"platform":"","param":null,"councilor":"e47fa1a9e64241bdbb7d200af335d3ce"}],"uid":"e47fa1a9e64241bdbb7d200af335d3ce","name":"簡震裕","birth":null,"former_names":"","identifiers":["簡震裕"]},{"url":"http://councils.g0v.tw/api/councilors/1593/","each_terms":[],"uid":"0df284b600af4e83971b3aaebf80cc9e","name":"韓茂賢","birth":null,"former_names":"","identifiers":["韓茂賢"]},{"url":"http://councils.g0v.tw/api/councilors/701/","each_terms":[{"url":"http://councils.g0v.tw/api/councilors_terms/1264/","election_year":"1998","name":"劉姿鴻","gender":"","party":"","title":"議員","constituency":1,"county":"新北市","district":"板橋市","in_office":true,"contact_details":null,"term_start":"1998-03-01","term_end":{"date":"2002-02-28"},"education":"板橋國小\n光仁中學\n醒吾商業專科學校國貿科\n美國加州州立大學薩加緬度分校會計學士\n美國加州州立大學洛杉磯分校會計碩士","experience":"臺北縣議會第14屆議員\n美國加州州立大學洛杉磯分校會計系助教\n美商摩托羅拉財務部","remark":null,"image":"http://www.ntp.gov.tw/UpFile/CouncilorFile/TTCC1408.jpg","links":[{"url":"http://www.ntp.gov.tw/content/history/history01-5-p.aspx?sid=476","note":"議會個人官網"}],"social_media":null,"platform":"","param":null,"councilor":"e0f75f5e069b4702969116c95c3c9b72"}],"uid":"e0f75f5e069b4702969116c95c3c9b72","name":"劉姿鴻","birth":null,"former_names":"","identifiers":["劉姿鴻","劉姿鴻"]},{"url":"http://councils.g0v.tw/api/councilors/703/","each_terms":[{"url":"http://councils.g0v.tw/api/councilors_terms/1266/","election_year":"1998","name":"朱佩瑛","gender":"","party":"","title":"議員","constituency":2,"county":"新北市","district":"中和市","in_office":true,"contact_details":null,"term_start":"1998-03-01","term_end":{"date":"2002-02-28"},"education":"師範大學心理輔導研究所\n師範大學國文系\n景美女高\n崇光女中\n基隆中興小學","experience":"臺北縣議會第14、15屆議員\n醒吾高中輔導主任\n醒吾技術學院講師\n親民黨中和婦女會會長\n親黨歸僑服務處召集\n宋友會分會長\n中原客屬協會榮譽會長\n中和市客族會榮譽理事長","remark":null,"image":"http://www.ntp.gov.tw/UpFile/CouncilorFile/TTCC1413.jpg","links":[{"url":"http://www.ntp.gov.tw/content/history/history01-5-p.aspx?sid=479","note":"議會個人官網"}],"social_media":null,"platform":"","param":null,"councilor":"4bf71d647baf406898d028fe4dd22a79"},{"url":"http://councils.g0v.tw/api/councilors_terms/1331/","election_year":"2002","name":"朱佩瑛","gender":"","party":"","title":"議員","constituency":2,"county":"新北市","district":"中和市","in_office":true,"contact_details":null,"term_start":"2002-03-01","term_end":{"date":"2006-02-28"},"education":"師範大學心理輔導研究所\n師範大學國文系\n景美女高\n崇光女中\n基隆中興小學","experience":"臺北縣議會第14、15屆議員\n醒吾高中輔導主任\n醒吾技術學院講師\n親民黨中和婦女會會長\n親黨歸僑服務處召集\n宋友會分會長\n中原客屬協會榮譽會長\n中和市客族會榮譽理事長","remark":null,"image":"http://www.ntp.gov.tw/UpFile/CouncilorFile/TTCC1413.jpg","links":[{"url":"http://www.ntp.gov.tw/content/history/history01-5-p.aspx?sid=479","note":"議會個人官網"}],"social_media":null,"platform":"","param":null,"councilor":"4bf71d647baf406898d028fe4dd22a79"}],"uid":"4bf71d647baf406898d028fe4dd22a79","name":"朱佩瑛","birth":null,"former_names":"","identifiers":["朱佩瑛"]}]}