{"count":1904,"next":"http://councils.g0v.tw/api/councilors/?page=44","previous":"http://councils.g0v.tw/api/councilors/?page=42","results":[{"url":"http://councils.g0v.tw/api/councilors/704/","each_terms":[{"url":"http://councils.g0v.tw/api/councilors_terms/1271/","election_year":"1998","name":"王淑惠","gender":"","party":"","title":"議員","constituency":1,"county":"新北市","district":"板橋市","in_office":true,"contact_details":null,"term_start":"1998-03-01","term_end":{"date":"2002-02-28"},"education":"省立蘭陽女子初中、高中畢業\n銘傳女子商業專科學校畢業","experience":"板橋市市民代表\n台北縣議員(14、15、16三屆)\n新埔，海山，中山國中補校教師\n台北縣議會教育總召集人\n政治大學公共行政研究所結業\n中興大學公共行政研究所結業","remark":null,"image":"http://www.ntp.gov.tw/UpFile/CouncilorFile/TTCC1501.jpg","links":[{"url":"http://www.ntp.gov.tw/content/history/history01-5-p.aspx?sid=502","note":"議會個人官網"}],"social_media":null,"platform":"","param":null,"councilor":"cdd16bc103cc44cda30cabcff709206a"},{"url":"http://councils.g0v.tw/api/councilors_terms/1341/","election_year":"2002","name":"王淑惠","gender":"","party":"","title":"議員","constituency":1,"county":"新北市","district":"板橋市","in_office":true,"contact_details":null,"term_start":"2002-03-01","term_end":{"date":"2006-02-28"},"education":"省立蘭陽女子初中、高中畢業\n銘傳女子商業專科學校畢業","experience":"板橋市市民代表\n台北縣議員(14、15、16三屆)\n新埔，海山，中山國中補校教師\n台北縣議會教育總召集人\n政治大學公共行政研究所結業\n中興大學公共行政研究所結業","remark":null,"image":"http://www.ntp.gov.tw/UpFile/CouncilorFile/TTCC1501.jpg","links":[{"url":"http://www.ntp.gov.tw/content/history/history01-5-p.aspx?sid=502","note":"議會個人官網"}],"social_media":null,"platform":"","param":null,"councilor":"cdd16bc103cc44cda30cabcff709206a"},{"url":"http://councils.g0v.tw/api/councilors_terms/1400/","election_year":"2006","name":"王淑惠","gender":"","party":"","title":"議員","constituency":1,"county":"新北市","district":"板橋市","in_office":true,"contact_details":null,"term_start":"2006-03-01","term_end":{"date":"2010-12-24"},"education":"省立蘭陽女子初中、高中畢業\n銘傳女子商業專科學校畢業","experience":"板橋市市民代表\n台北縣議員(14、15、16三屆)\n新埔，海山，中山國中補校教師\n台北縣議會教育總召集人\n政治大學公共行政研究所結業\n中興大學公共行政研究所結業","remark":null,"image":"http://www.ntp.gov.tw/UpFile/CouncilorFile/TTCC1501.jpg","links":[{"url":"http://www.ntp.gov.tw/content/history/history01-5-p.aspx?sid=502","note":"議會個人官網"}],"social_media":null,"platform":"","param":null,"councilor":"cdd16bc103cc44cda30cabcff709206a"}],"uid":"cdd16bc103cc44cda30cabcff709206a","name":"王淑惠","birth":null,"former_names":"","identifiers":["王淑惠"]},{"url":"http://councils.g0v.tw/api/councilors/705/","each_terms":[{"url":"http://councils.g0v.tw/api/councilors_terms/1272/","election_year":"1998","name":"簡文劉","gender":"","party":"","title":"議員","constituency":2,"county":"新北市","district":"中和市","in_office":true,"contact_details":null,"term_start":"1998-03-01","term_end":{"date":"2002-02-28"},"education":"建國中學初中部育達商職高職部畢業。","experience":"臺北縣議會第16屆縣議員\n第14 15 16屆台北縣議員國民黨議會書記長。\n中和市第四五屆市民代表兵役協會主委調解會委員。\n中和青商會會長和東社區發展協會理事長。\n青商總會參議員講師。\n台北縣慈善會生命線水上救生隊顧問。\n淡江大學公共關係革命實踐研究院軍管區後幹班結業。","remark":null,"image":"http://www.ntp.gov.tw/UpFile/CouncilorFile/TTCC1414.jpg","links":[{"url":"http://www.ntp.gov.tw/content/history/history01-5-p.aspx?sid=480","note":"議會個人官網"}],"social_media":null,"platform":"","param":null,"councilor":"0c1bb8215fe6472dbef9df0c76a37b6a"},{"url":"http://councils.g0v.tw/api/councilors_terms/1328/","election_year":"2002","name":"簡文劉","gender":"","party":"","title":"議員","constituency":2,"county":"新北市","district":"中和市","in_office":true,"contact_details":null,"term_start":"2002-03-01","term_end":{"date":"2006-02-28"},"education":"建國中學初中部育達商職高職部畢業。","experience":"臺北縣議會第16屆縣議員\n第14 15 16屆台北縣議員國民黨議會書記長。\n中和市第四五屆市民代表兵役協會主委調解會委員。\n中和青商會會長和東社區發展協會理事長。\n青商總會參議員講師。\n台北縣慈善會生命線水上救生隊顧問。\n淡江大學公共關係革命實踐研究院軍管區後幹班結業。","remark":null,"image":"http://www.ntp.gov.tw/UpFile/CouncilorFile/TTCC1414.jpg","links":[{"url":"http://www.ntp.gov.tw/content/history/history01-5-p.aspx?sid=480","note":"議會個人官網"}],"social_media":null,"platform":"","param":null,"councilor":"0c1bb8215fe6472dbef9df0c76a37b6a"},{"url":"http://councils.g0v.tw/api/councilors_terms/1394/","election_year":"2006","name":"簡文劉","gender":"","party":"","title":"議員","constituency":2,"county":"新北市","district":"中和市","in_office":true,"contact_details":null,"term_start":"2006-03-01","term_end":{"date":"2010-12-24"},"education":"建國中學初中部育達商職高職部畢業。","experience":"臺北縣議會第16屆縣議員\n第14 15 16屆台北縣議員國民黨議會書記長。\n中和市第四五屆市民代表兵役協會主委調解會委員。\n中和青商會會長和東社區發展協會理事長。\n青商總會參議員講師。\n台北縣慈善會生命線水上救生隊顧問。\n淡江大學公共關係革命實踐研究院軍管區後幹班結業。","remark":null,"image":"http://www.ntp.gov.tw/UpFile/CouncilorFile/TTCC1414.jpg","links":[{"url":"http://www.ntp.gov.tw/content/history/history01-5-p.aspx?sid=480","note":"議會個人官網"}],"social_media":null,"platform":"","param":null,"councilor":"0c1bb8215fe6472dbef9df0c76a37b6a"}],"uid":"0c1bb8215fe6472dbef9df0c76a37b6a","name":"簡文劉","birth":null,"former_names":"","identifiers":["簡文劉","簡文劉"]},{"url":"http://councils.g0v.tw/api/councilors/1572/","each_terms":[],"uid":"72747c7432a841e5812e0b0e2bfde738","name":"鍾福貴","birth":null,"former_names":"","identifiers":["鍾福貴","鍾褔貴"]},{"url":"http://councils.g0v.tw/api/councilors/1140/","each_terms":[{"url":"http://councils.g0v.tw/api/councilors_terms/2066/","election_year":"2009","name":"黃千宴","gender":"女","party":"","title":"議員","constituency":1,"county":"彰化縣","district":"彰化市、花壇鄉、芬園鄉","in_office":true,"contact_details":[{"type":"phone","value":"04-7228658","label":"電話"},{"type":"fax","value":"","label":"傳真"},{"type":"email","value":"party8658@gmail.com","label":"電子信箱"},{"type":"address","value":"彰化縣彰化市中山路2段629號","label":"通訊處"}],"term_start":"2009-12-25","term_end":{"date":"2014-12-25"},"education":"中山國小\n陽明國中\n台南市應用科技大學畢業\n彰師大技職行管碩士","experience":"縣議員黃俊雄助理\n彰化市第15、16屆市民代表\n平和國小81-83年舞蹈班老師\n新港、大同、泰和、國聖、中山、南興、東芳、文祥、僑愛等國小大會舞老師\n彰化縣議會第17屆議員\n忠孝國小特教班舞蹈老師\n民生警友站顧問\n台南市應用科技大學彰化縣友會理事長","remark":null,"image":"http://www.chcc.gov.tw/UpFile/CouncilorPhoto/N20115317746.jpg","links":[{"url":"http://www.chcc.gov.tw/content/list/list01_01.aspx?sid=10","note":"議會個人官網"}],"social_media":null,"platform":"關心勞工，照顧弱勢\n竭盡所能，為民服務\n溝通協調，為民謀福\n善盡職責，監督縣政\n推廣舞蹈，人文藝術\n改善交通，人車方便\n用心督促，環境改善","param":{"bills_role_statistics":{"total":35,"priproposer":0,"sponsor":0,"cosponsor":35},"diversity":{"":1.0},"bills_party_diversity":[{"party":"","ratio":1.0}]},"councilor":"0c44d4a1400b41e7a49d0d241b9160fc"}],"uid":"0c44d4a1400b41e7a49d0d241b9160fc","name":"黃千宴","birth":"1972-12-26","former_names":"","identifiers":["黃千宴","黄千宴"]},{"url":"http://councils.g0v.tw/api/councilors/866/","each_terms":[{"url":"http://councils.g0v.tw/api/councilors_terms/1528/","election_year":"1951","name":"葉辛金","gender":"","party":"","title":"議員","constituency":1,"county":"新北市","district":"板橋鎮、中和鄉包括今永和地區、土城鄉","in_office":true,"contact_details":null,"term_start":"1951-01-04","term_end":{"date":"1953-01-05"},"education":"國民學校畢業","experience":"臺北縣議會第1屆議員\n鎮民代表\n省公賣局製樽部包辦","remark":null,"image":"http://www.ntp.gov.tw/UpFile/CouncilorFile/TTCC0105.jpg","links":[{"url":"http://www.ntp.gov.tw/content/history/history01-5-p.aspx?sid=72","note":"議會個人官網"}],"social_media":null,"platform":"","param":null,"councilor":"06aaa9b4e2934a17ac9d4b6159e1bc3f"}],"uid":"06aaa9b4e2934a17ac9d4b6159e1bc3f","name":"葉辛金","birth":null,"former_names":"","identifiers":["葉辛金"]},{"url":"http://councils.g0v.tw/api/councilors/867/","each_terms":[{"url":"http://councils.g0v.tw/api/councilors_terms/1533/","election_year":"1953","name":"陳天佑","gender":"","party":"","title":"議員","constituency":9,"county":"新北市","district":"新店鎮、景美鎮、木柵鄉、深坑鄉、石碇鄉、坪林鄉","in_office":true,"contact_details":null,"term_start":"1953-01-16","term_end":{"date":"1955-01-15"},"education":"福建學院","experience":"惠安縣參議員\n臺北市長春貿易行經理\n臺北縣議會第2、3屆議員","remark":null,"image":"http://www.ntp.gov.tw/UpFile/CouncilorFile/TTCC0261.jpg","links":[{"url":"http://www.ntp.gov.tw/content/history/history01-5-p.aspx?sid=153","note":"議會個人官網"}],"social_media":null,"platform":"","param":null,"councilor":"a18cb6a990a445df85e5643ad904292e"},{"url":"http://councils.g0v.tw/api/councilors_terms/1601/","election_year":"1955","name":"陳天佑","gender":"","party":"","title":"議員","constituency":9,"county":"新北市","district":"新店鎮、景美鎮、木柵鄉、深坑鄉、石碇鄉、坪林鄉","in_office":true,"contact_details":null,"term_start":"1955-01-16","term_end":{"date":"1958-02-20"},"education":"福建學院","experience":"惠安縣參議員\n臺北市長春貿易行經理\n臺北縣議會第2、3屆議員","remark":null,"image":"http://www.ntp.gov.tw/UpFile/CouncilorFile/TTCC0261.jpg","links":[{"url":"http://www.ntp.gov.tw/content/history/history01-5-p.aspx?sid=153","note":"議會個人官網"}],"social_media":null,"platform":"","param":null,"councilor":"a18cb6a990a445df85e5643ad904292e"}],"uid":"a18cb6a990a445df85e5643ad904292e","name":"陳天佑","birth":null,"former_names":"","identifiers":["陳天佑"]},{"url":"http://councils.g0v.tw/api/councilors/183/","each_terms":[{"url":"http://councils.g0v.tw/api/councilors_terms/311/","election_year":"1994","name":"賁馨儀","gender":"女","party":"民主進步黨","title":"議員","constituency":null,"county":"臺北市","district":"","in_office":true,"contact_details":null,"term_start":"1994-12-25","term_end":{"date":"1998-12-25"},"education":"苑裡中正國小畢業、臺北第二女子中學畢業、臺灣大學社會系畢業","experience":"光仁小學教師，八十年代、深耕、自由時代等雜誌社編輯，黨外編輯作家聯誼誼會總幹事，謝長廷政治助理，臺灣新文化及臺灣文藝雜誌社社務委員，蕃薯文化文教基金會創辦人，噴射機民主有線電視台創辦人，臺北市直轄市議會第六屆議員。","remark":"","image":"http://www.tcc.gov.tw/../upload/photo/%E8%B3%81%E9%A6%A8%E5%84%8015.jpg","links":[{"url":"http://www.tcc.gov.tw/Councilor_Content_All.aspx?s=1727&d=450421&n=%E8%B3%81%E9%A6%A8%E5%84%80","note":"議會個人官網"}],"social_media":null,"platform":"","param":null,"councilor":"2d8b19ad6a9e41bdb9d3995638c04aef"},{"url":"http://councils.g0v.tw/api/councilors_terms/363/","election_year":"1989","name":"賁馨儀","gender":"女","party":"民主進步黨","title":"議員","constituency":null,"county":"臺北市","district":"","in_office":true,"contact_details":null,"term_start":"1989-12-25","term_end":{"date":"1994-12-25"},"education":"苑裡中正國小、省立臺北第二女中、臺灣大學社會系畢","experience":"八十年代、深耕、生根、時代系列雜誌社編輯、『臺語訓練』及『新文化教室』、『蕃薯文化文雜誌』創辦人。","remark":"","image":"http://www.tcc.gov.tw/../upload/photo/%E8%B3%81%E9%A6%A8%E5%84%8014.jpg","links":[{"url":"http://www.tcc.gov.tw/Councilor_Content_All.aspx?s=1550&d=450421&n=%E8%B3%81%E9%A6%A8%E5%84%80","note":"議會個人官網"}],"social_media":null,"platform":"","param":null,"councilor":"2d8b19ad6a9e41bdb9d3995638c04aef"}],"uid":"2d8b19ad6a9e41bdb9d3995638c04aef","name":"賁馨儀","birth":"1945-04-21","former_names":"","identifiers":["賁馨儀"]},{"url":"http://councils.g0v.tw/api/councilors/184/","each_terms":[{"url":"http://councils.g0v.tw/api/councilors_terms/313/","election_year":"1994","name":"陳學聖","gender":"男","party":"中國國民黨","title":"議員","constituency":null,"county":"臺北市","district":"","in_office":false,"contact_details":null,"term_start":"1994-12-25","term_end":{"date":"1999-01-31","reason":"88年1月31日當選第4屆立法委員。"},"education":"靜心小學、中學、建國中學、臺大政治系、臺大行政與領導專題研究、革命實踐研究院結訓。","experience":"全國優秀青年，建中班聯會主席，臺大法代會主席，中華民國交通記者聯誼會會長，臺北市政府新聞金橋獎得主，中華日報記者，中國時報記者、副主任、撰述委員，中廣、華視節目主持人，真相新聞網節目主持人，國民黨臺北市議會黨團副書記長，臺北市直轄市議會第六屆議員。","remark":"88年1月31日當選第4屆立法委員。","image":"http://www.tcc.gov.tw/../upload/photo/%E9%99%B3%E5%AD%B8%E8%81%9615.jpg","links":[{"url":"http://www.tcc.gov.tw/Councilor_Content_All.aspx?s=1726&d=570928&n=%E9%99%B3%E5%AD%B8%E8%81%96","note":"議會個人官網"}],"social_media":null,"platform":"","param":null,"councilor":"14187ad7082849a9944d0ef215033fdf"},{"url":"http://councils.g0v.tw/api/councilors_terms/364/","election_year":"1989","name":"陳學聖","gender":"男","party":"中國國民黨","title":"議員","constituency":null,"county":"臺北市","district":"","in_office":true,"contact_details":null,"term_start":"1989-12-25","term_end":{"date":"1994-12-25"},"education":"靜心中學、小學、幼稚園、建國中學、臺灣大學政治系(刪除、臺大行政與領導專題研究、革命實踐研究院結訓)。","experience":"中國時報撰述委員、中廣、華視節目主持人、中華民國交通記者聯誼會會長、中國時報記者。","remark":"","image":"http://www.tcc.gov.tw/../upload/photo/%E9%99%B3%E5%AD%B8%E8%81%9614.jpg","links":[{"url":"http://www.tcc.gov.tw/Councilor_Content_All.aspx?s=1387&d=570928&n=%E9%99%B3%E5%AD%B8%E8%81%96","note":"議會個人官網"}],"social_media":null,"platform":"","param":null,"councilor":"14187ad7082849a9944d0ef215033fdf"}],"uid":"14187ad7082849a9944d0ef215033fdf","name":"陳學聖","birth":"1957-09-28","former_names":"","identifiers":["陳學聖"]},{"url":"http://councils.g0v.tw/api/councilors/222/","each_terms":[{"url":"http://councils.g0v.tw/api/councilors_terms/404/","election_year":"1985","name":"鄭興成","gender":"男","party":"民主進步黨","title":"議員","constituency":null,"county":"臺北市","district":"","in_office":true,"contact_details":null,"term_start":"1985-12-25","term_end":{"date":"1989-12-25"},"education":"東園國校畢業、大同初級中學畢業、省立成功高級中學畢業。","experience":"東園國小、萬華國中、華江女子國中家長會會長、中國佛教會臺北市分會理事、財團法人廣照宮董事會董事長、臺北市西藥商業同業公會顧問、臺北市直轄市議會第二、三、四屆議員。","remark":"","image":"http://www.tcc.gov.tw/../upload/photo/%E9%84%AD%E8%88%88%E6%88%9013.jpg","links":[{"url":"http://www.tcc.gov.tw/Councilor_Content_All.aspx?s=1930&d=370408&n=%E9%84%AD%E8%88%88%E6%88%90","note":"議會個人官網"}],"social_media":null,"platform":"","param":null,"councilor":"93e1afd813cc4735b0f54abe4a2fdb99"},{"url":"http://councils.g0v.tw/api/councilors_terms/452/","election_year":"1981","name":"鄭興成","gender":"男","party":"無黨籍","title":"議員","constituency":null,"county":"臺北市","district":"","in_office":true,"contact_details":null,"term_start":"1981-12-25","term_end":{"date":"1985-12-25"},"education":"東園國校畢業、大同初級中學畢業、省立成功高中畢業。","experience":"臺北市直轄市議會第二、三屆議員、東園國小、萬華國中家長會會長、廣照宮、私立愛愛院董事、臺北市義警大隊大隊附、臺北市南區棒球聯盟會理事長、臺北市雙園區體育會常務理事。","remark":"","image":"http://www.tcc.gov.tw/../upload/photo/%E9%84%AD%E8%88%88%E6%88%9012.jpg","links":[{"url":"http://www.tcc.gov.tw/Councilor_Content_All.aspx?s=1957&d=370408&n=%E9%84%AD%E8%88%88%E6%88%90","note":"議會個人官網"}],"social_media":null,"platform":"","param":null,"councilor":"93e1afd813cc4735b0f54abe4a2fdb99"},{"url":"http://councils.g0v.tw/api/councilors_terms/504/","election_year":"1977","name":"鄭興成","gender":"男","party":"無黨籍","title":"議員","constituency":null,"county":"臺北市","district":"","in_office":true,"contact_details":null,"term_start":"1977-12-25","term_end":{"date":"1981-12-25"},"education":"東園國校畢業、大同初級中學畢業、省立成功高級中學畢業。","experience":"臺北市議會議員、東園國校家長會會長、財團法人廣照宮董事會董事長。","remark":"","image":"http://www.tcc.gov.tw/../upload/photo/%E9%84%AD%E8%88%88%E6%88%9011.jpg","links":[{"url":"http://www.tcc.gov.tw/Councilor_Content_All.aspx?s=1953&d=370408&n=%E9%84%AD%E8%88%88%E6%88%90","note":"議會個人官網"}],"social_media":null,"platform":"","param":null,"councilor":"93e1afd813cc4735b0f54abe4a2fdb99"},{"url":"http://councils.g0v.tw/api/councilors_terms/551/","election_year":"1973","name":"鄭興成","gender":"男","party":"無黨籍","title":"議員","constituency":null,"county":"臺北市","district":"","in_office":true,"contact_details":null,"term_start":"1973-12-25","term_end":{"date":"1977-12-25"},"education":"省立臺北成功中學高中部畢業。","experience":"東園國校家長會會長、財團法人廣照宮董事會董事長、東園國校少年棒球隊總幹事、協豐貿易公司總經理、妙安堂製藥廠公司常務董事。","remark":"","image":"http://www.tcc.gov.tw/../upload/photo/%E9%84%AD%E8%88%88%E6%88%9010.jpg","links":[{"url":"http://www.tcc.gov.tw/Councilor_Content_All.aspx?s=1460&d=370408&n=%E9%84%AD%E8%88%88%E6%88%90","note":"議會個人官網"}],"social_media":null,"platform":"","param":null,"councilor":"93e1afd813cc4735b0f54abe4a2fdb99"}],"uid":"93e1afd813cc4735b0f54abe4a2fdb99","name":"鄭興成","birth":"1937-04-08","former_names":"","identifiers":["鄭興成"]},{"url":"http://councils.g0v.tw/api/councilors/69/","each_terms":[{"url":"http://councils.g0v.tw/api/councilors_terms/69/","election_year":"1969","name":"林義盛","gender":"男","party":"中國國民黨","title":"議員","constituency":null,"county":"臺北市","district":"","in_office":true,"contact_details":null,"term_start":"1969-12-25","term_end":{"date":"1973-12-25"},"education":"中興大學、夏威夷大學。","experience":"會長、中隊長、委員、常委、董事長、總經理。","remark":"","image":"http://www.tcc.gov.tw/../upload/photo/%E6%9E%97%E7%BE%A9%E7%9B%9B09.jpg","links":[{"url":"http://www.tcc.gov.tw/Councilor_Content_All.aspx?s=1610&d=371206&n=%E6%9E%97%E7%BE%A9%E7%9B%9B","note":"議會個人官網"}],"social_media":null,"platform":"","param":null,"councilor":"40357fadde6c4b8dbde1c5682f98f8c9"},{"url":"http://councils.g0v.tw/api/councilors_terms/580/","election_year":"1973","name":"林義盛","gender":"男","party":"中國國民黨","title":"議員","constituency":null,"county":"臺北市","district":"","in_office":true,"contact_details":null,"term_start":"1973-12-25","term_end":{"date":"1977-12-25"},"education":"中興大學法律系、淡江文理學院、夏威夷大學。","experience":"臺北市第一屆議會議員、皇家旅行社負責人、國際獅子會副會長、臺北市體育會總幹事、信洲大飯店總經理、臺北市義警建成中隊長、國際青商會副會長。","remark":"","image":"http://www.tcc.gov.tw/../upload/photo/%E6%9E%97%E7%BE%A9%E7%9B%9B10.jpg","links":[{"url":"http://www.tcc.gov.tw/Councilor_Content_All.aspx?s=2093&d=371206&n=%E6%9E%97%E7%BE%A9%E7%9B%9B","note":"議會個人官網"}],"social_media":null,"platform":"","param":null,"councilor":"40357fadde6c4b8dbde1c5682f98f8c9"}],"uid":"40357fadde6c4b8dbde1c5682f98f8c9","name":"林義盛","birth":"1937-12-06","former_names":"","identifiers":["林義盛","林義盛"]}]}