{"count":1904,"next":"http://councils.g0v.tw/api/councilors/?page=45","previous":"http://councils.g0v.tw/api/councilors/?page=43","results":[{"url":"http://councils.g0v.tw/api/councilors/567/","each_terms":[{"url":"http://councils.g0v.tw/api/councilors_terms/977/","election_year":"1986","name":"紀邱秀花","gender":"","party":"","title":"議員","constituency":5,"county":"新北市","district":"新莊市、泰山鄉、五股鄉、林口鄉","in_office":true,"contact_details":null,"term_start":"1986-03-01","term_end":{"date":"1990-02-28"},"education":"嘉義縣大湖國小\n廬洲國中畢業\n臺北縣私立東海高中補校畢業\n空中大學商學系","experience":"五股鄉婦女會理事\n五股鄉成州社區理事\n臺北縣議會第11屆議員","remark":null,"image":"http://www.ntp.gov.tw/UpFile/CouncilorFile/TTCC1150.jpg","links":[{"url":"http://www.ntp.gov.tw/content/history/history01-5-p.aspx?sid=407","note":"議會個人官網"}],"social_media":null,"platform":"","param":null,"councilor":"6c2ded76cd6d4acaaca6a47fcc1c15ba"}],"uid":"6c2ded76cd6d4acaaca6a47fcc1c15ba","name":"紀邱秀花","birth":null,"former_names":"","identifiers":["紀邱秀花"]},{"url":"http://councils.g0v.tw/api/councilors/568/","each_terms":[{"url":"http://councils.g0v.tw/api/councilors_terms/978/","election_year":"1986","name":"張喜財","gender":"","party":"","title":"議員","constituency":5,"county":"新北市","district":"新莊市、泰山鄉、五股鄉、林口鄉","in_office":true,"contact_details":null,"term_start":"1986-03-01","term_end":{"date":"1990-02-28"},"education":"東海高級補校汽車修護科","experience":"新莊鎮第11屆\n新莊市第1屆代表會主席\n地方法院觀護人\n惠福建設公司董事長\n新莊國中家長會長\n臺北縣議會第11屆議員","remark":null,"image":"http://www.ntp.gov.tw/UpFile/CouncilorFile/TTCC1148.jpg","links":[{"url":"http://www.ntp.gov.tw/content/history/history01-5-p.aspx?sid=405","note":"議會個人官網"}],"social_media":null,"platform":"","param":null,"councilor":"f96da5cc6e1e4c6f881541e89bd9f8b4"}],"uid":"f96da5cc6e1e4c6f881541e89bd9f8b4","name":"張喜財","birth":null,"former_names":"","identifiers":["張喜財"]},{"url":"http://councils.g0v.tw/api/councilors/607/","each_terms":[{"url":"http://councils.g0v.tw/api/councilors_terms/1050/","election_year":"1982","name":"蔡正彥","gender":"","party":"","title":"議員","constituency":4,"county":"新北市","district":"三重市、蘆洲鄉","in_office":true,"contact_details":null,"term_start":"1982-03-01","term_end":{"date":"1986-02-28"},"education":"三重國小畢\n私立東海中學初中畢業\n私立東海中學高中畢業","experience":"修德國小家長會會長\n更生保護會輔導員\n聖業實業有限公司董事長\n六合里里長\n臺北縣議會第10屆議員\n臺北縣足球委員會主任委員\n正彥建設公司董事長","remark":null,"image":"http://www.ntp.gov.tw/UpFile/CouncilorFile/TTCC1032.jpg","links":[{"url":"http://www.ntp.gov.tw/content/history/history01-5-p.aspx?sid=372","note":"議會個人官網"}],"social_media":null,"platform":"","param":null,"councilor":"005d4043f4d14c0d93fe2d0f02330b62"}],"uid":"005d4043f4d14c0d93fe2d0f02330b62","name":"蔡正彥","birth":null,"former_names":"","identifiers":["蔡正彥"]},{"url":"http://councils.g0v.tw/api/councilors/608/","each_terms":[{"url":"http://councils.g0v.tw/api/councilors_terms/1051/","election_year":"1982","name":"林余淑貞","gender":"","party":"","title":"議員","constituency":3,"county":"新北市","district":"樹林鎮、鶯歌鎮、三峽鎮","in_office":true,"contact_details":null,"term_start":"1982-03-01","term_end":{"date":"1986-02-28"},"education":"銘傳國小畢\n萬華女中畢\n銘傳商業專科學校","experience":"和祥陶瓷股份有限公司會計\n成元窯業股份有限公司會計\n林瑞益五金行經理\n力霸窯業經理\n臺北縣議會第10屆議員","remark":null,"image":"http://www.ntp.gov.tw/UpFile/CouncilorFile/TTCC1031.jpg","links":[{"url":"http://www.ntp.gov.tw/content/history/history01-5-p.aspx?sid=371","note":"議會個人官網"}],"social_media":null,"platform":"","param":null,"councilor":"770b938eb9954390b096162fe28e0559"}],"uid":"770b938eb9954390b096162fe28e0559","name":"林余淑貞","birth":null,"former_names":"","identifiers":["林余淑貞","林余淑貞"]},{"url":"http://councils.g0v.tw/api/councilors/1198/","each_terms":[{"url":"http://councils.g0v.tw/api/councilors_terms/2124/","election_year":"2009","name":"陳麗莉","gender":"","party":"","title":"議員","constituency":4,"county":"桃園縣","district":"蘆竹鄉","in_office":true,"contact_details":[{"type":"email","value":"lily.chen1957@gmail.com","label":"EMAIL"},{"type":"email","value":"tycca089@tycc.gov.tw","label":"EMAIL"},{"type":"address","value":"蘆竹鄉上竹村愛國一路96號","label":"服務處"},{"type":"voice","value":"323-2041","label":"電話"},{"type":"fax","value":"323-3873","label":"傳真"},{"type":"address","value":"蘆竹鄉吉林路13號5樓","label":"服務處"}],"term_start":"2009-12-25","term_end":{"date":"2014-12-25"},"education":"縣立大園國小\n縣立大園國中\n省立桃園高中\n政治作戰學校六十八年班外文系","experience":"現任\n1.桃園縣議會第17屆議員\n2.蘆竹鄉婦女會理事長\n3.蘆竹分局警政志工中隊長\n4.蘆竹鄉陳姓婦工隊長\n5.榮民榮欣志工\n經歷：\n1.空軍五聯隊政戰官\n2.曾文家商教官\n3.永平工商教官\n4.大竹國小義工媽媽創隊隊長\n5.梅荷分會會長\n6.黃復興十二區黨部常委\n7.婦聯會蘆竹支會主委\n8.蘆竹鄉青年守望相助協會理事長\n9.蘆竹鄉土風舞協會理事長\n10.蘆竹鄉第17屆鄉民代表\n11.桃園縣議會第16屆議員","remark":null,"image":"http://www.tycc.gov.tw/file%5Cperson%5Capp%5Ca634641658583020048%E9%99%B3%E9%BA%97%E8%8E%89%E8%AD%B0%E5%93%A1.jpg","links":[{"url":"http://www.tycc.gov.tw/page.aspx?wtp=1&wnd=204&id=55","note":"議會個人官網"},{"url":"http://www.facebook.com/lily.chen1957","note":"臉書"}],"social_media":null,"platform":"１.堅持品德操守，樹立清白參政。\n２.啟動關懷力，推動人文產業，讓社會更友愛、互信。\n３.發展本土休閒觀光產業，催生－蘆竹花草節－推動蘆竹一日遊活動。\n４.爭取南崁都市計畫擴大變更，取得學校、公園用地，解決教育、休憩問題。\n５.爭取整治南崁溪河堤為晨跑步道。\n６.爭取規劃山腳新市鎮都市計劃、南崁舊港再更生，配合捷運站，發揮有山有水居住環\n境。\n７.爭取解決貧窮學童就學、就養問題。\n８.爭取徹底落實天羅地網監視系統，解決治安、竊盜問題。\n９.爭取增設南崁自來水加壓站，解決水壓不足問題。","param":null,"councilor":"7b00b11d2c5245259764396398c5e112"},{"url":"http://councils.g0v.tw/api/councilors_terms/2625/","election_year":"2014","name":"陳麗莉","gender":"女","party":"中國國民黨","title":"議員","constituency":4,"county":"桃園市","district":"蘆竹區","in_office":true,"contact_details":[{"type":"email","value":"y.chen1957@gmail.com ; tycca089@tycc.gov.tw","label":"電子信箱"},{"type":"address","value":"338蘆竹區愛國一路96號","label":"服務處"},{"type":"voice","value":"","label":"電話"},{"type":"voice","value":"323-2041","label":"電話"},{"type":"fax","value":"","label":"傳真"},{"type":"fax","value":"323-3873","label":"傳真"}],"term_start":"2014-12-25","term_end":{"date":"2018-12-25"},"education":"縣立大園國小\n縣立大園國中\n省立桃園高中\n政治作戰學校外文系","experience":"桃園縣議會第16、17屆議員\n蘆竹鄉婦女會理事長\n蘆竹分局警政志工中隊長\n蘆竹鄉陳姓婦工隊長\n榮民榮欣志工\n空軍五聯隊政戰官\n曾文家商教官\n永平工商教官\n大竹國小義工媽媽創隊隊長\n梅荷分會會長\n黃復興十二區黨部常委\n婦聯會蘆竹支會主委\n蘆竹鄉青年守望相助協會理事長\n蘆竹鄉土風舞協會理事長\n蘆竹鄉第17屆鄉民代表","remark":null,"image":"http://www.tycc.gov.tw/file%5Cperson%5Capp%5Ca634641658583020048%E9%99%B3%E9%BA%97%E8%8E%89%E8%AD%B0%E5%93%A1.jpg","links":[{"url":"http://www.tycc.gov.tw/content/intro/intro_main.aspx?wtp=1&wnd=204&id=1033","note":"議會個人官網"},{"url":"http://www.facebook.com/lily.chen1957","note":"臉書"}],"social_media":null,"platform":"一、爭取大竹都市計畫內文小用地為上興國小\n二、推動大竹路288巷及中興路至青埔打通工程\n三、爭取綠線G13站都市計畫取得南興小學用地\n四、繼續推動五酒桶山公園興建工程\n五、推動五福國小興建工程於106年招生\n六、爭取綠線G12站設立南崁客運轉運站\n七、爭取機場捷運下興建腳踏車步道\n八、推動機場捷運A10、A11站都市重畫\n九、爭取蘆竹區興建青年及社會出租宅\n十、爭取65歲以上老人免繳健保費\n十一、爭取弱勢家庭國中、小課後安親補助\n十二、要求公部門提供青年創業空間","param":{"suggestions_years":{"count":29,"sum":19012566,"years":[{"count":15,"sum":9617000,"suggest_year":"2015","small_purchase":0},{"count":14,"sum":9395566,"suggest_year":"2016","small_purchase":2}]},"bills_role_statistics":{"total":162,"priproposer":63,"sponsor":64,"cosponsor":98},"attendance_statistics":{"absent":16,"total":111},"suggestions_associations":[{"count":0,"sum":0,"label":"社區發展協會"},{"count":0,"sum":0,"label":"學會"},{"count":0,"sum":0,"label":"商會"},{"count":0,"sum":0,"label":"公會"},{"count":0,"sum":0,"label":"協進會"},{"count":0,"sum":0,"label":"促進會"},{"count":0,"sum":0,"label":"研習會"},{"count":0,"sum":0,"label":"婦聯會"},{"count":0,"sum":0,"label":"婦女會"},{"count":0,"sum":0,"label":"體育會"},{"count":0,"sum":0,"label":"同心會"},{"count":0,"sum":0,"label":"農會"},{"count":0,"sum":0,"label":"早起會"},{"count":0,"sum":0,"label":"健身會"},{"count":0,"sum":0,"label":"宗親會"},{"count":0,"sum":0,"label":"功德會"},{"count":0,"sum":0,"label":"商業會"},{"count":0,"sum":0,"label":"長青會"},{"count":0,"sum":0,"label":"民眾服務社"},{"count":0,"sum":0,"label":"聯盟"}],"bills_party_diversity":[{"party":"中國國民黨","ratio":0.9672131147540983},{"party":"無黨團結聯盟","ratio":0.01639344262295082},{"party":"民主進步黨","ratio":0.01639344262295082}],"suggestions_piles":[{"count":27,"tokens":"國中|國小","sum":17583900,"label":"國中、國小"},{"count":1,"tokens":"警察局|分局","sum":928666,"label":"警察局"},{"count":1,"tokens":"辦公室|辦公處","sum":50000,"label":"辦公室"},{"count":0,"tokens":"協會|學會|商會|公會|協進會|促進會|研習會|婦聯會|婦女會|體育會|同心會|農會|早起會|健身會|宗親會|功德會|商業會|長青會|民眾服務社|聯盟","sum":0,"label":"協會"},{"count":0,"tokens":"廟|宮","sum":0,"label":"廟"},{"count":0,"tokens":"消防局|消防隊|分隊|中隊","sum":0,"label":"消防局"}]},"councilor":"7b00b11d2c5245259764396398c5e112"}],"uid":"7b00b11d2c5245259764396398c5e112","name":"陳麗莉","birth":null,"former_names":"","identifiers":["陳麗莉","陳麗莉"]},{"url":"http://councils.g0v.tw/api/councilors/1594/","each_terms":[],"uid":"419fb5df1de84898a3cb5b2c093b50cd","name":"禹耀東","birth":null,"former_names":"","identifiers":["禹耀東"]},{"url":"http://councils.g0v.tw/api/councilors/1595/","each_terms":[],"uid":"dd836327fed74735b7a67472838f4fee","name":"涂春榮","birth":null,"former_names":"","identifiers":["涂春榮"]},{"url":"http://councils.g0v.tw/api/councilors/1596/","each_terms":[],"uid":"ecd6f8f1a3684892953dd6ad38ae33d3","name":"鄭碧玉","birth":null,"former_names":"","identifiers":["鄭碧玉"]},{"url":"http://councils.g0v.tw/api/councilors/1597/","each_terms":[],"uid":"6a75418b225c48da8aa80d39cd578680","name":"胡忠勇","birth":null,"former_names":"","identifiers":["胡忠勇"]},{"url":"http://councils.g0v.tw/api/councilors/272/","each_terms":[{"url":"http://councils.g0v.tw/api/councilors_terms/543/","election_year":"1977","name":"吳玉盛","gender":"男","party":"中國國民黨","title":"議員","constituency":null,"county":"臺北市","district":"","in_office":true,"contact_details":null,"term_start":"1977-12-25","term_end":{"date":"1981-12-25"},"education":"省立臺北工專畢業、建築高考及格。","experience":"臺北市議會議員、單行規章審查會委員、兵役協會委員、苗栗縣同鄉會理事長、城中區體育會理事長、城中區調解會委員、義警中隊長、城中區黨部委員。","remark":"","image":"http://www.tcc.gov.tw/../upload/photo/%E5%90%B3%E7%8E%89%E7%9B%9B11.jpg","links":[{"url":"http://www.tcc.gov.tw/Councilor_Content_All.aspx?s=1676&d=331121&n=%E5%90%B3%E7%8E%89%E7%9B%9B","note":"議會個人官網"}],"social_media":null,"platform":"","param":null,"councilor":"20fde88d23614e2eabd588a76d663a1d"},{"url":"http://councils.g0v.tw/api/councilors_terms/591/","election_year":"1973","name":"吳玉盛","gender":"男","party":"中國國民黨","title":"議員","constituency":null,"county":"臺北市","district":"","in_office":true,"contact_details":null,"term_start":"1973-12-25","term_end":{"date":"1977-12-25"},"education":"臺北工專畢業、建築師考試及格。","experience":"臺北市義警大隊城中中隊中隊長、臺北市城中區體育會理事長、臺北市建築師公會理事、臺北市中央國際師子會市政委員、亞洲水泥公司總務主任、中國市政專校副教授。","remark":"","image":"http://www.tcc.gov.tw/../upload/photo/%E5%90%B3%E7%8E%89%E7%9B%9B10.jpg","links":[{"url":"http://www.tcc.gov.tw/Councilor_Content_All.aspx?s=1898&d=331121&n=%E5%90%B3%E7%8E%89%E7%9B%9B","note":"議會個人官網"}],"social_media":null,"platform":"","param":null,"councilor":"20fde88d23614e2eabd588a76d663a1d"}],"uid":"20fde88d23614e2eabd588a76d663a1d","name":"吳玉盛","birth":"1933-11-21","former_names":"","identifiers":["吳玉盛"]}]}