{"count":1904,"next":"http://councils.g0v.tw/api/councilors/?page=46","previous":"http://councils.g0v.tw/api/councilors/?page=44","results":[{"url":"http://councils.g0v.tw/api/councilors/273/","each_terms":[{"url":"http://councils.g0v.tw/api/councilors_terms/546/","election_year":"1977","name":"方廖水蓮","gender":"女","party":"中國國民黨","title":"議員","constituency":null,"county":"臺北市","district":"","in_office":true,"contact_details":null,"term_start":"1977-12-25","term_end":{"date":"1981-12-25"},"education":"第一女子中學高中畢業、日本近畿大學法學系畢業、美國夏威夷大學東西文化中心訓練班結業。","experience":"中山區婦女會理事長、中國國民黨臺北市黨部委員、臺北市國際職業婦女協會副會長、臺北市第一女子中學校友會理事長、中國國民黨第11次全國代表大會代表、津津食品工業股份有限公司董事、東榮旅行社董事長、維鴻福眾企業股份有限公司常務董事。","remark":"","image":"http://www.tcc.gov.tw/../upload/photo/%E6%96%B9%E5%BB%96%E6%B0%B4%E8%93%AE11.jpg","links":[{"url":"http://www.tcc.gov.tw/Councilor_Content_All.aspx?s=1677&d=300301&n=%E6%96%B9%E5%BB%96%E6%B0%B4%E8%93%AE","note":"議會個人官網"}],"social_media":null,"platform":"","param":null,"councilor":"41c2eed5db0a49c5aa1728cd55db95cf"}],"uid":"41c2eed5db0a49c5aa1728cd55db95cf","name":"方廖水蓮","birth":"1930-03-01","former_names":"","identifiers":["方廖水蓮"]},{"url":"http://councils.g0v.tw/api/councilors/321/","each_terms":[{"url":"http://councils.g0v.tw/api/councilors_terms/658/","election_year":"2010","name":"江勝雄","gender":"","party":"無黨籍","title":"議員","constituency":13,"county":"臺中市","district":"大里區、霧峰區","in_office":true,"contact_details":[{"type":"address","value":"臺中市霧峰區錦州路310號","label":"服務處地址"},{"type":"voice","value":"04-2332-2448","label":"服務處電話"},{"type":"fax","value":"04-2330-5351","label":"服務處傳真"},{"type":"email","value":"c155355@yahoo.com.tw","label":"e-mail"}],"term_start":"2010-12-25","term_end":{"date":"2014-12-25"},"education":"萊園高級中學畢業\n國立中興大學公共行政學研究班結業","experience":"革命實踐研究院民意二期結業\n台中縣第1213141516屆縣議員\n第1415161718次全國代表大會代表\n中國國民黨台中縣委員會委員\n台中縣議會國民黨團書記長\n台中縣警察之友會常務理事\n台中縣同心佈施功德會監事\n霧峰鄉第11屆鄉民代表會主席","remark":null,"image":"http://www.tccc.gov.tw/mediafile/1837/editor_model/269/pic/057.bmp","links":[{"url":"http://www.tccc.gov.tw/editor_model/u_editor_v1.asp?id=%7B546E2FFE-7DB8-444C-BE70-FB5409DD9A4E%7D","note":"議會個人官網"}],"social_media":null,"platform":"嚴謹監督市府施政品質及效率，確實發揮制衡權責。\n敦請市府擴充警力、充實警用裝備、加強輔導村里守望相助隊、增強警民合作、打擊犯罪、維護社會治安。\n促請市府落實全方位福利政策、確實執行照護老人、兒童、婦女及弱勢族群的工作。\n促請市府加速推動傳統產業升級、引進高科技、零污染的產業技術、改善就業環境、增加就業機會、提昇經濟發展的動力。\n促請市府重視民眾休閒、親子、運動等社區公園的開發及設置、提倡休閒社區化、運動社區化，使民眾擁有優質的生活環境及品質。\n促請市府加強照護農民、強化農村建設、提昇農業水準爭取輔導農業轉型精緻化、休閒化、觀光化、提高產值提昇農民收益。","param":{"suggestions_years":{"count":7,"sum":3930000,"years":[{"count":7,"sum":3930000,"suggest_year":"2014","small_purchase":0}]},"diversity":{"中國國民黨":0.3979579830775572,"民主進步黨":0.2110965102166846,"臺灣團結聯盟":0.009956038999366855,"親民黨":0.022850797302288426,"無黨籍":0.35813867040410274},"bills_role_statistics":{"total":7,"priproposer":0,"sponsor":1,"cosponsor":6},"suggestions_associations":[{"count":0,"sum":0,"label":"社區發展協會"},{"count":0,"sum":0,"label":"學會"},{"count":0,"sum":0,"label":"商會"},{"count":0,"sum":0,"label":"公會"},{"count":0,"sum":0,"label":"協進會"},{"count":0,"sum":0,"label":"促進會"},{"count":0,"sum":0,"label":"研習會"},{"count":0,"sum":0,"label":"婦聯會"},{"count":0,"sum":0,"label":"婦女會"},{"count":0,"sum":0,"label":"體育會"},{"count":0,"sum":0,"label":"同心會"},{"count":0,"sum":0,"label":"農會"},{"count":0,"sum":0,"label":"早起會"},{"count":0,"sum":0,"label":"健身會"},{"count":0,"sum":0,"label":"宗親會"},{"count":0,"sum":0,"label":"功德會"},{"count":0,"sum":0,"label":"商業會"},{"count":0,"sum":0,"label":"長青會"},{"count":0,"sum":0,"label":"民眾服務社"},{"count":0,"sum":0,"label":"聯盟"}],"bills_party_diversity":[{"party":"中國國民黨","ratio":0.5578947368421052},{"party":"無黨籍","ratio":0.23157894736842105},{"party":"民主進步黨","ratio":0.2},{"party":"臺灣團結聯盟","ratio":0.010526315789473684}],"suggestions_piles":[{"count":0,"tokens":"協會|學會|商會|公會|協進會|促進會|研習會|婦聯會|婦女會|體育會|同心會|農會|早起會|健身會|宗親會|功德會|商業會|長青會|民眾服務社|聯盟","sum":0,"label":"協會"},{"count":0,"tokens":"辦公室|辦公處","sum":0,"label":"辦公室"},{"count":0,"tokens":"廟|宮","sum":0,"label":"廟"},{"count":0,"tokens":"警察局|分局","sum":0,"label":"警察局"},{"count":0,"tokens":"消防局|消防隊|分隊|中隊","sum":0,"label":"消防局"},{"count":0,"tokens":"國中|國小","sum":0,"label":"國中、國小"}]},"councilor":"1771c1fe9e2d4b4b97375c0dde6a3062"}],"uid":"1771c1fe9e2d4b4b97375c0dde6a3062","name":"江勝雄","birth":null,"former_names":"","identifiers":["江勝雄"]},{"url":"http://councils.g0v.tw/api/councilors/322/","each_terms":[{"url":"http://councils.g0v.tw/api/councilors_terms/659/","election_year":"2010","name":"劉錦和","gender":"","party":"民主進步黨","title":"議員","constituency":13,"county":"臺中市","district":"大里區、霧峰區","in_office":true,"contact_details":[{"type":"address","value":"臺中市大里區草湖路215巷8號","label":"服務處地址"},{"type":"voice","value":"04-2493-9907","label":"服務處電話"},{"type":"fax","value":"04-2492-9943","label":"服務處傳真"},{"type":"email","value":"c0142@tccc.gov.tw ","label":"e-mail"}],"term_start":"2010-12-25","term_end":{"date":"2014-12-25"},"education":"草湖國小\n大里國中\n慈明商工","experience":"中興大學公共行政結業\n美國華盛頓大學政治研究結業\n凱達格蘭學校第一期結業\n台中縣十三、十四、十五屆縣議員\n民進黨創黨黨員\n台中縣民主進步黨黨部評議委員\n台中縣象棋協會理事長\n中台科技大學象棋指導老師\n二零零五年民進黨徵召參選大里市長\n勞資爭議仲裁委員","remark":null,"image":"http://www.tccc.gov.tw/mediafile/1837/editor_model/268/pic/056(1).bmp","links":[{"url":"http://www.tccc.gov.tw/editor_model/u_editor_v1.asp?id=%7B3BF26D3C-B0BB-42ED-9FC4-26EF3C35D928%7D","note":"議會個人官網"}],"social_media":null,"platform":"建立政黨政治，監督廉能市政府。\n建議草湖溪、烏溪整治規劃，提供高灘地成為運動場所，設自行車便道帶動市民觀光遊樂景點。\n建議將竹仔坑、坪林、車籠埔營區遷移。將土地重新規劃利用，再次帶動配合市政規劃整體發展。\n建議市政府妥善規劃捷運系統，讓中市交通便捷，成為國家城市。\n照顧弱勢，使婦女、兒童、老人及身障人士享有充份安置安養、補助，成為福利的市政府。\n建立觀光休閒農場，由於霧峰鄉特有農產業，將提議市政府輔導霧峰鄉休閒化景點一日遊，以促進整體農業發展。","param":{"suggestions_years":{"count":4,"sum":1062838,"years":[{"count":4,"sum":1062838,"suggest_year":"2014","small_purchase":1}]},"diversity":{"中國國民黨":0.09395054248882806,"民主進步黨":0.8432470487505396,"臺灣團結聯盟":0.02407617100854268,"親民黨":0.003483559028707024,"無黨籍":0.03524267872338308},"bills_role_statistics":{"total":48,"priproposer":0,"sponsor":5,"cosponsor":43},"suggestions_associations":[{"count":0,"sum":0,"label":"社區發展協會"},{"count":0,"sum":0,"label":"學會"},{"count":0,"sum":0,"label":"商會"},{"count":0,"sum":0,"label":"公會"},{"count":0,"sum":0,"label":"協進會"},{"count":0,"sum":0,"label":"促進會"},{"count":0,"sum":0,"label":"研習會"},{"count":0,"sum":0,"label":"婦聯會"},{"count":0,"sum":0,"label":"婦女會"},{"count":0,"sum":0,"label":"體育會"},{"count":0,"sum":0,"label":"同心會"},{"count":0,"sum":0,"label":"農會"},{"count":0,"sum":0,"label":"早起會"},{"count":0,"sum":0,"label":"健身會"},{"count":0,"sum":0,"label":"宗親會"},{"count":0,"sum":0,"label":"功德會"},{"count":0,"sum":0,"label":"商業會"},{"count":0,"sum":0,"label":"長青會"},{"count":0,"sum":0,"label":"民眾服務社"},{"count":0,"sum":0,"label":"聯盟"}],"bills_party_diversity":[{"party":"民主進步黨","ratio":0.7142857142857143},{"party":"中國國民黨","ratio":0.19736842105263158},{"party":"無黨籍","ratio":0.07142857142857142},{"party":"臺灣團結聯盟","ratio":0.015037593984962405},{"party":"親民黨","ratio":0.0018796992481203006}],"suggestions_piles":[{"count":1,"tokens":"國中|國小","sum":46000,"label":"國中、國小"},{"count":0,"tokens":"協會|學會|商會|公會|協進會|促進會|研習會|婦聯會|婦女會|體育會|同心會|農會|早起會|健身會|宗親會|功德會|商業會|長青會|民眾服務社|聯盟","sum":0,"label":"協會"},{"count":0,"tokens":"辦公室|辦公處","sum":0,"label":"辦公室"},{"count":0,"tokens":"廟|宮","sum":0,"label":"廟"},{"count":0,"tokens":"警察局|分局","sum":0,"label":"警察局"},{"count":0,"tokens":"消防局|消防隊|分隊|中隊","sum":0,"label":"消防局"}]},"councilor":"0b45aee523fe4fcdadfe8ee45a671651"}],"uid":"0b45aee523fe4fcdadfe8ee45a671651","name":"劉錦和","birth":null,"former_names":"","identifiers":["劉錦和","劉錦和"]},{"url":"http://councils.g0v.tw/api/councilors/326/","each_terms":[{"url":"http://councils.g0v.tw/api/councilors_terms/663/","election_year":"2010","name":"黃秀珠","gender":"","party":"民主進步黨","title":"議員","constituency":12,"county":"臺中市","district":"太平區","in_office":true,"contact_details":[{"type":"address","value":"臺中市太平區環太東路230號","label":"服務處地址"},{"type":"voice","value":"04-2393-7499","label":"服務處電話"},{"type":"fax","value":"04-2393-7498","label":"服務處傳真"},{"type":"email","value":"c0158@tccc.gov.tw","label":"e-mail"}],"term_start":"2010-12-25","term_end":{"date":"2014-12-25"},"education":"國立臺中技術學院畢業\n朝陽科技大學畢業\n國立勤益科技大學碩士畢業","experience":"臺中縣議會第十六屆議員\n臺中縣廣亮慈善會審查委員\n臺中技術學院校友會常務理事\n立法委員邱太三服務處主任\n立法委員郭俊銘特別助理\n立法委員簡肇棟特別助理\n長昌競選總部副總事","remark":null,"image":"http://www.tccc.gov.tw/mediafile/1837/editor_model/263/pic/051.bmp","links":[{"url":"http://www.tccc.gov.tw/editor_model/u_editor_v1.asp?id=%7BEFFCD14D-8DCD-4844-95A8-A3D4262E0DF8%7D","note":"議會個人官網"}],"social_media":null,"platform":"老人、弱勢政策：\n推動、強化老人福利，如優良安養中心、老人照護、志工服務等。\n推動降低貧窮線，讓低收入戶、弱勢族群易申得救濟等。\n治安、平安政策：\n爭取更新警方裝備、加強員警訓練、提升辦案效率。\n爭取仿效歐美停權休息制度，遏止員警過勞、提升辦案效率。\n推動、落實區域聯防與警民合作，將犯罪趕出社區。\n便捷交通政策：\n監督生活圈四號線施工品質與進度，務必令其於預定期限內完工通車。\n推動便捷的屯區交通網路，縮短民眾往返時間。\n推動路平專案，遏止濫挖、鋪設不實等陋習。\n推動利用國有地廣設停車場，解決民眾停車問題。\n教育關懷政策：\n落實全市學區教育資源合理分配，優質教育全面普及。\n推行「教育助貧計劃」不分貧富，人人有書念。\n推動廣設公立、輔導私立托兒所政策。","param":{"suggestions_years":{"count":8,"sum":2054136,"years":[{"count":8,"sum":2054136,"suggest_year":"2014","small_purchase":2}]},"diversity":{"中國國民黨":0.08656800675093887,"民主進步黨":0.8606314280585312,"臺灣團結聯盟":0.024001454162363555,"親民黨":0.0020064822956439347,"無黨籍":0.026792628732522878},"bills_role_statistics":{"total":75,"priproposer":17,"sponsor":23,"cosponsor":52},"suggestions_associations":[{"count":0,"sum":0,"label":"社區發展協會"},{"count":0,"sum":0,"label":"學會"},{"count":0,"sum":0,"label":"商會"},{"count":0,"sum":0,"label":"公會"},{"count":0,"sum":0,"label":"協進會"},{"count":0,"sum":0,"label":"促進會"},{"count":0,"sum":0,"label":"研習會"},{"count":0,"sum":0,"label":"婦聯會"},{"count":0,"sum":0,"label":"婦女會"},{"count":0,"sum":0,"label":"體育會"},{"count":0,"sum":0,"label":"同心會"},{"count":0,"sum":0,"label":"農會"},{"count":0,"sum":0,"label":"早起會"},{"count":0,"sum":0,"label":"健身會"},{"count":0,"sum":0,"label":"宗親會"},{"count":0,"sum":0,"label":"功德會"},{"count":0,"sum":0,"label":"商業會"},{"count":0,"sum":0,"label":"長青會"},{"count":0,"sum":0,"label":"民眾服務社"},{"count":0,"sum":0,"label":"聯盟"}],"bills_party_diversity":[{"party":"民主進步黨","ratio":0.8517298187808896},{"party":"中國國民黨","ratio":0.11367380560131796},{"party":"無黨籍","ratio":0.02471169686985173},{"party":"臺灣團結聯盟","ratio":0.008237232289950576},{"party":"親民黨","ratio":0.0016474464579901153}],"suggestions_piles":[{"count":0,"tokens":"協會|學會|商會|公會|協進會|促進會|研習會|婦聯會|婦女會|體育會|同心會|農會|早起會|健身會|宗親會|功德會|商業會|長青會|民眾服務社|聯盟","sum":0,"label":"協會"},{"count":0,"tokens":"辦公室|辦公處","sum":0,"label":"辦公室"},{"count":0,"tokens":"廟|宮","sum":0,"label":"廟"},{"count":0,"tokens":"警察局|分局","sum":0,"label":"警察局"},{"count":0,"tokens":"消防局|消防隊|分隊|中隊","sum":0,"label":"消防局"},{"count":0,"tokens":"國中|國小","sum":0,"label":"國中、國小"}]},"councilor":"cce8949a89f54d4d98129492e11c8dd2"}],"uid":"cce8949a89f54d4d98129492e11c8dd2","name":"黃秀珠","birth":null,"former_names":"","identifiers":["黃秀珠","黄秀珠"]},{"url":"http://councils.g0v.tw/api/councilors/1365/","each_terms":[{"url":"http://councils.g0v.tw/api/councilors_terms/2291/","election_year":"2009","name":"何旭昇","gender":"男","party":"","title":"","constituency":2,"county":"嘉義縣","district":"民雄鄉、新港鄉","in_office":true,"contact_details":[{"type":"phone","value":"05-2211509 ","label":"電話"},{"type":"address","value":"嘉義縣民雄鄉山中村牛斗山132之8號 ","label":"通訊處"},{"type":"email","value":"","label":"電子信箱"}],"term_start":"2009-12-25","term_end":{"date":"2014-12-25"},"education":"民雄國中畢 ","experience":"(一)民雄鄉第１８屆鄉民代表。\n(二)青工會會長。\n ","remark":null,"image":"http://www.cyscc.gov.tw/template/DisplaySmallPicture.ashx?p=/Upload/Parliamentary/15/634535100251410819.jpg&w=145&h=170","links":[{"url":"http://www.cyscc.gov.tw/chinese/Parliamentary_Detail.aspx?s=15&n=29","note":"議會個人官網"}],"social_media":null,"platform":"(一)建設民雄新港對外交通道路系統，配合觀光規劃。\n(二)排水疏濬：整治朴子溪水患。\n(三)加強民雄、新港老人福利與幼托相關問題。\n(四)全力爭取建設經費，全面提昇鄉民生活品質。\n(五)爭取增加民雄、新港休閒娛樂設施與場所。 ","param":{"suggestions_years":{"count":4,"sum":4640000,"years":[{"count":2,"sum":3000000,"suggest_year":"2012","small_purchase":0},{"count":2,"sum":1640000,"suggest_year":"2013","small_purchase":0}]},"diversity":{"":1.0},"bills_role_statistics":{"total":11,"priproposer":0,"sponsor":0,"cosponsor":11},"suggestions_associations":[{"count":0,"sum":0,"label":"社區發展協會"},{"count":0,"sum":0,"label":"學會"},{"count":0,"sum":0,"label":"商會"},{"count":0,"sum":0,"label":"公會"},{"count":0,"sum":0,"label":"協進會"},{"count":0,"sum":0,"label":"促進會"},{"count":0,"sum":0,"label":"研習會"},{"count":0,"sum":0,"label":"婦聯會"},{"count":0,"sum":0,"label":"婦女會"},{"count":0,"sum":0,"label":"體育會"},{"count":0,"sum":0,"label":"同心會"},{"count":0,"sum":0,"label":"農會"},{"count":0,"sum":0,"label":"早起會"},{"count":0,"sum":0,"label":"健身會"},{"count":0,"sum":0,"label":"宗親會"},{"count":0,"sum":0,"label":"功德會"},{"count":0,"sum":0,"label":"商業會"},{"count":0,"sum":0,"label":"長青會"},{"count":0,"sum":0,"label":"民眾服務社"},{"count":0,"sum":0,"label":"聯盟"}],"bills_party_diversity":[{"party":"","ratio":1.0}],"suggestions_piles":[{"count":0,"tokens":"協會|學會|商會|公會|協進會|促進會|研習會|婦聯會|婦女會|體育會|同心會|農會|早起會|健身會|宗親會|功德會|商業會|長青會|民眾服務社|聯盟","sum":0,"label":"協會"},{"count":0,"tokens":"辦公室|辦公處","sum":0,"label":"辦公室"},{"count":0,"tokens":"廟|宮","sum":0,"label":"廟"},{"count":0,"tokens":"警察局|分局","sum":0,"label":"警察局"},{"count":0,"tokens":"消防局|消防隊|分隊|中隊","sum":0,"label":"消防局"},{"count":0,"tokens":"國中|國小","sum":0,"label":"國中、國小"}]},"councilor":"c07d21fb2dfc4e84a99ca967d0175c07"}],"uid":"c07d21fb2dfc4e84a99ca967d0175c07","name":"何旭昇","birth":null,"former_names":"","identifiers":["何旭昇"]},{"url":"http://councils.g0v.tw/api/councilors/1366/","each_terms":[{"url":"http://councils.g0v.tw/api/councilors_terms/2292/","election_year":"2009","name":"王幸悅","gender":"女","party":"","title":"","constituency":2,"county":"嘉義縣","district":"民雄鄉、新港鄉","in_office":true,"contact_details":[{"type":"phone","value":"05-3742191 ","label":"電話"},{"type":"address","value":"嘉義縣新港鄉大興村中正路229號 ","label":"通訊處"},{"type":"email","value":"","label":"電子信箱"}],"term_start":"2009-12-25","term_end":{"date":"2014-12-25"},"education":"新港國小、國中畢業\n省立華南商職畢業\n中正大學企業管理研習結業\n凱達格蘭學校民間領袖與地方發展班結業 ","experience":"(一)真耶穌新港教會財務股負責人。\n(二)嘉義縣議會第14、15、16屆縣議員。\n(三)嘉義縣議會民進黨黨團書記長、幹事長。\n(四)濟美仁愛之家董事。 ","remark":null,"image":"http://www.cyscc.gov.tw/template/DisplaySmallPicture.ashx?p=/Upload/Parliamentary/14/634535099212686189.bmp&w=145&h=170","links":[{"url":"http://www.cyscc.gov.tw/chinese/Parliamentary_Detail.aspx?s=14&n=29","note":"議會個人官網"}],"social_media":null,"platform":"(一)清流專業問政，提升議會議事效率。\n(二)照顧弱勢團體，爭取弱勢族群權益。\n(三)因應世貿衝擊，確保農漁牧業收益。\n(四)致力交通建設，促進地方繁榮發展。\n(五)加強農業產銷，推動花蔬果文化季。\n(六)減輕縣民負擔，擴大辦理低利貸款。\n ","param":{"suggestions_years":{"count":20,"sum":13083100,"years":[{"count":8,"sum":4874500,"suggest_year":"2012","small_purchase":1},{"count":3,"sum":1600000,"suggest_year":"2013","small_purchase":0},{"count":9,"sum":6608600,"suggest_year":"2014","small_purchase":2}]},"diversity":{"":1.0},"bills_role_statistics":{"total":9,"priproposer":0,"sponsor":0,"cosponsor":9},"suggestions_associations":[{"count":0,"sum":0,"label":"社區發展協會"},{"count":0,"sum":0,"label":"學會"},{"count":0,"sum":0,"label":"商會"},{"count":0,"sum":0,"label":"公會"},{"count":0,"sum":0,"label":"協進會"},{"count":0,"sum":0,"label":"促進會"},{"count":0,"sum":0,"label":"研習會"},{"count":0,"sum":0,"label":"婦聯會"},{"count":0,"sum":0,"label":"婦女會"},{"count":0,"sum":0,"label":"體育會"},{"count":0,"sum":0,"label":"同心會"},{"count":0,"sum":0,"label":"農會"},{"count":0,"sum":0,"label":"早起會"},{"count":0,"sum":0,"label":"健身會"},{"count":0,"sum":0,"label":"宗親會"},{"count":0,"sum":0,"label":"功德會"},{"count":0,"sum":0,"label":"商業會"},{"count":0,"sum":0,"label":"長青會"},{"count":0,"sum":0,"label":"民眾服務社"},{"count":0,"sum":0,"label":"聯盟"}],"bills_party_diversity":[{"party":"","ratio":1.0}],"suggestions_piles":[{"count":1,"tokens":"廟|宮","sum":1000000,"label":"廟"},{"count":0,"tokens":"協會|學會|商會|公會|協進會|促進會|研習會|婦聯會|婦女會|體育會|同心會|農會|早起會|健身會|宗親會|功德會|商業會|長青會|民眾服務社|聯盟","sum":0,"label":"協會"},{"count":0,"tokens":"辦公室|辦公處","sum":0,"label":"辦公室"},{"count":0,"tokens":"警察局|分局","sum":0,"label":"警察局"},{"count":0,"tokens":"消防局|消防隊|分隊|中隊","sum":0,"label":"消防局"},{"count":0,"tokens":"國中|國小","sum":0,"label":"國中、國小"}]},"councilor":"2f4fc441aec24bf4b17b01b39ccff498"}],"uid":"2f4fc441aec24bf4b17b01b39ccff498","name":"王幸悅","birth":null,"former_names":"","identifiers":["王幸悅"]},{"url":"http://councils.g0v.tw/api/councilors/1369/","each_terms":[{"url":"http://councils.g0v.tw/api/councilors_terms/2295/","election_year":"2009","name":"賴瓊如","gender":"女","party":"","title":"","constituency":1,"county":"嘉義縣","district":"太保市、水上鄉、鹿草鄉","in_office":true,"contact_details":[{"type":"phone","value":"05-2387722 ","label":"電話"},{"type":"address","value":"嘉義縣太保市埤鄉里埤麻腳153號 ","label":"通訊處"},{"type":"email","value":"","label":"電子信箱"}],"term_start":"2009-12-25","term_end":{"date":"2014-12-25"},"education":"高中 ","experience":"太保市民代表會第4.5屆市民代表；現任該會副主席職務。 ","remark":null,"image":"http://www.cyscc.gov.tw/template/DisplaySmallPicture.ashx?p=/Upload/Parliamentary/13/634535098052679405.bmp&w=145&h=170","links":[{"url":"http://www.cyscc.gov.tw/chinese/Parliamentary_Detail.aspx?s=13&n=29","note":"議會個人官網"}],"social_media":null,"platform":"(一)督促縣府加強照顧幼兒、學童、婦女人身安全及保障。\n(二)督促縣府加強照顧弱勢團體，謀求身心障礙同胞、中低收入戶及老人之福利，並改善其生活環境。\n(三)督促縣府提高國中、小教育費，以培養優秀在地人才。\n(四)建設太保、水上及鹿草為高品質居住城市，加強都市景觀設計，協助發展社區總體營造，並督促推動縣府及高鐵嘉義站周邊開發。\n(五)督促縣府爭取設置工業科學園區、引進高科技產業，進而促進產業轉型；以增加地方工、商就業機會及政府稅收\n(六)督促縣府推動精緻農業轉型，增加農民收益。\n(七)爭取各社區及團體活動經費、殘障福利；爭取各村里小型工程款之補助，以促其平衡發展。\n(八)督促縣府提升公務人員服務績效並杜絕貪污，實現廉能政治。\n(九)服務不分黨派，確實監督縣府之施政及預算，以協助縣政之推展。 ","param":{"suggestions_years":{"count":2,"sum":110783,"years":[{"count":1,"sum":73783,"suggest_year":"2012","small_purchase":1},{"count":1,"sum":37000,"suggest_year":"2014","small_purchase":1}]},"diversity":{"":1.0},"bills_role_statistics":{"total":10,"priproposer":1,"sponsor":1,"cosponsor":9},"suggestions_associations":[{"count":0,"sum":0,"label":"社區發展協會"},{"count":0,"sum":0,"label":"學會"},{"count":0,"sum":0,"label":"商會"},{"count":0,"sum":0,"label":"公會"},{"count":0,"sum":0,"label":"協進會"},{"count":0,"sum":0,"label":"促進會"},{"count":0,"sum":0,"label":"研習會"},{"count":0,"sum":0,"label":"婦聯會"},{"count":0,"sum":0,"label":"婦女會"},{"count":0,"sum":0,"label":"體育會"},{"count":0,"sum":0,"label":"同心會"},{"count":0,"sum":0,"label":"農會"},{"count":0,"sum":0,"label":"早起會"},{"count":0,"sum":0,"label":"健身會"},{"count":0,"sum":0,"label":"宗親會"},{"count":0,"sum":0,"label":"功德會"},{"count":0,"sum":0,"label":"商業會"},{"count":0,"sum":0,"label":"長青會"},{"count":0,"sum":0,"label":"民眾服務社"},{"count":0,"sum":0,"label":"聯盟"}],"bills_party_diversity":[{"party":"","ratio":1.0}],"suggestions_piles":[{"count":0,"tokens":"協會|學會|商會|公會|協進會|促進會|研習會|婦聯會|婦女會|體育會|同心會|農會|早起會|健身會|宗親會|功德會|商業會|長青會|民眾服務社|聯盟","sum":0,"label":"協會"},{"count":0,"tokens":"辦公室|辦公處","sum":0,"label":"辦公室"},{"count":0,"tokens":"廟|宮","sum":0,"label":"廟"},{"count":0,"tokens":"警察局|分局","sum":0,"label":"警察局"},{"count":0,"tokens":"消防局|消防隊|分隊|中隊","sum":0,"label":"消防局"},{"count":0,"tokens":"國中|國小","sum":0,"label":"國中、國小"}]},"councilor":"e877bc2cbce441fcbe3a4f94d76fbbcd"}],"uid":"e877bc2cbce441fcbe3a4f94d76fbbcd","name":"賴瓊如","birth":null,"former_names":"","identifiers":["賴瓊如","頼瓊如"]},{"url":"http://councils.g0v.tw/api/councilors/1404/","each_terms":[{"url":"http://councils.g0v.tw/api/councilors_terms/2330/","election_year":"2009","name":"林逢錦","gender":"","party":"無黨籍","title":"","constituency":6,"county":"雲林縣","district":"北港鎮、水林鄉、口湖鄉","in_office":true,"contact_details":[{"type":"voice","lines[i]":"電話","value":"05-7825889"},{"type":"fax","lines[i]":"傳真","value":"05-7825899"},{"type":"address","lines[i]":"通訊處","value":"北港鎮文化路37-24號"}],"term_start":"2009-12-25","term_end":{"date":"2014-12-25"},"education":"嘉南高中畢業。","experience":"雲林縣排球委員會主任委員、北港鎮北辰國小家長會長、北港朝天宮第七屆董事、北港義消顧問、雲林縣第14屆.15屆.16屆縣議員 。","remark":null,"image":"http://www.ylcc.gov.tw/images/6-6.jpg","links":[{"url":"http://www.ylcc.gov.tw/index.php?inner=member_precinct6","note":"議會個人官網"}],"social_media":null,"platform":"","param":{"suggestions_piles":[{"count":1,"tokens":"國中|國小","sum":200000,"label":"國中、國小"},{"count":0,"tokens":"協會|學會|商會|公會|協進會|促進會|研習會|婦聯會|婦女會|體育會|同心會|農會|早起會|健身會|宗親會|功德會|商業會|長青會|民眾服務社|聯盟","sum":0,"label":"協會"},{"count":0,"tokens":"辦公室|辦公處","sum":0,"label":"辦公室"},{"count":0,"tokens":"廟|宮","sum":0,"label":"廟"},{"count":0,"tokens":"警察局|分局","sum":0,"label":"警察局"},{"count":0,"tokens":"消防局|消防隊|分隊|中隊","sum":0,"label":"消防局"}],"suggestions_associations":[{"count":0,"sum":0,"label":"社區發展協會"},{"count":0,"sum":0,"label":"學會"},{"count":0,"sum":0,"label":"商會"},{"count":0,"sum":0,"label":"公會"},{"count":0,"sum":0,"label":"協進會"},{"count":0,"sum":0,"label":"促進會"},{"count":0,"sum":0,"label":"研習會"},{"count":0,"sum":0,"label":"婦聯會"},{"count":0,"sum":0,"label":"婦女會"},{"count":0,"sum":0,"label":"體育會"},{"count":0,"sum":0,"label":"同心會"},{"count":0,"sum":0,"label":"農會"},{"count":0,"sum":0,"label":"早起會"},{"count":0,"sum":0,"label":"健身會"},{"count":0,"sum":0,"label":"宗親會"},{"count":0,"sum":0,"label":"功德會"},{"count":0,"sum":0,"label":"商業會"},{"count":0,"sum":0,"label":"長青會"},{"count":0,"sum":0,"label":"民眾服務社"},{"count":0,"sum":0,"label":"聯盟"}],"diversity":{},"suggestions_years":{"count":9,"sum":9360000,"years":[{"count":2,"sum":2080000,"suggest_year":"2011","small_purchase":0},{"count":1,"sum":1000000,"suggest_year":"2012","small_purchase":0},{"count":2,"sum":2540000,"suggest_year":"2013","small_purchase":0},{"count":4,"sum":3740000,"suggest_year":"2014","small_purchase":0}]}},"councilor":"ea1c56bbfade4ab7a97310dba0993c8a"}],"uid":"ea1c56bbfade4ab7a97310dba0993c8a","name":"林逢錦","birth":null,"former_names":"","identifiers":["林逢錦","林逢錦"]},{"url":"http://councils.g0v.tw/api/councilors/1405/","each_terms":[{"url":"http://councils.g0v.tw/api/councilors_terms/12192/","election_year":"2014","name":"簡慈坊","gender":"女","party":"無黨籍","title":null,"constituency":2,"county":"雲林縣","district":"斗南鎮、古坑鄉、大埤鄉","in_office":false,"contact_details":null,"term_start":"2014-12-25","term_end":{"date":"2016-04-18","judicial_links":"","reason":"當選無效","ref":"http://www.cec.gov.tw/central/cms/bulletin/1597","replacement":"沈銘恭"},"education":null,"experience":null,"remark":null,"image":"","links":null,"social_media":null,"platform":"","param":{"bills_role_statistics":{"total":4,"priproposer":0,"sponsor":0,"cosponsor":4},"suggestions_years":{"count":3,"sum":3600000,"years":[{"count":3,"sum":3600000,"suggest_year":"2015","small_purchase":1}]},"suggestions_associations":[{"count":0,"sum":0,"label":"社區發展協會"},{"count":0,"sum":0,"label":"學會"},{"count":0,"sum":0,"label":"商會"},{"count":0,"sum":0,"label":"公會"},{"count":0,"sum":0,"label":"協進會"},{"count":0,"sum":0,"label":"促進會"},{"count":0,"sum":0,"label":"研習會"},{"count":0,"sum":0,"label":"婦聯會"},{"count":0,"sum":0,"label":"婦女會"},{"count":0,"sum":0,"label":"體育會"},{"count":0,"sum":0,"label":"同心會"},{"count":0,"sum":0,"label":"農會"},{"count":0,"sum":0,"label":"早起會"},{"count":0,"sum":0,"label":"健身會"},{"count":0,"sum":0,"label":"宗親會"},{"count":0,"sum":0,"label":"功德會"},{"count":0,"sum":0,"label":"商業會"},{"count":0,"sum":0,"label":"長青會"},{"count":0,"sum":0,"label":"民眾服務社"},{"count":0,"sum":0,"label":"聯盟"}],"suggestions_piles":[{"count":1,"tokens":"國中|國小","sum":100000,"label":"國中、國小"},{"count":0,"tokens":"協會|學會|商會|公會|協進會|促進會|研習會|婦聯會|婦女會|體育會|同心會|農會|早起會|健身會|宗親會|功德會|商業會|長青會|民眾服務社|聯盟","sum":0,"label":"協會"},{"count":0,"tokens":"辦公室|辦公處","sum":0,"label":"辦公室"},{"count":0,"tokens":"廟|宮","sum":0,"label":"廟"},{"count":0,"tokens":"警察局|分局","sum":0,"label":"警察局"},{"count":0,"tokens":"消防局|消防隊|分隊|中隊","sum":0,"label":"消防局"}],"bills_party_diversity":[{"party":"無黨籍","ratio":0.6052631578947368},{"party":"民主進步黨","ratio":0.2894736842105263},{"party":"中國國民黨","ratio":0.09210526315789473},{"party":"臺灣團結聯盟","ratio":0.013157894736842105}]},"councilor":"75715061b6004ea7a28d6d55eb206990"},{"url":"http://councils.g0v.tw/api/councilors_terms/2331/","election_year":"2009","name":"簡慈坊","gender":"","party":"無黨籍","title":"","constituency":2,"county":"雲林縣","district":"斗南鎮、古坑鄉、大埤鄉","in_office":true,"contact_details":[],"term_start":"2009-12-25","term_end":{"date":"2014-12-25"},"education":"台灣大學哲學系、嶺東商專商業設計科、東明國中、石龜國小、台灣大學中國藝術史研究所。","experience":"縣議員簡錦全助理、雲林縣義消斗南中隊顧問。","remark":null,"image":"http://www.ylcc.gov.tw/images/2-1.jpg","links":[{"url":"http://www.ylcc.gov.tw/index.php?inner=member_precinct2","note":"議會個人官網"}],"social_media":null,"platform":"","param":{"bills_role_statistics":{"total":2,"priproposer":2,"sponsor":2,"cosponsor":0},"suggestions_piles":[{"count":1,"tokens":"廟|宮","sum":1800000,"label":"廟"},{"count":1,"tokens":"警察局|分局","sum":400000,"label":"警察局"},{"count":1,"tokens":"國中|國小","sum":72000,"label":"國中、國小"},{"count":0,"tokens":"協會|學會|商會|公會|協進會|促進會|研習會|婦聯會|婦女會|體育會|同心會|農會|早起會|健身會|宗親會|功德會|商業會|長青會|民眾服務社|聯盟","sum":0,"label":"協會"},{"count":0,"tokens":"辦公室|辦公處","sum":0,"label":"辦公室"},{"count":0,"tokens":"消防局|消防隊|分隊|中隊","sum":0,"label":"消防局"}],"suggestions_associations":[{"count":0,"sum":0,"label":"社區發展協會"},{"count":0,"sum":0,"label":"學會"},{"count":0,"sum":0,"label":"商會"},{"count":0,"sum":0,"label":"公會"},{"count":0,"sum":0,"label":"協進會"},{"count":0,"sum":0,"label":"促進會"},{"count":0,"sum":0,"label":"研習會"},{"count":0,"sum":0,"label":"婦聯會"},{"count":0,"sum":0,"label":"婦女會"},{"count":0,"sum":0,"label":"體育會"},{"count":0,"sum":0,"label":"同心會"},{"count":0,"sum":0,"label":"農會"},{"count":0,"sum":0,"label":"早起會"},{"count":0,"sum":0,"label":"健身會"},{"count":0,"sum":0,"label":"宗親會"},{"count":0,"sum":0,"label":"功德會"},{"count":0,"sum":0,"label":"商業會"},{"count":0,"sum":0,"label":"長青會"},{"count":0,"sum":0,"label":"民眾服務社"},{"count":0,"sum":0,"label":"聯盟"}],"diversity":{"":0.0,"中國國民黨":0.0,"民主進步黨":0.0,"臺灣團結聯盟":0.0,"無黨籍":1.0},"suggestions_years":{"count":9,"sum":8667000,"years":[{"count":1,"sum":1380000,"suggest_year":"2012","small_purchase":0},{"count":6,"sum":4937000,"suggest_year":"2013","small_purchase":1},{"count":2,"sum":2350000,"suggest_year":"2014","small_purchase":0}]}},"councilor":"75715061b6004ea7a28d6d55eb206990"}],"uid":"75715061b6004ea7a28d6d55eb206990","name":"簡慈坊","birth":null,"former_names":"","identifiers":["簡慈坊"]},{"url":"http://councils.g0v.tw/api/councilors/68/","each_terms":[{"url":"http://councils.g0v.tw/api/councilors_terms/68/","election_year":"1969","name":"林榮剛","gender":"男","party":"中國國民黨","title":"議員","constituency":null,"county":"臺北市","district":"","in_office":true,"contact_details":null,"term_start":"1969-12-25","term_end":{"date":"1973-12-25"},"education":"山東省濰縣縣立中學高級部。","experience":"委員、理事、理事長。","remark":"","image":"http://www.tcc.gov.tw/../upload/photo/%E6%9E%97%E6%A6%AE%E5%89%9B09.jpg","links":[{"url":"http://www.tcc.gov.tw/Councilor_Content_All.aspx?s=1958&d=250807&n=%E6%9E%97%E6%A6%AE%E5%89%9B","note":"議會個人官網"}],"social_media":null,"platform":"","param":null,"councilor":"24b023d87ce74639bdf1681d118a43aa"},{"url":"http://councils.g0v.tw/api/councilors_terms/384/","election_year":"1989","name":"林榮剛","gender":"男","party":"中國國民黨","title":"議員","constituency":null,"county":"臺北市","district":"","in_office":true,"contact_details":null,"term_start":"1989-12-25","term_end":{"date":"1994-12-25"},"education":"山東省濰縣縣立高中畢業、革命實踐研究所講習班結業。","experience":"臺北市直轄市議會第一、二、四、五屆議員、臺北市市民消防團雙園區區團長、浙江寧波同鄉會理事、臺北市蔬菜印刷等商業同業公會顧問。","remark":"","image":"http://www.tcc.gov.tw/../upload/photo/%E6%9E%97%E6%A6%AE%E5%89%9B14.jpg","links":[{"url":"http://www.tcc.gov.tw/Councilor_Content_All.aspx?s=1597&d=250807&n=%E6%9E%97%E6%A6%AE%E5%89%9B","note":"議會個人官網"}],"social_media":null,"platform":"","param":null,"councilor":"24b023d87ce74639bdf1681d118a43aa"},{"url":"http://councils.g0v.tw/api/councilors_terms/437/","election_year":"1985","name":"林榮剛","gender":"男","party":"中國國民黨","title":"議員","constituency":null,"county":"臺北市","district":"","in_office":true,"contact_details":null,"term_start":"1985-12-25","term_end":{"date":"1989-12-25"},"education":"山東省濰縣縣立高中畢業、北平興亞學院無線電班結業。","experience":"臺北市直轄市議會第一、二、四屆議員、臺北市雙園區市民消防團區團長、臺北市雙園民眾服務分社連任三屆理事長、青年公園早泳聯誼會會長。","remark":"","image":"http://www.tcc.gov.tw/../upload/photo/%E6%9E%97%E6%A6%AE%E5%89%9B13.jpg","links":[{"url":"http://www.tcc.gov.tw/Councilor_Content_All.aspx?s=1629&d=250807&n=%E6%9E%97%E6%A6%AE%E5%89%9B","note":"議會個人官網"}],"social_media":null,"platform":"","param":null,"councilor":"24b023d87ce74639bdf1681d118a43aa"},{"url":"http://councils.g0v.tw/api/councilors_terms/483/","election_year":"1981","name":"林榮剛","gender":"男","party":"中國國民黨","title":"議員","constituency":null,"county":"臺北市","district":"","in_office":true,"contact_details":null,"term_start":"1981-12-25","term_end":{"date":"1985-12-25"},"education":"山東省濰縣縣立高中畢業。","experience":"臺北市直轄市議會第一、二屆議員、雙園區民眾服務分社第二、三屆理事長、中央日報營業員、雙園區黨部第十、十一屆常務委員、雙園區雜貨聯誼會顧問。","remark":"","image":"http://www.tcc.gov.tw/../upload/photo/%E6%9E%97%E6%A6%AE%E5%89%9B12.jpg","links":[{"url":"http://www.tcc.gov.tw/Councilor_Content_All.aspx?s=1375&d=250807&n=%E6%9E%97%E6%A6%AE%E5%89%9B","note":"議會個人官網"}],"social_media":null,"platform":"","param":null,"councilor":"24b023d87ce74639bdf1681d118a43aa"},{"url":"http://councils.g0v.tw/api/councilors_terms/578/","election_year":"1973","name":"林榮剛","gender":"男","party":"中國國民黨","title":"議員","constituency":null,"county":"臺北市","district":"","in_office":true,"contact_details":null,"term_start":"1973-12-25","term_end":{"date":"1977-12-25"},"education":"山東省濰縣市高中畢業、北平興亞學院電信科畢業。","experience":"臺北市第一屆議會議員、青島市電信局報務員、青島十一綏靖區組員、中央日報經理部營業員。","remark":"","image":"http://www.tcc.gov.tw/../upload/photo/%E6%9E%97%E6%A6%AE%E5%89%9B10.jpg","links":[{"url":"http://www.tcc.gov.tw/Councilor_Content_All.aspx?s=1900&d=250807&n=%E6%9E%97%E6%A6%AE%E5%89%9B","note":"議會個人官網"}],"social_media":null,"platform":"","param":null,"councilor":"24b023d87ce74639bdf1681d118a43aa"}],"uid":"24b023d87ce74639bdf1681d118a43aa","name":"林榮剛","birth":"1925-08-07","former_names":"","identifiers":["林榮剛","林榮剛"]}]}