{"count":1904,"next":"http://councils.g0v.tw/api/councilors/?page=47","previous":"http://councils.g0v.tw/api/councilors/?page=45","results":[{"url":"http://councils.g0v.tw/api/councilors/462/","each_terms":[{"url":"http://councils.g0v.tw/api/councilors_terms/808/","election_year":"1973","name":"蔡洪嬌娥","gender":"","party":"","title":"議員","constituency":5,"county":"新北市","district":"淡水鎮、八里鄉、三芝鄉、石門鄉","in_office":true,"contact_details":null,"term_start":"1973-05-01","term_end":{"date":"1977-12-29"},"education":"淡水純德高中畢業","experience":"曾任淡水、八里、興仁國校教員\n新竹縣婦女會理事\n竹北鄉民眾服務站委員\n竹民鄉民代表\n隆昌藥行經理\n臺北縣議會第6、8屆議員","remark":null,"image":"http://www.ntp.gov.tw/UpFile/CouncilorFile/TTCC0633.jpg","links":[{"url":"http://www.ntp.gov.tw/content/history/history01-5-p.aspx?sid=263","note":"議會個人官網"}],"social_media":null,"platform":"","param":null,"councilor":"44c4a7ad9c8640c3ad3757e556f6f985"},{"url":"http://councils.g0v.tw/api/councilors_terms/1832/","election_year":"1964","name":"蔡洪嬌娥","gender":"","party":"","title":"議員","constituency":5,"county":"新北市","district":"淡水鎮、八里鄉、三芝鄉、石門鄉","in_office":true,"contact_details":null,"term_start":"1964-02-21","term_end":{"date":"1968-02-20"},"education":"淡水純德高中畢業","experience":"曾任淡水、八里、興仁國校教員\n新竹縣婦女會理事\n竹北鄉民眾服務站委員\n竹民鄉民代表\n隆昌藥行經理\n臺北縣議會第6、8屆議員","remark":null,"image":"http://www.ntp.gov.tw/UpFile/CouncilorFile/TTCC0633.jpg","links":[{"url":"http://www.ntp.gov.tw/content/history/history01-5-p.aspx?sid=263","note":"議會個人官網"}],"social_media":null,"platform":"","param":null,"councilor":"44c4a7ad9c8640c3ad3757e556f6f985"}],"uid":"44c4a7ad9c8640c3ad3757e556f6f985","name":"蔡洪嬌娥","birth":null,"former_names":"","identifiers":["蔡洪嬌娥"]},{"url":"http://councils.g0v.tw/api/councilors/72/","each_terms":[{"url":"http://councils.g0v.tw/api/councilors_terms/72/","election_year":"1973","name":"譚鳴皋","gender":"男","party":"中國國民黨","title":"議員","constituency":null,"county":"臺北市","district":"","in_office":true,"contact_details":null,"term_start":"1973-12-25","term_end":{"date":"1977-12-25"},"education":"陸軍軍官學校畢業、國立臺灣師範大學畢業、日本大東文化大學碩士。","experience":"臺北市成功中學上尉軍訓教官、臺北市松山國中、市立高工教員、師範大學、臺北醫學院講師、教育部專員。","remark":"","image":"http://www.tcc.gov.tw/../upload/photo/%E8%AD%9A%E9%B3%B4%E7%9A%8B10.jpg","links":[{"url":"http://www.tcc.gov.tw/Councilor_Content_All.aspx?s=2011&d=311204&n=%E8%AD%9A%E9%B3%B4%E7%9A%8B","note":"議會個人官網"}],"social_media":null,"platform":"","param":null,"councilor":"4f39977ebdd54e218dfd036cede084f8"},{"url":"http://councils.g0v.tw/api/councilors_terms/73/","election_year":"1977","name":"譚鳴皋","gender":"男","party":"中國國民黨","title":"議員","constituency":null,"county":"臺北市","district":"","in_office":true,"contact_details":null,"term_start":"1977-12-25","term_end":{"date":"1981-12-25"},"education":"陸軍軍官學校畢業、國立臺灣師範大學畢業、日本大東文化大學碩士。","experience":"臺北市立成功中學上尉軍訓教官、臺北市立松山國中、市立高工教師、國立臺灣師範大學副教授、教育部專員、臺北市直轄市議會第二屆議員。","remark":"","image":"http://www.tcc.gov.tw/../upload/photo/%E8%AD%9A%E9%B3%B4%E7%9A%8B11.jpg","links":[{"url":"http://www.tcc.gov.tw/Councilor_Content_All.aspx?s=1976&d=311204&n=%E8%AD%9A%E9%B3%B4%E7%9A%8B","note":"議會個人官網"}],"social_media":null,"platform":"","param":null,"councilor":"4f39977ebdd54e218dfd036cede084f8"}],"uid":"4f39977ebdd54e218dfd036cede084f8","name":"譚鳴皋","birth":"1931-12-04","former_names":"","identifiers":["譚鳴皋"]},{"url":"http://councils.g0v.tw/api/councilors/73/","each_terms":[{"url":"http://councils.g0v.tw/api/councilors_terms/74/","election_year":"1981","name":"羅世凱","gender":"男","party":"中國國民黨","title":"議員","constituency":null,"county":"臺北市","district":"","in_office":true,"contact_details":null,"term_start":"1981-12-25","term_end":{"date":"1985-12-25"},"education":"東吳大學法學院經濟系畢業。","experience":"國語實小、太平國小家長會會長、喬治中學、靜修女中教師、古亭區後備軍人輔導組長、臺北市兵役協會古亭區分會主任委員、臺北市直轄市議會第三屆議員。","remark":"","image":"http://www.tcc.gov.tw/../upload/photo/%E7%BE%85%E4%B8%96%E5%87%B112.jpg","links":[{"url":"http://www.tcc.gov.tw/Councilor_Content_All.aspx?s=1450&d=331126&n=%E7%BE%85%E4%B8%96%E5%87%B1","note":"議會個人官網"}],"social_media":null,"platform":"","param":null,"councilor":"842e8d93ba0d48c8861dc5ccbd92aab4"},{"url":"http://councils.g0v.tw/api/councilors_terms/500/","election_year":"1977","name":"羅世凱","gender":"男","party":"中國國民黨","title":"議員","constituency":null,"county":"臺北市","district":"","in_office":true,"contact_details":null,"term_start":"1977-12-25","term_end":{"date":"1981-12-25"},"education":"東吳大學法學院經濟系畢業。","experience":"國語實驗小學、太平國民小學家長會會長、私立喬治中學教員、私立靜修女中教員、臺北市古亭區後備軍人輔導組組長、臺北市兵役協會古亭區分會主任委員。","remark":"","image":"http://www.tcc.gov.tw/../upload/photo/%E7%BE%85%E4%B8%96%E5%87%B111.jpg","links":[{"url":"http://www.tcc.gov.tw/Councilor_Content_All.aspx?s=2110&d=331126&n=%E7%BE%85%E4%B8%96%E5%87%B1","note":"議會個人官網"}],"social_media":null,"platform":"","param":null,"councilor":"842e8d93ba0d48c8861dc5ccbd92aab4"}],"uid":"842e8d93ba0d48c8861dc5ccbd92aab4","name":"羅世凱","birth":"1933-11-26","former_names":"","identifiers":["羅世凱"]},{"url":"http://councils.g0v.tw/api/councilors/1216/","each_terms":[{"url":"http://councils.g0v.tw/api/councilors_terms/2142/","election_year":"2009","name":"陳宗義","gender":"","party":"","title":"議員","constituency":1,"county":"桃園縣","district":"桃園市","in_office":true,"contact_details":[{"type":"email","value":"tycca103@tycc.gov.tw","label":"EMAIL"},{"type":"address","value":"桃園市莊一街182號之1","label":"服務處"},{"type":"voice","value":"03-3029906","label":"電話"},{"type":"fax","value":"03-3029907","label":"傳真"}],"term_start":"2009-12-25","term_end":{"date":"2014-12-25"},"education":"中山國小\n桃園國中\n振聲中學\n國立臺灣大學法律系畢業","experience":"第五屆立法委員\n第八屆桃園市長\n法務部簡任11職等秘書\n行政院簡任12職等秘書兼七組組長\n行政院簡任14職等政務顧問","remark":null,"image":"http://www.tycc.gov.tw/file%5Cperson%5Capp%5Ca634641660952352210%E9%99%B3%E5%AE%97%E7%BE%A9%E8%AD%B0%E5%93%A1.jpg","links":[{"url":"http://www.tycc.gov.tw/page.aspx?wtp=1&wnd=204&id=38","note":"議會個人官網"},{"url":"http://https://www.facebook.com/pages/%E9%99%B3%E5%AE%97%E7%BE%A9/1379956275558514","note":"臉書"}],"social_media":null,"platform":"","param":null,"councilor":"3c90f632b30846a4b7bb828dba60142c"}],"uid":"3c90f632b30846a4b7bb828dba60142c","name":"陳宗義","birth":null,"former_names":"","identifiers":["陳宗義"]},{"url":"http://councils.g0v.tw/api/councilors/1229/","each_terms":[{"url":"http://councils.g0v.tw/api/councilors_terms/2155/","election_year":"2009","name":"劉邦鉉","gender":"","party":"","title":"議員","constituency":8,"county":"桃園縣","district":"平鎮市","in_office":true,"contact_details":[{"type":"email","value":"lu57721@hotmail.com","label":"EMAIL"},{"type":"address","value":"平鎮市延平路二段330號","label":"服務處"},{"type":"voice","value":"491-0432","label":"電話"},{"type":"fax","value":"491-0409","label":"傳真"}],"term_start":"2009-12-25","term_end":{"date":"2014-12-25"},"education":"芭里國小\n新明國中\n永平工商\n空中大學\n南亞技術學院\n元智大學社會暨政策科學研究所","experience":"桃園縣第15、16、17屆縣議員\n桃園縣議會教育小組召集人\n平鎮市家長會長協會93-94總會長\n義興文教基金會第一、二屆董事長\n義興國小家長會第五、六屆會長\n桃園縣合球委員會主任委員\n平鎮市網球委員會理事長\n桃園縣救難協會名譽理事長\n救國團平鎮分會93-94會長\n桃園縣警局義交中隊長\n桃園縣劉姓宗親會理事長\n桃園縣直排輪運動暨檢定協會理事長\n桃園縣饒平發展促進協會理事長\n桃園縣議會無黨籍聯盟副總召集人","remark":null,"image":"http://www.tycc.gov.tw/file%5Cperson%5Capp%5Ca634856527601457518%E6%A1%83%E5%9C%92%E7%B8%A3%E8%AD%B0%E5%93%A1%E5%8A%89%E9%82%A6%E9%89%89133_96.jpg","links":[{"url":"http://www.tycc.gov.tw/page.aspx?wtp=1&wnd=204&id=77","note":"議會個人官網"},{"url":"http://www.facebook.com/profile.php?id=100001838693488","note":"臉書"}],"social_media":null,"platform":"","param":null,"councilor":"7b15bf1ea5e447ce9515cbdd398d6ce7"}],"uid":"7b15bf1ea5e447ce9515cbdd398d6ce7","name":"劉邦鉉","birth":null,"former_names":"","identifiers":["劉邦鉉","劉邦鉉"]},{"url":"http://councils.g0v.tw/api/councilors/1549/","each_terms":[{"url":"http://councils.g0v.tw/api/councilors_terms/2475/","election_year":"2009","name":"余秀芳","gender":"女","party":"無黨籍","title":"","constituency":11,"county":"臺東縣","district":"山地原住民（關山鎮、池上鄉、鹿野鄉、海端鄉）","in_office":true,"contact_details":[{"type":"voice","value":"089-931496","label":"電話"},{"type":"address","value":"台東縣海端鄉海端村新武呂9鄰14之1","label":"地址"}],"term_start":"2009-12-25","term_end":{"date":"2014-12-25"},"education":"一、初來國小畢業。\n二、海端國中畢業。\n三、台東女中畢業。\n四、靜宜大學外語系畢業。","experience":"一、中國國民黨第四區黨部主任兼區書記及第二黨部主任兼區書記。\n二、婦聯青溪海端支分會主任委員\n三、海端鄉婦女會總幹事\n四、海端鄉社區發展協會理事長\n五、海端調解委員。","remark":null,"image":"http://www.taitungcc.gov.tw/ourteam/images/11_name01_pic001.jpg","links":[{"url":"http://www.taitungcc.gov.tw/ourteam/12ourteam_detail01.html","note":"議會個人官網"}],"social_media":null,"platform":"一、理性問政，專業力量，立即可以進入議事軌道，為民喉舌，為民服務。加強縣政預算審查及監督公共工程\n絕不懈怠。\n二、協助鄉公所、代表會間，上級機關單位或鄉親間，溝通協調，促使平等互惠、尊重、鄉親間才能和諧團結。\n三、配合鄉公所、代表會向中央爭取年度施政計畫補助，並且強調資源共享。\n四、倡導原住民布農族文化傳承工作，推展母語教學、布農族傳統歌謠教學，發揚布農族文化及創造部落經濟。\n五、協助拓展海端鄉觀光產業，將農業、傳統文化及觀光互相結合，創造就業機會。\n六、守護原鄉，疼惜都市原住民鄉親子弟，保障鄉親子弟的生存權益，使旅外的及鄉親及其在鄉內的家屬，\r\n                                           生計受到實質照顧。","param":{"suggestions_years":{"count":13,"sum":1061000,"years":[{"count":13,"sum":1061000,"suggest_year":"2014","small_purchase":13}]},"suggestions_associations":[{"count":2,"sum":165000,"label":"社區發展協會"},{"count":1,"sum":60000,"label":"民眾服務社"},{"count":0,"sum":0,"label":"學會"},{"count":0,"sum":0,"label":"商會"},{"count":0,"sum":0,"label":"公會"},{"count":0,"sum":0,"label":"協進會"},{"count":0,"sum":0,"label":"促進會"},{"count":0,"sum":0,"label":"研習會"},{"count":0,"sum":0,"label":"婦聯會"},{"count":0,"sum":0,"label":"婦女會"},{"count":0,"sum":0,"label":"體育會"},{"count":0,"sum":0,"label":"同心會"},{"count":0,"sum":0,"label":"農會"},{"count":0,"sum":0,"label":"早起會"},{"count":0,"sum":0,"label":"健身會"},{"count":0,"sum":0,"label":"宗親會"},{"count":0,"sum":0,"label":"功德會"},{"count":0,"sum":0,"label":"商業會"},{"count":0,"sum":0,"label":"長青會"},{"count":0,"sum":0,"label":"聯盟"}],"suggestions_piles":[{"count":6,"tokens":"國中|國小","sum":505000,"label":"國中、國小"},{"count":3,"tokens":"協會|學會|商會|公會|協進會|促進會|研習會|婦聯會|婦女會|體育會|同心會|農會|早起會|健身會|宗親會|功德會|商業會|長青會|民眾服務社|聯盟","sum":225000,"label":"協會"},{"count":2,"tokens":"辦公室|辦公處","sum":145000,"label":"辦公室"},{"count":1,"tokens":"警察局|分局","sum":99000,"label":"警察局"},{"count":1,"tokens":"消防局|消防隊|分隊|中隊","sum":87000,"label":"消防局"},{"count":0,"tokens":"廟|宮","sum":0,"label":"廟"}],"bills_party_diversity":null},"councilor":"dcc0c4be2710461b82fda814fffed51e"}],"uid":"dcc0c4be2710461b82fda814fffed51e","name":"余秀芳","birth":null,"former_names":"","identifiers":["余秀芳"]},{"url":"http://councils.g0v.tw/api/councilors/681/","each_terms":[{"url":"http://councils.g0v.tw/api/councilors_terms/1215/","election_year":"1998","name":"陳梅嬌","gender":"","party":"","title":"議員","constituency":10,"county":"新北市","district":"新店市、深坑鄉、石碇鄉、坪林鄉、烏來鄉","in_office":true,"contact_details":null,"term_start":"1998-03-01","term_end":{"date":"2002-02-28"},"education":"新湖國小\n湖口中學\n育達高商畢業","experience":"臺北縣議會第14、15屆議員\n北臺灣問政會長\n中國國民黨第16屆全黨代表\n臺北縣婦女權益促進委員會\n消防局婦女防火宣導分隊長\n警局新店女義警分隊長\n新店市連4任市民代表、連3任調解委員\n工商婦女聯誼會第3屆會長\n新碧獅子會第7屆會長\n大新店同濟會第3屆會長","remark":null,"image":"http://www.ntp.gov.tw/UpFile/CouncilorFile/TTCC1463.jpg","links":[{"url":"http://www.ntp.gov.tw/content/history/history01-5-p.aspx?sid=501","note":"議會個人官網"}],"social_media":null,"platform":"","param":null,"councilor":"f96737bec86a43fa8c52e36355c64f44"},{"url":"http://councils.g0v.tw/api/councilors_terms/1280/","election_year":"2002","name":"陳梅嬌","gender":"","party":"","title":"議員","constituency":10,"county":"新北市","district":"新店市、深坑鄉、石碇鄉、坪林鄉、烏來鄉","in_office":true,"contact_details":null,"term_start":"2002-03-01","term_end":{"date":"2006-02-28"},"education":"新湖國小\n湖口中學\n育達高商畢業","experience":"臺北縣議會第14、15屆議員\n北臺灣問政會長\n中國國民黨第16屆全黨代表\n臺北縣婦女權益促進委員會\n消防局婦女防火宣導分隊長\n警局新店女義警分隊長\n新店市連4任市民代表、連3任調解委員\n工商婦女聯誼會第3屆會長\n新碧獅子會第7屆會長\n大新店同濟會第3屆會長","remark":null,"image":"http://www.ntp.gov.tw/UpFile/CouncilorFile/TTCC1463.jpg","links":[{"url":"http://www.ntp.gov.tw/content/history/history01-5-p.aspx?sid=501","note":"議會個人官網"}],"social_media":null,"platform":"","param":null,"councilor":"f96737bec86a43fa8c52e36355c64f44"}],"uid":"f96737bec86a43fa8c52e36355c64f44","name":"陳梅嬌","birth":null,"former_names":"","identifiers":["陳梅嬌"]},{"url":"http://councils.g0v.tw/api/councilors/682/","each_terms":[{"url":"http://councils.g0v.tw/api/councilors_terms/1216/","election_year":"1998","name":"林重誠","gender":"","party":"","title":"議員","constituency":10,"county":"新北市","district":"新店市、深坑鄉、石碇鄉、坪林鄉、烏來鄉","in_office":true,"contact_details":null,"term_start":"1998-03-01","term_end":{"date":"2002-02-28"},"education":"嘉義縣林子國小\n嘉義縣東石國中\n臺北市立建國高級中學\n國立臺灣大學牙醫系","experience":"臺北縣議會第14屆議員\n嘉義同鄉會新店分會副會長\n周大觀生命關懷協會董事\n新店市民代表\n宏庚牙醫診所牙醫師","remark":null,"image":"http://www.ntp.gov.tw/UpFile/CouncilorFile/TTCC1462.jpg","links":[{"url":"http://www.ntp.gov.tw/content/history/history01-5-p.aspx?sid=500","note":"議會個人官網"}],"social_media":null,"platform":"","param":null,"councilor":"2975d1d1a5194d109cd6d9378d8b1183"}],"uid":"2975d1d1a5194d109cd6d9378d8b1183","name":"林重誠","birth":null,"former_names":"","identifiers":["林重誠","林重誠"]},{"url":"http://councils.g0v.tw/api/councilors/89/","each_terms":[{"url":"http://councils.g0v.tw/api/councilors_terms/93/","election_year":"2010","name":"楊實秋","gender":"男","party":"中國國民黨","title":"議員","constituency":3,"county":"臺北市","district":"松山區、信義區","in_office":true,"contact_details":[{"type":"email","value":"tcc7807@tcc.gov.tw","label":"電子信箱"},{"type":"voice","value":"2722184527297708#5005、5105","label":"電話"},{"type":"fax","value":"23459116","label":"傳真"},{"type":"address","value":"台北市仁愛路4段507號505室","label":"通訊處"}],"term_start":"2010-12-25","term_end":{"date":"2014-12-25"},"education":"東海大學法學士、淡江大學法學碩士","experience":"淡江大學公關班講座、東海大學企管班講座、臺北師範學院講師、醒吾商專副教授、中央廣播電台編審、中華民國足球協會理事、中華民國棒球協會理事、第六屆市議員、第八屆市議員、第九屆市議員、第十屆市議員、淡江大學土木工程學系。美國UCLA碩士後研究。","remark":"","image":"http://www.tcc.gov.tw/../upload/photo/%E6%A5%8A%E5%AF%A6%E7%A7%8B.jpg","links":[{"url":"http://www.tcc.gov.tw/Councilor_Content.aspx?s=1057","note":"議會個人官網"},{"url":"http://blog.udn.com/taipeicouncilor","note":"個人網站"}],"social_media":null,"platform":"苦民所苦　楊實秋　感同身受\n楊實秋在台北市議會每年固定捐款，包括議員半數薪資、議員出國補助費、自強活動費、議員為民服務費，捐款超過一百三十萬元，多數捐給教育局，幫助清寒學生。（時報周刊98.5.22）\n楊實秋議員將自己的捐款，及籌募到的善款一百萬元，捐給教育局幫助清寒學生。楊實秋同時希望市府能相對編列一百萬元給這些貧窮孩子。（自由時報96.12.7）\n捐款助社福，楊實秋送愛心。自九十二年度起，楊實秋每年都將議員福利捐出。楊實秋已將自身福利，轉捐助給社福機構與殘障團體達三百萬元。（中國時報95.7.18）\n議員福利楊實秋決捐出，創下民代首例，這是議會數十年來，首度出現議員將每年出國補助費、假日出席費、交通費等自身福利捐出的個案。（聯合報93.1.9）\n打擊貪腐　楊實秋　絕不手軟\n楊實秋踢爆七個民進黨立委涉嫌貪瀆，以小額機票詐領出國公費，也曾當面向檢查官侯寬仁檢舉。楊實秋公開再次向特偵組喊話，希望檢調單位不分黨派，嚴格監督市議員不開會，甚至出國渡假，每年照領開會出席費五十餘萬，是否涉及貪瀆。（東森電子報96.12.12）\n楊實秋議員因為無法刪除市府浮濫預算（約廿億元，多為土地徵收以及工程浮報款），深感愧對台北市民。決定捐出薪水半數六十七萬元，幫助清寒國中小學生。楊實秋誠懇呼籲市府官員，在不景氣的時候，更要謹記爾俸爾祿，民脂民膏。（市議會網站98.3.18）\n八千萬整修研究室，議員批自肥，國民黨籍議員楊實秋反對編列該預算，以免被指變相加薪。（自由時報89.7.30）\n反貪腐議員楊實秋，力挺郝龍斌市長做事正派，絕對清廉。楊實秋將公布：領錢不開會議員名單。（聯合晚報99.9.10）","param":{"bills_role_statistics":{"total":74,"priproposer":0,"sponsor":74,"cosponsor":0},"votes_decision_statistics":{"abstain":7,"disagree":45,"not_voting":0,"total":60,"agree":8,"conflict":9},"diversity":{"臺灣團結聯盟":0.02341930936585185,"親民黨":0.022488318036929616,"無黨籍":0.017022700627793864,"中國國民黨":0.6240618492049888,"新黨":0.029732436571293316,"民主進步黨":0.2832753861931428},"suggestions_years":{"count":4,"sum":3845000,"years":[{"count":3,"sum":1420000,"suggest_year":"2013","small_purchase":0},{"count":1,"sum":2425000,"suggest_year":"2014","small_purchase":0}]},"attendance_statistics":{"absent":0,"total":131},"suggestions_associations":[{"count":0,"sum":0,"label":"社區發展協會"},{"count":0,"sum":0,"label":"學會"},{"count":0,"sum":0,"label":"商會"},{"count":0,"sum":0,"label":"公會"},{"count":0,"sum":0,"label":"協進會"},{"count":0,"sum":0,"label":"促進會"},{"count":0,"sum":0,"label":"研習會"},{"count":0,"sum":0,"label":"婦聯會"},{"count":0,"sum":0,"label":"婦女會"},{"count":0,"sum":0,"label":"體育會"},{"count":0,"sum":0,"label":"同心會"},{"count":0,"sum":0,"label":"農會"},{"count":0,"sum":0,"label":"早起會"},{"count":0,"sum":0,"label":"健身會"},{"count":0,"sum":0,"label":"宗親會"},{"count":0,"sum":0,"label":"功德會"},{"count":0,"sum":0,"label":"商業會"},{"count":0,"sum":0,"label":"長青會"},{"count":0,"sum":0,"label":"民眾服務社"},{"count":0,"sum":0,"label":"聯盟"}],"bills_party_diversity":[{"party":"中國國民黨","ratio":0.6109713135379969},{"party":"民主進步黨","ratio":0.29743331655762456},{"party":"新黨","ratio":0.02868646200301963},{"party":"親民黨","ratio":0.02214393558127831},{"party":"無黨籍","ratio":0.0206341217916457},{"party":"臺灣團結聯盟","ratio":0.020130850528434826}],"suggestions_piles":[{"count":0,"tokens":"協會|學會|商會|公會|協進會|促進會|研習會|婦聯會|婦女會|體育會|同心會|農會|早起會|健身會|宗親會|功德會|商業會|長青會|民眾服務社|聯盟","sum":0,"label":"協會"},{"count":0,"tokens":"辦公室|辦公處","sum":0,"label":"辦公室"},{"count":0,"tokens":"廟|宮","sum":0,"label":"廟"},{"count":0,"tokens":"警察局|分局","sum":0,"label":"警察局"},{"count":0,"tokens":"消防局|消防隊|分隊|中隊","sum":0,"label":"消防局"},{"count":0,"tokens":"國中|國小","sum":0,"label":"國中、國小"}]},"councilor":"8b7441277fc64266aa67c69ab7313a99"},{"url":"http://councils.g0v.tw/api/councilors_terms/154/","election_year":"2006","name":"楊實秋","gender":"男","party":"中國國民黨","title":"議員","constituency":null,"county":"臺北市","district":"","in_office":true,"contact_details":null,"term_start":"2006-12-25","term_end":{"date":"2010-12-25"},"education":"淡江大學土木工程學系、東海大學法學士、淡江大學法學碩士、美國ＵＣＬＡ大學碩士後研究。","experience":"淡江大學公關班講座、東海大學企管班講座、台北師範學院講師、中華綜合發展研究院講座、醒吾商專副教授、中央廣播電台編審、中華民國足球協會理事、中華民國棒球協會理事、第六屆台北市議員、第八屆台北市議員、第九屆台北市議員","remark":"","image":"http://www.tcc.gov.tw/../upload/photo/%E6%A5%8A%E5%AF%A6%E7%A7%8B.jpg","links":[{"url":"http://www.tcc.gov.tw/Councilor_Content_All.aspx?s=2297&d=580924&n=%E6%A5%8A%E5%AF%A6%E7%A7%8B","note":"議會個人官網"}],"social_media":null,"platform":"","param":null,"councilor":"8b7441277fc64266aa67c69ab7313a99"},{"url":"http://councils.g0v.tw/api/councilors_terms/357/","election_year":"1989","name":"楊實秋","gender":"男","party":"中國國民黨","title":"議員","constituency":null,"county":"臺北市","district":"","in_office":true,"contact_details":null,"term_start":"1989-12-25","term_end":{"date":"1994-12-25"},"education":"東海大學法學士、淡江大學法學碩士。","experience":"東海大學企業管理班講座、勝大莊文化企業集團副總經理。","remark":"","image":"http://www.tcc.gov.tw/../upload/photo/%E6%A5%8A%E5%AF%A6%E7%A7%8B14.jpg","links":[{"url":"http://www.tcc.gov.tw/Councilor_Content_All.aspx?s=1684&d=580924&n=%E6%A5%8A%E5%AF%A6%E7%A7%8B","note":"議會個人官網"}],"social_media":null,"platform":"","param":null,"councilor":"8b7441277fc64266aa67c69ab7313a99"},{"url":"http://councils.g0v.tw/api/councilors_terms/205/","election_year":"2002","name":"楊實秋","gender":"男","party":"中國國民黨","title":"議員","constituency":null,"county":"臺北市","district":"","in_office":true,"contact_details":null,"term_start":"2002-12-25","term_end":{"date":"2006-12-25"},"education":"淡江大學土木工程學系、東海大學法學士、淡江大學法學碩士、美國ＵＣＬＡ大學碩士後研究。","experience":"中央廣播電臺編審、臺北師範學院講師、東海大學講座、淡江大學公關班講座、醒吾商專副教授、中華綜合發展研究院講座、臺北市直轄市議會第六屆、八屆議員。","remark":"","image":"http://www.tcc.gov.tw/../upload/photo/%E7%AC%AC%E4%B9%9D%E5%B1%86%E6%A5%8A%E5%AF%A6%E7%A7%8B011.jpg","links":[{"url":"http://www.tcc.gov.tw/Councilor_Content_All.aspx?s=1901&d=580924&n=%E6%A5%8A%E5%AF%A6%E7%A7%8B","note":"議會個人官網"}],"social_media":null,"platform":"","param":null,"councilor":"8b7441277fc64266aa67c69ab7313a99"},{"url":"http://councils.g0v.tw/api/councilors_terms/259/","election_year":"1998","name":"楊實秋","gender":"男","party":"中國國民黨","title":"議員","constituency":null,"county":"臺北市","district":"","in_office":true,"contact_details":null,"term_start":"1998-12-25","term_end":{"date":"2002-12-25"},"education":"東海大學法學士、淡江大學法學碩士、美國ＵＣＬＡ大學碩士後研究。","experience":"臺北市直轄市議會第六屆議員。第七屆臺北市議會顧問。中央廣播電台編審。醒吾商專副教授。臺北師範學院講座。淡江大學公關班講座。東海大學企管班講座。中華綜合發展研究院講座。","remark":"","image":"http://www.tcc.gov.tw/../upload/photo/%E6%A5%8A%E5%AF%A6%E7%A7%8B16.bmp","links":[{"url":"http://www.tcc.gov.tw/Councilor_Content_All.aspx?s=1849&d=580924&n=%E6%A5%8A%E5%AF%A6%E7%A7%8B","note":"議會個人官網"}],"social_media":null,"platform":"","param":null,"councilor":"8b7441277fc64266aa67c69ab7313a99"}],"uid":"8b7441277fc64266aa67c69ab7313a99","name":"楊實秋","birth":"1958-09-24","former_names":"","identifiers":["楊實秋"]},{"url":"http://councils.g0v.tw/api/councilors/1280/","each_terms":[{"url":"http://councils.g0v.tw/api/councilors_terms/2206/","election_year":"2009","name":"林昆熠","gender":"男","party":"無黨籍","title":"議員","constituency":2,"county":"南投縣","district":"草屯鎮、中寮鄉","in_office":true,"contact_details":[{"type":"address","value":"草屯鎮新豐里稻香路76-4號","label":"通訊處"}],"term_start":"2009-12-25","term_end":{"date":"2014-12-25"},"education":"南開科技大學進專企業管理科畢業","experience":"一. 草鞋墩人文觀光夜市總幹事。\n二. 萬隆印刷股份有限公司總經理。\n三. 南投縣草屯鎮民代表會第18屆主席。","remark":null,"image":"http://www.ntcc.gov.tw/images/n3_2_2.jpg","links":null,"social_media":null,"platform":"問政不分黨派，服務不分對象，鄉親第一。\n1. 理性問政認真監督縣政，力促清廉、高效率縣政形象。\n2. 結合地方文化、觀光、產業，極力推動人文氣息，促進觀光，推廣地方農特產，降低失業率，增加收入。\n3. 地方與中央結合，爭取中央資源建設地方。\n4. 聯結地方拉近城鄉差距，城鄉同步發展。\n5. 關懷弱勢團體，落實教育及社會福利政策。","param":{"bills_role_statistics":{"total":20,"priproposer":4,"sponsor":4,"cosponsor":16},"suggestions_piles":[{"count":1,"tokens":"警察局|分局","sum":200000,"label":"警察局"},{"count":1,"tokens":"辦公室|辦公處","sum":99000,"label":"辦公室"},{"count":0,"tokens":"協會|學會|商會|公會|協進會|促進會|研習會|婦聯會|婦女會|體育會|同心會|農會|早起會|健身會|宗親會|功德會|商業會|長青會|民眾服務社|聯盟","sum":0,"label":"協會"},{"count":0,"tokens":"廟|宮","sum":0,"label":"廟"},{"count":0,"tokens":"消防局|消防隊|分隊|中隊","sum":0,"label":"消防局"},{"count":0,"tokens":"國中|國小","sum":0,"label":"國中、國小"}],"suggestions_associations":[{"count":0,"sum":0,"label":"社區發展協會"},{"count":0,"sum":0,"label":"學會"},{"count":0,"sum":0,"label":"商會"},{"count":0,"sum":0,"label":"公會"},{"count":0,"sum":0,"label":"協進會"},{"count":0,"sum":0,"label":"促進會"},{"count":0,"sum":0,"label":"研習會"},{"count":0,"sum":0,"label":"婦聯會"},{"count":0,"sum":0,"label":"婦女會"},{"count":0,"sum":0,"label":"體育會"},{"count":0,"sum":0,"label":"同心會"},{"count":0,"sum":0,"label":"農會"},{"count":0,"sum":0,"label":"早起會"},{"count":0,"sum":0,"label":"健身會"},{"count":0,"sum":0,"label":"宗親會"},{"count":0,"sum":0,"label":"功德會"},{"count":0,"sum":0,"label":"商業會"},{"count":0,"sum":0,"label":"長青會"},{"count":0,"sum":0,"label":"民眾服務社"},{"count":0,"sum":0,"label":"聯盟"}],"diversity":{"中國國民黨":0.4809523809523809,"民主進步黨":0.10428571428571427,"無黨籍":0.4147619047619048},"suggestions_years":{"count":25,"sum":3530000,"years":[{"count":25,"sum":3530000,"suggest_year":"2014","small_purchase":16}]}},"councilor":"2ae0d501839f473dadf1c44550715249"}],"uid":"2ae0d501839f473dadf1c44550715249","name":"林昆熠","birth":"1968-01-07","former_names":"","identifiers":["林昆熠","林昆熠"]}]}