{"count":1904,"next":"http://councils.g0v.tw/api/councilors/?page=48","previous":"http://councils.g0v.tw/api/councilors/?page=46","results":[{"url":"http://councils.g0v.tw/api/councilors/1598/","each_terms":[],"uid":"a8d8b7134d9940ccb6086f807be431f4","name":"詹運喜","birth":null,"former_names":"","identifiers":["詹運喜"]},{"url":"http://councils.g0v.tw/api/councilors/1599/","each_terms":[],"uid":"683b4e2e99074c39ae8445120cf2a596","name":"傅學煥","birth":null,"former_names":"","identifiers":["傅學煥"]},{"url":"http://councils.g0v.tw/api/councilors/1600/","each_terms":[],"uid":"59e9d39186024e95884fea6fa61ff4fb","name":"孫素娥","birth":null,"former_names":"","identifiers":["孫素娥"]},{"url":"http://councils.g0v.tw/api/councilors/1570/","each_terms":[],"uid":"aef3c23ade5647afa66839848ddd448c","name":"羅雪珠","birth":null,"former_names":"","identifiers":["羅雪珠"]},{"url":"http://councils.g0v.tw/api/councilors/555/","each_terms":[{"url":"http://councils.g0v.tw/api/councilors_terms/957/","election_year":"1977","name":"劉炳發","gender":"","party":"","title":"議員","constituency":1,"county":"新北市","district":"板橋市、中和鄉、永和鎮、土城鄉","in_office":true,"contact_details":null,"term_start":"1977-12-30","term_end":{"date":"1982-02-28"},"education":"板橋市實驗國小\n臺北縣立樹林中學\n中國市政專科學校\n美國聖湯姆士大學國貿企管碩士\n淡江大學營建管理研究所","experience":"北縣義勇消防警察大隊板橋中隊顧問\n板橋浮洲社區理事長\n北縣體育會摔角委員會副主任委員\n臺北縣議會第9、10屆議員\n臺北縣議會第11、12屆副議長\n臺北縣軟式網球委員會委員\n中華民國軟式網球協會常務理事\n板橋高中家長委員會會長\n省議長盃軟式網球錦標賽冠軍","remark":null,"image":"http://www.ntp.gov.tw/UpFile/CouncilorFile/TTCC0905.jpg","links":[{"url":"http://www.ntp.gov.tw/content/history/history01-5-p.aspx?sid=326","note":"議會個人官網"}],"social_media":null,"platform":"","param":null,"councilor":"e17686312b0645a3adb100dc54d959be"},{"url":"http://councils.g0v.tw/api/councilors_terms/1078/","election_year":"1982","name":"劉炳發","gender":"","party":"","title":"議員","constituency":1,"county":"新北市","district":"板橋市、土城鄉","in_office":true,"contact_details":null,"term_start":"1982-03-01","term_end":{"date":"1986-02-28"},"education":"板橋市實驗國小\n臺北縣立樹林中學\n中國市政專科學校\n美國聖湯姆士大學國貿企管碩士\n淡江大學營建管理研究所","experience":"北縣義勇消防警察大隊板橋中隊顧問\n板橋浮洲社區理事長\n北縣體育會摔角委員會副主任委員\n臺北縣議會第9、10屆議員\n臺北縣議會第11、12屆副議長\n臺北縣軟式網球委員會委員\n中華民國軟式網球協會常務理事\n板橋高中家長委員會會長\n省議長盃軟式網球錦標賽冠軍","remark":null,"image":"http://www.ntp.gov.tw/UpFile/CouncilorFile/TTCC0905.jpg","links":[{"url":"http://www.ntp.gov.tw/content/history/history01-5-p.aspx?sid=326","note":"議會個人官網"}],"social_media":null,"platform":"","param":null,"councilor":"e17686312b0645a3adb100dc54d959be"},{"url":"http://councils.g0v.tw/api/councilors_terms/1146/","election_year":"1990","name":"劉炳發","gender":"","party":"","title":"副議長","constituency":1,"county":"新北市","district":"板橋市","in_office":true,"contact_details":null,"term_start":"1990-03-01","term_end":{"date":"1994-02-28"},"education":"板橋市實驗國小\n臺北縣立樹林中學\n中國市政專科學校\n美國聖湯姆士大學國貿企管碩士\n淡江大學營建管理研究所","experience":"北縣義勇消防警察大隊板橋中隊顧問\n板橋浮洲社區理事長\n北縣體育會摔角委員會副主任委員\n臺北縣議會第9、10屆議員\n臺北縣議會第11、12屆副議長\n臺北縣軟式網球委員會委員\n中華民國軟式網球協會常務理事\n板橋高中家長委員會會長\n省議長盃軟式網球錦標賽冠軍","remark":null,"image":"http://www.ntp.gov.tw/UpFile/CouncilorFile/TTCC0905.jpg","links":[{"url":"http://www.ntp.gov.tw/content/history/history01-5-p.aspx?sid=326","note":"議會個人官網"}],"social_media":null,"platform":"","param":null,"councilor":"e17686312b0645a3adb100dc54d959be"},{"url":"http://councils.g0v.tw/api/councilors_terms/1864/","election_year":"1986","name":"劉炳發","gender":"","party":"","title":"副議長","constituency":1,"county":"新北市","district":"板橋市、土城鄉","in_office":true,"contact_details":null,"term_start":"1986-03-01","term_end":{"date":"1990-02-28"},"education":"板橋市實驗國小\n臺北縣立樹林中學\n中國市政專科學校\n美國聖湯姆士大學國貿企管碩士\n淡江大學營建管理研究所","experience":"北縣義勇消防警察大隊板橋中隊顧問\n板橋浮洲社區理事長\n北縣體育會摔角委員會副主任委員\n臺北縣議會第9、10屆議員\n臺北縣議會第11、12屆副議長\n臺北縣軟式網球委員會委員\n中華民國軟式網球協會常務理事\n板橋高中家長委員會會長\n省議長盃軟式網球錦標賽冠軍","remark":null,"image":"http://www.ntp.gov.tw/UpFile/CouncilorFile/TTCC0905.jpg","links":[{"url":"http://www.ntp.gov.tw/content/history/history01-5-p.aspx?sid=326","note":"議會個人官網"}],"social_media":null,"platform":"","param":null,"councilor":"e17686312b0645a3adb100dc54d959be"}],"uid":"e17686312b0645a3adb100dc54d959be","name":"劉炳發","birth":null,"former_names":"","identifiers":["劉炳發","劉炳發"]},{"url":"http://councils.g0v.tw/api/councilors/1571/","each_terms":[],"uid":"75a1adebeeb749f7b826803c18472885","name":"李貴富","birth":null,"former_names":"","identifiers":["李貴富","李貴富"]},{"url":"http://councils.g0v.tw/api/councilors/672/","each_terms":[{"url":"http://councils.g0v.tw/api/councilors_terms/1192/","election_year":"1994","name":"李正權","gender":"","party":"","title":"議員","constituency":3,"county":"新北市","district":"永和市","in_office":true,"contact_details":null,"term_start":"1994-03-01","term_end":{"date":"1998-02-28"},"education":"東門國小\n永和國中\n中國海專","experience":"臺北縣議會第13屆議員\n百壽生股份有限公司董事\n社會無醉基金會董事\n高點傳播公司董事\n臺北縣彰化同鄉會顧問\n和南寺暨普音文化公司多媒體弘法會委員","remark":null,"image":"http://www.ntp.gov.tw/UpFile/CouncilorFile/TTCC1322.jpg","links":[{"url":"http://www.ntp.gov.tw/content/history/history01-5-p.aspx?sid=458","note":"議會個人官網"}],"social_media":null,"platform":"","param":null,"councilor":"99f0624be972426c9eb0c620c44bac0b"}],"uid":"99f0624be972426c9eb0c620c44bac0b","name":"李正權","birth":null,"former_names":"","identifiers":["李正權","李正權"]},{"url":"http://councils.g0v.tw/api/councilors/674/","each_terms":[{"url":"http://councils.g0v.tw/api/councilors_terms/1195/","election_year":"1994","name":"黃政瑞","gender":"","party":"","title":"議員","constituency":2,"county":"新北市","district":"中和市","in_office":true,"contact_details":null,"term_start":"1994-03-01","term_end":{"date":"1998-02-28"},"education":"竹林高中肄業","experience":"中和庄文史研究協會理事長\n臺北縣議會第13屆議員\n國代洪奇昌雙和服務處管理委員會主任委員\n國代賴勁麟雙和競選總部副總幹事\n雙和聯合服務處管理委員會幹部\n副主任委員兼財務委員會主任委員\n民進黨中和市黨主任委員\n民進黨臺北縣黨部執行長\n2000年陳水扁總統臺北縣副總協調\n蘇貞昌競選立委、縣長之中和總幹事","remark":null,"image":"http://www.ntp.gov.tw/UpFile/CouncilorFile/TTCC1318.jpg","links":[{"url":"http://www.ntp.gov.tw/content/history/history01-5-p.aspx?sid=455","note":"議會個人官網"}],"social_media":null,"platform":"","param":null,"councilor":"e89872fc172c43cbb1a6004ecc2ff6c6"}],"uid":"e89872fc172c43cbb1a6004ecc2ff6c6","name":"黃政瑞","birth":null,"former_names":"","identifiers":["黄政瑞","黃政瑞"]},{"url":"http://councils.g0v.tw/api/councilors/490/","each_terms":[{"url":"http://councils.g0v.tw/api/councilors_terms/836/","election_year":"1973","name":"林建業","gender":"","party":"","title":"議員","constituency":1,"county":"新北市","district":"板橋市、中和鄉、永和鎮、土城鄉","in_office":true,"contact_details":null,"term_start":"1973-05-01","term_end":{"date":"1977-12-29"},"education":"中學畢業","experience":"臺灣總督府殖產局礦務課雇員\n南洋孟加錫研究所地礦部技手\n臺灣區硫磺礦業同業公會理事長\n中和鄉民代表\n三立礦業代表人\n榮豐礦業代表人\n華都大樓董事\n裕豐礦業董事長\n臺北縣議會第6、7、8、9屆議員","remark":null,"image":"http://www.ntp.gov.tw/UpFile/CouncilorFile/TTCC0605.jpg","links":[{"url":"http://www.ntp.gov.tw/content/history/history01-5-p.aspx?sid=250","note":"議會個人官網"}],"social_media":null,"platform":"","param":null,"councilor":"c8482ce5d92746f3819c8c2ec62db4c5"},{"url":"http://councils.g0v.tw/api/councilors_terms/895/","election_year":"1968","name":"林建業","gender":"","party":"","title":"議員","constituency":1,"county":"新北市","district":"板橋鎮、中和鄉、永和鎮、土城鄉","in_office":true,"contact_details":null,"term_start":"1968-02-21","term_end":{"date":"1973-04-30"},"education":"中學畢業","experience":"臺灣總督府殖產局礦務課雇員\n南洋孟加錫研究所地礦部技手\n臺灣區硫磺礦業同業公會理事長\n中和鄉民代表\n三立礦業代表人\n榮豐礦業代表人\n華都大樓董事\n裕豐礦業董事長\n臺北縣議會第6、7、8、9屆議員","remark":null,"image":"http://www.ntp.gov.tw/UpFile/CouncilorFile/TTCC0605.jpg","links":[{"url":"http://www.ntp.gov.tw/content/history/history01-5-p.aspx?sid=250","note":"議會個人官網"}],"social_media":null,"platform":"","param":null,"councilor":"c8482ce5d92746f3819c8c2ec62db4c5"},{"url":"http://councils.g0v.tw/api/councilors_terms/946/","election_year":"1977","name":"林建業","gender":"","party":"","title":"議員","constituency":1,"county":"新北市","district":"板橋市、中和鄉、永和鎮、土城鄉","in_office":true,"contact_details":null,"term_start":"1977-12-30","term_end":{"date":"1982-02-28"},"education":"中學畢業","experience":"臺灣總督府殖產局礦務課雇員\n南洋孟加錫研究所地礦部技手\n臺灣區硫磺礦業同業公會理事長\n中和鄉民代表\n三立礦業代表人\n榮豐礦業代表人\n華都大樓董事\n裕豐礦業董事長\n臺北縣議會第6、7、8、9屆議員","remark":null,"image":"http://www.ntp.gov.tw/UpFile/CouncilorFile/TTCC0605.jpg","links":[{"url":"http://www.ntp.gov.tw/content/history/history01-5-p.aspx?sid=250","note":"議會個人官網"}],"social_media":null,"platform":"","param":null,"councilor":"c8482ce5d92746f3819c8c2ec62db4c5"},{"url":"http://councils.g0v.tw/api/councilors_terms/1859/","election_year":"1964","name":"林建業","gender":"","party":"","title":"議員","constituency":1,"county":"新北市","district":"板橋鎮、中和鄉、永和鎮、土城鄉","in_office":true,"contact_details":null,"term_start":"1964-02-21","term_end":{"date":"1968-02-20"},"education":"中學畢業","experience":"臺灣總督府殖產局礦務課雇員\n南洋孟加錫研究所地礦部技手\n臺灣區硫磺礦業同業公會理事長\n中和鄉民代表\n三立礦業代表人\n榮豐礦業代表人\n華都大樓董事\n裕豐礦業董事長\n臺北縣議會第6、7、8、9屆議員","remark":null,"image":"http://www.ntp.gov.tw/UpFile/CouncilorFile/TTCC0605.jpg","links":[{"url":"http://www.ntp.gov.tw/content/history/history01-5-p.aspx?sid=250","note":"議會個人官網"}],"social_media":null,"platform":"","param":null,"councilor":"c8482ce5d92746f3819c8c2ec62db4c5"}],"uid":"c8482ce5d92746f3819c8c2ec62db4c5","name":"林建業","birth":null,"former_names":"","identifiers":["林建業","林建業"]},{"url":"http://councils.g0v.tw/api/councilors/660/","each_terms":[{"url":"http://councils.g0v.tw/api/councilors_terms/1166/","election_year":"1994","name":"鄭漢騰","gender":"","party":"","title":"議員","constituency":6,"county":"新北市","district":"新莊市、泰山鄉、五股鄉、林口鄉","in_office":true,"contact_details":null,"term_start":"1994-03-01","term_end":{"date":"1998-02-28"},"education":"東海高中畢業\n美國夏威夷大學企管學院研究","experience":"力響科技公司負責人\n臺北縣議會第13屆議員\n力響關係企業集團董事長\n觀音山國際獅子會副會長\n五股國際青商會顧問\n中華民國標準協會副理事長\n中華民國道教青年會副理事長\n中華民國道家居士會副首席顧問\n五股信鴿協會龍鳳支會顧問\n臺北縣新泰雲林同鄉會顧問\n蘆洲警察分局成州義警分隊長\n五股國中、五股德音、成州國小家長會顧問","remark":null,"image":"http://www.ntp.gov.tw/UpFile/CouncilorFile/TTCC1348.jpg","links":[{"url":"http://www.ntp.gov.tw/content/history/history01-5-p.aspx?sid=469","note":"議會個人官網"}],"social_media":null,"platform":"","param":null,"councilor":"18d5b13798a04c55a708bbfd0b039f40"}],"uid":"18d5b13798a04c55a708bbfd0b039f40","name":"鄭漢騰","birth":null,"former_names":"","identifiers":["鄭漢騰"]}]}