{"count":1904,"next":"http://councils.g0v.tw/api/councilors/?page=49","previous":"http://councils.g0v.tw/api/councilors/?page=47","results":[{"url":"http://councils.g0v.tw/api/councilors/661/","each_terms":[{"url":"http://councils.g0v.tw/api/councilors_terms/1171/","election_year":"1994","name":"張孟育","gender":"","party":"","title":"議員","constituency":6,"county":"新北市","district":"新莊市、泰山鄉、五股鄉、林口鄉","in_office":true,"contact_details":null,"term_start":"1994-03-01","term_end":{"date":"1998-02-28"},"education":"國泛太平洋政治經濟研究所\n美國加州長堤州立大學國際社會工作研究所研究","experience":"尤清縣長、鄭余鎮競選助選員\n民進黨臺北縣黨部執行委員\n黨代表兼財務長\n公民投票促進會執行委員\n思賢國際獅子會會長\n臺北國際青商會顧問\n映寶科技公司總經理\n第2屆國大代表(差35票當選)\n臺北縣議會第13屆議員","remark":null,"image":"http://www.ntp.gov.tw/UpFile/CouncilorFile/TTCC1343.jpg","links":[{"url":"http://www.ntp.gov.tw/content/history/history01-5-p.aspx?sid=468","note":"議會個人官網"}],"social_media":null,"platform":"","param":null,"councilor":"c8d4c177afb44c4789a6ff2979787a0d"}],"uid":"c8d4c177afb44c4789a6ff2979787a0d","name":"張孟育","birth":null,"former_names":"","identifiers":["張孟育"]},{"url":"http://councils.g0v.tw/api/councilors/662/","each_terms":[{"url":"http://councils.g0v.tw/api/councilors_terms/1176/","election_year":"1994","name":"楊燦煌","gender":"","party":"","title":"議員","constituency":5,"county":"新北市","district":"三重市、蘆洲鄉","in_office":true,"contact_details":null,"term_start":"1994-03-01","term_end":{"date":"1998-02-28"},"education":"蘆洲國小畢業\n格致中學畢業\n臺北工專建教機械科結業\n日本大成建設研習結業\n臺北縣老闆學校結業","experience":"成盛發建設股份有限公司顧問\n臺北縣議會第13屆議員\n蘆洲鄉第13屆鄉民代表\n蘆洲民眾服務社理事\n蘆洲鄉都市計畫委員\n成名建設公司負責人\n志成木型工業社負責人\n蘆洲國中義工\n三重市正義國小家長委員\n蘆洲成功國小創會會長\n蘆洲國中家長會長","remark":null,"image":"http://www.ntp.gov.tw/UpFile/CouncilorFile/TTCC1338.jpg","links":[{"url":"http://www.ntp.gov.tw/content/history/history01-5-p.aspx?sid=467","note":"議會個人官網"}],"social_media":null,"platform":"","param":null,"councilor":"15db2ae30b5d49209db1f00e6d296fc4"}],"uid":"15db2ae30b5d49209db1f00e6d296fc4","name":"楊燦煌","birth":null,"former_names":"","identifiers":["楊燦煌"]},{"url":"http://councils.g0v.tw/api/councilors/219/","each_terms":[{"url":"http://councils.g0v.tw/api/councilors_terms/397/","election_year":"1989","name":"陳炯松","gender":"男","party":"中國國民黨","title":"副議長","constituency":null,"county":"臺北市","district":"","in_office":true,"contact_details":null,"term_start":"1989-12-25","term_end":{"date":"1994-12-25"},"education":"國立臺灣師範大學畢業、美國柏克萊加州大學研究。","experience":"臺北市立大同中學、泰北、中興中學教師、臺北市公農田水利會組長、會長、國民大會代表、財團法人臺北病理中心常務董事","remark":"","image":"http://www.tcc.gov.tw/../upload/photo/%E9%99%B3%E7%82%AF%E6%9D%BE14.jpg","links":[{"url":"http://www.tcc.gov.tw/Councilor_Content_All.aspx?s=1558&d=381222&n=%E9%99%B3%E7%82%AF%E6%9D%BE","note":"議會個人官網"}],"social_media":null,"platform":"","param":null,"councilor":"6a89df92016549dbb998904d3181dc40"}],"uid":"6a89df92016549dbb998904d3181dc40","name":"陳炯松","birth":"1938-12-22","former_names":"","identifiers":["陳炯松"]},{"url":"http://councils.g0v.tw/api/councilors/987/","each_terms":[{"url":"http://councils.g0v.tw/api/councilors_terms/1867/","election_year":"1986","name":"江清秀","gender":"","party":"","title":"議員","constituency":1,"county":"新北市","district":"板橋市、土城鄉","in_office":true,"contact_details":null,"term_start":"1986-03-01","term_end":{"date":"1990-02-28"},"education":"板橋國小畢\n三峽初級中學\n彰化培元高中\n後幹班第91期結業","experience":"板橋區黨部39小組長\n民權里第1屆里長\n代表會第3屆副主席\n代理主席\n第4屆代表\n板橋市後備軍人輔導中心輔導員\n板橋國小家長會委員\n臺北縣消防協會理事長\n板橋義勇消防中隊長\n臺北縣議會第11屆議員","remark":null,"image":"http://www.ntp.gov.tw/UpFile/CouncilorFile/TTCC1110.jpg","links":[{"url":"http://www.ntp.gov.tw/content/history/history01-5-p.aspx?sid=393","note":"議會個人官網"}],"social_media":null,"platform":"","param":null,"councilor":"44fa656c3f17489a88a9736c4784b271"}],"uid":"44fa656c3f17489a88a9736c4784b271","name":"江清秀","birth":null,"former_names":"","identifiers":["江清秀"]},{"url":"http://councils.g0v.tw/api/councilors/988/","each_terms":[{"url":"http://councils.g0v.tw/api/councilors_terms/1870/","election_year":"2010","name":"張宏陸","gender":"","party":"民主進步黨","title":"議員","constituency":4,"county":"新北市","district":"板橋區","in_office":true,"contact_details":[{"type":"voice","value":"02-89517018","label":"電話"},{"type":"fax","value":"02-89517028","label":"傳真"},{"type":"address","value":"22065新北市板橋區中山路1段293-1號B1","label":"通訊處"},{"type":"email","value":"hunglueball@gmail.com","label":"E-mail"}],"term_start":"2010-12-25","term_end":{"date":"2014-12-24"},"education":"東吳大學政治學系學士","experience":"台北縣政府民政局長\n板橋市代理市長\n行政院反恐辦公室副主任\n行政院長蘇貞昌秘書\n蘇貞昌縣長室秘書\n立法委員蘇貞昌助理\n中國文化大學美國研究所","remark":null,"image":"http://www.ntp.gov.tw/UpFile/CouncilorFile/XCC0124.jpg","links":[{"url":"http://www.ntp.gov.tw/content/list/list01-1-03-1.aspx?sid=548&cid=171","note":"議會個人官網"}],"social_media":null,"platform":"宏陸擔任板橋代理市長時，對板橋有許多的願景與規劃，短短不到一年，已完成435特區設置、設立全國第一個寵物公園、解決新板特定區淹水問題、並完成各里數百項多年未決之工程……等，但有更多的想法，因未能當選市長而無法實現，現在宏陸要競選新北市議員，希望能將板橋的夢想落實成真，共同超越、新幸福。\n交通新幸福：建構新板府中雙核心綠色運輸領航區；力促捷運環狀線早日完成。\n生活新幸福：爭取湳仔溝整治與綠美化於101年完成；力促亞東醫院床位增加；力促於浮洲榮民之家設榮總板橋分院。\n教育新幸福：爭取依家戶年所得及子女數補助就學費用；照顧弱勢兒童課後生活，延長課後輔導；培養全人發展、社會關懷及全球視野的未來主人翁；設立兒童專屬圖書館與育樂中心。\n新住民新幸福：暢通新住民學習管道；提供新住民法律服務及資源整合；補助新住民臨時托育。\n經濟新幸福：力促浮洲榮工廠週邊地區都市更新；規劃江翠北側地區、埔墘地區整體開發計劃；全力協助新板特區國際觀光飯店招商；打造大新板新都心；結合南門喜餅街、館前東路、重慶路婚紗街、435特區婚紗拍攝點，成為新北市新幸福婚紗特區，繁榮地方經濟。","param":{"attendance_statistics":{"absent":17,"total":124},"bills_role_statistics":{"total":57,"priproposer":0,"sponsor":13,"cosponsor":44},"diversity":{"中國國民黨":0.2076764070689051,"無黨團結聯盟":0.04014698201488065,"民主進步黨":0.7489089293640497,"無黨籍":0.00326768155216431},"bills_party_diversity":[{"party":"民主進步黨","ratio":0.6304691618344754},{"party":"中國國民黨","ratio":0.2730627306273063},{"party":"無黨團結聯盟","ratio":0.044807590933052185},{"party":"無黨籍","ratio":0.04111755403268318},{"party":"臺灣團結聯盟","ratio":0.010542962572482868}]},"councilor":"f25160aa4c3a4565afa2b00c59ddd411"},{"url":"http://councils.g0v.tw/api/councilors_terms/11719/","election_year":"2014","name":"張宏陸","gender":"男","party":"民主進步黨","title":null,"constituency":4,"county":"新北市","district":"板橋區","in_office":false,"contact_details":null,"term_start":"2014-12-25","term_end":{"date":"2016-01-31","judicial_links":"","reason":"請辭，就任立委立委","ref":"","replacement":""},"education":null,"experience":null,"remark":null,"image":"","links":null,"social_media":null,"platform":"","param":{"suggestions_years":{"count":22,"sum":5508710,"years":[{"count":22,"sum":5508710,"suggest_year":"2015","small_purchase":9}]},"bills_role_statistics":{"total":76,"priproposer":2,"sponsor":22,"cosponsor":54},"attendance_statistics":{"absent":3,"total":60},"suggestions_associations":[{"count":0,"sum":0,"label":"社區發展協會"},{"count":0,"sum":0,"label":"學會"},{"count":0,"sum":0,"label":"商會"},{"count":0,"sum":0,"label":"公會"},{"count":0,"sum":0,"label":"協進會"},{"count":0,"sum":0,"label":"促進會"},{"count":0,"sum":0,"label":"研習會"},{"count":0,"sum":0,"label":"婦聯會"},{"count":0,"sum":0,"label":"婦女會"},{"count":0,"sum":0,"label":"體育會"},{"count":0,"sum":0,"label":"同心會"},{"count":0,"sum":0,"label":"農會"},{"count":0,"sum":0,"label":"早起會"},{"count":0,"sum":0,"label":"健身會"},{"count":0,"sum":0,"label":"宗親會"},{"count":0,"sum":0,"label":"功德會"},{"count":0,"sum":0,"label":"商業會"},{"count":0,"sum":0,"label":"長青會"},{"count":0,"sum":0,"label":"民眾服務社"},{"count":0,"sum":0,"label":"聯盟"}],"bills_party_diversity":[{"party":"民主進步黨","ratio":0.6525735294117647},{"party":"中國國民黨","ratio":0.25137867647058826},{"party":"無黨籍","ratio":0.04411764705882353},{"party":"無黨團結聯盟","ratio":0.042279411764705885},{"party":"臺灣團結聯盟","ratio":0.009650735294117647}],"suggestions_piles":[{"count":16,"tokens":"國中|國小","sum":5005710,"label":"國中、國小"},{"count":4,"tokens":"辦公室|辦公處","sum":385000,"label":"辦公室"},{"count":0,"tokens":"協會|學會|商會|公會|協進會|促進會|研習會|婦聯會|婦女會|體育會|同心會|農會|早起會|健身會|宗親會|功德會|商業會|長青會|民眾服務社|聯盟","sum":0,"label":"協會"},{"count":0,"tokens":"廟|宮","sum":0,"label":"廟"},{"count":0,"tokens":"警察局|分局","sum":0,"label":"警察局"},{"count":0,"tokens":"消防局|消防隊|分隊|中隊","sum":0,"label":"消防局"}]},"councilor":"f25160aa4c3a4565afa2b00c59ddd411"}],"uid":"f25160aa4c3a4565afa2b00c59ddd411","name":"張宏陸","birth":null,"former_names":"","identifiers":["張宏陸"]},{"url":"http://councils.g0v.tw/api/councilors/284/","each_terms":[{"url":"http://councils.g0v.tw/api/councilors_terms/593/","election_year":"1973","name":"王武雄","gender":"男","party":"無黨籍","title":"議員","constituency":null,"county":"臺北市","district":"","in_office":true,"contact_details":null,"term_start":"1973-12-25","term_end":{"date":"1977-12-25"},"education":"開南商工職業學校高級部土木科畢業。","experience":"臺北市直轄市議會第一屆議員、臺北市營造公會顧問、松琳營造廠辦事員、再成鋼鐵公司董事、忠隆鋼鐵公司顧問。","remark":"","image":"http://www.tcc.gov.tw/../upload/photo/%E7%8E%8B%E6%AD%A6%E9%9B%8410.jpg","links":[{"url":"http://www.tcc.gov.tw/Councilor_Content_All.aspx?s=2136&d=431213&n=%E7%8E%8B%E6%AD%A6%E9%9B%84","note":"議會個人官網"}],"social_media":null,"platform":"","param":null,"councilor":"6b25ba32e7834c94930079405100ed39"},{"url":"http://councils.g0v.tw/api/councilors_terms/634/","election_year":"1969","name":"王武雄","gender":"男","party":"無黨籍","title":"議員","constituency":null,"county":"臺北市","district":"","in_office":true,"contact_details":null,"term_start":"1969-12-25","term_end":{"date":"1973-12-25"},"education":"開南高級部土木科畢業。","experience":"松琳營造廠辦事員、明通營造廠經理、忠隆鋼鐵公司顧問。","remark":"","image":"http://www.tcc.gov.tw/../upload/photo/%E7%8E%8B%E6%AD%A6%E9%9B%8409.jpg","links":[{"url":"http://www.tcc.gov.tw/Councilor_Content_All.aspx?s=2008&d=431213&n=%E7%8E%8B%E6%AD%A6%E9%9B%84","note":"議會個人官網"}],"social_media":null,"platform":"","param":null,"councilor":"6b25ba32e7834c94930079405100ed39"}],"uid":"6b25ba32e7834c94930079405100ed39","name":"王武雄","birth":"1943-12-13","former_names":"","identifiers":["王武雄"]},{"url":"http://councils.g0v.tw/api/councilors/285/","each_terms":[{"url":"http://councils.g0v.tw/api/councilors_terms/597/","election_year":"1969","name":"顏武勝","gender":"男","party":"中國國民黨","title":"議員","constituency":null,"county":"臺北市","district":"","in_office":true,"contact_details":null,"term_start":"1969-12-25","term_end":{"date":"1973-12-25"},"education":"臺北工業職業學校","experience":"經理、組長、幹事。","remark":"","image":"http://www.tcc.gov.tw/../upload/photo/%E9%A1%8F%E6%AD%A6%E5%8B%9D09.jpg","links":[{"url":"http://www.tcc.gov.tw/Councilor_Content_All.aspx?s=1391&d=410917&n=%E9%A1%8F%E6%AD%A6%E5%8B%9D","note":"議會個人官網"}],"social_media":null,"platform":"","param":null,"councilor":"644ad8f6c7454019a358e3244cd1c224"}],"uid":"644ad8f6c7454019a358e3244cd1c224","name":"顏武勝","birth":"1941-09-17","former_names":"","identifiers":["顏武勝"]},{"url":"http://councils.g0v.tw/api/councilors/382/","each_terms":[{"url":"http://councils.g0v.tw/api/councilors_terms/720/","election_year":"2010","name":"李蕙蕙","gender":"","party":"親民黨","title":"議員","constituency":3,"county":"高雄市","district":"永安區、岡山區、燕巢區、彌陀區、梓官區、橋頭區","in_office":false,"contact_details":[{"type":"voice","value":"6297600","label":"傳真"},{"type":"fax","value":"6297601","label":"傳真"},{"type":"address","value":"820岡山區勵志路96號","label":"通訊處"}],"term_start":"2010-12-25","term_end":{"date":"2013-03-13","reason":""},"education":"阿蓮國小\n阿蓮國中\n立德商工","experience":"大崗山青商會秘書\n第16屆高雄縣議員\n義守大學肄業","remark":"(已解職102.3.13)","image":"http://www.kcc.gov.tw/Upload/PeriodMembers/0701069.jpg","links":[{"url":"http://www.kcc.gov.tw/PeriodMembers/Introduction.aspx?KeyID=1734","note":"議會個人官網"}],"social_media":null,"platform":"","param":{"suggestions_years":{"count":25,"sum":14989236,"years":[{"count":23,"sum":12030236,"suggest_year":"2012","small_purchase":0},{"count":2,"sum":2959000,"suggest_year":"2013","small_purchase":0}]},"diversity":{},"attendance_statistics":{"absent":0,"total":223},"suggestions_associations":[{"count":1,"sum":159000,"label":"社區發展協會"},{"count":0,"sum":0,"label":"學會"},{"count":0,"sum":0,"label":"商會"},{"count":0,"sum":0,"label":"公會"},{"count":0,"sum":0,"label":"協進會"},{"count":0,"sum":0,"label":"促進會"},{"count":0,"sum":0,"label":"研習會"},{"count":0,"sum":0,"label":"婦聯會"},{"count":0,"sum":0,"label":"婦女會"},{"count":0,"sum":0,"label":"體育會"},{"count":0,"sum":0,"label":"同心會"},{"count":0,"sum":0,"label":"農會"},{"count":0,"sum":0,"label":"早起會"},{"count":0,"sum":0,"label":"健身會"},{"count":0,"sum":0,"label":"宗親會"},{"count":0,"sum":0,"label":"功德會"},{"count":0,"sum":0,"label":"商業會"},{"count":0,"sum":0,"label":"長青會"},{"count":0,"sum":0,"label":"民眾服務社"},{"count":0,"sum":0,"label":"聯盟"}],"bills_party_diversity":null,"suggestions_piles":[{"count":10,"tokens":"國中|國小","sum":3018501,"label":"國中、國小"},{"count":1,"tokens":"協會|學會|商會|公會|協進會|促進會|研習會|婦聯會|婦女會|體育會|同心會|農會|早起會|健身會|宗親會|功德會|商業會|長青會|民眾服務社|聯盟","sum":159000,"label":"協會"},{"count":0,"tokens":"辦公室|辦公處","sum":0,"label":"辦公室"},{"count":0,"tokens":"廟|宮","sum":0,"label":"廟"},{"count":0,"tokens":"警察局|分局","sum":0,"label":"警察局"},{"count":0,"tokens":"消防局|消防隊|分隊|中隊","sum":0,"label":"消防局"}]},"councilor":"338435fa8d084ea7974a368a322d8f28"}],"uid":"338435fa8d084ea7974a368a322d8f28","name":"李蕙蕙","birth":null,"former_names":"","identifiers":["李蕙蕙","李蕙蕙"]},{"url":"http://councils.g0v.tw/api/councilors/227/","each_terms":[{"url":"http://councils.g0v.tw/api/councilors_terms/518/","election_year":"1977","name":"陳怡榮","gender":"男","party":"中國國民黨","title":"議員","constituency":null,"county":"臺北市","district":"","in_office":true,"contact_details":null,"term_start":"1977-12-25","term_end":{"date":"1981-12-25"},"education":"臺灣大學社會學士、明治大學政治碩士。","experience":"省政府法制室編審、臺北市政府秘書處視察、市長室秘書、臺北市政府參議。","remark":"","image":"http://www.tcc.gov.tw/../upload/photo/%E9%99%B3%E6%80%A1%E6%A6%AE11.jpg","links":[{"url":"http://www.tcc.gov.tw/Councilor_Content_All.aspx?s=1952&d=420804&n=%E9%99%B3%E6%80%A1%E6%A6%AE","note":"議會個人官網"}],"social_media":null,"platform":"","param":null,"councilor":"b775c125342d4d9783de44f0ae13bb82"},{"url":"http://councils.g0v.tw/api/councilors_terms/418/","election_year":"1985","name":"陳怡榮","gender":"男","party":"中國國民黨","title":"議員","constituency":null,"county":"臺北市","district":"","in_office":true,"contact_details":null,"term_start":"1985-12-25","term_end":{"date":"1989-12-25"},"education":"國立臺灣大學法學士、日本明治大學政治學碩士。","experience":"臺北市長機要秘書、臺北市政府參議、臺北市直轄市議會第三、四屆議員。","remark":"","image":"http://www.tcc.gov.tw/../upload/photo/%E9%99%B3%E6%80%A1%E6%A6%AE13.jpg","links":[{"url":"http://www.tcc.gov.tw/Councilor_Content_All.aspx?s=1351&d=420804&n=%E9%99%B3%E6%80%A1%E6%A6%AE","note":"議會個人官網"}],"social_media":null,"platform":"","param":null,"councilor":"b775c125342d4d9783de44f0ae13bb82"},{"url":"http://councils.g0v.tw/api/councilors_terms/464/","election_year":"1981","name":"陳怡榮","gender":"男","party":"中國國民黨","title":"議員","constituency":null,"county":"臺北市","district":"","in_office":true,"contact_details":null,"term_start":"1981-12-25","term_end":{"date":"1985-12-25"},"education":"臺灣大學社會學系畢業、日本明治大學政治學碩士、日本早稻田大學政治社會學研究。","experience":"臺灣省政府法制室編審、臺北市政府秘書處視察、市長室秘書、臺北市政府參議、臺北市直轄市議會第三屆議員、青商總會副秘書長。","remark":"","image":"http://www.tcc.gov.tw/../upload/photo/%E9%99%B3%E6%80%A1%E6%A6%AE12.jpg","links":[{"url":"http://www.tcc.gov.tw/Councilor_Content_All.aspx?s=1979&d=420804&n=%E9%99%B3%E6%80%A1%E6%A6%AE","note":"議會個人官網"}],"social_media":null,"platform":"","param":null,"councilor":"b775c125342d4d9783de44f0ae13bb82"}],"uid":"b775c125342d4d9783de44f0ae13bb82","name":"陳怡榮","birth":"1942-08-04","former_names":"","identifiers":["陳怡榮"]},{"url":"http://councils.g0v.tw/api/councilors/228/","each_terms":[{"url":"http://councils.g0v.tw/api/councilors_terms/419/","election_year":"1985","name":"陳光憲","gender":"男","party":"中國國民黨","title":"議員","constituency":null,"county":"臺北市","district":"","in_office":true,"contact_details":null,"term_start":"1985-12-25","term_end":{"date":"1989-12-25"},"education":"太平國小畢業、成功中學畢業、臺北市商畢業、中國文化大學學士、碩士、博士。","experience":"德明商專校長、文化大學副教授、國家考試典試委員、臺北市羽球委員會顧問、臺北市擊劍委員會顧問。","remark":"","image":"http://www.tcc.gov.tw/../upload/photo/%E9%99%B3%E5%85%89%E6%86%B213.jpg","links":[{"url":"http://www.tcc.gov.tw/Councilor_Content_All.aspx?s=1968&d=420120&n=%E9%99%B3%E5%85%89%E6%86%B2","note":"議會個人官網"}],"social_media":null,"platform":"","param":null,"councilor":"4fa788cf37a640b5baba094a56c82b3f"}],"uid":"4fa788cf37a640b5baba094a56c82b3f","name":"陳光憲","birth":"1942-01-20","former_names":"","identifiers":["陳光憲"]}]}