{"count":1904,"next":"http://councils.g0v.tw/api/councilors/?page=50","previous":"http://councils.g0v.tw/api/councilors/?page=48","results":[{"url":"http://councils.g0v.tw/api/councilors/181/","each_terms":[{"url":"http://councils.g0v.tw/api/councilors_terms/308/","election_year":"1994","name":"黃義清","gender":"男","party":"中國國民黨","title":"議員","constituency":null,"county":"臺北市","district":"","in_office":true,"contact_details":null,"term_start":"1994-12-25","term_end":{"date":"1998-12-25"},"education":"景美國小、成淵中學初中部畢業、開南商工高級部畢業、革命實踐研究院四十七期、後幹班第七十八期。","experience":"臺北市直轄市議會第四、五、六屆議員、臺北市景美後備軍人輔導中心主任、臺北市景美區改善民俗實踐委員會會長、臺北市仁德國際獅子會第五屆會長、救國團景美區團務委員會常務委員、中國國民黨台北市黨部景美區黨部常委、小組長。","remark":"","image":"http://www.tcc.gov.tw/../upload/photo/%E9%BB%83%E7%BE%A9%E6%B8%8515.jpg","links":[{"url":"http://www.tcc.gov.tw/Councilor_Content_All.aspx?s=1730&d=431022&n=%E9%BB%83%E7%BE%A9%E6%B8%85","note":"議會個人官網"}],"social_media":null,"platform":"","param":null,"councilor":"60a29b13dd214899948af36221b8ae97"},{"url":"http://councils.g0v.tw/api/councilors_terms/359/","election_year":"1989","name":"黃義清","gender":"男","party":"中國國民黨","title":"議員","constituency":null,"county":"臺北市","district":"","in_office":true,"contact_details":null,"term_start":"1989-12-25","term_end":{"date":"1994-12-25"},"education":"開南商工土木科畢業景美國小、革命實踐研究院結業(刪除成淵中學初中部畢業、、後幹班七十八期)。","experience":"獅子會長、改善民俗實踐會會長、景興國中、志清國小家長會長，臺北市直轄市議會第四、五屆議員。","remark":"","image":"http://www.tcc.gov.tw/../upload/photo/%E9%BB%83%E7%BE%A9%E6%B8%8514.jpg","links":[{"url":"http://www.tcc.gov.tw/Councilor_Content_All.aspx?s=2239&d=431012&n=%E9%BB%83%E7%BE%A9%E6%B8%85","note":"議會個人官網"}],"social_media":null,"platform":"","param":null,"councilor":"60a29b13dd214899948af36221b8ae97"},{"url":"http://councils.g0v.tw/api/councilors_terms/410/","election_year":"1985","name":"黃義清","gender":"男","party":"中國國民黨","title":"議員","constituency":null,"county":"臺北市","district":"","in_office":true,"contact_details":null,"term_start":"1985-12-25","term_end":{"date":"1989-12-25"},"education":"開南商工職業學校高工土木科畢業、後備軍人幹部訓練班結業。","experience":"國功建設、國弘實業公司董事長、國弘建設公司總經理、景美區改善民俗實踐委員會會長、救國團臺北市景美區團務委員會常務委員、臺北市景美區後備軍人輔導中心主任，臺北市直轄市第四屆議員。","remark":"","image":"http://www.tcc.gov.tw/../upload/photo/%E9%BB%83%E7%BE%A9%E6%B8%8513.jpg","links":[{"url":"http://www.tcc.gov.tw/Councilor_Content_All.aspx?s=1449&d=431012&n=%E9%BB%83%E7%BE%A9%E6%B8%85","note":"議會個人官網"}],"social_media":null,"platform":"","param":null,"councilor":"60a29b13dd214899948af36221b8ae97"},{"url":"http://councils.g0v.tw/api/councilors_terms/460/","election_year":"1981","name":"黃義清","gender":"男","party":"中國國民黨","title":"議員","constituency":null,"county":"臺北市","district":"","in_office":true,"contact_details":null,"term_start":"1981-12-25","term_end":{"date":"1985-12-25"},"education":"開南商工職業學校高工畢業、後備軍人幹訓班七十八期結業。","experience":"臺北市仁德國際獅子會會長、國際獅子會300A區16團主任秘書、景美區後備軍人輔導中心秘書、臺北市籃球委員會副主任委員、臺北市釣魚協會萬隆小組組長。","remark":"","image":"http://www.tcc.gov.tw/../upload/photo/%E9%BB%83%E7%BE%A9%E6%B8%8512.jpg","links":[{"url":"http://www.tcc.gov.tw/Councilor_Content_All.aspx?s=2190&d=431022&n=%E9%BB%83%E7%BE%A9%E6%B8%85","note":"議會個人官網"}],"social_media":null,"platform":"","param":null,"councilor":"60a29b13dd214899948af36221b8ae97"}],"uid":"60a29b13dd214899948af36221b8ae97","name":"黃義清","birth":"1943-10-22","former_names":"","identifiers":["黄義清","黃義清"]},{"url":"http://councils.g0v.tw/api/councilors/622/","each_terms":[{"url":"http://councils.g0v.tw/api/councilors_terms/1090/","election_year":"1990","name":"陳一郎","gender":"","party":"","title":"議員","constituency":10,"county":"新北市","district":"新店市、深坑鄉、石碇鄉、坪林鄉、烏來鄉","in_office":true,"contact_details":null,"term_start":"1990-03-01","term_end":{"date":"1994-02-28"},"education":"新店國小\n大同中學\n育達商職\n後幹班99期結業","experience":"臺北縣議會第12屆議員\n新店五峰里長\n新店民眾服務分社理事\n新店區黨部委員、訓練委員、區分部常委\n新店後備軍人輔導中心組長、召集人\n救國團團委會委員\n新店國際獅子會會長\n中華民國總會理事\n臺北縣新店義警中隊長\n新店民防副大隊長\n盈翔建設公司董事長\n新店市民代表會代表及黨團書記","remark":null,"image":"http://www.ntp.gov.tw/UpFile/CouncilorFile/TTCC1260.jpg","links":[{"url":"http://www.ntp.gov.tw/content/history/history01-5-p.aspx?sid=445","note":"議會個人官網"}],"social_media":null,"platform":"","param":null,"councilor":"c357fe75caee4efe8ffcd92da79f80fd"}],"uid":"c357fe75caee4efe8ffcd92da79f80fd","name":"陳一郎","birth":null,"former_names":"","identifiers":["陳一郎"]},{"url":"http://councils.g0v.tw/api/councilors/264/","each_terms":[{"url":"http://councils.g0v.tw/api/councilors_terms/1668/","election_year":"1958","name":"許炳南","gender":"","party":"","title":"議員","constituency":9,"county":"新北市","district":"新店鎮、景美鎮、木柵鄉、深坑鄉、石碇鄉、坪林鄉","in_office":true,"contact_details":null,"term_start":"1958-02-21","term_end":{"date":"1961-02-20"},"education":"羅東中學畢業\n革命實踐研究院議員講習班\n戰地政務研究會結業","experience":"臺北縣、市黨部委員\n議會黨團書記\n景美區黨部常委\n臺北市議會2、3屆議員\n監察委員\n臺北縣議會第4、5、6屆議員\n臺北縣議會第6屆副議長","remark":null,"image":"http://www.ntp.gov.tw/UpFile/CouncilorFile/TTCC0471.jpg","links":[{"url":"http://www.ntp.gov.tw/content/history/history01-5-p.aspx?sid=222","note":"議會個人官網"}],"social_media":null,"platform":"","param":null,"councilor":"4c8d14d69a1440a5a3479ec2c701da89"},{"url":"http://councils.g0v.tw/api/councilors_terms/1746/","election_year":"1961","name":"許炳南","gender":"","party":"","title":"議員","constituency":9,"county":"新北市","district":"新店鎮、景美鎮、木柵鄉、深坑鄉、石碇鄉、坪林鄉","in_office":true,"contact_details":null,"term_start":"1961-02-21","term_end":{"date":"1964-02-20"},"education":"羅東中學畢業\n革命實踐研究院議員講習班\n戰地政務研究會結業","experience":"臺北縣、市黨部委員\n議會黨團書記\n景美區黨部常委\n臺北市議會2、3屆議員\n監察委員\n臺北縣議會第4、5、6屆議員\n臺北縣議會第6屆副議長","remark":null,"image":"http://www.ntp.gov.tw/UpFile/CouncilorFile/TTCC0471.jpg","links":[{"url":"http://www.ntp.gov.tw/content/history/history01-5-p.aspx?sid=222","note":"議會個人官網"}],"social_media":null,"platform":"","param":null,"councilor":"4c8d14d69a1440a5a3479ec2c701da89"},{"url":"http://councils.g0v.tw/api/councilors_terms/1809/","election_year":"1964","name":"許炳南","gender":"","party":"","title":"副議長","constituency":9,"county":"新北市","district":"新店鎮、景美鎮、木柵鄉、深坑鄉、石碇鄉、坪林鄉、烏來鄉山地鄉","in_office":true,"contact_details":null,"term_start":"1964-02-21","term_end":{"date":"1968-02-20"},"education":"羅東中學畢業\n革命實踐研究院議員講習班\n戰地政務研究會結業","experience":"臺北縣、市黨部委員\n議會黨團書記\n景美區黨部常委\n臺北市議會2、3屆議員\n監察委員\n臺北縣議會第4、5、6屆議員\n臺北縣議會第6屆副議長","remark":null,"image":"http://www.ntp.gov.tw/UpFile/CouncilorFile/TTCC0471.jpg","links":[{"url":"http://www.ntp.gov.tw/content/history/history01-5-p.aspx?sid=222","note":"議會個人官網"}],"social_media":null,"platform":"","param":null,"councilor":"4c8d14d69a1440a5a3479ec2c701da89"},{"url":"http://councils.g0v.tw/api/councilors_terms/519/","election_year":"1977","name":"許炳南","gender":"男","party":"中國國民黨","title":"議員","constituency":null,"county":"臺北市","district":"","in_office":true,"contact_details":null,"term_start":"1977-12-25","term_end":{"date":"1981-12-25"},"education":"昌平高中畢業、革命實踐研究院、戰地政務研究會。","experience":"臺北縣議會第三、四、五屆議員暨第六屆副議長、臺北市臨時議會、直轄市議會第三屆議員。","remark":"","image":"http://www.tcc.gov.tw/../upload/photo/%E8%A8%B1%E7%82%B3%E5%8D%9711.jpg","links":[{"url":"http://www.tcc.gov.tw/Councilor_Content_All.aspx?s=2187&d=231211&n=%E8%A8%B1%E7%82%B3%E5%8D%97","note":"議會個人官網"}],"social_media":null,"platform":"","param":null,"councilor":"4c8d14d69a1440a5a3479ec2c701da89"},{"url":"http://councils.g0v.tw/api/councilors_terms/567/","election_year":"1973","name":"許炳南","gender":"男","party":"中國國民黨","title":"議員","constituency":null,"county":"臺北市","district":"","in_office":true,"contact_details":null,"term_start":"1973-12-25","term_end":{"date":"1977-12-25"},"education":"昌平高中畢業、革命實踐研究院三期、戰地政務研究班十一、十二期。","experience":"臺北縣議會第三、四、五屆議員暨第六屆副議長；臺北市臨時市議會議員。","remark":"","image":"http://www.tcc.gov.tw/../upload/photo/%E8%A8%B1%E7%82%B3%E5%8D%9710.jpg","links":[{"url":"http://www.tcc.gov.tw/Councilor_Content_All.aspx?s=2245&d=231211&n=%E8%A8%B1%E7%82%B3%E5%8D%97","note":"議會個人官網"}],"social_media":null,"platform":"","param":null,"councilor":"4c8d14d69a1440a5a3479ec2c701da89"}],"uid":"4c8d14d69a1440a5a3479ec2c701da89","name":"許炳南","birth":"1923-12-11","former_names":"","identifiers":["許炳南"]},{"url":"http://councils.g0v.tw/api/councilors/265/","each_terms":[{"url":"http://councils.g0v.tw/api/councilors_terms/623/","election_year":"1969","name":"張同生","gender":"男","party":"中國國民黨","title":"議員","constituency":null,"county":"臺北市","district":"","in_office":true,"contact_details":null,"term_start":"1969-12-25","term_end":{"date":"1973-12-25"},"education":"東吳大學法律系。","experience":"三民主義巡迴講師、救國團學校工作組。","remark":"","image":"http://www.tcc.gov.tw/../upload/photo/%E5%BC%B5%E5%90%8C%E7%94%9F09.jpg","links":[{"url":"http://www.tcc.gov.tw/Councilor_Content_All.aspx?s=1497&d=430928&n=%E5%BC%B5%E5%90%8C%E7%94%9F","note":"議會個人官網"}],"social_media":null,"platform":"","param":null,"councilor":"e9195bfdd3ff4721ace8612947dfb858"},{"url":"http://councils.g0v.tw/api/councilors_terms/522/","election_year":"1977","name":"張同生","gender":"男","party":"中國國民黨","title":"議員","constituency":null,"county":"臺北市","district":"","in_office":true,"contact_details":null,"term_start":"1977-12-25","term_end":{"date":"1981-12-25"},"education":"新竹中學畢業、東吳大學法律系畢業。","experience":"三民主義巡迴教官、救國團輔導員、臺北市直轄市議會第一、二屆議員、中華民國人文科學研究會理事。","remark":"","image":"http://www.tcc.gov.tw/../upload/photo/%E5%BC%B5%E5%90%8C%E7%94%9F11.jpg","links":[{"url":"http://www.tcc.gov.tw/Councilor_Content_All.aspx?s=2106&d=430928&n=%E5%BC%B5%E5%90%8C%E7%94%9F","note":"議會個人官網"}],"social_media":null,"platform":"","param":null,"councilor":"e9195bfdd3ff4721ace8612947dfb858"},{"url":"http://councils.g0v.tw/api/councilors_terms/571/","election_year":"1973","name":"張同生","gender":"男","party":"中國國民黨","title":"議員","constituency":null,"county":"臺北市","district":"","in_office":true,"contact_details":null,"term_start":"1973-12-25","term_end":{"date":"1977-12-25"},"education":"東吳大學法律系畢業。","experience":"三民主義巡迴講師、救國團學校工作組、臺北市第一屆議會議員。","remark":"","image":"http://www.tcc.gov.tw/../upload/photo/%E5%BC%B5%E5%90%8C%E7%94%9F10.jpg","links":[{"url":"http://www.tcc.gov.tw/Councilor_Content_All.aspx?s=1348&d=430928&n=%E5%BC%B5%E5%90%8C%E7%94%9F","note":"議會個人官網"}],"social_media":null,"platform":"","param":null,"councilor":"e9195bfdd3ff4721ace8612947dfb858"}],"uid":"e9195bfdd3ff4721ace8612947dfb858","name":"張同生","birth":"1943-09-28","former_names":"","identifiers":["張同生"]},{"url":"http://councils.g0v.tw/api/councilors/266/","each_terms":[{"url":"http://councils.g0v.tw/api/councilors_terms/627/","election_year":"1969","name":"荊鳳崗","gender":"男","party":"中國國民黨","title":"議員","constituency":null,"county":"臺北市","district":"","in_office":true,"contact_details":null,"term_start":"1969-12-25","term_end":{"date":"1973-12-25"},"education":"江蘇省立江蘇學院政治系。","experience":"教員、常務監事、理事、委員、臺北市省轄市議會第六屆以及臨時市議會議員。","remark":"","image":"http://www.tcc.gov.tw/../upload/photo/%E8%8D%8A%E9%B3%B3%E5%B4%9709.jpg","links":[{"url":"http://www.tcc.gov.tw/Councilor_Content_All.aspx?s=1611&d=260403&n=%E8%8D%8A%E9%B3%B3%E5%B4%97","note":"議會個人官網"}],"social_media":null,"platform":"","param":null,"councilor":"c5df9b8f6a2c457d997a0350811e9696"},{"url":"http://councils.g0v.tw/api/councilors_terms/526/","election_year":"1977","name":"荊鳳崗","gender":"男","party":"中國國民黨","title":"議員","constituency":null,"county":"臺北市","district":"","in_office":true,"contact_details":null,"term_start":"1977-12-25","term_end":{"date":"1981-12-25"},"education":"上海市私立法學院附屬高中畢業、江蘇省立學院政治系肄業。","experience":"臺北市第六屆及改制第一、二屆議員、私立強恕中學教師、私立育達商職顧問、臺北市教師福利會常務理事、童子軍理事會常務理事、民眾服務社監事、教與學月刊社社長、萬國道德總會理事、大陸救災總會理事、臺北市黨部委員。","remark":"","image":"http://www.tcc.gov.tw/../upload/photo/%E8%8D%8A%E9%B3%B3%E5%B4%9711.jpg","links":[{"url":"http://www.tcc.gov.tw/Councilor_Content_All.aspx?s=2212&d=260403&n=%E8%8D%8A%E9%B3%B3%E5%B4%97","note":"議會個人官網"}],"social_media":null,"platform":"","param":null,"councilor":"c5df9b8f6a2c457d997a0350811e9696"},{"url":"http://councils.g0v.tw/api/councilors_terms/575/","election_year":"1973","name":"荊鳳崗","gender":"男","party":"中國國民黨","title":"議員","constituency":null,"county":"臺北市","district":"","in_office":true,"contact_details":null,"term_start":"1973-12-25","term_end":{"date":"1977-12-25"},"education":"江蘇省立江蘇學院政治系。","experience":"私立強恕中學教員、臺灣省臺北市第六屆議會議員、臺北市臨時市議會議員、臺北市第一屆議會議員、救國團臺北市松安區團務委員、臺北市民眾服務社理事、臺北市地方自治協會常務監事。","remark":"","image":"http://www.tcc.gov.tw/../upload/photo/%E8%8D%8A%E9%B3%B3%E5%B4%9710.jpg","links":[{"url":"http://www.tcc.gov.tw/Councilor_Content_All.aspx?s=1464&d=260403&n=%E8%8D%8A%E9%B3%B3%E5%B4%97","note":"議會個人官網"}],"social_media":null,"platform":"","param":null,"councilor":"c5df9b8f6a2c457d997a0350811e9696"}],"uid":"c5df9b8f6a2c457d997a0350811e9696","name":"荊鳳崗","birth":"1926-04-03","former_names":"","identifiers":["荊鳳崗","荊鳯崗"]},{"url":"http://councils.g0v.tw/api/councilors/942/","each_terms":[{"url":"http://councils.g0v.tw/api/councilors_terms/1692/","election_year":"1958","name":"李秀山","gender":"","party":"","title":"議員","constituency":5,"county":"新北市","district":"汐止鎮、南港鎮、內湖鄉","in_office":true,"contact_details":null,"term_start":"1958-02-21","term_end":{"date":"1961-02-20"},"education":"福建晉江中學畢業\n中央警官學校特警班5期","experience":"閩南討逆軍第1總隊中隊長\n福建省保安第9團第1大隊中隊長\n軍委會江西郵電檢查所檢查員\n國防部第一直屬軍官隊隊員\n臺北縣汐止警察分局刑事組長\n臺北縣議會第4屆議員","remark":null,"image":"http://www.ntp.gov.tw/UpFile/CouncilorFile/TTCC0448.jpg","links":[{"url":"http://www.ntp.gov.tw/content/history/history01-5-p.aspx?sid=211","note":"議會個人官網"}],"social_media":null,"platform":"","param":null,"councilor":"2725ae1b5dbc4e4e9e8ca503338e47a5"}],"uid":"2725ae1b5dbc4e4e9e8ca503338e47a5","name":"李秀山","birth":null,"former_names":"","identifiers":["李秀山","李秀山"]},{"url":"http://councils.g0v.tw/api/councilors/943/","each_terms":[{"url":"http://councils.g0v.tw/api/councilors_terms/1693/","election_year":"1958","name":"陳坤地","gender":"","party":"","title":"議員","constituency":5,"county":"新北市","district":"汐止鎮、南港鎮、內湖鄉","in_office":true,"contact_details":null,"term_start":"1958-02-21","term_end":{"date":"1961-02-20"},"education":"汐止公學校\n汐止公校高等科\n臺北工專\n革命實踐研究院結業","experience":"總工會理事長\n南港國校家長會長\n國民黨區黨部委員\n臺北縣議會第4屆議員\n民國99年1月17日歿","remark":null,"image":"http://www.ntp.gov.tw/UpFile/CouncilorFile/TTCC0447.jpg","links":[{"url":"http://www.ntp.gov.tw/content/history/history01-5-p.aspx?sid=210","note":"議會個人官網"}],"social_media":null,"platform":"","param":null,"councilor":"d83da51fdbbf4c1e90ec47fdf44c9ab1"}],"uid":"d83da51fdbbf4c1e90ec47fdf44c9ab1","name":"陳坤地","birth":null,"former_names":"","identifiers":["陳坤地"]},{"url":"http://councils.g0v.tw/api/councilors/482/","each_terms":[{"url":"http://councils.g0v.tw/api/councilors_terms/828/","election_year":"1973","name":"陳碧松","gender":"","party":"","title":"議員","constituency":2,"county":"新北市","district":"樹林鎮、鶯歌鎮、三峽鎮","in_office":true,"contact_details":null,"term_start":"1973-05-01","term_end":{"date":"1977-12-29"},"education":"鶯歌國小\n鶯歌國中\n三育高中\n革命實踐研究院黨政班63期\n後幹班第8期","experience":"第8屆鶯歌鎮民代表\n第8、9屆鶯歌鎮長\n臺北縣議會第8、11屆議員\n臺灣陶瓷公會總幹事\n臺灣省自來水公司秘書\n頻道雜誌社社長","remark":null,"image":"http://www.ntp.gov.tw/UpFile/CouncilorFile/TTCC0819.jpg","links":[{"url":"http://www.ntp.gov.tw/content/history/history01-5-p.aspx?sid=305","note":"議會個人官網"}],"social_media":null,"platform":"","param":null,"councilor":"27de75b6ea844f64b83943d9c803cc02"},{"url":"http://councils.g0v.tw/api/councilors_terms/995/","election_year":"1986","name":"陳碧松","gender":"","party":"","title":"議員","constituency":3,"county":"新北市","district":"樹林鎮、鶯歌鎮、三峽鎮","in_office":true,"contact_details":null,"term_start":"1986-03-01","term_end":{"date":"1990-02-28"},"education":"鶯歌國小\n鶯歌國中\n三育高中\n革命實踐研究院黨政班63期\n後幹班第8期","experience":"第8屆鶯歌鎮民代表\n第8、9屆鶯歌鎮長\n臺北縣議會第8、11屆議員\n臺灣陶瓷公會總幹事\n臺灣省自來水公司秘書\n頻道雜誌社社長","remark":null,"image":"http://www.ntp.gov.tw/UpFile/CouncilorFile/TTCC0819.jpg","links":[{"url":"http://www.ntp.gov.tw/content/history/history01-5-p.aspx?sid=305","note":"議會個人官網"}],"social_media":null,"platform":"","param":null,"councilor":"27de75b6ea844f64b83943d9c803cc02"}],"uid":"27de75b6ea844f64b83943d9c803cc02","name":"陳碧松","birth":null,"former_names":"","identifiers":["陳碧松"]},{"url":"http://councils.g0v.tw/api/councilors/483/","each_terms":[{"url":"http://councils.g0v.tw/api/councilors_terms/829/","election_year":"1973","name":"陳宏名","gender":"","party":"","title":"議員","constituency":2,"county":"新北市","district":"樹林鎮、鶯歌鎮、三峽鎮","in_office":true,"contact_details":null,"term_start":"1973-05-01","term_end":{"date":"1977-12-29"},"education":"鶯歌國小\n臺北成功中學\n板橋高中\n中興大學\n革命實踐研究院黨政班結業\n後幹班４２期結業","experience":"三重磁器公司董事兼總經理\n救國團鶯歌鎮團委員會常委\n精誠工業公司董事長\n臺北縣議會第７、８屆議員\n精誠工業公司董事長\n中國國民黨第６區黨部委員","remark":null,"image":"http://www.ntp.gov.tw/UpFile/CouncilorFile/TTCC0716.jpg","links":[{"url":"http://www.ntp.gov.tw/content/history/history01-5-p.aspx?sid=282","note":"議會個人官網"}],"social_media":null,"platform":"","param":null,"councilor":"53dbabec7ec14f81a945e6a7d8e792b3"},{"url":"http://councils.g0v.tw/api/councilors_terms/884/","election_year":"1968","name":"陳宏名","gender":"","party":"","title":"議員","constituency":2,"county":"新北市","district":"樹林鎮、鶯歌鎮、三峽鎮","in_office":true,"contact_details":null,"term_start":"1968-02-21","term_end":{"date":"1973-04-30"},"education":"鶯歌國小\n臺北成功中學\n板橋高中\n中興大學\n革命實踐研究院黨政班結業\n後幹班４２期結業","experience":"三重磁器公司董事兼總經理\n救國團鶯歌鎮團委員會常委\n精誠工業公司董事長\n臺北縣議會第７、８屆議員\n精誠工業公司董事長\n中國國民黨第６區黨部委員","remark":null,"image":"http://www.ntp.gov.tw/UpFile/CouncilorFile/TTCC0716.jpg","links":[{"url":"http://www.ntp.gov.tw/content/history/history01-5-p.aspx?sid=282","note":"議會個人官網"}],"social_media":null,"platform":"","param":null,"councilor":"53dbabec7ec14f81a945e6a7d8e792b3"}],"uid":"53dbabec7ec14f81a945e6a7d8e792b3","name":"陳宏名","birth":null,"former_names":"","identifiers":["陳宏名"]},{"url":"http://councils.g0v.tw/api/councilors/484/","each_terms":[{"url":"http://councils.g0v.tw/api/councilors_terms/830/","election_year":"1973","name":"李玉香","gender":"","party":"","title":"議員","constituency":1,"county":"新北市","district":"板橋市、中和鄉、永和鎮、土城鄉","in_office":true,"contact_details":null,"term_start":"1973-05-01","term_end":{"date":"1977-12-29"},"education":"重慶中正中學高中畢業\n山東齊魯大學醫學院肄業\n國防部政工幹校政戰科第1期畢業\n革命實踐研究院64期研究班結業","experience":"臺北縣中和鄉婦女會常務理事\n臺北縣中和鄉代表會第9屆鄉民代表\n臺北縣婦女會理事常務監事\n臺北縣議會教育小組召集人\n總統府資料組組員\n大陳島9191部隊政治部婦幹班訓導員\n大陳島9191部隊婦工隊長\n婦聯會日新新村工作隊員\n臺北縣婦女會常務監事\n臺北縣議會第8、9、10、11、12屆議員\n婦聯會日新新村工作隊員\n山東膠縣同鄉會榮譽會長\n河南同鄉會婦女工作委員會委員","remark":null,"image":"http://www.ntp.gov.tw/UpFile/CouncilorFile/TTCC0816.jpg","links":[{"url":"http://www.ntp.gov.tw/content/history/history01-5-p.aspx?sid=303","note":"議會個人官網"}],"social_media":null,"platform":"","param":null,"councilor":"16afa98f48d84044b885d3eb94622c8c"},{"url":"http://councils.g0v.tw/api/councilors_terms/942/","election_year":"1977","name":"李玉香","gender":"","party":"","title":"議員","constituency":1,"county":"新北市","district":"板橋市、中和鄉、永和鎮、土城鄉","in_office":true,"contact_details":null,"term_start":"1977-12-30","term_end":{"date":"1982-02-28"},"education":"重慶中正中學高中畢業\n山東齊魯大學醫學院肄業\n國防部政工幹校政戰科第1期畢業\n革命實踐研究院64期研究班結業","experience":"臺北縣中和鄉婦女會常務理事\n臺北縣中和鄉代表會第9屆鄉民代表\n臺北縣婦女會理事常務監事\n臺北縣議會教育小組召集人\n總統府資料組組員\n大陳島9191部隊政治部婦幹班訓導員\n大陳島9191部隊婦工隊長\n婦聯會日新新村工作隊員\n臺北縣婦女會常務監事\n臺北縣議會第8、9、10、11、12屆議員\n婦聯會日新新村工作隊員\n山東膠縣同鄉會榮譽會長\n河南同鄉會婦女工作委員會委員","remark":null,"image":"http://www.ntp.gov.tw/UpFile/CouncilorFile/TTCC0816.jpg","links":[{"url":"http://www.ntp.gov.tw/content/history/history01-5-p.aspx?sid=303","note":"議會個人官網"}],"social_media":null,"platform":"","param":null,"councilor":"16afa98f48d84044b885d3eb94622c8c"},{"url":"http://councils.g0v.tw/api/councilors_terms/1004/","election_year":"1986","name":"李玉香","gender":"","party":"","title":"議員","constituency":2,"county":"新北市","district":"中和市、永和市","in_office":true,"contact_details":null,"term_start":"1986-03-01","term_end":{"date":"1990-02-28"},"education":"重慶中正中學高中畢業\n山東齊魯大學醫學院肄業\n國防部政工幹校政戰科第1期畢業\n革命實踐研究院64期研究班結業","experience":"臺北縣中和鄉婦女會常務理事\n臺北縣中和鄉代表會第9屆鄉民代表\n臺北縣婦女會理事常務監事\n臺北縣議會教育小組召集人\n總統府資料組組員\n大陳島9191部隊政治部婦幹班訓導員\n大陳島9191部隊婦工隊長\n婦聯會日新新村工作隊員\n臺北縣婦女會常務監事\n臺北縣議會第8、9、10、11、12屆議員\n婦聯會日新新村工作隊員\n山東膠縣同鄉會榮譽會長\n河南同鄉會婦女工作委員會委員","remark":null,"image":"http://www.ntp.gov.tw/UpFile/CouncilorFile/TTCC0816.jpg","links":[{"url":"http://www.ntp.gov.tw/content/history/history01-5-p.aspx?sid=303","note":"議會個人官網"}],"social_media":null,"platform":"","param":null,"councilor":"16afa98f48d84044b885d3eb94622c8c"},{"url":"http://councils.g0v.tw/api/councilors_terms/1059/","election_year":"1982","name":"李玉香","gender":"","party":"","title":"議員","constituency":2,"county":"新北市","district":"中和市、永和市","in_office":true,"contact_details":null,"term_start":"1982-03-01","term_end":{"date":"1986-02-28"},"education":"重慶中正中學高中畢業\n山東齊魯大學醫學院肄業\n國防部政工幹校政戰科第1期畢業\n革命實踐研究院64期研究班結業","experience":"臺北縣中和鄉婦女會常務理事\n臺北縣中和鄉代表會第9屆鄉民代表\n臺北縣婦女會理事常務監事\n臺北縣議會教育小組召集人\n總統府資料組組員\n大陳島9191部隊政治部婦幹班訓導員\n大陳島9191部隊婦工隊長\n婦聯會日新新村工作隊員\n臺北縣婦女會常務監事\n臺北縣議會第8、9、10、11、12屆議員\n婦聯會日新新村工作隊員\n山東膠縣同鄉會榮譽會長\n河南同鄉會婦女工作委員會委員","remark":null,"image":"http://www.ntp.gov.tw/UpFile/CouncilorFile/TTCC0816.jpg","links":[{"url":"http://www.ntp.gov.tw/content/history/history01-5-p.aspx?sid=303","note":"議會個人官網"}],"social_media":null,"platform":"","param":null,"councilor":"16afa98f48d84044b885d3eb94622c8c"},{"url":"http://councils.g0v.tw/api/councilors_terms/1130/","election_year":"1990","name":"李玉香","gender":"","party":"","title":"議員","constituency":2,"county":"新北市","district":"中和市","in_office":true,"contact_details":null,"term_start":"1990-03-01","term_end":{"date":"1994-02-28"},"education":"重慶中正中學高中畢業\n山東齊魯大學醫學院肄業\n國防部政工幹校政戰科第1期畢業\n革命實踐研究院64期研究班結業","experience":"臺北縣中和鄉婦女會常務理事\n臺北縣中和鄉代表會第9屆鄉民代表\n臺北縣婦女會理事常務監事\n臺北縣議會教育小組召集人\n總統府資料組組員\n大陳島9191部隊政治部婦幹班訓導員\n大陳島9191部隊婦工隊長\n婦聯會日新新村工作隊員\n臺北縣婦女會常務監事\n臺北縣議會第8、9、10、11、12屆議員\n婦聯會日新新村工作隊員\n山東膠縣同鄉會榮譽會長\n河南同鄉會婦女工作委員會委員","remark":null,"image":"http://www.ntp.gov.tw/UpFile/CouncilorFile/TTCC0816.jpg","links":[{"url":"http://www.ntp.gov.tw/content/history/history01-5-p.aspx?sid=303","note":"議會個人官網"}],"social_media":null,"platform":"","param":null,"councilor":"16afa98f48d84044b885d3eb94622c8c"}],"uid":"16afa98f48d84044b885d3eb94622c8c","name":"李玉香","birth":null,"former_names":"","identifiers":["李玉香","李玉香"]}]}