{"count":1904,"next":"http://councils.g0v.tw/api/councilors/?page=51","previous":"http://councils.g0v.tw/api/councilors/?page=49","results":[{"url":"http://councils.g0v.tw/api/councilors/71/","each_terms":[{"url":"http://councils.g0v.tw/api/councilors_terms/75/","election_year":"1985","name":"羅文富","gender":"男","party":"中國國民黨","title":"議員","constituency":null,"county":"臺北市","district":"","in_office":true,"contact_details":null,"term_start":"1985-12-25","term_end":{"date":"1989-12-25"},"education":"中央警官學校正科二十一期畢業、革命實踐研究院結業。","experience":"臺北市直轄市議會第一、二、三、四屆議員、士林區後備軍人輔導中心主任、臺北市消防協會及餐飲業工會顧問、輝鴻交通公司董事長。","remark":"","image":"http://www.tcc.gov.tw/../upload/photo/%E7%BE%85%E6%96%87%E5%AF%8C13.jpg","links":[{"url":"http://www.tcc.gov.tw/Councilor_Content_All.aspx?s=2121&d=280901&n=%E7%BE%85%E6%96%87%E5%AF%8C","note":"議會個人官網"}],"social_media":null,"platform":"","param":null,"councilor":"3f9a0895af594c1bbea9f7da7af52664"},{"url":"http://councils.g0v.tw/api/councilors_terms/71/","election_year":"1969","name":"羅文富","gender":"男","party":"中國國民黨","title":"議員","constituency":null,"county":"臺北市","district":"","in_office":true,"contact_details":null,"term_start":"1969-12-25","term_end":{"date":"1973-12-25"},"education":"中央警校正科二十一期。","experience":"刑警、巡官等職廿年。","remark":"","image":"http://www.tcc.gov.tw/../upload/photo/%E7%BE%85%E6%96%87%E5%AF%8C09.jpg","links":[{"url":"http://www.tcc.gov.tw/Councilor_Content_All.aspx?s=2099&d=280901&n=%E7%BE%85%E6%96%87%E5%AF%8C","note":"議會個人官網"}],"social_media":null,"platform":"","param":null,"councilor":"3f9a0895af594c1bbea9f7da7af52664"},{"url":"http://councils.g0v.tw/api/councilors_terms/449/","election_year":"1981","name":"羅文富","gender":"男","party":"中國國民黨","title":"議員","constituency":null,"county":"臺北市","district":"","in_office":true,"contact_details":null,"term_start":"1981-12-25","term_end":{"date":"1985-12-25"},"education":"中央警官學校正科二十一期畢業、革命實踐研究所結業。","experience":"臺北市直轄市議會第一、二、三屆議員、士林區後備軍人輔導中心主任、天母育樂公司董事長、慶福沙石公司董事長、輝鴻交通公司董事長。","remark":"","image":"http://www.tcc.gov.tw/../upload/photo/%E7%BE%85%E6%96%87%E5%AF%8C12.jpg","links":[{"url":"http://www.tcc.gov.tw/Councilor_Content_All.aspx?s=1602&d=280901&n=%E7%BE%85%E6%96%87%E5%AF%8C","note":"議會個人官網"}],"social_media":null,"platform":"","param":null,"councilor":"3f9a0895af594c1bbea9f7da7af52664"},{"url":"http://councils.g0v.tw/api/councilors_terms/501/","election_year":"1977","name":"羅文富","gender":"男","party":"中國國民黨","title":"議員","constituency":null,"county":"臺北市","district":"","in_office":true,"contact_details":null,"term_start":"1977-12-25","term_end":{"date":"1981-12-25"},"education":"中央警官學校正科二十一期畢業。","experience":"士林區後備軍人輔導中心主任、天母育樂公司董事長、輝鴻交通公司董事長、慶福砂石公司董事長、臺北市第一、二屆議員。","remark":"","image":"http://www.tcc.gov.tw/../upload/photo/%E7%BE%85%E6%96%87%E5%AF%8C11.jpg","links":[{"url":"http://www.tcc.gov.tw/Councilor_Content_All.aspx?s=1954&d=280901&n=%E7%BE%85%E6%96%87%E5%AF%8C","note":"議會個人官網"}],"social_media":null,"platform":"","param":null,"councilor":"3f9a0895af594c1bbea9f7da7af52664"},{"url":"http://councils.g0v.tw/api/councilors_terms/549/","election_year":"1973","name":"羅文富","gender":"男","party":"中國國民黨","title":"議員","constituency":null,"county":"臺北市","district":"","in_office":true,"contact_details":null,"term_start":"1973-12-25","term_end":{"date":"1977-12-25"},"education":"中央警官學校正科二十一期畢業。","experience":"士林區後備軍人輔導組長，刑事、巡官等廿餘年，臺北市第一屆議會議員。","remark":"","image":"http://www.tcc.gov.tw/../upload/photo/%E7%BE%85%E6%96%87%E5%AF%8C10.jpg","links":[{"url":"http://www.tcc.gov.tw/Councilor_Content_All.aspx?s=1443&d=280901&n=%E7%BE%85%E6%96%87%E5%AF%8C","note":"議會個人官網"}],"social_media":null,"platform":"","param":null,"councilor":"3f9a0895af594c1bbea9f7da7af52664"}],"uid":"3f9a0895af594c1bbea9f7da7af52664","name":"羅文富","birth":"1928-09-01","former_names":"","identifiers":["羅文富"]},{"url":"http://councils.g0v.tw/api/councilors/605/","each_terms":[{"url":"http://councils.g0v.tw/api/councilors_terms/1035/","election_year":"1982","name":"陳桂香","gender":"","party":"","title":"議員","constituency":5,"county":"新北市","district":"新莊市、泰山鄉、五股鄉、林口鄉","in_office":true,"contact_details":null,"term_start":"1982-03-01","term_end":{"date":"1986-02-28"},"education":"新莊國民學校畢\n私立東海中學初中部畢業\n私立東海中學高中部肄業","experience":"新莊市公有零售市場管理員\n新莊市第1屆市代表\n新莊市義警分隊長\n臺北縣區黨部委員\n臺北縣婦女會理監事\n臺北縣議會第10屆議員","remark":null,"image":"http://www.ntp.gov.tw/UpFile/CouncilorFile/TTCC1049.jpg","links":[{"url":"http://www.ntp.gov.tw/content/history/history01-5-p.aspx?sid=382","note":"議會個人官網"}],"social_media":null,"platform":"","param":null,"councilor":"7870092dd547485687bb6ce05b5f061d"}],"uid":"7870092dd547485687bb6ce05b5f061d","name":"陳桂香","birth":null,"former_names":"","identifiers":["陳桂香"]},{"url":"http://councils.g0v.tw/api/councilors/606/","each_terms":[{"url":"http://councils.g0v.tw/api/councilors_terms/1041/","election_year":"1982","name":"莊武則","gender":"","party":"","title":"議員","constituency":4,"county":"新北市","district":"三重市、蘆洲鄉","in_office":true,"contact_details":null,"term_start":"1982-03-01","term_end":{"date":"1986-02-28"},"education":"東海中學畢","experience":"三重市體育會籃球委員會主任委員\n三重市體育會排球委員會主任委員\n臺北縣慢跑協會主任委員\n三重市第4、5屆市民代表\n三重國際獅子會司庫\n伸光水電工程有限公司負責人\n臺北縣議會第10屆縣議員","remark":null,"image":"http://www.ntp.gov.tw/UpFile/CouncilorFile/TTCC1041.jpg","links":[{"url":"http://www.ntp.gov.tw/content/history/history01-5-p.aspx?sid=376","note":"議會個人官網"}],"social_media":null,"platform":"","param":null,"councilor":"f35c8a6b918241aa9bce397eba1609ba"}],"uid":"f35c8a6b918241aa9bce397eba1609ba","name":"莊武則","birth":null,"former_names":"","identifiers":["莊武則"]},{"url":"http://councils.g0v.tw/api/councilors/556/","each_terms":[{"url":"http://councils.g0v.tw/api/councilors_terms/961/","election_year":"1977","name":"廖聰海","gender":"","party":"","title":"議員","constituency":1,"county":"新北市","district":"板橋市、中和鄉、永和鎮、土城鄉","in_office":true,"contact_details":null,"term_start":"1977-12-30","term_end":{"date":"1982-02-28"},"education":"板橋國小\n開南商工商科\n開南商工高級部商科","experience":"板橋信用合作社連任１０屆監事（６屆任監事主席）\n板橋國際獅子會第5屆會長\n板橋市義勇消防隊顧問\n板橋體育會田徑主委\n臺灣區瓦磚礦業工業公會監事\n開南商工董事\n大盛證券股份有限公司董事\n臺北縣議會第9、10屆議員","remark":null,"image":"http://www.ntp.gov.tw/UpFile/CouncilorFile/TTCC0902.jpg","links":[{"url":"http://www.ntp.gov.tw/content/history/history01-5-p.aspx?sid=325","note":"議會個人官網"}],"social_media":null,"platform":"","param":null,"councilor":"b3b0641552c34afca98293c56060dcfe"},{"url":"http://councils.g0v.tw/api/councilors_terms/1072/","election_year":"1982","name":"廖聰海","gender":"","party":"","title":"議員","constituency":1,"county":"新北市","district":"板橋市、土城鄉","in_office":true,"contact_details":null,"term_start":"1982-03-01","term_end":{"date":"1986-02-28"},"education":"板橋國小\n開南商工商科\n開南商工高級部商科","experience":"板橋信用合作社連任１０屆監事（６屆任監事主席）\n板橋國際獅子會第5屆會長\n板橋市義勇消防隊顧問\n板橋體育會田徑主委\n臺灣區瓦磚礦業工業公會監事\n開南商工董事\n大盛證券股份有限公司董事\n臺北縣議會第9、10屆議員","remark":null,"image":"http://www.ntp.gov.tw/UpFile/CouncilorFile/TTCC0902.jpg","links":[{"url":"http://www.ntp.gov.tw/content/history/history01-5-p.aspx?sid=325","note":"議會個人官網"}],"social_media":null,"platform":"","param":null,"councilor":"b3b0641552c34afca98293c56060dcfe"}],"uid":"b3b0641552c34afca98293c56060dcfe","name":"廖聰海","birth":null,"former_names":"","identifiers":["廖聰海"]},{"url":"http://councils.g0v.tw/api/councilors/557/","each_terms":[{"url":"http://councils.g0v.tw/api/councilors_terms/962/","election_year":"1986","name":"宋進財Falong‧Opa","gender":"","party":"","title":"議員","constituency":10,"county":"新北市","district":"居住全縣各鄉鎮市之平地山胞","in_office":true,"contact_details":null,"term_start":"1986-03-01","term_end":{"date":"1990-02-28"},"education":"花蓮玉里鎮德武國小。\n省立花蓮初中。\n花蓮四維高中。","experience":"台北縣第11、13、14、15、16屆議員\n天主教博愛基金會常務董事。\n財團法人天主教弘道仁愛之家第七、八屆董事長。\n天主教花東旅北信友傳協會會長、首席顧問等職。\n輔仁大學哲學系肄業。","remark":null,"image":"http://www.ntp.gov.tw/UpFile/CouncilorFile/TTCC1164.jpg","links":[{"url":"http://www.ntp.gov.tw/content/history/history01-5-p.aspx?sid=413","note":"議會個人官網"}],"social_media":null,"platform":"","param":null,"councilor":"bffbb46bf050487fb2d796454a426129"},{"url":"http://councils.g0v.tw/api/councilors_terms/1150/","election_year":"1994","name":"宋進財Falong‧Opa","gender":"","party":"","title":"議員","constituency":11,"county":"新北市","district":"平地山胞","in_office":true,"contact_details":null,"term_start":"1994-03-01","term_end":{"date":"1998-02-28"},"education":"花蓮玉里鎮德武國小。\n省立花蓮初中。\n花蓮四維高中。","experience":"台北縣第11、13、14、15、16屆議員\n天主教博愛基金會常務董事。\n財團法人天主教弘道仁愛之家第七、八屆董事長。\n天主教花東旅北信友傳協會會長、首席顧問等職。\n輔仁大學哲學系肄業。","remark":null,"image":"http://www.ntp.gov.tw/UpFile/CouncilorFile/TTCC1164.jpg","links":[{"url":"http://www.ntp.gov.tw/content/history/history01-5-p.aspx?sid=413","note":"議會個人官網"}],"social_media":null,"platform":"","param":null,"councilor":"bffbb46bf050487fb2d796454a426129"},{"url":"http://councils.g0v.tw/api/councilors_terms/1214/","election_year":"1998","name":"宋進財Falong‧Opa","gender":"","party":"","title":"議員","constituency":11,"county":"新北市","district":"平地原住民","in_office":true,"contact_details":null,"term_start":"1998-03-01","term_end":{"date":"2002-02-28"},"education":"花蓮玉里鎮德武國小。\n省立花蓮初中。\n花蓮四維高中。","experience":"台北縣第11、13、14、15、16屆議員\n天主教博愛基金會常務董事。\n財團法人天主教弘道仁愛之家第七、八屆董事長。\n天主教花東旅北信友傳協會會長、首席顧問等職。\n輔仁大學哲學系肄業。","remark":null,"image":"http://www.ntp.gov.tw/UpFile/CouncilorFile/TTCC1164.jpg","links":[{"url":"http://www.ntp.gov.tw/content/history/history01-5-p.aspx?sid=413","note":"議會個人官網"}],"social_media":null,"platform":"","param":null,"councilor":"bffbb46bf050487fb2d796454a426129"},{"url":"http://councils.g0v.tw/api/councilors_terms/1278/","election_year":"2002","name":"宋進財Falong‧Opa","gender":"","party":"","title":"議員","constituency":11,"county":"新北市","district":"平地原住民","in_office":true,"contact_details":null,"term_start":"2002-03-01","term_end":{"date":"2006-02-28"},"education":"花蓮玉里鎮德武國小。\n省立花蓮初中。\n花蓮四維高中。","experience":"台北縣第11、13、14、15、16屆議員\n天主教博愛基金會常務董事。\n財團法人天主教弘道仁愛之家第七、八屆董事長。\n天主教花東旅北信友傳協會會長、首席顧問等職。\n輔仁大學哲學系肄業。","remark":null,"image":"http://www.ntp.gov.tw/UpFile/CouncilorFile/TTCC1164.jpg","links":[{"url":"http://www.ntp.gov.tw/content/history/history01-5-p.aspx?sid=413","note":"議會個人官網"}],"social_media":null,"platform":"","param":null,"councilor":"bffbb46bf050487fb2d796454a426129"},{"url":"http://councils.g0v.tw/api/councilors_terms/1343/","election_year":"2006","name":"宋進財Falong‧Opa","gender":"","party":"","title":"議員","constituency":11,"county":"新北市","district":"平地原住民","in_office":true,"contact_details":null,"term_start":"2006-03-01","term_end":{"date":"2010-12-24"},"education":"花蓮玉里鎮德武國小。\n省立花蓮初中。\n花蓮四維高中。","experience":"台北縣第11、13、14、15、16屆議員\n天主教博愛基金會常務董事。\n財團法人天主教弘道仁愛之家第七、八屆董事長。\n天主教花東旅北信友傳協會會長、首席顧問等職。\n輔仁大學哲學系肄業。","remark":null,"image":"http://www.ntp.gov.tw/UpFile/CouncilorFile/TTCC1164.jpg","links":[{"url":"http://www.ntp.gov.tw/content/history/history01-5-p.aspx?sid=413","note":"議會個人官網"}],"social_media":null,"platform":"","param":null,"councilor":"bffbb46bf050487fb2d796454a426129"}],"uid":"bffbb46bf050487fb2d796454a426129","name":"宋進財Falong‧Opa","birth":null,"former_names":"","identifiers":["falongopa","宋進財Falong‧Opa","宋進財"]},{"url":"http://councils.g0v.tw/api/councilors/558/","each_terms":[{"url":"http://councils.g0v.tw/api/councilors_terms/963/","election_year":"1986","name":"李碧玉","gender":"","party":"","title":"議員","constituency":9,"county":"新北市","district":"新店市、深坑鄉、石碇鄉、坪林鄉、烏來鄉","in_office":true,"contact_details":null,"term_start":"1986-03-01","term_end":{"date":"1990-02-28"},"education":"新店國小\n北一女初中\n省立北商\n臺北商專空專企管科\n東京國際大學國際交流研究所日本型經營型態研習班修業\n輔大推廣教育會計班\n美國伊利諾大學環保研究","experience":"新店國小代課教員\n李長榮協榮公司會計\n新店市民代表(第2屆)\n新店第29警友小組長\n臺北地檢處榮譽觀護人\n正菘企業公司副理\n臺北縣議會第11、12、13屆議員\n臺北縣婦女會理事、常務監事\n新店市婦女會理事長","remark":null,"image":"http://www.ntp.gov.tw/UpFile/CouncilorFile/TTCC1163.jpg","links":[{"url":"http://www.ntp.gov.tw/content/history/history01-5-p.aspx?sid=412","note":"議會個人官網"}],"social_media":null,"platform":"","param":null,"councilor":"c55831f121464844bd3d0d1a87847548"},{"url":"http://councils.g0v.tw/api/councilors_terms/1087/","election_year":"1990","name":"李碧玉","gender":"","party":"","title":"議員","constituency":10,"county":"新北市","district":"新店市、深坑鄉、石碇鄉、坪林鄉、烏來鄉","in_office":true,"contact_details":null,"term_start":"1990-03-01","term_end":{"date":"1994-02-28"},"education":"新店國小\n北一女初中\n省立北商\n臺北商專空專企管科\n東京國際大學國際交流研究所日本型經營型態研習班修業\n輔大推廣教育會計班\n美國伊利諾大學環保研究","experience":"新店國小代課教員\n李長榮協榮公司會計\n新店市民代表(第2屆)\n新店第29警友小組長\n臺北地檢處榮譽觀護人\n正菘企業公司副理\n臺北縣議會第11、12、13屆議員\n臺北縣婦女會理事、常務監事\n新店市婦女會理事長","remark":null,"image":"http://www.ntp.gov.tw/UpFile/CouncilorFile/TTCC1163.jpg","links":[{"url":"http://www.ntp.gov.tw/content/history/history01-5-p.aspx?sid=412","note":"議會個人官網"}],"social_media":null,"platform":"","param":null,"councilor":"c55831f121464844bd3d0d1a87847548"},{"url":"http://councils.g0v.tw/api/councilors_terms/1151/","election_year":"1994","name":"李碧玉","gender":"","party":"","title":"議員","constituency":10,"county":"新北市","district":"新店鎮、深坑鄉、石碇鄉、坪林鄉、烏來鄉","in_office":true,"contact_details":null,"term_start":"1994-03-01","term_end":{"date":"1998-02-28"},"education":"新店國小\n北一女初中\n省立北商\n臺北商專空專企管科\n東京國際大學國際交流研究所日本型經營型態研習班修業\n輔大推廣教育會計班\n美國伊利諾大學環保研究","experience":"新店國小代課教員\n李長榮協榮公司會計\n新店市民代表(第2屆)\n新店第29警友小組長\n臺北地檢處榮譽觀護人\n正菘企業公司副理\n臺北縣議會第11、12、13屆議員\n臺北縣婦女會理事、常務監事\n新店市婦女會理事長","remark":null,"image":"http://www.ntp.gov.tw/UpFile/CouncilorFile/TTCC1163.jpg","links":[{"url":"http://www.ntp.gov.tw/content/history/history01-5-p.aspx?sid=412","note":"議會個人官網"}],"social_media":null,"platform":"","param":null,"councilor":"c55831f121464844bd3d0d1a87847548"}],"uid":"c55831f121464844bd3d0d1a87847548","name":"李碧玉","birth":null,"former_names":"","identifiers":["李碧玉","李碧玉"]},{"url":"http://councils.g0v.tw/api/councilors/559/","each_terms":[{"url":"http://councils.g0v.tw/api/councilors_terms/964/","election_year":"1986","name":"賴同榮","gender":"","party":"","title":"議員","constituency":9,"county":"新北市","district":"新店市、深坑鄉、石碇鄉、坪林鄉、烏來鄉","in_office":true,"contact_details":null,"term_start":"1986-03-01","term_end":{"date":"1990-02-28"},"education":"安坑國校畢\n開明高商畢\n文化大學法律\n地政班結業","experience":"工友\n工人\n公所雇員\n新店市調解委員會委員\n新店代書事務所負責人\n新店市第一屆市民代表\n救國團新店團委會委員\n臺北縣兵役協會新店市分會第15屆委員\n地籍圖重測界址糾紛協調會委員\n臺北縣教師人權促進會會務顧問\n臺北縣土地登記專業代理人職業工會會員\n臺北縣議會第11屆議員","remark":null,"image":"http://www.ntp.gov.tw/UpFile/CouncilorFile/TTCC1162.jpg","links":[{"url":"http://www.ntp.gov.tw/content/history/history01-5-p.aspx?sid=411","note":"議會個人官網"}],"social_media":null,"platform":"","param":null,"councilor":"b1b0d743c06b4916b33a9d04374cd0e2"}],"uid":"b1b0d743c06b4916b33a9d04374cd0e2","name":"賴同榮","birth":null,"former_names":"","identifiers":["賴同榮","頼同榮"]},{"url":"http://councils.g0v.tw/api/councilors/1574/","each_terms":[],"uid":"0d9b1bcda23741b1b51711ffa5744aa5","name":"議長游忠鈿","birth":null,"former_names":"","identifiers":["議長游忠鈿"]},{"url":"http://councils.g0v.tw/api/councilors/1575/","each_terms":[],"uid":"4e661263230344c6a6615856fbe3ea93","name":"溫志強","birth":null,"former_names":"","identifiers":["温志強","溫志強"]},{"url":"http://councils.g0v.tw/api/councilors/1576/","each_terms":[],"uid":"46fd565f9b7947dca6740d58a16715fe","name":"邱秋琴","birth":null,"former_names":"","identifiers":["邱秋琴"]}]}