{"count":1904,"next":"http://councils.g0v.tw/api/councilors/?page=52","previous":"http://councils.g0v.tw/api/councilors/?page=50","results":[{"url":"http://councils.g0v.tw/api/councilors/673/","each_terms":[{"url":"http://councils.g0v.tw/api/councilors_terms/1193/","election_year":"1994","name":"洪一平","gender":"","party":"","title":"議員","constituency":3,"county":"新北市","district":"永和市","in_office":true,"contact_details":null,"term_start":"1994-03-01","term_end":{"date":"1998-02-28"},"education":"溪洲國小（永和國小前身）\n勵行中學\n南山高職美術科","experience":"臺北縣議會第13屆議員\n永和市市長\n永崇貿易公司外務員\n明社貿易有限公司董事長\n永和市第四屆市代表\n永和市後備軍人後備中心秘書\n中國國民黨永和市黨部委員\n永和市調會委員\n永和市民防大隊副大隊長\n永和警友會顧問團長\n永和市第7、8屆市長","remark":null,"image":"http://www.ntp.gov.tw/UpFile/CouncilorFile/TTCC1321.jpg","links":[{"url":"http://www.ntp.gov.tw/content/history/history01-5-p.aspx?sid=457","note":"議會個人官網"}],"social_media":null,"platform":"","param":null,"councilor":"008b2861de72424591433daf38ebca20"}],"uid":"008b2861de72424591433daf38ebca20","name":"洪一平","birth":null,"former_names":"","identifiers":["洪一平"]},{"url":"http://councils.g0v.tw/api/councilors/1166/","each_terms":[{"url":"http://councils.g0v.tw/api/councilors_terms/2092/","election_year":"2009","name":"曹明正","gender":"男","party":"","title":"議員","constituency":4,"county":"彰化縣","district":"大村鄉、員林鎮、永靖鄉","in_office":true,"contact_details":[{"type":"phone","value":"04-8362046","label":"電話"},{"type":"fax","value":"04-8314275","label":"傳真"},{"type":"email","value":"mz.cao@msa.hinet.net","label":"電子信箱"},{"type":"address","value":"彰化縣員林鎮東北里6鄰山腳路六段182號","label":"通訊處"}],"term_start":"2009-12-25","term_end":{"date":"2014-12-25"},"education":"東山國小\n神州中學","experience":"彰化縣議會第14、15、16屆議員\n彰化縣政府身心障礙者權益保障委員\n彰化縣拳擊、員林太極拳等協會主任委員\n彰化肢殘、脊髓、盲人、聾人、國學等協會顧問\n彰化縣曹姓宗親會第4、5屆理事長\n螢光慈善會與省、縣聲暉協進會會長\n國際同濟會百果山會會長\n彰化縣議會第17屆議員","remark":null,"image":"http://www.chcc.gov.tw/UpFile/CouncilorPhoto/4004.jpg","links":[{"url":"http://www.chcc.gov.tw/content/list/list01_01.aspx?sid=30","note":"議會個人官網"}],"social_media":null,"platform":"調解鄉親紛爭，解除民怨、促進地方和諧\n督促縣府寬列國中小學教師退休預算，促進師資新陳代謝\n督促儘速開闢員林東側外環道\n建請檢討外勞政策，進用本國勞工、提高就業率\n建請辦理商展活動\n建請輔導農民轉型精緻農業、經營休閒觀光農場，促進農業升級\n建請設立地方特色商圈（如基隆廟口、台南永康等固定型夜市經營方式）\n建請改善山坑護岸堤防，並且督促嚴格取締山坡濫墾，預防土石流失\n建請加速整治排水，定期浚渫河川\n建請加強道德教育，根植道德、法治觀念","param":{"bills_role_statistics":{"total":18,"priproposer":1,"sponsor":2,"cosponsor":16},"diversity":{"":1.0},"bills_party_diversity":[{"party":"","ratio":1.0}]},"councilor":"2e5ba26956654626b9300cbaec5271f5"}],"uid":"2e5ba26956654626b9300cbaec5271f5","name":"曹明正","birth":"1953-11-12","former_names":"","identifiers":["曹明正"]},{"url":"http://councils.g0v.tw/api/councilors/1168/","each_terms":[{"url":"http://councils.g0v.tw/api/councilors_terms/2094/","election_year":"2009","name":"江瑞演","gender":"男","party":"","title":"議員","constituency":4,"county":"彰化縣","district":"大村鄉、員林鎮、永靖鄉","in_office":true,"contact_details":[{"type":"phone","value":"04-8313330","label":"電話"},{"type":"fax","value":"04-8311484","label":"傳真"},{"type":"email","value":"greatchanghua@livemail.tw","label":"電子信箱"},{"type":"address","value":"彰化縣員林鎮大同路2段178號","label":"通訊處"}],"term_start":"2009-12-25","term_end":{"date":"2014-12-25"},"education":"曉陽商業職業學校\n凱達格蘭學校","experience":"員林鎮民代表會代表\n民進黨員林鎮黨部主任委員\n員林鎮鎮興里社區理事長\n立法委員江昭儀員林區後援會執行總幹事\n謝長廷競選總統員林區總幹事\n員林獅子會第一副會長\n彰化縣議會第17屆議員","remark":null,"image":"http://www.chcc.gov.tw/UpFile/CouncilorPhoto/4007.jpg","links":[{"url":"http://www.chcc.gov.tw/content/list/list01_01.aspx?sid=27","note":"議會個人官網"}],"social_media":null,"platform":"","param":{"bills_role_statistics":{"total":57,"priproposer":26,"sponsor":26,"cosponsor":31},"diversity":{"":1.0},"bills_party_diversity":[{"party":"","ratio":1.0}]},"councilor":"b49912e9de064a0f812d15c61dbe67b4"}],"uid":"b49912e9de064a0f812d15c61dbe67b4","name":"江瑞演","birth":"1953-10-17","former_names":"","identifiers":["江瑞演"]},{"url":"http://councils.g0v.tw/api/councilors/1186/","each_terms":[{"url":"http://councils.g0v.tw/api/councilors_terms/2112/","election_year":"2009","name":"蔣中千","gender":"","party":"","title":"議員","constituency":7,"county":"桃園縣","district":"中壢市","in_office":true,"contact_details":[{"type":"email","value":"chung0935503213@yahoo.com.tw","label":"EMAIL"},{"type":"email","value":"tycca114@tycc.gov.tw","label":"EMAIL"},{"type":"address","value":"中壢市龍東里6鄰龍東12街23號","label":"服務處"},{"type":"voice","value":"03-466-3607","label":"電話"},{"type":"fax","value":"03-446-5013","label":"傳真"}],"term_start":"2009-12-25","term_end":{"date":"2014-12-25"},"education":"忠貞國小\n龍岡國中\n治平高中\n陸軍官校專38期步校正規班\n淡江大學公共行政科系","experience":"桃園縣第14屆縣議員\n貴州省同鄉會前理事長\n榮民榮眷基金會常務董事\n黃復興前29區主任、輔導員\n桃園縣傘兵協會總幹事、榮譽理事長\n陸軍官校校友會副會長\n治平高中校友會會長\n龍岡國中家長會會長\n華夏書藝協會第五屆理事長","remark":null,"image":"http://www.tycc.gov.tw/file%5Cperson%5Capp%5Ca634641656757660842%E8%94%A3%E4%B8%AD%E5%8D%83%E8%AD%B0%E5%93%A1.jpg","links":[{"url":"http://www.tycc.gov.tw/page.aspx?wtp=1&wnd=204&id=71","note":"議會個人官網"},{"url":"http://www.facebook.com/profile.php?id=100001391464555&ref=ts","note":"臉書"}],"social_media":null,"platform":"敬老尊賢，忠孝傳承，拔擢人才，熱情服務。\n真心誠意，無私無畏，打拼建設，承擔責任。","param":null,"councilor":"aba205ad3cfd4f6198e233ad9192f549"}],"uid":"aba205ad3cfd4f6198e233ad9192f549","name":"蔣中千","birth":null,"former_names":"","identifiers":["蔣中千"]},{"url":"http://councils.g0v.tw/api/councilors/1188/","each_terms":[{"url":"http://councils.g0v.tw/api/councilors_terms/2114/","election_year":"2009","name":"郭蔡美英","gender":"","party":"","title":"議員","constituency":12,"county":"桃園縣","district":"觀音鄉","in_office":true,"contact_details":[{"type":"email","value":"tycca116@tycc.gov.tw","label":"EMAIL"},{"type":"address","value":"觀音鄉富林村大觀路三段149號","label":"服務處"},{"type":"voice","value":"03-483-6666","label":"電話"}],"term_start":"2009-12-25","term_end":{"date":"2014-12-25"},"education":"省立中壢中學\n國立中壢高商畢","experience":"富林國小任教6年\n郭榮宗服務處主任18年\n觀音鄉愛心媽媽發展協會創會會長\n民主進步黨桃園縣黨部執行委員\n民主進步黨桃園縣觀音鄉黨部第八、九屆主任委員","remark":null,"image":"http://www.tycc.gov.tw/file%5Cperson%5Capp%5Ca634641653888659803%E9%83%AD%E8%94%A1%E7%BE%8E%E8%8B%B1%E8%AD%B0%E5%93%A1.jpg","links":[{"url":"http://www.tycc.gov.tw/page.aspx?wtp=1&wnd=204&id=85","note":"議會個人官網"},{"url":"http://tw.myblog.yahoo.com/jw!TZWDE4KfFR73sV6vUlmRF7Rg1XY-/","note":"部落格"}],"social_media":null,"platform":"","param":null,"councilor":"b59040b796ec47aea2ad27a473940819"}],"uid":"b59040b796ec47aea2ad27a473940819","name":"郭蔡美英","birth":null,"former_names":"","identifiers":["郭蔡美英"]},{"url":"http://councils.g0v.tw/api/councilors/201/","each_terms":[{"url":"http://councils.g0v.tw/api/councilors_terms/353/","election_year":"1989","name":"謝有文","gender":"男","party":"中國國民黨","title":"議員","constituency":null,"county":"臺北市","district":"","in_office":false,"contact_details":null,"term_start":"1989-12-25","term_end":{"date":"1994-12-25","reason":"於82年1月任內因病亡故。"},"education":"中國文化大學市政管理學士、美國加州聖荷西大學都市和區域計劃碩士、美國新澤西州羅格斯大學都市暨區域計劃博士。","experience":"加州聖塔克諾拉縣政府都市計劃處、政大地政研究所副教授、淡大副教授兼建築研究所所長、文大副教授兼市政學系主任。","remark":"於82年1月任內因病亡故。","image":"http://www.tcc.gov.tw/../upload/photo/%E8%AC%9D%E6%9C%89%E6%96%8714.jpg","links":[{"url":"http://www.tcc.gov.tw/Councilor_Content_All.aspx?s=1501&d=471216&n=%E8%AC%9D%E6%9C%89%E6%96%87","note":"議會個人官網"}],"social_media":null,"platform":"","param":null,"councilor":"3cc62cf81d364c33aa9822ac119f3559"}],"uid":"3cc62cf81d364c33aa9822ac119f3559","name":"謝有文","birth":"1947-12-16","former_names":"","identifiers":["謝有文"]},{"url":"http://councils.g0v.tw/api/councilors/202/","each_terms":[{"url":"http://councils.g0v.tw/api/councilors_terms/354/","election_year":"1989","name":"鄭貴夏","gender":"男","party":"中國國民黨","title":"議員","constituency":null,"county":"臺北市","district":"","in_office":true,"contact_details":null,"term_start":"1989-12-25","term_end":{"date":"1994-12-25"},"education":"省嘉中畢、中興大學地政系畢、高考乙等特考土地行政及格、政戰學校預官訓練班畢業。","experience":"經濟部中華工程公司管理師、土地登記代理人協會常務監事、中興獅子會會長、臺北市直轄市議會第四屆議員等。","remark":"","image":"http://www.tcc.gov.tw/../upload/photo/%E9%84%AD%E8%B2%B4%E5%A4%8F14.jpg","links":[{"url":"http://www.tcc.gov.tw/Councilor_Content_All.aspx?s=1848&d=450510&n=%E9%84%AD%E8%B2%B4%E5%A4%8F","note":"議會個人官網"}],"social_media":null,"platform":"","param":null,"councilor":"9b88331e7ca148daad9b0937651932b5"},{"url":"http://councils.g0v.tw/api/councilors_terms/453/","election_year":"1981","name":"鄭貴夏","gender":"男","party":"中國國民黨","title":"議員","constituency":null,"county":"臺北市","district":"","in_office":true,"contact_details":null,"term_start":"1981-12-25","term_end":{"date":"1985-12-25"},"education":"國立中興大學地政學系畢業、高等考試土地行政人員及格。","experience":"海軍陸戰隊政戰官、同濟中學教師、中興大學地政學系助教、中華工程公司業務管理師。","remark":"","image":"http://www.tcc.gov.tw/../upload/photo/%E9%84%AD%E8%B2%B4%E5%A4%8F12.jpg","links":[{"url":"http://www.tcc.gov.tw/Councilor_Content_All.aspx?s=1757&d=450510&n=%E9%84%AD%E8%B2%B4%E5%A4%8F","note":"議會個人官網"}],"social_media":null,"platform":"","param":null,"councilor":"9b88331e7ca148daad9b0937651932b5"}],"uid":"9b88331e7ca148daad9b0937651932b5","name":"鄭貴夏","birth":"1945-05-10","former_names":"","identifiers":["鄭貴夏"]},{"url":"http://councils.g0v.tw/api/councilors/1285/","each_terms":[{"url":"http://councils.g0v.tw/api/councilors_terms/2211/","election_year":"2009","name":"簡沛霖","gender":"男","party":"無黨籍","title":"議員","constituency":2,"county":"南投縣","district":"草屯鎮、中寮鄉","in_office":true,"contact_details":[{"type":"address","value":"草屯鎮山腳里民生路106號","label":"通訊處"}],"term_start":"2009-12-25","term_end":{"date":"2014-12-25"},"education":"草屯國中","experience":"草屯鎮民代表會第14、15、16屆鎮民代表\n南投縣議會第15、16屆議員\n草屯鎮農會會員代表\n草屯鎮虎山國民小學創會會長\n草屯鎮調解委員會調解委員\n現任第16屆南投縣議員\n草屯鎮紫微宮主任委員","remark":null,"image":"http://www.ntcc.gov.tw/images/n3_2_7.jpg","links":null,"social_media":null,"platform":"一、爭取興建山腳里、新厝里集會所，以利里民集會活動使用。\n二、督促縣政府早日拓寬投2線、投9線道路改善。\n三、照顧弱勢族群服務，爭取各項福利措施。\n四、重視社會治安，創造和諧安定的生活環境。\n五、要求辦理富寮公墓遷葬並結合工藝園區開發，促進地方繁榮進步。\n六、推動中興新村發展改造工作，促進就業機會。\n七、監督縣政府保障農民各項權益，爭取地方建設，做好為民服務。","param":{"bills_role_statistics":{"total":7,"priproposer":0,"sponsor":0,"cosponsor":7},"suggestions_piles":[{"count":4,"tokens":"國中|國小","sum":795000,"label":"國中、國小"},{"count":3,"tokens":"警察局|分局","sum":275000,"label":"警察局"},{"count":0,"tokens":"協會|學會|商會|公會|協進會|促進會|研習會|婦聯會|婦女會|體育會|同心會|農會|早起會|健身會|宗親會|功德會|商業會|長青會|民眾服務社|聯盟","sum":0,"label":"協會"},{"count":0,"tokens":"辦公室|辦公處","sum":0,"label":"辦公室"},{"count":0,"tokens":"廟|宮","sum":0,"label":"廟"},{"count":0,"tokens":"消防局|消防隊|分隊|中隊","sum":0,"label":"消防局"}],"suggestions_associations":[{"count":0,"sum":0,"label":"社區發展協會"},{"count":0,"sum":0,"label":"學會"},{"count":0,"sum":0,"label":"商會"},{"count":0,"sum":0,"label":"公會"},{"count":0,"sum":0,"label":"協進會"},{"count":0,"sum":0,"label":"促進會"},{"count":0,"sum":0,"label":"研習會"},{"count":0,"sum":0,"label":"婦聯會"},{"count":0,"sum":0,"label":"婦女會"},{"count":0,"sum":0,"label":"體育會"},{"count":0,"sum":0,"label":"同心會"},{"count":0,"sum":0,"label":"農會"},{"count":0,"sum":0,"label":"早起會"},{"count":0,"sum":0,"label":"健身會"},{"count":0,"sum":0,"label":"宗親會"},{"count":0,"sum":0,"label":"功德會"},{"count":0,"sum":0,"label":"商業會"},{"count":0,"sum":0,"label":"長青會"},{"count":0,"sum":0,"label":"民眾服務社"},{"count":0,"sum":0,"label":"聯盟"}],"diversity":{"中國國民黨":0.1574829931972789,"民主進步黨":0.25510204081632654,"無黨籍":0.5874149659863946},"suggestions_years":{"count":22,"sum":4788000,"years":[{"count":22,"sum":4788000,"suggest_year":"2014","small_purchase":6}]}},"councilor":"26ec69f26a1a485ab245e9a05d2158a8"}],"uid":"26ec69f26a1a485ab245e9a05d2158a8","name":"簡沛霖","birth":"1947-01-15","former_names":"","identifiers":["簡沛霖"]},{"url":"http://councils.g0v.tw/api/councilors/1287/","each_terms":[{"url":"http://councils.g0v.tw/api/councilors_terms/2213/","election_year":"2009","name":"陳倩月","gender":"女","party":"無黨籍","title":"議員","constituency":3,"county":"南投縣","district":"集集鎮、水里鄉、魚池鄉、信義鄉","in_office":true,"contact_details":[{"type":"address","value":"水里鄉永豐村民生路25之18號","label":"通訊處"}],"term_start":"2009-12-25","term_end":{"date":"2014-12-25"},"education":"潮寮中學畢業","experience":"南投縣議員陳垂堂服務處助理。\n南投縣愛心居家關懷協會理事。\n南投縣水鳳國際獅子會監事。","remark":null,"image":"http://www.ntcc.gov.tw/images/n3_3_1.jpg","links":null,"social_media":null,"platform":"一 監督縣府施政，維護縣民權益為第一優先。\n二 積極監督縣政府，早日完成第二期砂石產業運輸專用道，以改善信義至水里之間的交通、改善環境污染。\n三 積極爭取日月潭向山至水里鄉車埕處設置空中纜車，增進地方觀光資源。\n四 促請縣府規劃整治水里鄉水里溪，促進地方經濟與觀光產業的進步繁榮。\n五 敦請政府提升集集支線鐵路，鐵路電氣化，符合國際潮流，增進地方觀光產業繁榮。\n六 關懷照顧弱勢婦女、幼兒、老人福利。\n七 認真負責，全職服務。","param":{"bills_role_statistics":{"total":30,"priproposer":6,"sponsor":6,"cosponsor":24},"suggestions_piles":[{"count":6,"tokens":"警察局|分局","sum":840000,"label":"警察局"},{"count":1,"tokens":"國中|國小","sum":170000,"label":"國中、國小"},{"count":2,"tokens":"辦公室|辦公處","sum":150000,"label":"辦公室"},{"count":1,"tokens":"消防局|消防隊|分隊|中隊","sum":94000,"label":"消防局"},{"count":0,"tokens":"協會|學會|商會|公會|協進會|促進會|研習會|婦聯會|婦女會|體育會|同心會|農會|早起會|健身會|宗親會|功德會|商業會|長青會|民眾服務社|聯盟","sum":0,"label":"協會"},{"count":0,"tokens":"廟|宮","sum":0,"label":"廟"}],"suggestions_associations":[{"count":0,"sum":0,"label":"社區發展協會"},{"count":0,"sum":0,"label":"學會"},{"count":0,"sum":0,"label":"商會"},{"count":0,"sum":0,"label":"公會"},{"count":0,"sum":0,"label":"協進會"},{"count":0,"sum":0,"label":"促進會"},{"count":0,"sum":0,"label":"研習會"},{"count":0,"sum":0,"label":"婦聯會"},{"count":0,"sum":0,"label":"婦女會"},{"count":0,"sum":0,"label":"體育會"},{"count":0,"sum":0,"label":"同心會"},{"count":0,"sum":0,"label":"農會"},{"count":0,"sum":0,"label":"早起會"},{"count":0,"sum":0,"label":"健身會"},{"count":0,"sum":0,"label":"宗親會"},{"count":0,"sum":0,"label":"功德會"},{"count":0,"sum":0,"label":"商業會"},{"count":0,"sum":0,"label":"長青會"},{"count":0,"sum":0,"label":"民眾服務社"},{"count":0,"sum":0,"label":"聯盟"}],"diversity":{"中國國民黨":0.37555555555555553,"民主進步黨":0.11805555555555557,"無黨籍":0.5063888888888889},"suggestions_years":{"count":19,"sum":3672000,"years":[{"count":19,"sum":3672000,"suggest_year":"2014","small_purchase":8}]}},"councilor":"691d26121e194b708c00f73a38ce20f0"}],"uid":"691d26121e194b708c00f73a38ce20f0","name":"陳倩月","birth":"1972-07-25","former_names":"","identifiers":["陳倩月"]},{"url":"http://councils.g0v.tw/api/councilors/1038/","each_terms":[{"url":"http://councils.g0v.tw/api/councilors_terms/1963/","election_year":"2010","name":"黃麗招","gender":"女","party":"中國國民黨","title":"議員","constituency":10,"county":"臺南市","district":"安南區","in_office":true,"contact_details":[{"type":"email","value":"yusin17@yahoo.com.tw","label":"電子信箱"},{"type":"voice","value":"2468772","label":"電話"},{"type":"fax","value":"2468590","label":"傳真"},{"type":"address","value":"70966台南市安南區海佃路3段119號","label":"通訊處"}],"term_start":"2010-12-25","term_end":{"date":"2014-12-25"},"education":"初中","experience":"現任大台南市議會第1屆議員\n安南區婦女會15屆常務理事\n王國清國代 助理\n安南區婦女會16屆常務監事\n王昱婷立委 秘書\n安南區婦女慈愛會會長\n長安社區發展協會理事\n安南區黨部(國民黨)副主委\n台南市第16屆 市議員","remark":"","image":"http://www.tncc.gov.tw/warehouse/200000/%E9%BB%83%E9%BA%97%E6%8B%9B.bmp","links":[{"url":"http://www.tncc.gov.tw/tnccp/ccp_01a.asp?CName=%B6%C0%C4R%A9%DB","note":"議會個人官網"}],"social_media":null,"platform":"落實監督台江文化中心興建完成\t二、爭取安南區排水整治、爭取海尾、本淵寮抽水站設立、加強海尾、六塊寮、本淵寮排水線排水功能、徹底解決安南區水患\n爭取二等七道路儘速開闢、建議鹽水溪堤防快速道路規劃開闢以利大台南合併交通便利\n加強安南區學童教育政策，爭取廣設公立托兒所\n落實婦女安全政策、加強弱勢福利\n創造鹽水溪與嘉南大圳親水空間\n強化安南區治安網路、爭取重要路口設立高感度監視系統","param":{"suggestions_years":{"count":25,"sum":11505898,"years":[{"count":25,"sum":11505898,"suggest_year":"2014","small_purchase":6}]},"diversity":{"中國國民黨":0.6919851679930529,"民主進步黨":0.1300433758739158,"無黨籍":0.17797145613303192},"bills_role_statistics":{"total":317,"priproposer":45,"sponsor":49,"cosponsor":268},"suggestions_associations":[{"count":0,"sum":0,"label":"社區發展協會"},{"count":0,"sum":0,"label":"學會"},{"count":0,"sum":0,"label":"商會"},{"count":0,"sum":0,"label":"公會"},{"count":0,"sum":0,"label":"協進會"},{"count":0,"sum":0,"label":"促進會"},{"count":0,"sum":0,"label":"研習會"},{"count":0,"sum":0,"label":"婦聯會"},{"count":0,"sum":0,"label":"婦女會"},{"count":0,"sum":0,"label":"體育會"},{"count":0,"sum":0,"label":"同心會"},{"count":0,"sum":0,"label":"農會"},{"count":0,"sum":0,"label":"早起會"},{"count":0,"sum":0,"label":"健身會"},{"count":0,"sum":0,"label":"宗親會"},{"count":0,"sum":0,"label":"功德會"},{"count":0,"sum":0,"label":"商業會"},{"count":0,"sum":0,"label":"長青會"},{"count":0,"sum":0,"label":"民眾服務社"},{"count":0,"sum":0,"label":"聯盟"}],"bills_party_diversity":[{"party":"中國國民黨","ratio":0.6694352159468439},{"party":"民主進步黨","ratio":0.17829457364341086},{"party":"無黨籍","ratio":0.15227021040974528}],"suggestions_piles":[{"count":2,"tokens":"廟|宮","sum":490625,"label":"廟"},{"count":0,"tokens":"協會|學會|商會|公會|協進會|促進會|研習會|婦聯會|婦女會|體育會|同心會|農會|早起會|健身會|宗親會|功德會|商業會|長青會|民眾服務社|聯盟","sum":0,"label":"協會"},{"count":0,"tokens":"辦公室|辦公處","sum":0,"label":"辦公室"},{"count":0,"tokens":"警察局|分局","sum":0,"label":"警察局"},{"count":0,"tokens":"消防局|消防隊|分隊|中隊","sum":0,"label":"消防局"},{"count":0,"tokens":"國中|國小","sum":0,"label":"國中、國小"}]},"councilor":"438f8c4cd16f4ce983524c21534653b4"}],"uid":"438f8c4cd16f4ce983524c21534653b4","name":"黃麗招","birth":"1957-06-01","former_names":"","identifiers":["黄麗招","黃麗招","黃麗招","黄麗招"]}]}