{"count":1904,"next":"http://councils.g0v.tw/api/councilors/?page=53","previous":"http://councils.g0v.tw/api/councilors/?page=51","results":[{"url":"http://councils.g0v.tw/api/councilors/1049/","each_terms":[{"url":"http://councils.g0v.tw/api/councilors_terms/1974/","election_year":"2010","name":"王定宇","gender":"男","party":"民主進步黨","title":"議員","constituency":14,"county":"臺南市","district":"東區","in_office":true,"contact_details":[{"type":"email","value":"dingyu.tw@gmail.com","label":"電子信箱"},{"type":"voice","value":"2693150","label":"電話"},{"type":"fax","value":"2693161","label":"傳真"},{"type":"address","value":"70157台南市東區自由路3段268號","label":"通訊處"}],"term_start":"2010-12-25","term_end":{"date":"2014-12-25"},"education":"國立成功大學管理學院高階管理碩士97級。\n國立成功大學外文系80級。","experience":"1.現任大台南市議會第1屆議員\n2.1999年未來領袖學院李國鼎獎學金得主。\n3.1989成大十大傑出青年。\n4.2005台南同鄉會全國總會祕書長。\n5.2009議會教育小組召集人。\n6.1994-2004青春FormosaFM89.1（製作／主持）。\n7.三立「大話新聞」政治評論。\n8.「綠逗快樂三口組」全國聯播評論。","remark":"","image":"http://www.tncc.gov.tw/warehouse/200000/%E7%8E%8B%E5%AE%9A%E5%AE%87.bmp","links":[{"url":"http://www.tncc.gov.tw/tnccp/ccp_01a.asp?CName=%A4%FD%A9w%A6t","note":"議會個人官網"},{"url":"http://dingyu.ning.com/","note":"個人網站"}],"social_media":null,"platform":"臺南市升格，不是要變成第二個臺北、高雄，而是要成為一個最適合居住的幸福城\t市，何謂“最適合居住”、“幸福城市”，那就是適中的生活物價、房價，優質的教\t育品質，好的就業機會，良善的治安，便利的交通網，充分的綠地比例，友善的銀髮\t族環境，足量的公立幼托?等\n這一切的條件指標，都需要配套的政策和執行，定宇\t將全心全力提出、推動和監督，更重要的是要將心力放在我們共同的家園—臺南‧臺\t灣！","param":{"suggestions_years":{"count":35,"sum":17064773,"years":[{"count":35,"sum":17064773,"suggest_year":"2014","small_purchase":8}]},"diversity":{"中國國民黨":0.2396316792572598,"民主進步黨":0.670104979916812,"無黨籍":0.09026334082592846},"bills_role_statistics":{"total":29,"priproposer":0,"sponsor":3,"cosponsor":26},"suggestions_associations":[{"count":0,"sum":0,"label":"社區發展協會"},{"count":0,"sum":0,"label":"學會"},{"count":0,"sum":0,"label":"商會"},{"count":0,"sum":0,"label":"公會"},{"count":0,"sum":0,"label":"協進會"},{"count":0,"sum":0,"label":"促進會"},{"count":0,"sum":0,"label":"研習會"},{"count":0,"sum":0,"label":"婦聯會"},{"count":0,"sum":0,"label":"婦女會"},{"count":0,"sum":0,"label":"體育會"},{"count":0,"sum":0,"label":"同心會"},{"count":0,"sum":0,"label":"農會"},{"count":0,"sum":0,"label":"早起會"},{"count":0,"sum":0,"label":"健身會"},{"count":0,"sum":0,"label":"宗親會"},{"count":0,"sum":0,"label":"功德會"},{"count":0,"sum":0,"label":"商業會"},{"count":0,"sum":0,"label":"長青會"},{"count":0,"sum":0,"label":"民眾服務社"},{"count":0,"sum":0,"label":"聯盟"}],"bills_party_diversity":[{"party":"民主進步黨","ratio":0.6425233644859814},{"party":"中國國民黨","ratio":0.21261682242990654},{"party":"無黨籍","ratio":0.14485981308411214}],"suggestions_piles":[{"count":9,"tokens":"廟|宮","sum":7928000,"label":"廟"},{"count":1,"tokens":"國中|國小","sum":1200000,"label":"國中、國小"},{"count":1,"tokens":"辦公室|辦公處","sum":249000,"label":"辦公室"},{"count":0,"tokens":"協會|學會|商會|公會|協進會|促進會|研習會|婦聯會|婦女會|體育會|同心會|農會|早起會|健身會|宗親會|功德會|商業會|長青會|民眾服務社|聯盟","sum":0,"label":"協會"},{"count":0,"tokens":"警察局|分局","sum":0,"label":"警察局"},{"count":0,"tokens":"消防局|消防隊|分隊|中隊","sum":0,"label":"消防局"}]},"councilor":"9c8e3f1754034f5e8223cd863ce0e812"}],"uid":"9c8e3f1754034f5e8223cd863ce0e812","name":"王定宇","birth":"1969-03-05","former_names":"","identifiers":["王定宇"]},{"url":"http://councils.g0v.tw/api/councilors/1051/","each_terms":[{"url":"http://councils.g0v.tw/api/councilors_terms/1976/","election_year":"2010","name":"陳文科","gender":"男","party":"中國國民黨","title":"議員","constituency":14,"county":"臺南市","district":"東區","in_office":true,"contact_details":[{"type":"email","value":"nina0230@yahoo.com.tw","label":"電子信箱"},{"type":"voice","value":"2695921","label":"電話"},{"type":"fax","value":"2695935","label":"傳真"},{"type":"address","value":"70173台南市東區崇德路642之1號","label":"通訊處"}],"term_start":"2010-12-25","term_end":{"date":"2014-12-25"},"education":"1.永福國小\n2.忠孝國中\n3.南英商工\n4.中華醫事科技大學","experience":"現任大台南市議會第1屆議員\n1.曾任台南市第十六屆市議員\n2.第十七屆崇文里里長\n3.第十七屆東區里長聯誼會會長\n4.第十六屆崇成里里長\n5.第十六屆東區里長聯誼會會長\n6.德高厝上帝廟副主委\n7.勝和宮顧問\n8.十三甲武德宮委員","remark":"","image":"http://www.tncc.gov.tw/warehouse/200000/%E9%99%B3%E6%96%87%E7%A7%91.bmp","links":[{"url":"http://www.tncc.gov.tw/tnccp/ccp_01a.asp?CName=%B3%AF%A4%E5%AC%EC","note":"議會個人官網"},{"url":"http://www.facebook.com/profile.php?id=100000887935642","note":"個人網站"}],"social_media":null,"platform":"持續推動「南台南站副都心地區」推展案\n台南大學設運動管理行銷系，提昇東區文教品質\n鐵路地下化工程，帶動繁榮交通網\n巴克禮公園擴大綠地空間，優質休閒生活\n設置世貿中心，帶動東區繁榮\n爭取中低收入戶幼兒，免費營養午餐，以協助貧困子女安心就學\n督促台南市立醫院腫瘤大樓設立，以守護市民健康\n落實老年、殘障福利政策，關心弱勢族群，並增加就業機會\n督導市府財政預算，健全市政發展","param":{"suggestions_years":{"count":12,"sum":4784050,"years":[{"count":12,"sum":4784050,"suggest_year":"2014","small_purchase":3}]},"diversity":{"中國國民黨":0.6274438664514695,"民主進步黨":0.18799461166967815,"無黨籍":0.18456152187885205},"bills_role_statistics":{"total":193,"priproposer":50,"sponsor":54,"cosponsor":139},"suggestions_associations":[{"count":0,"sum":0,"label":"社區發展協會"},{"count":0,"sum":0,"label":"學會"},{"count":0,"sum":0,"label":"商會"},{"count":0,"sum":0,"label":"公會"},{"count":0,"sum":0,"label":"協進會"},{"count":0,"sum":0,"label":"促進會"},{"count":0,"sum":0,"label":"研習會"},{"count":0,"sum":0,"label":"婦聯會"},{"count":0,"sum":0,"label":"婦女會"},{"count":0,"sum":0,"label":"體育會"},{"count":0,"sum":0,"label":"同心會"},{"count":0,"sum":0,"label":"農會"},{"count":0,"sum":0,"label":"早起會"},{"count":0,"sum":0,"label":"健身會"},{"count":0,"sum":0,"label":"宗親會"},{"count":0,"sum":0,"label":"功德會"},{"count":0,"sum":0,"label":"商業會"},{"count":0,"sum":0,"label":"長青會"},{"count":0,"sum":0,"label":"民眾服務社"},{"count":0,"sum":0,"label":"聯盟"}],"bills_party_diversity":[{"party":"中國國民黨","ratio":0.5528781793842035},{"party":"民主進步黨","ratio":0.25903614457831325},{"party":"無黨籍","ratio":0.18808567603748327}],"suggestions_piles":[{"count":1,"tokens":"廟|宮","sum":113500,"label":"廟"},{"count":0,"tokens":"協會|學會|商會|公會|協進會|促進會|研習會|婦聯會|婦女會|體育會|同心會|農會|早起會|健身會|宗親會|功德會|商業會|長青會|民眾服務社|聯盟","sum":0,"label":"協會"},{"count":0,"tokens":"辦公室|辦公處","sum":0,"label":"辦公室"},{"count":0,"tokens":"警察局|分局","sum":0,"label":"警察局"},{"count":0,"tokens":"消防局|消防隊|分隊|中隊","sum":0,"label":"消防局"},{"count":0,"tokens":"國中|國小","sum":0,"label":"國中、國小"}]},"councilor":"dd440e28a54947e7b0e13b243311c48f"}],"uid":"dd440e28a54947e7b0e13b243311c48f","name":"陳文科","birth":"1959-03-29","former_names":"","identifiers":["陳文科"]},{"url":"http://councils.g0v.tw/api/councilors/1058/","each_terms":[{"url":"http://councils.g0v.tw/api/councilors_terms/1983/","election_year":"2010","name":"陳進益","gender":"男","party":"民主進步黨","title":"議員","constituency":15,"county":"臺南市","district":"南區","in_office":true,"contact_details":[{"type":"email","value":"y2921100@yahoo.com.tw","label":"電子信箱"},{"type":"voice","value":"2921100","label":"電話"},{"type":"fax","value":"2657667","label":"傳真"},{"type":"address","value":"70247台南市南區三官路20號","label":"通訊處"}],"term_start":"2010-12-25","term_end":{"date":"2014-12-25"},"education":"南台科技大學行銷流通管理系畢業。\n新營高中，麻豆國中，下營國小。","experience":"現任大台南市議會第1屆議員\n台南市第14.16屆市議員、1992年任立委許添財競選發言人、1995年任立委許添財競選總幹事、1993-1996任立委許添財服務處主任,1998任立委賴清德副總幹事,2000年總統大選任阿扁臺南總部發言人,2004年任（320）挺扁後援會會長","remark":"","image":"http://www.tncc.gov.tw/warehouse/200000/%E9%99%B3%E9%80%B2%E7%9B%8A.bmp","links":[{"url":"http://www.tncc.gov.tw/tnccp/ccp_01a.asp?CName=%B3%AF%B6i%AFq","note":"議會個人官網"},{"url":"http://www.facebook.com/profile.php?id=100001494310015","note":"個人網站"}],"social_media":null,"platform":"民\n進\n黨\n全\n國\n黨\n代\n表\n，\n1\n9\n9\n2\n、\n1\n9\n9\n5\n年\n任\n許\n添\n財\n競\n選\n立\n委\n總\n幹\n事\n。\n\t\n1\n9\n9\n8\n年\n任\n賴\n清\n德\n競\n選\n立\n委\n副\n總\n幹\n事\n。\n2\n0\n0\n0\n年\n總\n統\n大\n選\n任\n阿\n扁\n台\n南\n總\n部\n發\n言\n人\n。\n\t\n2\n0\n0\n8\n年\n任\n陳\n亭\n妃\n競\n選\n立\n委\n執\n行\n總\n幹\n事\n。\n\t\n現\n任\n民\n進\n黨\n台\n南\n市\n黨\n部\n主\n任\n委\n員\n，\n台\n南\n市\n議\n員\n。","param":{"suggestions_years":{"count":8,"sum":4172500,"years":[{"count":8,"sum":4172500,"suggest_year":"2014","small_purchase":3}]},"diversity":{"中國國民黨":0.12537158073981092,"民主進步黨":0.7542855465148873,"無黨籍":0.12034287274530152},"bills_role_statistics":{"total":99,"priproposer":1,"sponsor":3,"cosponsor":96},"suggestions_associations":[{"count":0,"sum":0,"label":"社區發展協會"},{"count":0,"sum":0,"label":"學會"},{"count":0,"sum":0,"label":"商會"},{"count":0,"sum":0,"label":"公會"},{"count":0,"sum":0,"label":"協進會"},{"count":0,"sum":0,"label":"促進會"},{"count":0,"sum":0,"label":"研習會"},{"count":0,"sum":0,"label":"婦聯會"},{"count":0,"sum":0,"label":"婦女會"},{"count":0,"sum":0,"label":"體育會"},{"count":0,"sum":0,"label":"同心會"},{"count":0,"sum":0,"label":"農會"},{"count":0,"sum":0,"label":"早起會"},{"count":0,"sum":0,"label":"健身會"},{"count":0,"sum":0,"label":"宗親會"},{"count":0,"sum":0,"label":"功德會"},{"count":0,"sum":0,"label":"商業會"},{"count":0,"sum":0,"label":"長青會"},{"count":0,"sum":0,"label":"民眾服務社"},{"count":0,"sum":0,"label":"聯盟"}],"bills_party_diversity":[{"party":"民主進步黨","ratio":0.6447638603696099},{"party":"中國國民黨","ratio":0.2002053388090349},{"party":"無黨籍","ratio":0.15503080082135523}],"suggestions_piles":[{"count":0,"tokens":"協會|學會|商會|公會|協進會|促進會|研習會|婦聯會|婦女會|體育會|同心會|農會|早起會|健身會|宗親會|功德會|商業會|長青會|民眾服務社|聯盟","sum":0,"label":"協會"},{"count":0,"tokens":"辦公室|辦公處","sum":0,"label":"辦公室"},{"count":0,"tokens":"廟|宮","sum":0,"label":"廟"},{"count":0,"tokens":"警察局|分局","sum":0,"label":"警察局"},{"count":0,"tokens":"消防局|消防隊|分隊|中隊","sum":0,"label":"消防局"},{"count":0,"tokens":"國中|國小","sum":0,"label":"國中、國小"}]},"councilor":"15c442bf13584eafad05fab701515689"}],"uid":"15c442bf13584eafad05fab701515689","name":"陳進益","birth":"1954-11-04","former_names":"","identifiers":["陳進益"]},{"url":"http://councils.g0v.tw/api/councilors/1644/","each_terms":[{"url":"http://councils.g0v.tw/api/councilors_terms/2570/","election_year":"2009","name":"巫恒昭","gender":"","party":"","title":"","constituency":3,"county":"苗栗縣","district":"通霄鎮、苑裡鎮","in_office":true,"contact_details":null,"term_start":"2009-12-25","term_end":{"date":"2014-12-25"},"education":null,"experience":null,"remark":null,"image":"http://www.mcc.gov.tw/admin/upload/small_news_201003131641250.jpg","links":[{"url":"http://www.mcc.gov.tw/imgtxt_list.php?menu=27&typeid=42&typeid2=668","note":"議會個人官網"}],"social_media":null,"platform":"","param":null,"councilor":"5393b90dcb964a86a21b75356680ea72"}],"uid":"5393b90dcb964a86a21b75356680ea72","name":"巫恒昭","birth":null,"former_names":"","identifiers":["巫恒昭"]},{"url":"http://councils.g0v.tw/api/councilors/254/","each_terms":[{"url":"http://councils.g0v.tw/api/councilors_terms/499/","election_year":"1977","name":"羅斌","gender":"男","party":"中國國民黨","title":"議員","constituency":null,"county":"臺北市","district":"","in_office":true,"contact_details":null,"term_start":"1977-12-25","term_end":{"date":"1981-12-25"},"education":"政工幹部學校第七期政治系畢業、特考乙等(相等高考)普通行政優等考試及格、特考丙等(相等普考)普通行政優等第三名考試及格。","experience":"國防部警衛營連、營輔導長、情報次長室參謀官、警備總部政戰官、指導員、裝甲兵戰車車長、幼年兵、國防部復華記者、勝利之光畫報記者、中外畫報特派員、青年戰士報記者。","remark":"","image":"http://www.tcc.gov.tw/../upload/photo/%E7%BE%85%E6%96%8C11.jpg","links":[{"url":"http://www.tcc.gov.tw/Councilor_Content_All.aspx?s=1363&d=330620&n=%E7%BE%85%E6%96%8C","note":"議會個人官網"}],"social_media":null,"platform":"","param":null,"councilor":"1aced84a9e0346db9b6914752336788a"}],"uid":"1aced84a9e0346db9b6914752336788a","name":"羅斌","birth":"1933-06-20","former_names":"","identifiers":["羅斌"]},{"url":"http://councils.g0v.tw/api/councilors/792/","each_terms":[{"url":"http://councils.g0v.tw/api/councilors_terms/1442/","election_year":"1946","name":"鍾榮富","gender":"","party":"","title":"議員","constituency":null,"county":"新北市","district":"","in_office":true,"contact_details":null,"term_start":"1946-04-15","term_end":{"date":"1950-12-31"},"education":"臺北師範畢業。","experience":"教員\n莊長，坪林鄉地1，2，3屆鄉長\n*民國三十五年十二月因當選鄉長辭職","remark":null,"image":"http://www.ntp.gov.tw/UpFile/CouncilorFile/TTCC0033.jpg","links":[{"url":"http://www.ntp.gov.tw/content/history/history01-5-p.aspx?sid=33","note":"議會個人官網"}],"social_media":null,"platform":"","param":null,"councilor":"cb211ad47235411ab525d6157b83c706"}],"uid":"cb211ad47235411ab525d6157b83c706","name":"鍾榮富","birth":null,"former_names":"","identifiers":["鍾榮富"]},{"url":"http://councils.g0v.tw/api/councilors/1136/","each_terms":[{"url":"http://councils.g0v.tw/api/councilors_terms/2062/","election_year":"2009","name":"林維浩","gender":"男","party":"","title":"議員","constituency":1,"county":"彰化縣","district":"彰化市、花壇鄉、芬園鄉","in_office":true,"contact_details":[{"type":"phone","value":"04-7384561","label":"電話"},{"type":"fax","value":"04-7384988","label":"傳真"},{"type":"email","value":"n8889688@yahoo.com.tw","label":"電子信箱"},{"type":"address","value":"彰化縣彰化市香山里彰南路2段581號","label":"通訊處"}],"term_start":"2009-12-25","term_end":{"date":"2014-12-25"},"education":"美國國際大學國際關係碩士\n東海大學政治系\n彰化高中\n彰德國中\n大竹國小","experience":"國會助理、立法委員服務處助理\n廣播電台節目主持人\n民進黨中央黨部青年部專員\n民進黨彰化縣黨部執行委員\n彰化縣永生儲蓄互助社理事\n彰化縣彰化市香山社區發展協會理事、總幹事\n民進黨彰化縣黨部執行長、副執行長\n彰化縣議會第17屆議員","remark":null,"image":"http://www.chcc.gov.tw/UpFile/CouncilorPhoto/N2012621174318.jpg","links":[{"url":"http://www.chcc.gov.tw/content/list/list01_01.aspx?sid=54","note":"議會個人官網"}],"social_media":null,"platform":"","param":{"bills_role_statistics":{"total":27,"priproposer":0,"sponsor":0,"cosponsor":27},"diversity":{"":1.0},"bills_party_diversity":[{"party":"","ratio":1.0}]},"councilor":"302fe9a1820f41dc8d4dcea7dd9855c2"}],"uid":"302fe9a1820f41dc8d4dcea7dd9855c2","name":"林維浩","birth":"1969-07-18","former_names":"","identifiers":["林維浩","林維浩"]},{"url":"http://councils.g0v.tw/api/councilors/1138/","each_terms":[{"url":"http://councils.g0v.tw/api/councilors_terms/2064/","election_year":"2009","name":"唐鎮林","gender":"男","party":"","title":"議員","constituency":1,"county":"彰化縣","district":"彰化市、花壇鄉、芬園鄉","in_office":true,"contact_details":[{"type":"phone","value":"04-7119386-7","label":"電話"},{"type":"fax","value":"04-7129977","label":"傳真"},{"type":"email","value":"ctc6423@yahoo.com.tw","label":"電子信箱"},{"type":"address","value":"彰化縣花壇鄉北口村中山路二段716號","label":"通訊處"}],"term_start":"2009-12-25","term_end":{"date":"2014-12-25"},"education":"台中商專肄業","experience":"花壇鄉第12、13屆鄉長\n彰化縣議會第11、12、15屆議員\n花壇鄉民代表會第10、11、12屆代表\n花壇鄉農會第9、10屆理事\n花壇鄉後備軍人輔導中心主任\n花壇調解會主席\n彰安國中家長會會長、永靖高工家長會長\n彰化縣總工會常務理事  \n彰化縣議會第17屆議員","remark":null,"image":"http://www.chcc.gov.tw/UpFile/CouncilorPhoto/1001.JPG","links":[{"url":"http://www.chcc.gov.tw/content/list/list01_01.aspx?sid=12","note":"議會個人官網"}],"social_media":null,"platform":"一、積極促成彰化鐵路高架化工程銜接員林高架鐵路","param":{"bills_role_statistics":{"total":46,"priproposer":25,"sponsor":25,"cosponsor":21},"diversity":{"":1.0},"bills_party_diversity":[{"party":"","ratio":1.0}]},"councilor":"c14f66eb06824574ae05930bf8b4a087"}],"uid":"c14f66eb06824574ae05930bf8b4a087","name":"唐鎮林","birth":"1942-08-11","former_names":"","identifiers":["唐鎭林","唐鎭林","唐鎮林","唐鎮林"]},{"url":"http://councils.g0v.tw/api/councilors/540/","each_terms":[{"url":"http://councils.g0v.tw/api/councilors_terms/930/","election_year":"1977","name":"陳照郎","gender":"","party":"","title":"議員","constituency":3,"county":"新北市","district":"三重市、新莊鎮、泰山鄉、五股鄉、蘆洲鄉、林口鄉","in_office":true,"contact_details":null,"term_start":"1977-12-30","term_end":{"date":"1982-02-28"},"education":"斗六鎮鎮西國小\n嘉義高工補校初級部電機配線科\n東海中學\n軍管區後幹６９期結業","experience":"三重市吉利里里長\n臺北縣議會第9、10屆議員\n高票當選臺灣省議會第9屆議員","remark":null,"image":"http://www.ntp.gov.tw/UpFile/CouncilorFile/TTCC0930.jpg","links":[{"url":"http://www.ntp.gov.tw/content/history/history01-5-p.aspx?sid=340","note":"議會個人官網"}],"social_media":null,"platform":"","param":null,"councilor":"8371cb53160e4b1aa20d587b6549196c"},{"url":"http://councils.g0v.tw/api/councilors_terms/1047/","election_year":"1982","name":"陳照郎","gender":"","party":"","title":"議員","constituency":4,"county":"新北市","district":"三重市、蘆洲鄉","in_office":true,"contact_details":null,"term_start":"1982-03-01","term_end":{"date":"1986-02-28"},"education":"斗六鎮鎮西國小\n嘉義高工補校初級部電機配線科\n東海中學\n軍管區後幹６９期結業","experience":"三重市吉利里里長\n臺北縣議會第9、10屆議員\n高票當選臺灣省議會第9屆議員","remark":null,"image":"http://www.ntp.gov.tw/UpFile/CouncilorFile/TTCC0930.jpg","links":[{"url":"http://www.ntp.gov.tw/content/history/history01-5-p.aspx?sid=340","note":"議會個人官網"}],"social_media":null,"platform":"","param":null,"councilor":"8371cb53160e4b1aa20d587b6549196c"}],"uid":"8371cb53160e4b1aa20d587b6549196c","name":"陳照郎","birth":null,"former_names":"","identifiers":["陳照郎"]},{"url":"http://councils.g0v.tw/api/councilors/541/","each_terms":[{"url":"http://councils.g0v.tw/api/councilors_terms/931/","election_year":"1977","name":"林健男","gender":"","party":"","title":"議員","constituency":3,"county":"新北市","district":"三重市、新莊鎮、泰山鄉、五股鄉、蘆洲鄉、林口鄉","in_office":true,"contact_details":null,"term_start":"1977-12-30","term_end":{"date":"1982-02-28"},"education":"泰山國小\n新莊農校（現泰山高中）\n三極高工畢業\n革命實踐研究院結業","experience":"臺北縣都市計畫委員\n味峰公司董事長\n漢亭餐廳股份有限公司董事長\n臺灣省林姓宗親會理事長\n臺北縣議會第9、10屆議員","remark":null,"image":"http://www.ntp.gov.tw/UpFile/CouncilorFile/TTCC0931.jpg","links":[{"url":"http://www.ntp.gov.tw/content/history/history01-5-p.aspx?sid=341","note":"議會個人官網"}],"social_media":null,"platform":"","param":null,"councilor":"66c549614a854a52b618489d56d793a3"},{"url":"http://councils.g0v.tw/api/councilors_terms/1037/","election_year":"1982","name":"林健男","gender":"","party":"","title":"議員","constituency":5,"county":"新北市","district":"新莊市、泰山鄉、五股鄉、林口鄉","in_office":true,"contact_details":null,"term_start":"1982-03-01","term_end":{"date":"1986-02-28"},"education":"泰山國小\n新莊農校（現泰山高中）\n三極高工畢業\n革命實踐研究院結業","experience":"臺北縣都市計畫委員\n味峰公司董事長\n漢亭餐廳股份有限公司董事長\n臺灣省林姓宗親會理事長\n臺北縣議會第9、10屆議員","remark":null,"image":"http://www.ntp.gov.tw/UpFile/CouncilorFile/TTCC0931.jpg","links":[{"url":"http://www.ntp.gov.tw/content/history/history01-5-p.aspx?sid=341","note":"議會個人官網"}],"social_media":null,"platform":"","param":null,"councilor":"66c549614a854a52b618489d56d793a3"}],"uid":"66c549614a854a52b618489d56d793a3","name":"林健男","birth":null,"former_names":"","identifiers":["林健男","林健男"]}]}