{"count":1904,"next":"http://councils.g0v.tw/api/councilors/?page=54","previous":"http://councils.g0v.tw/api/councilors/?page=52","results":[{"url":"http://councils.g0v.tw/api/councilors/522/","each_terms":[{"url":"http://councils.g0v.tw/api/councilors_terms/880/","election_year":"1968","name":"陳絹","gender":"","party":"","title":"議員","constituency":2,"county":"新北市","district":"樹林鎮、鶯歌鎮、三峽鎮","in_office":true,"contact_details":null,"term_start":"1968-02-21","term_end":{"date":"1973-04-30"},"education":"三峽國民小學\n三峽初中\n省立新竹商業職業學校","experience":"北縣三峽鎮第7屆鎮民代表\n三鶯國際獅子會會長\n農會供銷部主任\n農會會計股長\n農會秘書\n三峽鎮農會總幹事\n臺北縣議會第7屆議員\n民國92年11月7日歿","remark":null,"image":"http://www.ntp.gov.tw/UpFile/CouncilorFile/TTCC0718.jpg","links":[{"url":"http://www.ntp.gov.tw/content/history/history01-5-p.aspx?sid=283","note":"議會個人官網"}],"social_media":null,"platform":"","param":null,"councilor":"01496a17327f42ff86eac0287473fe64"}],"uid":"01496a17327f42ff86eac0287473fe64","name":"陳絹","birth":null,"former_names":"","identifiers":["陳絹"]},{"url":"http://councils.g0v.tw/api/councilors/733/","each_terms":[{"url":"http://councils.g0v.tw/api/councilors_terms/1358/","election_year":"2006","name":"劉新龍","gender":"","party":"","title":"議員","constituency":6,"county":"新北市","district":"新莊市、泰山鄉、五股鄉、林口鄉","in_office":true,"contact_details":null,"term_start":"2006-03-01","term_end":{"date":"2010-12-24"},"education":"瓜山國小\n時雨中學\n瑞芳高工","experience":"臺北縣議會第16屆議員\n新莊市導護義工協會理事長\n客家協會名譽理事長\n第七屆市民代表\n國衛電視製作人\n新莊後備軍人輔導中心區秘書\n市黨部訓練委員會執行長\n新住民公策會執行長\n馬蕭競選新莊後援會副主任委員\n致理技術學院特聘講師","remark":null,"image":"http://www.ntp.gov.tw/UpFile/CouncilorFile/TTCC1647.jpg","links":[{"url":"http://www.ntp.gov.tw/content/history/history01-5-p.aspx?sid=545","note":"議會個人官網"}],"social_media":null,"platform":"","param":null,"councilor":"17d918c6c70e436e910bf96aad4a188a"}],"uid":"17d918c6c70e436e910bf96aad4a188a","name":"劉新龍","birth":null,"former_names":"","identifiers":["劉新龍","劉新龍"]},{"url":"http://councils.g0v.tw/api/councilors/813/","each_terms":[{"url":"http://councils.g0v.tw/api/councilors_terms/1529/","election_year":"1951","name":"江貴元","gender":"","party":"","title":"議員","constituency":1,"county":"新北市","district":"板橋鎮、中和鄉包括今永和地區、土城鄉","in_office":true,"contact_details":null,"term_start":"1951-01-04","term_end":{"date":"1953-01-05"},"education":"臺北第二師範學校演習科","experience":"日據時代公學校訓導\n中和國校教員\n中和信用合作社理事主席\n中和鄉農會理事長總幹事\n中和鄉第4、5屆鄉長\n縣參議員\n臺北縣議會第1、2、3屆議員","remark":null,"image":"http://www.ntp.gov.tw/UpFile/CouncilorFile/TTCC0011.jpg","links":[{"url":"http://www.ntp.gov.tw/content/history/history01-5-p.aspx?sid=11","note":"議會個人官網"}],"social_media":null,"platform":"","param":null,"councilor":"bc0b7baf2e0348dfade0deb8cd53f48d"},{"url":"http://councils.g0v.tw/api/councilors_terms/1593/","election_year":"1953","name":"江貴元","gender":"","party":"","title":"議員","constituency":1,"county":"新北市","district":"板橋鎮、中和鄉、土城鄉","in_office":true,"contact_details":null,"term_start":"1953-01-16","term_end":{"date":"1955-01-15"},"education":"臺北第二師範學校演習科","experience":"日據時代公學校訓導\n中和國校教員\n中和信用合作社理事主席\n中和鄉農會理事長總幹事\n中和鄉第4、5屆鄉長\n縣參議員\n臺北縣議會第1、2、3屆議員","remark":null,"image":"http://www.ntp.gov.tw/UpFile/CouncilorFile/TTCC0011.jpg","links":[{"url":"http://www.ntp.gov.tw/content/history/history01-5-p.aspx?sid=11","note":"議會個人官網"}],"social_media":null,"platform":"","param":null,"councilor":"bc0b7baf2e0348dfade0deb8cd53f48d"},{"url":"http://councils.g0v.tw/api/councilors_terms/1656/","election_year":"1955","name":"江貴元","gender":"","party":"","title":"議員","constituency":1,"county":"新北市","district":"板橋鎮、中和鄉、土城鄉","in_office":true,"contact_details":null,"term_start":"1955-01-16","term_end":{"date":"1958-02-20"},"education":"臺北第二師範學校演習科","experience":"日據時代公學校訓導\n中和國校教員\n中和信用合作社理事主席\n中和鄉農會理事長總幹事\n中和鄉第4、5屆鄉長\n縣參議員\n臺北縣議會第1、2、3屆議員","remark":null,"image":"http://www.ntp.gov.tw/UpFile/CouncilorFile/TTCC0011.jpg","links":[{"url":"http://www.ntp.gov.tw/content/history/history01-5-p.aspx?sid=11","note":"議會個人官網"}],"social_media":null,"platform":"","param":null,"councilor":"bc0b7baf2e0348dfade0deb8cd53f48d"},{"url":"http://councils.g0v.tw/api/councilors_terms/1463/","election_year":"1946","name":"江貴元","gender":"","party":"","title":"議員","constituency":null,"county":"新北市","district":"","in_office":true,"contact_details":null,"term_start":"1946-04-15","term_end":{"date":"1950-12-31"},"education":"臺北第二師範學校演習科","experience":"日據時代公學校訓導\n中和國校教員\n中和信用合作社理事主席\n中和鄉農會理事長總幹事\n中和鄉第4、5屆鄉長\n縣參議員\n臺北縣議會第1、2、3屆議員","remark":null,"image":"http://www.ntp.gov.tw/UpFile/CouncilorFile/TTCC0011.jpg","links":[{"url":"http://www.ntp.gov.tw/content/history/history01-5-p.aspx?sid=11","note":"議會個人官網"}],"social_media":null,"platform":"","param":null,"councilor":"bc0b7baf2e0348dfade0deb8cd53f48d"}],"uid":"bc0b7baf2e0348dfade0deb8cd53f48d","name":"江貴元","birth":null,"former_names":"","identifiers":["江貴元"]},{"url":"http://councils.g0v.tw/api/councilors/814/","each_terms":[{"url":"http://councils.g0v.tw/api/councilors_terms/1464/","election_year":"1946","name":"游火金","gender":"","party":"","title":"議員","constituency":null,"county":"新北市","district":"","in_office":true,"contact_details":null,"term_start":"1946-04-15","term_end":{"date":"1950-12-31"},"education":"臺北商工學校畢業\n*以當選鄉長辭職。","experience":"","remark":null,"image":"http://www.ntp.gov.tw/UpFile/CouncilorFile/TTCC0010.jpg","links":[{"url":"http://www.ntp.gov.tw/content/history/history01-5-p.aspx?sid=10","note":"議會個人官網"}],"social_media":null,"platform":"","param":null,"councilor":"59d5d2903ca0451eafebfbcaf6a3030f"}],"uid":"59d5d2903ca0451eafebfbcaf6a3030f","name":"游火金","birth":null,"former_names":"","identifiers":["游火金"]},{"url":"http://councils.g0v.tw/api/councilors/793/","each_terms":[{"url":"http://councils.g0v.tw/api/councilors_terms/1443/","election_year":"1946","name":"陳志良","gender":"","party":"","title":"議員","constituency":null,"county":"新北市","district":"","in_office":true,"contact_details":null,"term_start":"1946-04-15","term_end":{"date":"1950-12-31"},"education":"","experience":"*民國三十八年八月因就任巡官辭","remark":null,"image":"http://www.ntp.gov.tw/UpFile/CouncilorFile/TTCC0031.jpg","links":[{"url":"http://www.ntp.gov.tw/content/history/history01-5-p.aspx?sid=31","note":"議會個人官網"}],"social_media":null,"platform":"","param":null,"councilor":"7802df971fd34ed2acbe37f097a8859d"}],"uid":"7802df971fd34ed2acbe37f097a8859d","name":"陳志良","birth":null,"former_names":"","identifiers":["陳志良"]},{"url":"http://councils.g0v.tw/api/councilors/794/","each_terms":[{"url":"http://councils.g0v.tw/api/councilors_terms/1480/","election_year":"1951","name":"張初生","gender":"","party":"","title":"議員","constituency":9,"county":"新北市","district":"新店鎮、景美鎮、木柵鄉、深坑鄉、石碇鄉、坪林鄉","in_office":true,"contact_details":null,"term_start":"1951-01-04","term_end":{"date":"1953-01-05"},"education":"木柵國校畢業","experience":"深坑庄役場書記\n深坑庄協議會員\n木柵鄉農會會長\n臺北縣參議員\n臺北縣議會第1、2、3屆議員\n*民國68年4月27日歿","remark":null,"image":"http://www.ntp.gov.tw/UpFile/CouncilorFile/TTCC0030.jpg","links":[{"url":"http://www.ntp.gov.tw/content/history/history01-5-p.aspx?sid=30","note":"議會個人官網"}],"social_media":null,"platform":"","param":null,"councilor":"8e46ce71c07346b2a0429d31781f17d5"},{"url":"http://councils.g0v.tw/api/councilors_terms/1536/","election_year":"1953","name":"張初生","gender":"","party":"","title":"議員","constituency":9,"county":"新北市","district":"新店鎮、景美鎮、木柵鄉、深坑鄉、石碇鄉、坪林鄉","in_office":true,"contact_details":null,"term_start":"1953-01-16","term_end":{"date":"1955-01-15"},"education":"木柵國校畢業","experience":"深坑庄役場書記\n深坑庄協議會員\n木柵鄉農會會長\n臺北縣參議員\n臺北縣議會第1、2、3屆議員\n*民國68年4月27日歿","remark":null,"image":"http://www.ntp.gov.tw/UpFile/CouncilorFile/TTCC0030.jpg","links":[{"url":"http://www.ntp.gov.tw/content/history/history01-5-p.aspx?sid=30","note":"議會個人官網"}],"social_media":null,"platform":"","param":null,"councilor":"8e46ce71c07346b2a0429d31781f17d5"},{"url":"http://councils.g0v.tw/api/councilors_terms/1596/","election_year":"1955","name":"張初生","gender":"","party":"","title":"議員","constituency":9,"county":"新北市","district":"新店鎮、景美鎮、木柵鄉、深坑鄉、石碇鄉、坪林鄉","in_office":true,"contact_details":null,"term_start":"1955-01-16","term_end":{"date":"1958-02-20"},"education":"木柵國校畢業","experience":"深坑庄役場書記\n深坑庄協議會員\n木柵鄉農會會長\n臺北縣參議員\n臺北縣議會第1、2、3屆議員\n*民國68年4月27日歿","remark":null,"image":"http://www.ntp.gov.tw/UpFile/CouncilorFile/TTCC0030.jpg","links":[{"url":"http://www.ntp.gov.tw/content/history/history01-5-p.aspx?sid=30","note":"議會個人官網"}],"social_media":null,"platform":"","param":null,"councilor":"8e46ce71c07346b2a0429d31781f17d5"},{"url":"http://councils.g0v.tw/api/councilors_terms/1444/","election_year":"1946","name":"張初生","gender":"","party":"","title":"議員","constituency":null,"county":"新北市","district":"","in_office":true,"contact_details":null,"term_start":"1946-04-15","term_end":{"date":"1950-12-31"},"education":"木柵國校畢業","experience":"深坑庄役場書記\n深坑庄協議會員\n木柵鄉農會會長\n臺北縣參議員\n臺北縣議會第1、2、3屆議員\n*民國68年4月27日歿","remark":null,"image":"http://www.ntp.gov.tw/UpFile/CouncilorFile/TTCC0030.jpg","links":[{"url":"http://www.ntp.gov.tw/content/history/history01-5-p.aspx?sid=30","note":"議會個人官網"}],"social_media":null,"platform":"","param":null,"councilor":"8e46ce71c07346b2a0429d31781f17d5"}],"uid":"8e46ce71c07346b2a0429d31781f17d5","name":"張初生","birth":null,"former_names":"","identifiers":["張初生"]},{"url":"http://councils.g0v.tw/api/councilors/569/","each_terms":[{"url":"http://councils.g0v.tw/api/councilors_terms/979/","election_year":"1986","name":"陳茂正","gender":"","party":"","title":"議員","constituency":5,"county":"新北市","district":"新莊市、泰山鄉、五股鄉、林口鄉","in_office":true,"contact_details":null,"term_start":"1986-03-01","term_end":{"date":"1990-02-28"},"education":"新莊國小畢業\n開南商工初商畢業\n東海中學附設商校高級部畢業\n國立政治大學行政管理中心企業管理研究\n美國加州大學社會工作系結業","experience":"新莊中港民防中隊\n義警分隊顧問\n新莊民眾服務社常務理事\n新莊後備軍人輔導組長\n臺北縣議會第10、11屆議員\n僑星建設公司董事長\n大自然育樂公司董事長\n青園兒童教育基金會董事長","remark":null,"image":"http://www.ntp.gov.tw/UpFile/CouncilorFile/TTCC1048.jpg","links":[{"url":"http://www.ntp.gov.tw/content/history/history01-5-p.aspx?sid=381","note":"議會個人官網"}],"social_media":null,"platform":"","param":null,"councilor":"95501859352a42069b45a922e009d5bd"},{"url":"http://councils.g0v.tw/api/councilors_terms/1033/","election_year":"1982","name":"陳茂正","gender":"","party":"","title":"議員","constituency":5,"county":"新北市","district":"新莊市、泰山鄉、五股鄉、林口鄉","in_office":true,"contact_details":null,"term_start":"1982-03-01","term_end":{"date":"1986-02-28"},"education":"新莊國小畢業\n開南商工初商畢業\n東海中學附設商校高級部畢業\n國立政治大學行政管理中心企業管理研究\n美國加州大學社會工作系結業","experience":"新莊中港民防中隊\n義警分隊顧問\n新莊民眾服務社常務理事\n新莊後備軍人輔導組長\n臺北縣議會第10、11屆議員\n僑星建設公司董事長\n大自然育樂公司董事長\n青園兒童教育基金會董事長","remark":null,"image":"http://www.ntp.gov.tw/UpFile/CouncilorFile/TTCC1048.jpg","links":[{"url":"http://www.ntp.gov.tw/content/history/history01-5-p.aspx?sid=381","note":"議會個人官網"}],"social_media":null,"platform":"","param":null,"councilor":"95501859352a42069b45a922e009d5bd"}],"uid":"95501859352a42069b45a922e009d5bd","name":"陳茂正","birth":null,"former_names":"","identifiers":["陳茂正"]},{"url":"http://councils.g0v.tw/api/councilors/570/","each_terms":[{"url":"http://councils.g0v.tw/api/councilors_terms/980/","election_year":"1986","name":"李顯榮","gender":"","party":"","title":"議員","constituency":5,"county":"新北市","district":"新莊市、泰山鄉、五股鄉、林口鄉","in_office":true,"contact_details":null,"term_start":"1986-03-01","term_end":{"date":"1990-02-28"},"education":"淡江大學建築系\n美國舊金山大學公共政策碩士\n美國諾華大學博士班","experience":"義警、民防、義消顧問\n中港國際獅子會會長\n輔仁大學講師\n發財證券公司董事長\n臺北縣議會第10、11屆議員\n顯榮建築師事務所負責人\n第6屆立法委員","remark":null,"image":"http://www.ntp.gov.tw/UpFile/CouncilorFile/TTCC1044.jpg","links":[{"url":"http://www.ntp.gov.tw/content/history/history01-5-p.aspx?sid=378","note":"議會個人官網"}],"social_media":null,"platform":"","param":null,"councilor":"fdf8c7c162954dc7a317afbee22cdd8f"},{"url":"http://councils.g0v.tw/api/councilors_terms/1039/","election_year":"1982","name":"李顯榮","gender":"","party":"","title":"議員","constituency":5,"county":"新北市","district":"新莊市、泰山鄉、五股鄉、林口鄉","in_office":true,"contact_details":null,"term_start":"1982-03-01","term_end":{"date":"1986-02-28"},"education":"淡江大學建築系\n美國舊金山大學公共政策碩士\n美國諾華大學博士班","experience":"義警、民防、義消顧問\n中港國際獅子會會長\n輔仁大學講師\n發財證券公司董事長\n臺北縣議會第10、11屆議員\n顯榮建築師事務所負責人\n第6屆立法委員","remark":null,"image":"http://www.ntp.gov.tw/UpFile/CouncilorFile/TTCC1044.jpg","links":[{"url":"http://www.ntp.gov.tw/content/history/history01-5-p.aspx?sid=378","note":"議會個人官網"}],"social_media":null,"platform":"","param":null,"councilor":"fdf8c7c162954dc7a317afbee22cdd8f"}],"uid":"fdf8c7c162954dc7a317afbee22cdd8f","name":"李顯榮","birth":null,"former_names":"","identifiers":["李顯榮","李顯榮"]},{"url":"http://councils.g0v.tw/api/councilors/571/","each_terms":[{"url":"http://councils.g0v.tw/api/councilors_terms/981/","election_year":"1986","name":"王必顯","gender":"","party":"","title":"議員","constituency":5,"county":"新北市","district":"新莊市、泰山鄉、五股鄉、林口鄉","in_office":true,"contact_details":null,"term_start":"1986-03-01","term_end":{"date":"1990-02-28"},"education":"開南商工","experience":"新莊鎮第10屆鎮民代表\n新莊國際青年商會會長\n救國團新莊市團委會常委\n新莊市體育會常務監事\n臺北縣議會第10、11、12、13屆議員","remark":null,"image":"http://www.ntp.gov.tw/UpFile/CouncilorFile/TTCC1042.jpg","links":[{"url":"http://www.ntp.gov.tw/content/history/history01-5-p.aspx?sid=377","note":"議會個人官網"}],"social_media":null,"platform":"","param":null,"councilor":"04ed98cac4f142e09a6925464a91f49c"},{"url":"http://councils.g0v.tw/api/councilors_terms/1040/","election_year":"1982","name":"王必顯","gender":"","party":"","title":"議員","constituency":5,"county":"新北市","district":"新莊市、泰山鄉、五股鄉、林口鄉","in_office":true,"contact_details":null,"term_start":"1982-03-01","term_end":{"date":"1986-02-28"},"education":"開南商工","experience":"新莊鎮第10屆鎮民代表\n新莊國際青年商會會長\n救國團新莊市團委會常委\n新莊市體育會常務監事\n臺北縣議會第10、11、12、13屆議員","remark":null,"image":"http://www.ntp.gov.tw/UpFile/CouncilorFile/TTCC1042.jpg","links":[{"url":"http://www.ntp.gov.tw/content/history/history01-5-p.aspx?sid=377","note":"議會個人官網"}],"social_media":null,"platform":"","param":null,"councilor":"04ed98cac4f142e09a6925464a91f49c"},{"url":"http://councils.g0v.tw/api/councilors_terms/1106/","election_year":"1990","name":"王必顯","gender":"","party":"","title":"議員","constituency":6,"county":"新北市","district":"新莊市、泰山鄉、五股鄉、林口鄉","in_office":true,"contact_details":null,"term_start":"1990-03-01","term_end":{"date":"1994-02-28"},"education":"開南商工","experience":"新莊鎮第10屆鎮民代表\n新莊國際青年商會會長\n救國團新莊市團委會常委\n新莊市體育會常務監事\n臺北縣議會第10、11、12、13屆議員","remark":null,"image":"http://www.ntp.gov.tw/UpFile/CouncilorFile/TTCC1042.jpg","links":[{"url":"http://www.ntp.gov.tw/content/history/history01-5-p.aspx?sid=377","note":"議會個人官網"}],"social_media":null,"platform":"","param":null,"councilor":"04ed98cac4f142e09a6925464a91f49c"},{"url":"http://councils.g0v.tw/api/councilors_terms/1172/","election_year":"1994","name":"王必顯","gender":"","party":"","title":"議員","constituency":6,"county":"新北市","district":"新莊市、泰山鄉、五股鄉、林口鄉","in_office":true,"contact_details":null,"term_start":"1994-03-01","term_end":{"date":"1998-02-28"},"education":"開南商工","experience":"新莊鎮第10屆鎮民代表\n新莊國際青年商會會長\n救國團新莊市團委會常委\n新莊市體育會常務監事\n臺北縣議會第10、11、12、13屆議員","remark":null,"image":"http://www.ntp.gov.tw/UpFile/CouncilorFile/TTCC1042.jpg","links":[{"url":"http://www.ntp.gov.tw/content/history/history01-5-p.aspx?sid=377","note":"議會個人官網"}],"social_media":null,"platform":"","param":null,"councilor":"04ed98cac4f142e09a6925464a91f49c"}],"uid":"04ed98cac4f142e09a6925464a91f49c","name":"王必顯","birth":null,"former_names":"","identifiers":["王必顯"]},{"url":"http://councils.g0v.tw/api/councilors/236/","each_terms":[{"url":"http://councils.g0v.tw/api/councilors_terms/439/","election_year":"1985","name":"林正杰","gender":"男","party":"民主進步黨","title":"議員","constituency":null,"county":"臺北市","district":"","in_office":true,"contact_details":null,"term_start":"1985-12-25","term_end":{"date":"1989-12-25"},"education":"東海大學政治系、政治大學公共行政研究所碩士。","experience":"前進周刊發行人、進步雜誌、深耕雜誌社長、臺北市直轄市議會第四屆議員。","remark":"","image":"http://www.tcc.gov.tw/../upload/photo/%E6%9E%97%E6%AD%A3%E6%9D%B013.jpg","links":[{"url":"http://www.tcc.gov.tw/Councilor_Content_All.aspx?s=1547&d=521108&n=%E6%9E%97%E6%AD%A3%E6%9D%B0","note":"議會個人官網"}],"social_media":null,"platform":"","param":null,"councilor":"04722c97adea469fa280c7dea6164082"},{"url":"http://councils.g0v.tw/api/councilors_terms/486/","election_year":"1981","name":"林正杰","gender":"男","party":"無黨籍","title":"議員","constituency":null,"county":"臺北市","district":"","in_office":true,"contact_details":null,"term_start":"1981-12-25","term_end":{"date":"1985-12-25"},"education":"東海大學政治系畢業、國立政治大學公共行政研究所碩士。","experience":"『這一代』、『富寶之聲』雜誌編輯、『進步』、『深耕』雜誌社社長。","remark":"","image":"http://www.tcc.gov.tw/../upload/photo/%E6%9E%97%E6%AD%A3%E6%9D%B012.jpg","links":[{"url":"http://www.tcc.gov.tw/Councilor_Content_All.aspx?s=2253&d=521108&n=%E6%9E%97%E6%AD%A3%E6%9D%B0","note":"議會個人官網"}],"social_media":null,"platform":"","param":null,"councilor":"04722c97adea469fa280c7dea6164082"}],"uid":"04722c97adea469fa280c7dea6164082","name":"林正杰","birth":"1952-11-08","former_names":"","identifiers":["林正杰","林正杰"]}]}