{"count":1904,"next":"http://councils.g0v.tw/api/councilors/?page=55","previous":"http://councils.g0v.tw/api/councilors/?page=53","results":[{"url":"http://councils.g0v.tw/api/councilors/274/","each_terms":[{"url":"http://councils.g0v.tw/api/councilors_terms/548/","election_year":"1977","name":"林挺生","gender":"男","party":"中國國民黨","title":"議長","constituency":null,"county":"臺北市","district":"","in_office":true,"contact_details":null,"term_start":"1977-12-25","term_end":{"date":"1981-12-25"},"education":"國立臺灣大學化學系、美國培波坦大學榮譽法學博士、韓國中央大學榮譽理學博士、韓國仁荷大學榮譽工學博士。","experience":"臺灣省工業會理事長、中國化學會理事長、中國工程師學會理事長、中國青年反共救國團臺北市團委會主任委員、中國國民黨臺北市委員會主任委員、臺北市直轄市議會第一、二屆議長。","remark":"","image":"http://www.tcc.gov.tw/../upload/photo/%E6%9E%97%E6%8C%BA%E7%94%9F11.jpg","links":[{"url":"http://www.tcc.gov.tw/Councilor_Content_All.aspx?s=2211&d=191115&n=%E6%9E%97%E6%8C%BA%E7%94%9F","note":"議會個人官網"}],"social_media":null,"platform":"","param":null,"councilor":"02030c119336455da633e1375eaa72de"},{"url":"http://councils.g0v.tw/api/councilors_terms/596/","election_year":"1973","name":"林挺生","gender":"男","party":"中國國民黨","title":"議長","constituency":null,"county":"臺北市","district":"","in_office":true,"contact_details":null,"term_start":"1973-12-25","term_end":{"date":"1977-12-25"},"education":"國立臺灣大學。","experience":"大同公司董事長、大同工學院院長、中國工程師學會理事長、中國國民黨臺北市黨部主任委員、臺北市直轄市議會第一屆議長。","remark":"","image":"http://www.tcc.gov.tw/../upload/photo/%E6%9E%97%E6%8C%BA%E7%94%9F10.jpg","links":[{"url":"http://www.tcc.gov.tw/Councilor_Content_All.aspx?s=2207&d=191115&n=%E6%9E%97%E6%8C%BA%E7%94%9F","note":"議會個人官網"}],"social_media":null,"platform":"","param":null,"councilor":"02030c119336455da633e1375eaa72de"},{"url":"http://councils.g0v.tw/api/councilors_terms/637/","election_year":"1969","name":"林挺生","gender":"男","party":"中國國民黨","title":"議長","constituency":null,"county":"臺北市","district":"","in_office":true,"contact_details":null,"term_start":"1969-12-25","term_end":{"date":"1973-12-25"},"education":"臺灣大學","experience":"大同公司董事長、大同工學院院長、中國工程師學會理事長、中國國民黨臺北市黨部主任委員。","remark":"","image":"http://www.tcc.gov.tw/../upload/photo/%E6%9E%97%E6%8C%BA%E7%94%9F09.jpg","links":[{"url":"http://www.tcc.gov.tw/Councilor_Content_All.aspx?s=2215&d=191115&n=%E6%9E%97%E6%8C%BA%E7%94%9F","note":"議會個人官網"}],"social_media":null,"platform":"","param":null,"councilor":"02030c119336455da633e1375eaa72de"}],"uid":"02030c119336455da633e1375eaa72de","name":"林挺生","birth":"1919-11-15","former_names":"","identifiers":["林挺生","林挺生"]},{"url":"http://councils.g0v.tw/api/councilors/1098/","each_terms":[{"url":"http://councils.g0v.tw/api/councilors_terms/2023/","election_year":"2009","name":"江聰淵","gender":"","party":"民主進步黨","title":"議員","constituency":1,"county":"宜蘭縣","district":"宜蘭","in_office":true,"contact_details":[{"type":"address","value":"宜蘭市北津路1-5號","label":"服務處所"},{"type":"voice","value":"9288811","label":"服務處所電話"},{"type":"email","value":"ch.tsyu@msa.hinet.net","label":"E-mail"}],"term_start":"2009-12-25","term_end":{"date":"2014-12-25"},"education":"佛光大學公共事務研究所碩士","experience":"宜蘭縣議會第十七屆議員。\n佛光大學系友會理事長。\n全國青商總會宜蘭縣執行長。\n宜蘭東區扶輪社公關主委、積極參與公共事務、戮力投身公益。\n農家子弟，結業於中央大學品管工程師班、凱達格蘭學校民間領袖與地方發\n展班。歷任礁溪鄉公所建設課技士、民進黨全國黨代表、陳金德立委服務處\n主任、宜蘭縣議會第十六屆議員。。","remark":null,"image":"http://www.ilcc.gov.tw/pictures/people/A1703.JPG","links":[{"url":"http://www.ilcc.gov.tw/Html/H_05/H_0501.asp?GoOut=&pic=1&clique=DDP&User_id=A1703","note":"議會個人官網"}],"social_media":null,"platform":"守護您的權益•是聰淵的任務\n法制：兌現競選諾言，完成縣公民投票自治條例立法，還創制、複決權於縣\n民。繼續檢討不合時宜的縣自治規章，推動制定保障人民權益的自治\n條例，為宜蘭永續發展奠定典章制度基石。\n教育：推動升級為12年國民教育，並向下延伸1年，照顧幼兒教育。疏解東區\n就學擁擠現象，均衡城鄉教育落差。支持寬列宜蘭社區大學預算，強\n化成人終身學習環境，養成公民社會。\n勞工：加強維護勞工權益，提昇優質勞動環境。督促縣府落實招商降低失業\n率，提供縣民充足就業機會。\n治安：加速重要路口監視統設置，落實社區影像數位化安全系統建立，促進\n守望相助社區聯防，加強維安、降低犯罪率。\n衛生：落實宜蘭市自來水全面普及化，早日完成污水下水建構。整合公、私\n立醫院診所，定期於社區據點進行健康檢查及異常追蹤。\n都計：擴大宜蘭市都市計畫，促進城鄉均衡發展。儘速完成宜蘭河北岸地區\n細部計畫，活用地區資源：配合週邊土地使用，提高土地利用價值。\n交通：要求縣府積極爭取宜蘭市鐵路全面高架化，實現宜蘭A聯絡道全線貫通\n及各區交通網相互順暢連結。早日完成宜蘭市停車場整體開發計畫，\n並強化大眾運輸轉運中心配置功能。\n觀光：督促縣府有效推動舊城振興計畫，結合宜蘭河成為美麗的河景城市。\n復辦童玩節，並結合市內觀光資源，行銷宜蘭市特色美食及小吃。\n產業：促請縣府選擇適當地點設立「宜蘭縣商業、產業形象館」，吸引其他\n鄉鎮至宜蘭市展覽，成為縣內重要的物流中心。\n文化：宜蘭水燈節公告登錄為縣定民俗活動後，督促縣府爭取文建會資源，\n結合民間辦理紀錄、保存、傳習等相關事務，讓水燈節成為宜蘭市永\n續的年度節慶盛典。","param":{"bills_role_statistics":{"total":91,"priproposer":18,"sponsor":18,"cosponsor":73},"diversity":{"中國國民黨":0.22467149597584377,"民主進步黨":0.648267149973398,"無黨籍":0.12706135405075847},"bills_party_diversity":[{"party":"民主進步黨","ratio":0.570615034168565},{"party":"中國國民黨","ratio":0.2972665148063781},{"party":"無黨籍","ratio":0.13211845102505695}]},"councilor":"0c38fe930c8c4fa2984eacb90796a057"}],"uid":"0c38fe930c8c4fa2984eacb90796a057","name":"江聰淵","birth":null,"former_names":"","identifiers":["江聰淵"]},{"url":"http://councils.g0v.tw/api/councilors/1100/","each_terms":[{"url":"http://councils.g0v.tw/api/councilors_terms/2025/","election_year":"2009","name":"賴瑞鼎","gender":"","party":"無黨籍","title":"議員","constituency":1,"county":"宜蘭縣","district":"宜蘭","in_office":true,"contact_details":[{"type":"address","value":"宜蘭市民權新路105號","label":"服務處所"},{"type":"voice","value":"9363939","label":"服務處所電話"}],"term_start":"2009-12-25","term_end":{"date":"2014-12-25"},"education":"高師院國文系","experience":"宜蘭縣議會第十七屆議員。\n師大國文研究所結業、教師會顧問、宜蘭高中教師、法務壹等獎章、賴老師\n作文教室、教育部著作獎、陳定南部長參事、全國特優師鐸獎、陳定南基金\n會執行長、全國教師作文第一、警友新民站顧問、全省教師論文第一、雪山\n村主委、全省教育展第一、社大課程委員、教科書諮詢委員。\n著作：了凡四訓譯註、古文觀止鑑賞、詞語辨正。","remark":null,"image":"http://www.ilcc.gov.tw/pictures/people/A1704.JPG","links":[{"url":"http://www.ilcc.gov.tw/Html/H_05/H_0501.asp?GoOut=&pic=1&clique=&User_id=A1704","note":"議會個人官網"}],"social_media":null,"platform":"二個決心：議會加這鼎，品質第一名!\n壹、監督縣政拼第一：傳承陳定南「頂真」的精神，嚴格監督縣政，提升議\n事品質。\n貳、服務鄉親拼第一：召集已在各專業領域服務的學生，成立「宜蘭鄉親疑\n難雜症診所」，全天候全方位服務。\n十項督促：\n一、(教育)保障教育預算合理性編配、落實不適任教師處理機制、進行教育\n處組織再造、提高師生比例…全面提昇教育品質。\n二、(教育)改革校務評鑑及校長遴選方式、不輕易廢除一所學校、不資遣任\n何一位超教師…穩定教育正常發展。\n三、(文化)興建館舍，典藏縣籍文學、美術、舞蹈、音樂、戲曲等工作者作\n品，並推展藝文活動，落實文化立縣的精神。\n四、(法制)制定保障縣民權益、增進縣民福祉的地方自治條例。\n五、(預算)取消議員分配款，挹注縣內急難、失業救助；社區或單項團體補\n助款，直接由縣府預算補助；寬列宜蘭社區大學預算。\n六、(社福)增加社會福利預算比例，照顧老人、殘障及弱勢團體。\n七、(環保)嚴審山坡地開發案，捍衛好山好水，為子孫守護生命、財產的安\n全。\n八、(交通)爭取北宜直線鐵路及早興建，縮短北宜行車時間；宜蘭市區鐵路\n高架，平衡東、西兩側發展，擴大宜蘭市商圈。\n九、(都計)修正都市更新條例，讓宜蘭市舊社區脫胎換骨，重啟繁榮商機，\n創造就業機會。\n十、(勞工)合理仲裁勞資糾紛，維護勞工權益，改善勞動環境，提升勞工就\n業機會。","param":{"bills_role_statistics":{"total":98,"priproposer":45,"sponsor":47,"cosponsor":51},"diversity":{"中國國民黨":0.37800805901515777,"民主進步黨":0.36586237076306966,"無黨籍":0.2561295702217721},"bills_party_diversity":[{"party":"民主進步黨","ratio":0.403242147922999},{"party":"中國國民黨","ratio":0.38095238095238093},{"party":"無黨籍","ratio":0.21580547112462006}]},"councilor":"af8bc94834384ee89187a7af207564ef"}],"uid":"af8bc94834384ee89187a7af207564ef","name":"賴瑞鼎","birth":null,"former_names":"","identifiers":["賴瑞鼎","頼瑞鼎"]},{"url":"http://councils.g0v.tw/api/councilors/652/","each_terms":[{"url":"http://councils.g0v.tw/api/councilors_terms/1145/","election_year":"1990","name":"江世明","gender":"","party":"","title":"議員","constituency":1,"county":"新北市","district":"板橋市","in_office":true,"contact_details":null,"term_start":"1990-03-01","term_end":{"date":"1994-02-28"},"education":"修德國小\n恆毅初中\n成功高中\n政治大學外交系\n英國約克大學政治學碩士","experience":"臺北縣議會第12屆議員\n北縣第2屆勞資爭議仲裁委員\n老人健康福利會顧問\n智障福利協進會顧問\n觀護協會顧問\n國際青商會理事","remark":null,"image":"http://www.ntp.gov.tw/UpFile/CouncilorFile/TTCC1205.jpg","links":[{"url":"http://www.ntp.gov.tw/content/history/history01-5-p.aspx?sid=417","note":"議會個人官網"}],"social_media":null,"platform":"","param":null,"councilor":"237eff0ed67747818015ff481a871431"}],"uid":"237eff0ed67747818015ff481a871431","name":"江世明","birth":null,"former_names":"","identifiers":["江世明"]},{"url":"http://councils.g0v.tw/api/councilors/520/","each_terms":[{"url":"http://councils.g0v.tw/api/councilors_terms/877/","election_year":"1968","name":"張德發","gender":"","party":"","title":"議員","constituency":3,"county":"新北市","district":"新莊鎮、蘆洲鄉、五股鄉、泰山鄉、林口鄉","in_office":true,"contact_details":null,"term_start":"1968-02-21","term_end":{"date":"1973-04-30"},"education":"臺北州立新莊青年教習所","experience":"新莊郡役所雇員\n新莊街役場會計\n新莊鎮公所財務股主任\n新莊鎮公所民政股主任\n嗣遷總幹事輔助鎮長\n新莊稅捐分處副主任\n臺北縣農會總務課長\n新莊鎮農會總幹事\n臺北縣議會第6、7屆議員\n*民國71年6月29日歿","remark":null,"image":"http://www.ntp.gov.tw/UpFile/CouncilorFile/TTCC0616.jpg","links":[{"url":"http://www.ntp.gov.tw/content/history/history01-5-p.aspx?sid=256","note":"議會個人官網"}],"social_media":null,"platform":"","param":null,"councilor":"2d9734cf0b3247ac8dd86fe9090da09a"},{"url":"http://councils.g0v.tw/api/councilors_terms/1848/","election_year":"1964","name":"張德發","gender":"","party":"","title":"議員","constituency":3,"county":"新北市","district":"新莊鎮、蘆洲鄉、五股鄉、泰山鄉、林口鄉","in_office":true,"contact_details":null,"term_start":"1964-02-21","term_end":{"date":"1968-02-20"},"education":"臺北州立新莊青年教習所","experience":"新莊郡役所雇員\n新莊街役場會計\n新莊鎮公所財務股主任\n新莊鎮公所民政股主任\n嗣遷總幹事輔助鎮長\n新莊稅捐分處副主任\n臺北縣農會總務課長\n新莊鎮農會總幹事\n臺北縣議會第6、7屆議員\n*民國71年6月29日歿","remark":null,"image":"http://www.ntp.gov.tw/UpFile/CouncilorFile/TTCC0616.jpg","links":[{"url":"http://www.ntp.gov.tw/content/history/history01-5-p.aspx?sid=256","note":"議會個人官網"}],"social_media":null,"platform":"","param":null,"councilor":"2d9734cf0b3247ac8dd86fe9090da09a"}],"uid":"2d9734cf0b3247ac8dd86fe9090da09a","name":"張德發","birth":null,"former_names":"","identifiers":["張德發"]},{"url":"http://councils.g0v.tw/api/councilors/834/","each_terms":[{"url":"http://councils.g0v.tw/api/councilors_terms/1489/","election_year":"1951","name":"陳新枝","gender":"","party":"","title":"議員","constituency":7,"county":"新北市","district":"瑞芳鎮、貢寮鄉、雙溪鄉、平溪鄉","in_office":true,"contact_details":null,"term_start":"1951-01-04","term_end":{"date":"1953-01-05"},"education":"隆商工專修學校","experience":"臺北縣議會第1、2屆議員\n臺陽礦業公司董事長\n瑞芳金礦礦長\n省礦業研究會監事","remark":null,"image":"http://www.ntp.gov.tw/UpFile/CouncilorFile/TTCC0144.jpg","links":[{"url":"http://www.ntp.gov.tw/content/history/history01-5-p.aspx?sid=107","note":"議會個人官網"}],"social_media":null,"platform":"","param":null,"councilor":"ccd00eecd42c4761b3bc17034429e3ec"},{"url":"http://councils.g0v.tw/api/councilors_terms/1547/","election_year":"1953","name":"陳新枝","gender":"","party":"","title":"議員","constituency":7,"county":"新北市","district":"瑞芳鎮、貢寮鄉、雙溪鄉、平溪鄉","in_office":true,"contact_details":null,"term_start":"1953-01-16","term_end":{"date":"1955-01-15"},"education":"隆商工專修學校","experience":"臺北縣議會第1、2屆議員\n臺陽礦業公司董事長\n瑞芳金礦礦長\n省礦業研究會監事","remark":null,"image":"http://www.ntp.gov.tw/UpFile/CouncilorFile/TTCC0144.jpg","links":[{"url":"http://www.ntp.gov.tw/content/history/history01-5-p.aspx?sid=107","note":"議會個人官網"}],"social_media":null,"platform":"","param":null,"councilor":"ccd00eecd42c4761b3bc17034429e3ec"}],"uid":"ccd00eecd42c4761b3bc17034429e3ec","name":"陳新枝","birth":null,"former_names":"","identifiers":["陳新枝"]},{"url":"http://councils.g0v.tw/api/councilors/279/","each_terms":[{"url":"http://councils.g0v.tw/api/councilors_terms/566/","election_year":"1973","name":"陳良光","gender":"男","party":"中國國民黨","title":"議員","constituency":null,"county":"臺北市","district":"","in_office":true,"contact_details":null,"term_start":"1973-12-25","term_end":{"date":"1977-12-25"},"education":"私立三極高級工業職業學校畢業、考試院特考及格、空軍通信電子學校畢業。","experience":"臺北市第一屆議會議員、臺北市體育會理事兼總幹事、中華民國跆拳道協會副理事長、中華民國拳擊協會常務理事兼總幹事、中華民國舉重協會理事、中華民國角力協會理事、臺北市團管區司令部顧問。","remark":"","image":"http://www.tcc.gov.tw/../upload/photo/%E9%99%B3%E8%89%AF%E5%85%8910.jpg","links":[{"url":"http://www.tcc.gov.tw/Councilor_Content_All.aspx?s=1468&d=400920&n=%E9%99%B3%E8%89%AF%E5%85%89","note":"議會個人官網"}],"social_media":null,"platform":"","param":null,"councilor":"6f8f9e809df44021891925887dd5aecd"},{"url":"http://councils.g0v.tw/api/councilors_terms/619/","election_year":"1969","name":"陳良光","gender":"男","party":"中國國民黨","title":"議員","constituency":null,"county":"臺北市","district":"","in_office":true,"contact_details":null,"term_start":"1969-12-25","term_end":{"date":"1973-12-25"},"education":"私立三極高工職校。","experience":"調查員。","remark":"","image":"http://www.tcc.gov.tw/../upload/photo/%E9%99%B3%E8%89%AF%E5%85%8909.jpg","links":[{"url":"http://www.tcc.gov.tw/Councilor_Content_All.aspx?s=1942&d=400920&n=%E9%99%B3%E8%89%AF%E5%85%89","note":"議會個人官網"}],"social_media":null,"platform":"","param":null,"councilor":"6f8f9e809df44021891925887dd5aecd"}],"uid":"6f8f9e809df44021891925887dd5aecd","name":"陳良光","birth":"1940-09-20","former_names":"","identifiers":["陳良光"]},{"url":"http://councils.g0v.tw/api/councilors/667/","each_terms":[{"url":"http://councils.g0v.tw/api/councilors_terms/1185/","election_year":"1994","name":"林阿坤","gender":"","party":"","title":"議員","constituency":4,"county":"新北市","district":"樹林鎮、鶯歌鎮、三峽鎮、土城鄉","in_office":true,"contact_details":null,"term_start":"1994-03-01","term_end":{"date":"1998-02-28"},"education":"初中畢業","experience":"土城鄉鄉民代表第8~14屆(連任7屆)\n土城市林氏宗親會理事長\n土城鄉民代表會第10、11副主席;第12屆主席\n土城鄉農會理事會第5、6屆理事\n土城國際獅子會第7屆會長\n土城民防清水中隊副中隊長、分隊長、隊員(30年)\n調解委員會委員\n臺北縣議會第13、14、15屆\n獲頒內政部專業參等獎章\n民國94年8月4日歿","remark":null,"image":"http://www.ntp.gov.tw/UpFile/CouncilorFile/TTCC1331.jpg","links":[{"url":"http://www.ntp.gov.tw/content/history/history01-5-p.aspx?sid=464","note":"議會個人官網"}],"social_media":null,"platform":"","param":null,"councilor":"64791da926f941ce99859deebf0fe666"},{"url":"http://councils.g0v.tw/api/councilors_terms/1256/","election_year":"1998","name":"林阿坤","gender":"","party":"","title":"議員","constituency":4,"county":"新北市","district":"土城市、樹林市、鶯歌鎮、三峽鎮","in_office":true,"contact_details":null,"term_start":"1998-03-01","term_end":{"date":"2002-02-28"},"education":"初中畢業","experience":"土城鄉鄉民代表第8~14屆(連任7屆)\n土城市林氏宗親會理事長\n土城鄉民代表會第10、11副主席;第12屆主席\n土城鄉農會理事會第5、6屆理事\n土城國際獅子會第7屆會長\n土城民防清水中隊副中隊長、分隊長、隊員(30年)\n調解委員會委員\n臺北縣議會第13、14、15屆\n獲頒內政部專業參等獎章\n民國94年8月4日歿","remark":null,"image":"http://www.ntp.gov.tw/UpFile/CouncilorFile/TTCC1331.jpg","links":[{"url":"http://www.ntp.gov.tw/content/history/history01-5-p.aspx?sid=464","note":"議會個人官網"}],"social_media":null,"platform":"","param":null,"councilor":"64791da926f941ce99859deebf0fe666"},{"url":"http://councils.g0v.tw/api/councilors_terms/1318/","election_year":"2002","name":"林阿坤","gender":"","party":"","title":"議員","constituency":4,"county":"新北市","district":"土城市、樹林市、鶯歌鎮、三峽鎮","in_office":true,"contact_details":null,"term_start":"2002-03-01","term_end":{"date":"2006-02-28"},"education":"初中畢業","experience":"土城鄉鄉民代表第8~14屆(連任7屆)\n土城市林氏宗親會理事長\n土城鄉民代表會第10、11副主席;第12屆主席\n土城鄉農會理事會第5、6屆理事\n土城國際獅子會第7屆會長\n土城民防清水中隊副中隊長、分隊長、隊員(30年)\n調解委員會委員\n臺北縣議會第13、14、15屆\n獲頒內政部專業參等獎章\n民國94年8月4日歿","remark":null,"image":"http://www.ntp.gov.tw/UpFile/CouncilorFile/TTCC1331.jpg","links":[{"url":"http://www.ntp.gov.tw/content/history/history01-5-p.aspx?sid=464","note":"議會個人官網"}],"social_media":null,"platform":"","param":null,"councilor":"64791da926f941ce99859deebf0fe666"}],"uid":"64791da926f941ce99859deebf0fe666","name":"林阿坤","birth":null,"former_names":"","identifiers":["林阿坤","林阿坤"]},{"url":"http://councils.g0v.tw/api/councilors/237/","each_terms":[{"url":"http://councils.g0v.tw/api/councilors_terms/583/","election_year":"1973","name":"林文郎","gender":"男","party":"無黨籍","title":"議員","constituency":null,"county":"臺北市","district":"","in_office":true,"contact_details":null,"term_start":"1973-12-25","term_end":{"date":"1977-12-25"},"education":"臺北市立商業學校高級部畢業。","experience":"臺北市士林區洲美里里長。","remark":"","image":"http://www.tcc.gov.tw/../upload/photo/%E6%9E%97%E6%96%87%E9%83%8E10.jpg","links":[{"url":"http://www.tcc.gov.tw/Councilor_Content_All.aspx?s=1899&d=450312&n=%E6%9E%97%E6%96%87%E9%83%8E","note":"議會個人官網"}],"social_media":null,"platform":"","param":null,"councilor":"0d4e0af7a210480c94e3ffe9c5f145c6"},{"url":"http://councils.g0v.tw/api/councilors_terms/534/","election_year":"1977","name":"林文郎","gender":"男","party":"無黨籍","title":"議員","constituency":null,"county":"臺北市","district":"","in_office":true,"contact_details":null,"term_start":"1977-12-25","term_end":{"date":"1981-12-25"},"education":"臺北市立商業職業學校高級部畢業。","experience":"臺北市士林區洲美里里長、臺北市議會第二屆議員。","remark":"","image":"http://www.tcc.gov.tw/../upload/photo/%E6%9E%97%E6%96%87%E9%83%8E11.jpg","links":[{"url":"http://www.tcc.gov.tw/Councilor_Content_All.aspx?s=2026&d=450312&n=%E6%9E%97%E6%96%87%E9%83%8E","note":"議會個人官網"}],"social_media":null,"platform":"","param":null,"councilor":"0d4e0af7a210480c94e3ffe9c5f145c6"},{"url":"http://councils.g0v.tw/api/councilors_terms/488/","election_year":"1981","name":"林文郎","gender":"男","party":"無黨籍","title":"議員","constituency":null,"county":"臺北市","district":"","in_office":true,"contact_details":null,"term_start":"1981-12-25","term_end":{"date":"1985-12-25"},"education":"臺北市立高級職業學校高級部畢業","experience":"臺北市士林區洲美里里長、臺北市直轄市議會第二、三屆議員、陽明山國際青商會理事。","remark":"","image":"http://www.tcc.gov.tw/../upload/photo/%E6%9E%97%E6%96%87%E9%83%8E12.jpg","links":[{"url":"http://www.tcc.gov.tw/Councilor_Content_All.aspx?s=1355&d=450312&n=%E6%9E%97%E6%96%87%E9%83%8E","note":"議會個人官網"}],"social_media":null,"platform":"","param":null,"councilor":"0d4e0af7a210480c94e3ffe9c5f145c6"},{"url":"http://councils.g0v.tw/api/councilors_terms/440/","election_year":"1985","name":"林文郎","gender":"男","party":"民主進步黨","title":"議員","constituency":null,"county":"臺北市","district":"","in_office":true,"contact_details":null,"term_start":"1985-12-25","term_end":{"date":"1989-12-25"},"education":"北市商高中畢業。","experience":"臺北市士林區洲美里里長、國際青商會陽明山分會理事、臺北市直轄市議會第二、三、四屆議員、士林區洲美國小家長會會長 、北投區石牌國小家長會委員。","remark":"","image":"http://www.tcc.gov.tw/../upload/photo/%E6%9E%97%E6%96%87%E9%83%8E13.jpg","links":[{"url":"http://www.tcc.gov.tw/Councilor_Content_All.aspx?s=1566&d=450312&n=%E6%9E%97%E6%96%87%E9%83%8E","note":"議會個人官網"}],"social_media":null,"platform":"","param":null,"councilor":"0d4e0af7a210480c94e3ffe9c5f145c6"}],"uid":"0d4e0af7a210480c94e3ffe9c5f145c6","name":"林文郎","birth":"1945-03-12","former_names":"","identifiers":["林文郎","林文郎"]},{"url":"http://councils.g0v.tw/api/councilors/238/","each_terms":[{"url":"http://councils.g0v.tw/api/councilors_terms/441/","election_year":"1985","name":"周陳阿春","gender":"女","party":"中國國民黨","title":"議員","constituency":null,"county":"臺北市","district":"","in_office":true,"contact_details":null,"term_start":"1985-12-25","term_end":{"date":"1989-12-25"},"education":"省立彰化女中、臺北市立女子師專畢業。","experience":"臺北市微笑協會創辦人、理事長\r\n臺北市立師範學院校友會理事長\r\n臺北市婦女會理事長\r\n臺北市體育會土風舞委員主任委員\r\n臺北市大安區民俗改善會會長","remark":"","image":"http://www.tcc.gov.tw/../upload/photo/%E5%91%A8%E9%99%B3%E9%98%BF%E6%98%A513.jpg","links":[{"url":"http://www.tcc.gov.tw/Councilor_Content_All.aspx?s=1579&d=390428&n=%E5%91%A8%E9%99%B3%E9%98%BF%E6%98%A5","note":"議會個人官網"}],"social_media":null,"platform":"","param":null,"councilor":"38933d144b9f4b64b1fcfbdd4a55a067"},{"url":"http://councils.g0v.tw/api/councilors_terms/490/","election_year":"1981","name":"周陳阿春","gender":"女","party":"中國國民黨","title":"議員","constituency":null,"county":"臺北市","district":"","in_office":true,"contact_details":null,"term_start":"1981-12-25","term_end":{"date":"1985-12-25"},"education":"省立彰化女中畢業、臺北市立師專畢業、革命實踐研究院黨政班45期結業。","experience":"臺北市微笑協會創辦人、理事長\r\n臺北市立師範學院校友會理事長\r\n臺北市婦女會理事長\r\n臺北市體育會土風舞委員主任委員\r\n臺北市大安區民俗改善會會長","remark":"","image":"http://www.tcc.gov.tw/../upload/photo/%E5%91%A8%E9%99%B3%E9%98%BF%E6%98%A512.jpg","links":[{"url":"http://www.tcc.gov.tw/Councilor_Content_All.aspx?s=2188&d=390428&n=%E5%91%A8%E9%99%B3%E9%98%BF%E6%98%A5","note":"議會個人官網"}],"social_media":null,"platform":"","param":null,"councilor":"38933d144b9f4b64b1fcfbdd4a55a067"},{"url":"http://councils.g0v.tw/api/councilors_terms/537/","election_year":"1977","name":"周陳阿春","gender":"女","party":"中國國民黨","title":"議員","constituency":null,"county":"臺北市","district":"","in_office":true,"contact_details":null,"term_start":"1977-12-25","term_end":{"date":"1981-12-25"},"education":"臺灣省立彰化女子中學畢業、臺北市立女子師範專科學校畢業。","experience":"臺北市微笑協會創辦人、理事長\r\n臺北市立師範學院校友會理事長\r\n臺北市婦女會理事長\r\n臺北市體育會土風舞委員主任委員\r\n臺北市大安區民俗改善會會長","remark":"","image":"http://www.tcc.gov.tw/../upload/photo/%E5%91%A8%E9%99%B3%E9%98%BF%E6%98%A511.jpg","links":[{"url":"http://www.tcc.gov.tw/Councilor_Content_All.aspx?s=1680&d=390428&n=%E5%91%A8%E9%99%B3%E9%98%BF%E6%98%A5","note":"議會個人官網"}],"social_media":null,"platform":"","param":null,"councilor":"38933d144b9f4b64b1fcfbdd4a55a067"},{"url":"http://councils.g0v.tw/api/councilors_terms/585/","election_year":"1973","name":"周陳阿春","gender":"女","party":"中國國民黨","title":"議員","constituency":null,"county":"臺北市","district":"","in_office":true,"contact_details":null,"term_start":"1973-12-25","term_end":{"date":"1977-12-25"},"education":"臺北女子師範專科學校畢業。","experience":"臺北市微笑協會創辦人、理事長\r\n臺北市立師範學院校友會理事長\r\n臺北市婦女會理事長\r\n臺北市體育會土風舞委員主任委員\r\n臺北市大安區民俗改善會會長","remark":"","image":"http://www.tcc.gov.tw/../upload/photo/%E5%91%A8%E9%99%B3%E9%98%BF%E6%98%A510.jpg","links":[{"url":"http://www.tcc.gov.tw/Councilor_Content_All.aspx?s=2224&d=390428&n=%E5%91%A8%E9%99%B3%E9%98%BF%E6%98%A5","note":"議會個人官網"}],"social_media":null,"platform":"","param":null,"councilor":"38933d144b9f4b64b1fcfbdd4a55a067"},{"url":"http://councils.g0v.tw/api/councilors_terms/630/","election_year":"1969","name":"周陳阿春","gender":"女","party":"中國國民黨","title":"議員","constituency":null,"county":"臺北市","district":"","in_office":true,"contact_details":null,"term_start":"1969-12-25","term_end":{"date":"1973-12-25"},"education":"臺北女師專普師科。","experience":"臺北市微笑協會創辦人、理事長\r\n臺北市立師範學院校友會理事長\r\n臺北市婦女會理事長\r\n臺北市體育會土風舞委員主任委員\r\n臺北市大安區民俗改善會會長","remark":"","image":"http://www.tcc.gov.tw/../upload/photo/%E5%91%A8%E9%99%B3%E9%98%BF%E6%98%A509.jpg","links":[{"url":"http://www.tcc.gov.tw/Councilor_Content_All.aspx?s=1606&d=390428&n=%E5%91%A8%E9%99%B3%E9%98%BF%E6%98%A5","note":"議會個人官網"}],"social_media":null,"platform":"","param":null,"councilor":"38933d144b9f4b64b1fcfbdd4a55a067"}],"uid":"38933d144b9f4b64b1fcfbdd4a55a067","name":"周陳阿春","birth":"1939-04-28","former_names":"","identifiers":["周陳阿春"]}]}