{"count":1904,"next":"http://councils.g0v.tw/api/councilors/?page=56","previous":"http://councils.g0v.tw/api/councilors/?page=54","results":[{"url":"http://councils.g0v.tw/api/councilors/313/","each_terms":[{"url":"http://councils.g0v.tw/api/councilors_terms/11938/","election_year":"2014","name":"楊永昌","gender":"男","party":"中國國民黨","title":null,"constituency":1,"county":"臺中市","district":"大甲區、大安區、外埔區","in_office":false,"contact_details":null,"term_start":"2014-12-25","term_end":{"date":"2016-02-22","judicial_links":"","reason":"當選無效","ref":"http://www.cec.gov.tw/central/cms/bulletin/7265","replacement":"林素眞"},"education":null,"experience":null,"remark":null,"image":"","links":null,"social_media":null,"platform":"","param":{"bills_role_statistics":{"total":113,"priproposer":29,"sponsor":29,"cosponsor":84},"suggestions_years":{"count":56,"sum":12904698,"years":[{"count":54,"sum":12830480,"suggest_year":"2015","small_purchase":35},{"count":2,"sum":74218,"suggest_year":"2016","small_purchase":2}]},"suggestions_associations":[{"count":0,"sum":0,"label":"社區發展協會"},{"count":0,"sum":0,"label":"學會"},{"count":0,"sum":0,"label":"商會"},{"count":0,"sum":0,"label":"公會"},{"count":0,"sum":0,"label":"協進會"},{"count":0,"sum":0,"label":"促進會"},{"count":0,"sum":0,"label":"研習會"},{"count":0,"sum":0,"label":"婦聯會"},{"count":0,"sum":0,"label":"婦女會"},{"count":0,"sum":0,"label":"體育會"},{"count":0,"sum":0,"label":"同心會"},{"count":0,"sum":0,"label":"農會"},{"count":0,"sum":0,"label":"早起會"},{"count":0,"sum":0,"label":"健身會"},{"count":0,"sum":0,"label":"宗親會"},{"count":0,"sum":0,"label":"功德會"},{"count":0,"sum":0,"label":"商業會"},{"count":0,"sum":0,"label":"長青會"},{"count":0,"sum":0,"label":"民眾服務社"},{"count":0,"sum":0,"label":"聯盟"}],"suggestions_piles":[{"count":2,"tokens":"廟|宮","sum":40000,"label":"廟"},{"count":0,"tokens":"協會|學會|商會|公會|協進會|促進會|研習會|婦聯會|婦女會|體育會|同心會|農會|早起會|健身會|宗親會|功德會|商業會|長青會|民眾服務社|聯盟","sum":0,"label":"協會"},{"count":0,"tokens":"辦公室|辦公處","sum":0,"label":"辦公室"},{"count":0,"tokens":"警察局|分局","sum":0,"label":"警察局"},{"count":0,"tokens":"消防局|消防隊|分隊|中隊","sum":0,"label":"消防局"},{"count":0,"tokens":"國中|國小","sum":0,"label":"國中、國小"}],"bills_party_diversity":[{"party":"中國國民黨","ratio":0.8188277087033747},{"party":"無黨籍","ratio":0.11190053285968028},{"party":"民主進步黨","ratio":0.06927175843694494}]},"councilor":"b845b9f291424a37a9a892ba14d6199c"},{"url":"http://councils.g0v.tw/api/councilors_terms/650/","election_year":"2010","name":"楊永昌","gender":"","party":"無黨籍","title":"議員","constituency":1,"county":"臺中市","district":"大甲區、大安區、外埔區","in_office":true,"contact_details":[{"type":"address","value":"臺中市大甲區光明路146號","label":"服務處地址"},{"type":"voice","value":"04-2688-8359","label":"服務處電話"},{"type":"fax","value":"04-2688-1237","label":"服務處傳真"},{"type":"email","value":"c0131@tccc.gov.tw ","label":"e-mail"}],"term_start":"2010-12-25","term_end":{"date":"2014-12-25"},"education":"東南科技大學-工管系畢業","experience":"臺中縣議會/第12、13、14、15、16屆議員\n大甲鎮民代表會/第13屆代表、第14屆副主席\n臺中縣體育會/第20屆理事長\n臺中縣議會/副書記長\n臺中縣警察之友會/大甲辦事處主任\n日南國中家長委員會/家長委員\n中華民國柔道協會/理事\n大甲鎮體育會/名譽主委\n國際獅子會300C2區/2008-2009總監\n立德大學管理學院-碩士班","remark":null,"image":"http://www.tccc.gov.tw/mediafile/1837/editor_model/214/pic/003(1).bmp","links":[{"url":"http://www.tccc.gov.tw/editor_model/u_editor_v1.asp?id=%7B056DFBA6-DBE6-456B-B5A6-03BC5F863F96%7D","note":"議會個人官網"}],"social_media":null,"platform":"水美溪多處易淹水地區，儘速整治，保障兩岸人民生命財產安全。\n大甲交流道替代通路(經國路沿水美溪旁延至大甲東橋轉入交流道口)編列預算儘速開闢。\n溫寮溪出海口南邊堤防儘速築建以利排水順暢。\n大安龜殼公園編列預算經費加強綠美化等設施。\n儘速築建土城路崎邊坡穩定工程。\n中科七星農場排放廢水設施途經轄區嚴重影響水源及漁民生計，高標監督相關配套措施作為，照顧鄉親健康生計。\n繼續照顧弱勢團體，關懷婦女活動，爭取兒童、老人、勞工及農民福利等。\n大甲溪大安溪堤防加強定期疏圳，保護兩岸人民生命財產安全。\n協勤單位編列固定經費補助及意外保險給予保障。\n促成捷運系統建設至日南地區，以利交通。\n爭取松柏港合法並闢建竹筏漁港和休閒遊艇港促進地方繁榮。\n應編基層鄰長固定經費提高服務品質。\n外埔工業區道路拓寬，並積極招商促進地方發展。\n外埔鄉多處平坦《建(地目)地》，受限山坡地開發限制，影響地方發展至鉅，促請解禁。\n持續全面推展體育活動，積極規劃自行車道。\n培訓青年志工，擴大社會服務工作。","param":{"suggestions_years":{"count":41,"sum":8014000,"years":[{"count":41,"sum":8014000,"suggest_year":"2014","small_purchase":29}]},"diversity":{"中國國民黨":0.48509428888264033,"民主進步黨":0.07119026685909473,"臺灣團結聯盟":0.0005034908700322233,"親民黨":0.00030725853094274146,"無黨籍":0.44290469485729017},"bills_role_statistics":{"total":125,"priproposer":23,"sponsor":28,"cosponsor":97},"suggestions_associations":[{"count":0,"sum":0,"label":"社區發展協會"},{"count":0,"sum":0,"label":"學會"},{"count":0,"sum":0,"label":"商會"},{"count":0,"sum":0,"label":"公會"},{"count":0,"sum":0,"label":"協進會"},{"count":0,"sum":0,"label":"促進會"},{"count":0,"sum":0,"label":"研習會"},{"count":0,"sum":0,"label":"婦聯會"},{"count":0,"sum":0,"label":"婦女會"},{"count":0,"sum":0,"label":"體育會"},{"count":0,"sum":0,"label":"同心會"},{"count":0,"sum":0,"label":"農會"},{"count":0,"sum":0,"label":"早起會"},{"count":0,"sum":0,"label":"健身會"},{"count":0,"sum":0,"label":"宗親會"},{"count":0,"sum":0,"label":"功德會"},{"count":0,"sum":0,"label":"商業會"},{"count":0,"sum":0,"label":"長青會"},{"count":0,"sum":0,"label":"民眾服務社"},{"count":0,"sum":0,"label":"聯盟"}],"bills_party_diversity":[{"party":"中國國民黨","ratio":0.5459317585301837},{"party":"無黨籍","ratio":0.29658792650918636},{"party":"民主進步黨","ratio":0.15354330708661418},{"party":"臺灣團結聯盟","ratio":0.0026246719160104987},{"party":"親民黨","ratio":0.0013123359580052493}],"suggestions_piles":[{"count":0,"tokens":"協會|學會|商會|公會|協進會|促進會|研習會|婦聯會|婦女會|體育會|同心會|農會|早起會|健身會|宗親會|功德會|商業會|長青會|民眾服務社|聯盟","sum":0,"label":"協會"},{"count":0,"tokens":"辦公室|辦公處","sum":0,"label":"辦公室"},{"count":0,"tokens":"廟|宮","sum":0,"label":"廟"},{"count":0,"tokens":"警察局|分局","sum":0,"label":"警察局"},{"count":0,"tokens":"消防局|消防隊|分隊|中隊","sum":0,"label":"消防局"},{"count":0,"tokens":"國中|國小","sum":0,"label":"國中、國小"}]},"councilor":"b845b9f291424a37a9a892ba14d6199c"}],"uid":"b845b9f291424a37a9a892ba14d6199c","name":"楊永昌","birth":null,"former_names":"","identifiers":["楊永昌"]},{"url":"http://councils.g0v.tw/api/councilors/1415/","each_terms":[{"url":"http://councils.g0v.tw/api/councilors_terms/2341/","election_year":"2009","name":"林琨富","gender":"","party":"無黨籍","title":"","constituency":1,"county":"雲林縣","district":"斗六市、莿桐鄉、林內鄉","in_office":true,"contact_details":[{"type":"voice","lines[i]":"電話","value":"05-5848577"},{"type":"fax","lines[i]":"傳真","value":"05-5848578"},{"type":"address","lines[i]":"通訊處","value":"莿桐鄉中山路174號"}],"term_start":"2009-12-25","term_end":{"date":"2014-12-25"},"education":"西螺農工畢業、環球商專企管科畢業。","experience":"日通通運有限公司業務經理。","remark":null,"image":"http://www.ylcc.gov.tw/images/1-6.jpg","links":[{"url":"http://www.ylcc.gov.tw/index.php?inner=member_precinct1","note":"議會個人官網"}],"social_media":null,"platform":"","param":{"bills_role_statistics":{"total":2,"priproposer":2,"sponsor":2,"cosponsor":0},"suggestions_piles":[{"count":3,"tokens":"警察局|分局","sum":980000,"label":"警察局"},{"count":1,"tokens":"國中|國小","sum":200000,"label":"國中、國小"},{"count":0,"tokens":"協會|學會|商會|公會|協進會|促進會|研習會|婦聯會|婦女會|體育會|同心會|農會|早起會|健身會|宗親會|功德會|商業會|長青會|民眾服務社|聯盟","sum":0,"label":"協會"},{"count":0,"tokens":"辦公室|辦公處","sum":0,"label":"辦公室"},{"count":0,"tokens":"廟|宮","sum":0,"label":"廟"},{"count":0,"tokens":"消防局|消防隊|分隊|中隊","sum":0,"label":"消防局"}],"suggestions_associations":[{"count":0,"sum":0,"label":"社區發展協會"},{"count":0,"sum":0,"label":"學會"},{"count":0,"sum":0,"label":"商會"},{"count":0,"sum":0,"label":"公會"},{"count":0,"sum":0,"label":"協進會"},{"count":0,"sum":0,"label":"促進會"},{"count":0,"sum":0,"label":"研習會"},{"count":0,"sum":0,"label":"婦聯會"},{"count":0,"sum":0,"label":"婦女會"},{"count":0,"sum":0,"label":"體育會"},{"count":0,"sum":0,"label":"同心會"},{"count":0,"sum":0,"label":"農會"},{"count":0,"sum":0,"label":"早起會"},{"count":0,"sum":0,"label":"健身會"},{"count":0,"sum":0,"label":"宗親會"},{"count":0,"sum":0,"label":"功德會"},{"count":0,"sum":0,"label":"商業會"},{"count":0,"sum":0,"label":"長青會"},{"count":0,"sum":0,"label":"民眾服務社"},{"count":0,"sum":0,"label":"聯盟"}],"diversity":{"":0.0,"中國國民黨":0.0,"民主進步黨":0.0,"臺灣團結聯盟":0.0,"無黨籍":1.0},"suggestions_years":{"count":5,"sum":1438000,"years":[{"count":2,"sum":580000,"suggest_year":"2011","small_purchase":0},{"count":2,"sum":658000,"suggest_year":"2012","small_purchase":0},{"count":1,"sum":200000,"suggest_year":"2013","small_purchase":0}]}},"councilor":"506ef66cfee94a44af7ecc0edae59a3c"}],"uid":"506ef66cfee94a44af7ecc0edae59a3c","name":"林琨富","birth":null,"former_names":"","identifiers":["林琨富","林琨富"]},{"url":"http://councils.g0v.tw/api/councilors/1417/","each_terms":[{"url":"http://councils.g0v.tw/api/councilors_terms/2343/","election_year":"2009","name":"陳河山","gender":"","party":"中國國民黨","title":"","constituency":1,"county":"雲林縣","district":"斗六市、莿桐鄉、林內鄉","in_office":true,"contact_details":[{"type":"voice","lines[i]":"電話","value":"05-5892976"},{"type":"fax","lines[i]":"傳真","value":"05-5800456"},{"type":"address","lines[i]":"通訊處","value":"林內鄉烏塗村15鄰烏塗105之1號"}],"term_start":"2009-12-25","term_end":{"date":"2014-12-25"},"education":"民生國小、正心中學、大成商工電子科畢。","experience":"鐵路局台北機廠10年、福懋興業助理員4年、秀躍公司2年、林內鄉14.15屆鄉民代表、林內鄉13.14屆鄉長、全國鄉鎮市長聯誼總會副總會長、雲林縣鄉鎮市長聯誼會會長、林內鄉後備軍人輔導中心主任、正修科技大學電子工程科肄業二年、雲科大事業經營管理班第一期結業。","remark":null,"image":"http://www.ylcc.gov.tw/images/1-8.jpg","links":[{"url":"http://www.ylcc.gov.tw/index.php?inner=member_precinct1","note":"議會個人官網"}],"social_media":null,"platform":"","param":{"bills_role_statistics":{"total":3,"priproposer":3,"sponsor":3,"cosponsor":0},"suggestions_piles":[{"count":0,"tokens":"協會|學會|商會|公會|協進會|促進會|研習會|婦聯會|婦女會|體育會|同心會|農會|早起會|健身會|宗親會|功德會|商業會|長青會|民眾服務社|聯盟","sum":0,"label":"協會"},{"count":0,"tokens":"辦公室|辦公處","sum":0,"label":"辦公室"},{"count":0,"tokens":"廟|宮","sum":0,"label":"廟"},{"count":0,"tokens":"警察局|分局","sum":0,"label":"警察局"},{"count":0,"tokens":"消防局|消防隊|分隊|中隊","sum":0,"label":"消防局"},{"count":0,"tokens":"國中|國小","sum":0,"label":"國中、國小"}],"suggestions_associations":[{"count":0,"sum":0,"label":"社區發展協會"},{"count":0,"sum":0,"label":"學會"},{"count":0,"sum":0,"label":"商會"},{"count":0,"sum":0,"label":"公會"},{"count":0,"sum":0,"label":"協進會"},{"count":0,"sum":0,"label":"促進會"},{"count":0,"sum":0,"label":"研習會"},{"count":0,"sum":0,"label":"婦聯會"},{"count":0,"sum":0,"label":"婦女會"},{"count":0,"sum":0,"label":"體育會"},{"count":0,"sum":0,"label":"同心會"},{"count":0,"sum":0,"label":"農會"},{"count":0,"sum":0,"label":"早起會"},{"count":0,"sum":0,"label":"健身會"},{"count":0,"sum":0,"label":"宗親會"},{"count":0,"sum":0,"label":"功德會"},{"count":0,"sum":0,"label":"商業會"},{"count":0,"sum":0,"label":"長青會"},{"count":0,"sum":0,"label":"民眾服務社"},{"count":0,"sum":0,"label":"聯盟"}],"diversity":{"":0.16666666666666666,"中國國民黨":0.8333333333333334,"民主進步黨":0.0,"臺灣團結聯盟":0.0,"無黨籍":0.0},"suggestions_years":{"count":7,"sum":18045000,"years":[{"count":1,"sum":4000000,"suggest_year":"2011","small_purchase":0},{"count":1,"sum":5000000,"suggest_year":"2012","small_purchase":0},{"count":1,"sum":1850000,"suggest_year":"2013","small_purchase":0},{"count":4,"sum":7195000,"suggest_year":"2014","small_purchase":0}]}},"councilor":"8f20846e50c6486a9adcf5246d6bac04"}],"uid":"8f20846e50c6486a9adcf5246d6bac04","name":"陳河山","birth":null,"former_names":"","identifiers":["陳河山"]},{"url":"http://councils.g0v.tw/api/councilors/1419/","each_terms":[{"url":"http://councils.g0v.tw/api/councilors_terms/2345/","election_year":"2009","name":"廖清祥","gender":"","party":"民主進步黨","title":"","constituency":4,"county":"雲林縣","district":"西螺鎮、二崙鄉、崙背鄉","in_office":true,"contact_details":[{"type":"voice","lines[i]":"電話","value":"05-5990101"},{"type":"fax","lines[i]":"傳真","value":"05-5986119"},{"type":"address","lines[i]":"通訊處","value":"二崙鄉三和村17鄰深坑27號"},{"type":"email","lines[i]":"電子信箱","value":"bigjohnwalking@yahoo.com.tw"}],"term_start":"2009-12-25","term_end":{"date":"2014-12-25"},"education":"三和國小、二崙國中、虎尾高中、東吳大學、淡江大學美國研究所法學碩士、台灣大學農業經濟研究所研究生。","experience":"雲林縣議會第16屆議員、行政院客家委員會委員、二崙國中校友會會長、雲林縣東吳大學校友會會長、雲林縣客家文化促進協會理事長、雲林縣健身操協會顧問、士心文教基金會常務理事、雲林科技大學人文學院講師。","remark":null,"image":"http://www.ylcc.gov.tw/images/4-1.jpg","links":[{"url":"http://www.ylcc.gov.tw/index.php?inner=member_precinct4","note":"議會個人官網"}],"social_media":null,"platform":"","param":{"bills_role_statistics":{"total":16,"priproposer":14,"sponsor":16,"cosponsor":0},"suggestions_piles":[{"count":5,"tokens":"國中|國小","sum":6028000,"label":"國中、國小"},{"count":6,"tokens":"警察局|分局","sum":1100000,"label":"警察局"},{"count":0,"tokens":"協會|學會|商會|公會|協進會|促進會|研習會|婦聯會|婦女會|體育會|同心會|農會|早起會|健身會|宗親會|功德會|商業會|長青會|民眾服務社|聯盟","sum":0,"label":"協會"},{"count":0,"tokens":"辦公室|辦公處","sum":0,"label":"辦公室"},{"count":0,"tokens":"廟|宮","sum":0,"label":"廟"},{"count":0,"tokens":"消防局|消防隊|分隊|中隊","sum":0,"label":"消防局"}],"suggestions_associations":[{"count":0,"sum":0,"label":"社區發展協會"},{"count":0,"sum":0,"label":"學會"},{"count":0,"sum":0,"label":"商會"},{"count":0,"sum":0,"label":"公會"},{"count":0,"sum":0,"label":"協進會"},{"count":0,"sum":0,"label":"促進會"},{"count":0,"sum":0,"label":"研習會"},{"count":0,"sum":0,"label":"婦聯會"},{"count":0,"sum":0,"label":"婦女會"},{"count":0,"sum":0,"label":"體育會"},{"count":0,"sum":0,"label":"同心會"},{"count":0,"sum":0,"label":"農會"},{"count":0,"sum":0,"label":"早起會"},{"count":0,"sum":0,"label":"健身會"},{"count":0,"sum":0,"label":"宗親會"},{"count":0,"sum":0,"label":"功德會"},{"count":0,"sum":0,"label":"商業會"},{"count":0,"sum":0,"label":"長青會"},{"count":0,"sum":0,"label":"民眾服務社"},{"count":0,"sum":0,"label":"聯盟"}],"diversity":{"":0.11979166666666666,"中國國民黨":0.020833333333333332,"民主進步黨":0.8072916666666667,"臺灣團結聯盟":0.0,"無黨籍":0.05208333333333333},"suggestions_years":{"count":15,"sum":24173000,"years":[{"count":5,"sum":17605000,"suggest_year":"2011","small_purchase":0},{"count":4,"sum":1640000,"suggest_year":"2012","small_purchase":0},{"count":1,"sum":200000,"suggest_year":"2013","small_purchase":0},{"count":5,"sum":4728000,"suggest_year":"2014","small_purchase":2}]}},"councilor":"b082449f10154a91855d2619e5d26217"}],"uid":"b082449f10154a91855d2619e5d26217","name":"廖清祥","birth":null,"former_names":"","identifiers":["廖清祥"]},{"url":"http://councils.g0v.tw/api/councilors/332/","each_terms":[{"url":"http://councils.g0v.tw/api/councilors_terms/669/","election_year":"2010","name":"洪嘉鴻","gender":"","party":"中國國民黨","title":"議員","constituency":10,"county":"臺中市","district":"中區、西區","in_office":true,"contact_details":[{"type":"address","value":"臺中市西區自由路一段101號 14F-4","label":"服務處地址"},{"type":"voice","value":"04-2222-2777","label":"服務處電話"},{"type":"fax","value":"04-2223-2763","label":"服務處傳真"},{"type":"email","value":"c0127@tccc.gov.tw","label":"e-mail"}],"term_start":"2010-12-25","term_end":{"date":"2014-12-25"},"education":"國立中興大學EMBA企業管理碩士\n輔仁大學法學士","experience":"第十六屆台中市議員執業律師\n曾任台中、高雄、屏東地方法院法官共九年司法官訓練所第二十三期結業\n洪昭男立委服務處法律顧問八年\n台中市忠孝國小家長會會長\n國立大里高中家長會長","remark":null,"image":"http://www.tccc.gov.tw/mediafile/1837/editor_model/257/pic/045.bmp","links":[{"url":"http://www.tccc.gov.tw/editor_model/u_editor_v1.asp?id=%7B22B8F5DB-1EC9-4519-A8B1-283C423AD0F8%7D","note":"議會個人官網"}],"social_media":null,"platform":"手一揚，整合完成縣市合併自治法令。\n指一點，高架鐵路下方完成快速道路。\n掌一拍，變出東西快速道路，自市區直抵國道一號高速公路。\n眼一眨，經國綠園道變成觀光休閒的草悟道。\n棒一指，增設中區服務窗口，著手舊市區新生。\n胸一擴，讓台中市樂音飛揚，幸福指數躍上國際舞台。","param":{"bills_role_statistics":{"total":79,"priproposer":2,"sponsor":17,"cosponsor":62},"diversity":{"中國國民黨":0.7384949989257333,"民主進步黨":0.1803804921117539,"臺灣團結聯盟":0.0037291260280881973,"親民黨":0.0029728769103042276,"無黨籍":0.07442250602412012},"bills_party_diversity":[{"party":"中國國民黨","ratio":0.7418351477449455},{"party":"民主進步黨","ratio":0.19906687402799378},{"party":"無黨籍","ratio":0.05132192846034215},{"party":"親民黨","ratio":0.004665629860031105},{"party":"臺灣團結聯盟","ratio":0.003110419906687403}]},"councilor":"8189794bfbb849649bef37960df68355"}],"uid":"8189794bfbb849649bef37960df68355","name":"洪嘉鴻","birth":null,"former_names":"","identifiers":["洪嘉鴻"]},{"url":"http://councils.g0v.tw/api/councilors/331/","each_terms":[{"url":"http://councils.g0v.tw/api/councilors_terms/668/","election_year":"2010","name":"林珮涵","gender":"","party":"中國國民黨","title":"議員","constituency":11,"county":"臺中市","district":"東區、南區","in_office":true,"contact_details":[{"type":"address","value":"臺中市南區國光路148號","label":"服務處地址"},{"type":"voice","value":"04-2285-0955","label":"服務處電話"},{"type":"fax","value":"04-2285-1369","label":"服務處傳真"},{"type":"email","value":"c0134@tccc.gov.tw","label":"e-mail"}],"term_start":"2010-12-25","term_end":{"date":"2014-12-25"},"education":"台中國小\n東峰國中\n立人高中\n靜宜大學商學系畢業","experience":"國家地政士考試合格\n第十六屆台中市議員\n中國國民黨台中市黨部副主委\n台中市議員林張久美、林佩樂特別助理\n台中市東區義警副中隊長\n台中市南區公所第一屆志工隊長\n中華民國台灣愛心關懷協會榮譽理事長\n台中市富仁長青會榮譽理事長\n台中市地政士公會顧問","remark":null,"image":"http://www.tccc.gov.tw/mediafile/1837/editor_model/258/pic/046.bmp","links":[{"url":"http://www.tccc.gov.tw/editor_model/u_editor_v1.asp?id=%7BF3DF14EF-44A0-4585-8188-1DE5742B614A%7D","note":"議會個人官網"}],"social_media":null,"platform":"加速規劃台糖東區閒置土地，擴大招商，增加就業機會，為東南區注入新氣象。\n整合忠孝夜市、學府商圈、大慶商圈，繁榮地方經濟。\n增加社會福利預算，擴編更完整的社工輔導人員，給予單親家庭幼兒更完善照顧，並深入每個需要幫助的角落。\n爭取本市六十五歲以上老人免繳健保費。\n嚴格監督鐵路高架化，強化施工品質，與捷運及高鐵緊密結合，給市民現代化的交通運輸網。\n擴大家長參與學校各項活動，使本市學童有更完善健康的學習環境。\n建立河岸親水公園，妥善規劃河岸用地，創造良好的休閒環境。\n爭取興建東門里活動中心。\n妥善設計運用鐵路高架化後閒置土地，提供東南區市民休閒去處。\n廣泛運用教育行政資源，開立各式課程，使外籍配偶更能融入社會，促進家庭和樂。\n檢討都市計劃內容，重新規劃公共設施保留地，以加快地方繁榮腳步。\n儘速爭取東南區成立綜合高中，提昇東南區教育水平，嘉惠地方學子。","param":{"suggestions_years":{"count":6,"sum":8508000,"years":[{"count":6,"sum":8508000,"suggest_year":"2014","small_purchase":2}]},"diversity":{"中國國民黨":0.6764344428454944,"民主進步黨":0.21779619626584157,"臺灣團結聯盟":0.003226485075081899,"親民黨":0.004852638751120132,"無黨籍":0.09769023706246174},"bills_role_statistics":{"total":60,"priproposer":1,"sponsor":15,"cosponsor":45},"suggestions_associations":[{"count":0,"sum":0,"label":"社區發展協會"},{"count":0,"sum":0,"label":"學會"},{"count":0,"sum":0,"label":"商會"},{"count":0,"sum":0,"label":"公會"},{"count":0,"sum":0,"label":"協進會"},{"count":0,"sum":0,"label":"促進會"},{"count":0,"sum":0,"label":"研習會"},{"count":0,"sum":0,"label":"婦聯會"},{"count":0,"sum":0,"label":"婦女會"},{"count":0,"sum":0,"label":"體育會"},{"count":0,"sum":0,"label":"同心會"},{"count":0,"sum":0,"label":"農會"},{"count":0,"sum":0,"label":"早起會"},{"count":0,"sum":0,"label":"健身會"},{"count":0,"sum":0,"label":"宗親會"},{"count":0,"sum":0,"label":"功德會"},{"count":0,"sum":0,"label":"商業會"},{"count":0,"sum":0,"label":"長青會"},{"count":0,"sum":0,"label":"民眾服務社"},{"count":0,"sum":0,"label":"聯盟"}],"bills_party_diversity":[{"party":"中國國民黨","ratio":0.6913357400722022},{"party":"民主進步黨","ratio":0.2364620938628159},{"party":"無黨籍","ratio":0.06498194945848375},{"party":"親民黨","ratio":0.0036101083032490976},{"party":"臺灣團結聯盟","ratio":0.0036101083032490976}],"suggestions_piles":[{"count":0,"tokens":"協會|學會|商會|公會|協進會|促進會|研習會|婦聯會|婦女會|體育會|同心會|農會|早起會|健身會|宗親會|功德會|商業會|長青會|民眾服務社|聯盟","sum":0,"label":"協會"},{"count":0,"tokens":"辦公室|辦公處","sum":0,"label":"辦公室"},{"count":0,"tokens":"廟|宮","sum":0,"label":"廟"},{"count":0,"tokens":"警察局|分局","sum":0,"label":"警察局"},{"count":0,"tokens":"消防局|消防隊|分隊|中隊","sum":0,"label":"消防局"},{"count":0,"tokens":"國中|國小","sum":0,"label":"國中、國小"}]},"councilor":"5d0d99f406644d06bd8f31b9c387972a"}],"uid":"5d0d99f406644d06bd8f31b9c387972a","name":"林珮涵","birth":null,"former_names":"","identifiers":["林珮涵","林珮涵"]},{"url":"http://councils.g0v.tw/api/councilors/1492/","each_terms":[{"url":"http://councils.g0v.tw/api/councilors_terms/2418/","election_year":"2009","name":"連正勝","gender":"男","party":"中國國民黨","title":"","constituency":12,"county":"屏東縣","district":"來義鄉","in_office":true,"contact_details":[{"type":"address","value":"屏東縣來義鄉92242南和村2鄰3號","label":"通訊處"},{"type":"voice","value":"08-8791525","label":"電話"}],"term_start":"2009-12-25","term_end":{"date":"2014-12-25"},"education":null,"experience":null,"remark":null,"image":"http://www.ptcc.gov.tw/upload/upimage/a09704a5-e6a5-607d-f3ec-a7caeb7bc3ac-S.jpg","links":[{"url":"http://www.ptcc.gov.tw/?Page=PersionalDetail&Guid=865c95e4-a154-c4a7-9bef-fa328db09287","note":"議會個人官網"}],"social_media":null,"platform":"一、〝聽〞原住民同胞心聲，〝做好〞鄉親代言人。\n二、落實關懷照顧在外謀生的勞工鄉親，確實執行〝原住民工作保障權〞。\n三、督促政府落實婦女福利政策，保障婦女應有權益。\n四、推動宗教教化的力量，以維公理、正義、和平之精神。\n五、重視原住民教育，推動原住民多元教育活動，以提升原住民競爭力。\n六、協助政府重視偏遠山區原住民部落之安全，做好防護工作。\n七、努力爭取原住民保留地，全面發放造林獎金。\n八、確實監督縣政，落實競選政見，為鄉親做〝全方位〞之服務。","param":{"suggestions_years":{"count":402,"sum":21118024,"years":[{"count":120,"sum":5908000,"suggest_year":"2011","small_purchase":115},{"count":105,"sum":5765000,"suggest_year":"2012","small_purchase":100},{"count":62,"sum":3806024,"suggest_year":"2013","small_purchase":57},{"count":115,"sum":5639000,"suggest_year":"2014","small_purchase":111}]},"suggestions_associations":[{"count":59,"sum":1220000,"label":"社區發展協會"},{"count":16,"sum":405000,"label":"體育會"},{"count":11,"sum":276000,"label":"民眾服務社"},{"count":3,"sum":80000,"label":"協進會"},{"count":3,"sum":60000,"label":"婦女會"},{"count":2,"sum":60000,"label":"農會"},{"count":2,"sum":50000,"label":"聯盟"},{"count":2,"sum":40000,"label":"促進會"},{"count":1,"sum":20000,"label":"公會"},{"count":1,"sum":20000,"label":"研習會"},{"count":0,"sum":0,"label":"學會"},{"count":0,"sum":0,"label":"商會"},{"count":0,"sum":0,"label":"婦聯會"},{"count":0,"sum":0,"label":"同心會"},{"count":0,"sum":0,"label":"早起會"},{"count":0,"sum":0,"label":"健身會"},{"count":0,"sum":0,"label":"宗親會"},{"count":0,"sum":0,"label":"功德會"},{"count":0,"sum":0,"label":"商業會"},{"count":0,"sum":0,"label":"長青會"}],"suggestions_piles":[{"count":115,"tokens":"國中|國小","sum":7884000,"label":"國中、國小"},{"count":162,"tokens":"協會|學會|商會|公會|協進會|促進會|研習會|婦聯會|婦女會|體育會|同心會|農會|早起會|健身會|宗親會|功德會|商業會|長青會|民眾服務社|聯盟","sum":3667024,"label":"協會"},{"count":8,"tokens":"消防局|消防隊|分隊|中隊","sum":170000,"label":"消防局"},{"count":1,"tokens":"辦公室|辦公處","sum":95000,"label":"辦公室"},{"count":1,"tokens":"警察局|分局","sum":20000,"label":"警察局"},{"count":0,"tokens":"廟|宮","sum":0,"label":"廟"}]},"councilor":"081bccc220b3476bb4fe1cd8d4da2ee0"}],"uid":"081bccc220b3476bb4fe1cd8d4da2ee0","name":"連正勝","birth":null,"former_names":"","identifiers":["連正勝"]},{"url":"http://councils.g0v.tw/api/councilors/1551/","each_terms":[{"url":"http://councils.g0v.tw/api/councilors_terms/2477/","election_year":"2009","name":"朱連濟","gender":"女","party":"中國國民黨","title":"","constituency":13,"county":"臺東縣","district":"山地原住民（大武鄉、達仁鄉）","in_office":true,"contact_details":[{"type":"voice","value":"089-790306","label":"電話"},{"type":"email","value":"tikereker@yahoo.com.tw","label":"E-mail"},{"type":"address","value":"台東縣達仁鄉新化村二鄰16之1號","label":"地址"}],"term_start":"2009-12-25","term_end":{"date":"2014-12-25"},"education":"一、臺東縣立土國小。\n二、臺東縣立賓茂國中。\n三、省立臺東女中。\n四、屏東師專托教院。","experience":"一、達仁鄉公所保育員。\n二、臺東縣議會第十四、十五、十六屆議員。\n三、世界展望會輔導員。\n四、救國團達仁鄉團委會總幹事、會長。\n五、達仁鄉婦女會常務理事。\n六、婦聯青溪達仁支分會總幹事、主任委員。\n七、臺東縣婦女防火宣導大隊幹事。","remark":null,"image":"http://www.taitungcc.gov.tw/ourteam/images/13_name01_pic001.jpg","links":[{"url":"http://www.taitungcc.gov.tw/ourteam/14ourteam_detail01.html","note":"議會個人官網"}],"social_media":null,"platform":"一、謹遵先父家訓：『基督徒的胸懷、感恩的心及奉獻的精神』為為民喉舌的服務態度。\n二、督促政府加強原住民培根教育，以提昇原住民生活能力，並保障原住民的生活環境。\n三、督促政府重視宗教禮儀規範，強化原住民族鄉土文化精神，透過部落族語研討、\n部落活動等等提升原住民子弟自信心，穩固原住民的心理建設。\n四、敦請立法委員督促政府在原住民政策中，給予生活領域的獵場及指導狩獵的技能。\n五、政府應加強原住民地區醫療及保健品質，以保障原住民民眾健康。\n六、政府應保障部落對外連絡交通、道路橋梁等安全。\n七、政府應盡速擬訂部落周邊土地保護規範，以防範土地流失，危害生命財產安全。\n八、反對低放射線核能廢料最終處置場設置於達仁鄉內，以維護原住民族傳統領域及後代子孫生命安全。\n九、盡心盡力做政府與民眾的橋梁，爭取鄉親的福祉。\n十、持續不斷地服務做鄉親生活的協助者及陪伴者。","param":{"suggestions_years":{"count":64,"sum":9762000,"years":[{"count":26,"sum":4463000,"suggest_year":"2012","small_purchase":17},{"count":9,"sum":1685000,"suggest_year":"2013","small_purchase":8},{"count":29,"sum":3614000,"suggest_year":"2014","small_purchase":28}]},"suggestions_associations":[{"count":2,"sum":298000,"label":"農會"},{"count":1,"sum":193000,"label":"社區發展協會"},{"count":0,"sum":0,"label":"學會"},{"count":0,"sum":0,"label":"商會"},{"count":0,"sum":0,"label":"公會"},{"count":0,"sum":0,"label":"協進會"},{"count":0,"sum":0,"label":"促進會"},{"count":0,"sum":0,"label":"研習會"},{"count":0,"sum":0,"label":"婦聯會"},{"count":0,"sum":0,"label":"婦女會"},{"count":0,"sum":0,"label":"體育會"},{"count":0,"sum":0,"label":"同心會"},{"count":0,"sum":0,"label":"早起會"},{"count":0,"sum":0,"label":"健身會"},{"count":0,"sum":0,"label":"宗親會"},{"count":0,"sum":0,"label":"功德會"},{"count":0,"sum":0,"label":"商業會"},{"count":0,"sum":0,"label":"長青會"},{"count":0,"sum":0,"label":"民眾服務社"},{"count":0,"sum":0,"label":"聯盟"}],"suggestions_piles":[{"count":40,"tokens":"國中|國小","sum":6688000,"label":"國中、國小"},{"count":6,"tokens":"協會|學會|商會|公會|協進會|促進會|研習會|婦聯會|婦女會|體育會|同心會|農會|早起會|健身會|宗親會|功德會|商業會|長青會|民眾服務社|聯盟","sum":687000,"label":"協會"},{"count":6,"tokens":"辦公室|辦公處","sum":504000,"label":"辦公室"},{"count":3,"tokens":"消防局|消防隊|分隊|中隊","sum":295000,"label":"消防局"},{"count":2,"tokens":"警察局|分局","sum":148000,"label":"警察局"},{"count":0,"tokens":"廟|宮","sum":0,"label":"廟"}],"bills_party_diversity":null},"councilor":"b69912fca48a481b859b21358228962e"}],"uid":"b69912fca48a481b859b21358228962e","name":"朱連濟","birth":null,"former_names":"","identifiers":["朱連濟"]},{"url":"http://councils.g0v.tw/api/councilors/1552/","each_terms":[{"url":"http://councils.g0v.tw/api/councilors_terms/2478/","election_year":"2009","name":"夏曼‧瑪德能","gender":"男","party":"中國國民黨","title":"","constituency":14,"county":"臺東縣","district":"山地原住民（臺東市、綠島鄉、蘭嶼鄉）","in_office":true,"contact_details":[{"type":"voice","value":"089-732619","label":"電話"},{"type":"address","value":"台東縣蘭嶼鄉紅頭村4鄰紅頭95號","label":"地址"}],"term_start":"2009-12-25","term_end":{"date":"2014-12-25"},"education":"一、蘭嶼國小畢業。\n二、蘭嶼國中畢業。\n三、國立臺東師範學院畢業。","experience":"一、臺東縣蘭嶼鄉東清國小教師主任8年。\n二、臺北縣新莊市民安、豐年國小教師主任20年。\n三、臺東縣蘭嶼鄉紅頭社區發展協會理事長。\n四、中華民國全國教師會原住民委員。\n五、臺北市政府原住民事務委員會委員。\n六、中華民國原住民知識經濟協會常務理事。\n七、中國國民黨臺北市黨部原住民委員會委員。","remark":null,"image":"http://www.taitungcc.gov.tw/ourteam/images/14_name01_pic001.jpg","links":[{"url":"http://www.taitungcc.gov.tw/ourteam/15ourteam_detail01.html","note":"議會個人官網"}],"social_media":null,"platform":"一、核廢料貯存場限期搬遷、提高回饋金實質補貼。\n二、優先訂定蘭嶼特有原生動、植物保育法。\n三、督促政府盡速完成原住民自治區劃訂與執行。\n四、增設雅美(達悟)族文化會館以及廣設觀光據點。\n五、爭取設立地區醫療院所。\n六、新建臺東市蘭嶼服務中心。\n七、延長機場跑道、擴建環島公路、港口擴建增加運輸量。\n八、爭取興建特教中心與符合競賽標準之綜合運動場。","param":{"suggestions_years":{"count":42,"sum":8649000,"years":[{"count":27,"sum":4784000,"suggest_year":"2012","small_purchase":20},{"count":9,"sum":1296000,"suggest_year":"2013","small_purchase":7},{"count":6,"sum":2569000,"suggest_year":"2014","small_purchase":3}]},"suggestions_associations":[{"count":0,"sum":0,"label":"社區發展協會"},{"count":0,"sum":0,"label":"學會"},{"count":0,"sum":0,"label":"商會"},{"count":0,"sum":0,"label":"公會"},{"count":0,"sum":0,"label":"協進會"},{"count":0,"sum":0,"label":"促進會"},{"count":0,"sum":0,"label":"研習會"},{"count":0,"sum":0,"label":"婦聯會"},{"count":0,"sum":0,"label":"婦女會"},{"count":0,"sum":0,"label":"體育會"},{"count":0,"sum":0,"label":"同心會"},{"count":0,"sum":0,"label":"農會"},{"count":0,"sum":0,"label":"早起會"},{"count":0,"sum":0,"label":"健身會"},{"count":0,"sum":0,"label":"宗親會"},{"count":0,"sum":0,"label":"功德會"},{"count":0,"sum":0,"label":"商業會"},{"count":0,"sum":0,"label":"長青會"},{"count":0,"sum":0,"label":"民眾服務社"},{"count":0,"sum":0,"label":"聯盟"}],"suggestions_piles":[{"count":21,"tokens":"國中|國小","sum":6228000,"label":"國中、國小"},{"count":4,"tokens":"辦公室|辦公處","sum":348000,"label":"辦公室"},{"count":2,"tokens":"協會|學會|商會|公會|協進會|促進會|研習會|婦聯會|婦女會|體育會|同心會|農會|早起會|健身會|宗親會|功德會|商業會|長青會|民眾服務社|聯盟","sum":193000,"label":"協會"},{"count":1,"tokens":"警察局|分局","sum":100000,"label":"警察局"},{"count":0,"tokens":"廟|宮","sum":0,"label":"廟"},{"count":0,"tokens":"消防局|消防隊|分隊|中隊","sum":0,"label":"消防局"}],"bills_party_diversity":null},"councilor":"81d1865212a6429e96521a427bbbe243"}],"uid":"81d1865212a6429e96521a427bbbe243","name":"夏曼‧瑪德能","birth":null,"former_names":"","identifiers":["夏曼‧瑪德能","夏曼瑪德能"]},{"url":"http://councils.g0v.tw/api/councilors/1553/","each_terms":[{"url":"http://councils.g0v.tw/api/councilors_terms/2479/","election_year":"2009","name":"嚴惠美","gender":"女","party":"無黨籍","title":"","constituency":9,"county":"臺東縣","district":"平地原住民（成功鎮、東河鄉、長濱鄉）","in_office":true,"contact_details":[{"type":"voice","value":"089-831082","label":"電話"},{"type":"address","value":"台東縣長濱鄉長濱村長濱10鄰109號","label":"地址"}],"term_start":"2009-12-25","term_end":{"date":"2014-12-25"},"education":"一、長濱國小。\n二、長濱國中畢業。\n三、苗栗仁德醫事護理學校畢業。\n四、永達技術學院企管系畢業。\n五、台南首府大學休閒事業管理畢業。\n六、興國管理學院資訊管理畢業。","experience":"一、臺東馬偕醫院醫事技術員。\n二、國家美容乙級證照考試及格。\n三、國光商工外聘講師。\n四、臺東美容職業公會專任講師。\n五、臺東縣議員嚴亞美服務處特別助理。\n六、臺東縣原住民藝能美學協會總幹事。\n一、第十七屆縣議員。\n二、台東縣原住民文化交流協會執行長。\n三、娜路灣大酒店-艾蘭詩spa美容會館經理","remark":null,"image":"http://www.taitungcc.gov.tw/ourteam/images/09_name01_pic001.jpg","links":[{"url":"http://www.taitungcc.gov.tw/ourteam/10ourteam_detail01.html","note":"議會個人官網"}],"social_media":null,"platform":"一、理性議事監督縣政認真做好為原住民服務工作。\n二、積極爭取地方建設經費改善社區環境。\n三、建請政府早日規劃原住民老人安養機構及照顧問題。\n四、建請政府放寬解除原住民近海捕魚限制。\n五、建請政府繼續辦理原住民擴大就業服務工作，並優先提供原住民原鄉就業機會。\n六、建請政府積極訓練原住民生活技能輔導就業創業。\n七、繼續辦理學生營養午餐免費政策。\n八、建議政府補貼原住民於農漁會貸款利息減輕利息負擔。\n九、不分鄉鎮社區大小全方位服務原住民鄉親。","param":{"suggestions_years":{"count":41,"sum":4045000,"years":[{"count":19,"sum":2385000,"suggest_year":"2012","small_purchase":16},{"count":7,"sum":465000,"suggest_year":"2013","small_purchase":7},{"count":15,"sum":1195000,"suggest_year":"2014","small_purchase":14}]},"suggestions_associations":[{"count":1,"sum":197000,"label":"學會"},{"count":2,"sum":113000,"label":"農會"},{"count":1,"sum":45000,"label":"民眾服務社"},{"count":0,"sum":0,"label":"社區發展協會"},{"count":0,"sum":0,"label":"商會"},{"count":0,"sum":0,"label":"公會"},{"count":0,"sum":0,"label":"協進會"},{"count":0,"sum":0,"label":"促進會"},{"count":0,"sum":0,"label":"研習會"},{"count":0,"sum":0,"label":"婦聯會"},{"count":0,"sum":0,"label":"婦女會"},{"count":0,"sum":0,"label":"體育會"},{"count":0,"sum":0,"label":"同心會"},{"count":0,"sum":0,"label":"早起會"},{"count":0,"sum":0,"label":"健身會"},{"count":0,"sum":0,"label":"宗親會"},{"count":0,"sum":0,"label":"功德會"},{"count":0,"sum":0,"label":"商業會"},{"count":0,"sum":0,"label":"長青會"},{"count":0,"sum":0,"label":"聯盟"}],"suggestions_piles":[{"count":8,"tokens":"協會|學會|商會|公會|協進會|促進會|研習會|婦聯會|婦女會|體育會|同心會|農會|早起會|健身會|宗親會|功德會|商業會|長青會|民眾服務社|聯盟","sum":509000,"label":"協會"},{"count":6,"tokens":"國中|國小","sum":456000,"label":"國中、國小"},{"count":7,"tokens":"辦公室|辦公處","sum":365000,"label":"辦公室"},{"count":1,"tokens":"警察局|分局","sum":98000,"label":"警察局"},{"count":0,"tokens":"廟|宮","sum":0,"label":"廟"},{"count":0,"tokens":"消防局|消防隊|分隊|中隊","sum":0,"label":"消防局"}],"bills_party_diversity":null},"councilor":"36ed765ddbee4453a15698f23d07c4a1"}],"uid":"36ed765ddbee4453a15698f23d07c4a1","name":"嚴惠美","birth":null,"former_names":"","identifiers":["嚴惠美"]}]}