{"count":1904,"next":"http://councils.g0v.tw/api/councilors/?page=58","previous":"http://councils.g0v.tw/api/councilors/?page=56","results":[{"url":"http://councils.g0v.tw/api/councilors/1901/","each_terms":[{"url":"http://councils.g0v.tw/api/councilors_terms/3359/","election_year":"2014","name":"邱俊憲","gender":"男","party":"民主進步黨","title":"議員","constituency":5,"county":"高雄市","district":"大社區、仁武區、鳥松區、大樹區","in_office":true,"contact_details":[{"type":"voice","value":"7328220","label":"聯絡電話"},{"type":"address","value":"833 鳥松區中正路387之23號","label":"通訊地址"},{"type":"email","value":"khhchiu@gmail.com","label":"電子郵件"},{"type":"fax","value":"7328230","label":"傳真電話"}],"term_start":"2014-12-25","term_end":{"date":"2018-12-24"},"education":"一、國立中山大學海洋事務研究所管理碩士\n二、國立中山大學海洋環境及工程學系工學學士","experience":"一、陳菊機要秘書\n二、李昆澤立委國會辦公室執行長\n三、蔡英文總統三民東區競選總部執行總幹事\n四、陳菊市長競選總部青年部執行長\n五、全國大專院校優秀青年代表\n六、行政院青年國是會議全國代表\n七、青年返鄉公投發起人\n八、國立中山大學學生活動中心總幹事","remark":null,"image":"http://www.kcc.gov.tw/Upload/PeriodMembers/0702022.jpg","links":[{"url":"http://www.kcc.gov.tw/PeriodMembers/Introduction.aspx?KeyID=1781","note":"議會個人官網"},{"url":"https://www.facebook.com/khhchiu","note":"個人臉書"}],"social_media":null,"platform":"一、陳菊幕僚青年參選，力拼新人增加一席。\n二、堅持專業清廉參政，拒絕紅包樁腳文化。\n三、跳脫地方派系把持，再造公民參政價值。\n四、捍衛受薪階級權益，確保勞工職場安全。\n五、爭設青年發展基金，鼓勵子弟返鄉就業。\n六、挹注農業發展基金，保障農民生產收益。\n七、打造友善親子空間，健全多元育嬰環境。\n八、強化社區總體營造，看顧長輩照護安全。\n九、堅守居住環境正義，守護家園永續安全。\n十、爭取輕軌交通建設，健全大眾運輸發展。\n十一、促進產業升級轉型，提升在地就業機會。\n十二、打造全齡健康園區，發展綠色智慧新鎮。","param":{"attendance_statistics":{"absent":0,"total":243},"bills_role_statistics":{"total":588,"priproposer":156,"sponsor":157,"cosponsor":431},"bills_party_diversity":[{"party":"民主進步黨","ratio":0.9227027027027027},{"party":"臺灣團結聯盟","ratio":0.02918918918918919},{"party":"無黨籍","ratio":0.026486486486486487},{"party":"中國國民黨","ratio":0.014594594594594595},{"party":"無黨團結聯盟","ratio":0.007027027027027027}]},"councilor":"bf36bd63e8ad4544b3868b3403e2cda4"}],"uid":"bf36bd63e8ad4544b3868b3403e2cda4","name":"邱俊憲","birth":null,"former_names":"","identifiers":["邱俊憲"]},{"url":"http://councils.g0v.tw/api/councilors/572/","each_terms":[{"url":"http://councils.g0v.tw/api/councilors_terms/982/","election_year":"1986","name":"劉達郎","gender":"","party":"","title":"議員","constituency":5,"county":"新北市","district":"新莊市、泰山鄉、五股鄉、林口鄉","in_office":true,"contact_details":null,"term_start":"1986-03-01","term_end":{"date":"1990-02-28"},"education":"初中畢業\n東海高中畢業","experience":"新莊鎮第11屆\n新莊市第1屆市民代表會副主席\n泉光紡織股份有限公司經理\n黨部文宣委員\n新莊分局民防大隊副大隊長\n泉升紡織股份有限公司董事長\n和泉染整廠常務董事\n新莊消防隊福營義勇消防分隊顧問\n臺北縣議會第11屆議員","remark":null,"image":"http://www.ntp.gov.tw/UpFile/CouncilorFile/TTCC1144.jpg","links":[{"url":"http://www.ntp.gov.tw/content/history/history01-5-p.aspx?sid=404","note":"議會個人官網"}],"social_media":null,"platform":"","param":null,"councilor":"6764c7e8decf4dd4b6e1a7dc1cdd7cc0"}],"uid":"6764c7e8decf4dd4b6e1a7dc1cdd7cc0","name":"劉達郎","birth":null,"former_names":"","identifiers":["劉達郎","劉達郎"]},{"url":"http://councils.g0v.tw/api/councilors/573/","each_terms":[{"url":"http://councils.g0v.tw/api/councilors_terms/983/","election_year":"1986","name":"陳林讓","gender":"","party":"","title":"議員","constituency":5,"county":"新北市","district":"新莊市、泰山鄉、五股鄉、林口鄉","in_office":true,"contact_details":null,"term_start":"1986-03-01","term_end":{"date":"1990-02-28"},"education":"高中畢業\n省訓團鄉鎮市長講習班第3、4期\n後幹班第49期結業","experience":"泰安產物保險公司經理\n五股鄉第7、8屆鄉長\n國民大會代表\n民眾服務社理事長\n五股國中家長委員\n五股鄉清寒子弟獎學金發起人\n臺北縣議會第10、11屆議員","remark":null,"image":"http://www.ntp.gov.tw/UpFile/CouncilorFile/TTCC1045.jpg","links":[{"url":"http://www.ntp.gov.tw/content/history/history01-5-p.aspx?sid=379","note":"議會個人官網"}],"social_media":null,"platform":"","param":null,"councilor":"e40bd46ad39d4c3daec7b6bcfc1cfc6a"},{"url":"http://councils.g0v.tw/api/councilors_terms/1036/","election_year":"1982","name":"陳林讓","gender":"","party":"","title":"議員","constituency":5,"county":"新北市","district":"新莊市、泰山鄉、五股鄉、林口鄉","in_office":true,"contact_details":null,"term_start":"1982-03-01","term_end":{"date":"1986-02-28"},"education":"高中畢業\n省訓團鄉鎮市長講習班第3、4期\n後幹班第49期結業","experience":"泰安產物保險公司經理\n五股鄉第7、8屆鄉長\n國民大會代表\n民眾服務社理事長\n五股國中家長委員\n五股鄉清寒子弟獎學金發起人\n臺北縣議會第10、11屆議員","remark":null,"image":"http://www.ntp.gov.tw/UpFile/CouncilorFile/TTCC1045.jpg","links":[{"url":"http://www.ntp.gov.tw/content/history/history01-5-p.aspx?sid=379","note":"議會個人官網"}],"social_media":null,"platform":"","param":null,"councilor":"e40bd46ad39d4c3daec7b6bcfc1cfc6a"}],"uid":"e40bd46ad39d4c3daec7b6bcfc1cfc6a","name":"陳林讓","birth":null,"former_names":"","identifiers":["陳林讓","陳林讓"]},{"url":"http://councils.g0v.tw/api/councilors/1494/","each_terms":[{"url":"http://councils.g0v.tw/api/councilors_terms/2420/","election_year":"2009","name":"林玉如","gender":"女","party":"中國國民黨","title":"","constituency":10,"county":"屏東縣","district":"瑪家鄉","in_office":true,"contact_details":[{"type":"address","value":"屏東縣瑪家鄉90342三和村三和巷62號","label":"通訊處"},{"type":"voice","value":"08-7991819","label":"電話"}],"term_start":"2009-12-25","term_end":{"date":"2014-12-25"},"education":null,"experience":null,"remark":null,"image":"http://www.ptcc.gov.tw/upload/upimage/ad8bbf2f-3d02-261c-423d-a58d1b4bec39-S.jpg","links":[{"url":"http://www.ptcc.gov.tw/?Page=PersionalDetail&Guid=ad8bbf2f-3d02-261c-423d-a58d1b4bec39","note":"議會個人官網"}],"social_media":null,"platform":"新興優質原鄉，共創幸福希望。","param":{"suggestions_years":{"count":357,"sum":24399024,"years":[{"count":90,"sum":6628000,"suggest_year":"2011","small_purchase":83},{"count":125,"sum":5075000,"suggest_year":"2012","small_purchase":123},{"count":59,"sum":5182024,"suggest_year":"2013","small_purchase":55},{"count":83,"sum":7514000,"suggest_year":"2014","small_purchase":77}]},"suggestions_associations":[{"count":49,"sum":1112000,"label":"社區發展協會"},{"count":8,"sum":160000,"label":"婦女會"},{"count":3,"sum":60000,"label":"協進會"},{"count":3,"sum":60000,"label":"研習會"},{"count":2,"sum":50000,"label":"體育會"},{"count":2,"sum":40000,"label":"農會"},{"count":2,"sum":40000,"label":"民眾服務社"},{"count":1,"sum":20000,"label":"促進會"},{"count":1,"sum":20000,"label":"商業會"},{"count":0,"sum":0,"label":"學會"},{"count":0,"sum":0,"label":"商會"},{"count":0,"sum":0,"label":"公會"},{"count":0,"sum":0,"label":"婦聯會"},{"count":0,"sum":0,"label":"同心會"},{"count":0,"sum":0,"label":"早起會"},{"count":0,"sum":0,"label":"健身會"},{"count":0,"sum":0,"label":"宗親會"},{"count":0,"sum":0,"label":"功德會"},{"count":0,"sum":0,"label":"長青會"},{"count":0,"sum":0,"label":"聯盟"}],"suggestions_piles":[{"count":59,"tokens":"國中|國小","sum":4440000,"label":"國中、國小"},{"count":146,"tokens":"協會|學會|商會|公會|協進會|促進會|研習會|婦聯會|婦女會|體育會|同心會|農會|早起會|健身會|宗親會|功德會|商業會|長青會|民眾服務社|聯盟","sum":3800024,"label":"協會"},{"count":6,"tokens":"消防局|消防隊|分隊|中隊","sum":160000,"label":"消防局"},{"count":2,"tokens":"警察局|分局","sum":155000,"label":"警察局"},{"count":1,"tokens":"辦公室|辦公處","sum":90000,"label":"辦公室"},{"count":2,"tokens":"廟|宮","sum":50000,"label":"廟"}]},"councilor":"c39e8075e1124f9b97b28483ec133a94"}],"uid":"c39e8075e1124f9b97b28483ec133a94","name":"林玉如","birth":null,"former_names":"","identifiers":["林玉如","林玉如"]},{"url":"http://councils.g0v.tw/api/councilors/1495/","each_terms":[{"url":"http://councils.g0v.tw/api/councilors_terms/2421/","election_year":"2009","name":"柯富國","gender":"男","party":"中國國民黨","title":"","constituency":9,"county":"屏東縣","district":"三地門鄉","in_office":true,"contact_details":[{"type":"address","value":"屏東縣三地門鄉90141三地村中正路13鄰85號","label":"通訊處"},{"type":"voice","value":"08-7992538","label":"電話"}],"term_start":"2009-12-25","term_end":{"date":"2014-12-25"},"education":null,"experience":null,"remark":null,"image":"http://www.ptcc.gov.tw/upload/upimage/ad730214-2ce3-f99b-bda2-2f7a7987b737-S.jpg","links":[{"url":"http://www.ptcc.gov.tw/?Page=PersionalDetail&Guid=a4c06f75-8ee1-da94-7bc5-01eac27c1681","note":"議會個人官網"}],"social_media":null,"platform":"參選抱負：\n一、原住民生活單純，對於法律司法性的觸角認識並不深入，自身權益常不知，因而不諳法規多次發生誤觸法令的遺憾事件，設置民眾法律諮詢服務處、災難應變危機機動組（服務處），提供民眾諮詢，設立地方與法院、檢察署聯合服務處，提供法律繳達詢問、書類例稿、代繕書狀等服務。\n二、優先推動莫拉克颱風災害重建工作，尊重原住民文化特色及意願，以安全、有效、迅速之方式辦理遷住及家園、設施、產業、生活、文化重建工作、保障原住民生命財產安全。\n三、爭取擴大辦理原住民保留地禁集水區伐補償及增加森木處分面積，增加原住民林農生活保障。\n四、全力照顧原住民鄉親各項建設，視財政狀況寬列提高原住民處的預算，以解決歷年來原住民處的預算不到屏東縣總預算的1%的困境。\n五、提力原住民地區教育資源，普設及優惠幼兒學前教育，惠款補助清寒學生營養午餐，寬列原住民地區學校員額，不裁校、不併班，原住民地區學校之校長、主任、教師、行政人員、校護及技工、工友、司機，優先任用具有任用資格之原住民擔任。\n六、推動災害重建工作，尊重原住民文化特色及意願，以安全、有效、迅速之方式辦理遷住及家園、設施、產業、生活、文化重工作，保障原住民生命財產安全。","param":{"suggestions_years":{"count":343,"sum":16365024,"years":[{"count":95,"sum":5550000,"suggest_year":"2011","small_purchase":91},{"count":99,"sum":4501000,"suggest_year":"2012","small_purchase":95},{"count":67,"sum":2483024,"suggest_year":"2013","small_purchase":65},{"count":82,"sum":3831000,"suggest_year":"2014","small_purchase":77}]},"suggestions_associations":[{"count":45,"sum":1069000,"label":"社區發展協會"},{"count":18,"sum":891000,"label":"體育會"},{"count":10,"sum":310000,"label":"婦女會"},{"count":5,"sum":189000,"label":"農會"},{"count":3,"sum":150000,"label":"促進會"},{"count":4,"sum":50000,"label":"協進會"},{"count":2,"sum":40000,"label":"研習會"},{"count":2,"sum":40000,"label":"聯盟"},{"count":1,"sum":20000,"label":"公會"},{"count":1,"sum":10000,"label":"民眾服務社"},{"count":0,"sum":0,"label":"學會"},{"count":0,"sum":0,"label":"商會"},{"count":0,"sum":0,"label":"婦聯會"},{"count":0,"sum":0,"label":"同心會"},{"count":0,"sum":0,"label":"早起會"},{"count":0,"sum":0,"label":"健身會"},{"count":0,"sum":0,"label":"宗親會"},{"count":0,"sum":0,"label":"功德會"},{"count":0,"sum":0,"label":"商業會"},{"count":0,"sum":0,"label":"長青會"}],"suggestions_piles":[{"count":154,"tokens":"協會|學會|商會|公會|協進會|促進會|研習會|婦聯會|婦女會|體育會|同心會|農會|早起會|健身會|宗親會|功德會|商業會|長青會|民眾服務社|聯盟","sum":5335024,"label":"協會"},{"count":54,"tokens":"國中|國小","sum":2637000,"label":"國中、國小"},{"count":5,"tokens":"消防局|消防隊|分隊|中隊","sum":205000,"label":"消防局"},{"count":3,"tokens":"警察局|分局","sum":160000,"label":"警察局"},{"count":1,"tokens":"辦公室|辦公處","sum":95000,"label":"辦公室"},{"count":3,"tokens":"廟|宮","sum":60000,"label":"廟"}]},"councilor":"23128143cfac440685e5724a99914f31"}],"uid":"23128143cfac440685e5724a99914f31","name":"柯富國","birth":null,"former_names":"","identifiers":["柯富國"]},{"url":"http://councils.g0v.tw/api/councilors/1497/","each_terms":[{"url":"http://councils.g0v.tw/api/councilors_terms/2423/","election_year":"2009","name":"王薇茗","gender":"女","party":"無黨籍","title":"","constituency":7,"county":"屏東縣","district":"琉球鄉","in_office":true,"contact_details":[{"type":"address","value":"屏東縣琉球鄉92941本福村民生路3-1號","label":"通訊處"},{"type":"voice","value":"08-8612957","label":"電話"}],"term_start":"2009-12-25","term_end":{"date":"2014-12-25"},"education":null,"experience":null,"remark":null,"image":"http://www.ptcc.gov.tw/upload/upimage/c79e405e-0cf6-65fc-81aa-7aa4fcbfdbb2-S.jpg","links":[{"url":"http://www.ptcc.gov.tw/?Page=PersionalDetail&Guid=94597501-1a04-637a-9cc3-59d0527112e4","note":"議會個人官網"}],"social_media":null,"platform":"一、爭取設立老人養老院。\n二、督促公船正常營運，服務鄉民。\n三、爭取救護船換新、確保鄉民生命安全。\n四、爭取農民漁民權益及福利。\n五、發展琉球離島觀光事業。\n六、爭取離島建設及鄉民社會福利。\n七、督促台電早日完成海底電纜設施。","param":{"suggestions_years":{"count":296,"sum":20891000,"years":[{"count":76,"sum":3953000,"suggest_year":"2011","small_purchase":74},{"count":82,"sum":5627000,"suggest_year":"2012","small_purchase":80},{"count":57,"sum":4804000,"suggest_year":"2013","small_purchase":56},{"count":81,"sum":6507000,"suggest_year":"2014","small_purchase":79}]},"suggestions_associations":[{"count":44,"sum":1055000,"label":"社區發展協會"},{"count":13,"sum":285000,"label":"婦女會"},{"count":4,"sum":158000,"label":"民眾服務社"},{"count":3,"sum":100000,"label":"學會"},{"count":1,"sum":95000,"label":"促進會"},{"count":3,"sum":60000,"label":"協進會"},{"count":1,"sum":40000,"label":"農會"},{"count":1,"sum":20000,"label":"研習會"},{"count":1,"sum":20000,"label":"體育會"},{"count":1,"sum":20000,"label":"宗親會"},{"count":0,"sum":0,"label":"商會"},{"count":0,"sum":0,"label":"公會"},{"count":0,"sum":0,"label":"婦聯會"},{"count":0,"sum":0,"label":"同心會"},{"count":0,"sum":0,"label":"早起會"},{"count":0,"sum":0,"label":"健身會"},{"count":0,"sum":0,"label":"功德會"},{"count":0,"sum":0,"label":"商業會"},{"count":0,"sum":0,"label":"長青會"},{"count":0,"sum":0,"label":"聯盟"}],"suggestions_piles":[{"count":44,"tokens":"廟|宮","sum":4563000,"label":"廟"},{"count":125,"tokens":"協會|學會|商會|公會|協進會|促進會|研習會|婦聯會|婦女會|體育會|同心會|農會|早起會|健身會|宗親會|功德會|商業會|長青會|民眾服務社|聯盟","sum":4085000,"label":"協會"},{"count":39,"tokens":"國中|國小","sum":1941000,"label":"國中、國小"},{"count":13,"tokens":"警察局|分局","sum":948000,"label":"警察局"},{"count":13,"tokens":"消防局|消防隊|分隊|中隊","sum":672000,"label":"消防局"},{"count":0,"tokens":"辦公室|辦公處","sum":0,"label":"辦公室"}]},"councilor":"f4e12b5351ee4d368fad46cb16fd2049"}],"uid":"f4e12b5351ee4d368fad46cb16fd2049","name":"王薇茗","birth":null,"former_names":"","identifiers":["王薇茗"]},{"url":"http://councils.g0v.tw/api/councilors/1498/","each_terms":[{"url":"http://councils.g0v.tw/api/councilors_terms/2424/","election_year":"2009","name":"曾瓊慧","gender":"女","party":"無黨籍","title":"","constituency":6,"county":"屏東縣","district":"中枋山鄉、車城鄉、恆春鎮、滿州鄉","in_office":true,"contact_details":[{"type":"address","value":"屏東縣恆春鎮東門路154號","label":"通訊處"},{"type":"voice","value":"08-8897853","label":"電話"}],"term_start":"2009-12-25","term_end":{"date":"2014-12-25"},"education":null,"experience":null,"remark":null,"image":"http://www.ptcc.gov.tw/upload/upimage/ba51a0eb-858f-7feb-63ba-de1d91d362a8-S.jpg","links":[{"url":"http://www.ptcc.gov.tw/?Page=PersionalDetail&Guid=ba51a0eb-858f-7feb-63ba-de1d91d362a8","note":"議會個人官網"}],"social_media":null,"platform":"一、爭取經費成立女性免費創業、就業輔導。\n二、爭取低收入戶、單親家庭、新移民女性（外籍新娘）之子女，免費課後輔導。\n三、爭取經費提升恆春地區醫療設備及醫師。\n四、爭取偏遠地區增加公車班次。\n五、爭取經費協助六鄉鎮做形象行銷廣告，並舉辦全國性、國際性之旅遊活動。\n六、爭取鐵路至恆春，以利觀光。\n七、爭取核三廠及三軍聯合訓練基地回饋金直接撥入每戶。\n八、反對墾丁國家公園法，對不合時宜、阻礙百姓生活之惡法將全力抗爭修法。\n九、成立免費法律諮詢服務中心。","param":{"suggestions_years":{"count":347,"sum":17966000,"years":[{"count":73,"sum":4075000,"suggest_year":"2011","small_purchase":69},{"count":108,"sum":6560000,"suggest_year":"2012","small_purchase":98},{"count":71,"sum":3193000,"suggest_year":"2013","small_purchase":65},{"count":95,"sum":4138000,"suggest_year":"2014","small_purchase":84}]},"suggestions_associations":[{"count":83,"sum":1873000,"label":"社區發展協會"},{"count":9,"sum":564000,"label":"農會"},{"count":18,"sum":435000,"label":"婦女會"},{"count":7,"sum":290000,"label":"體育會"},{"count":10,"sum":200000,"label":"協進會"},{"count":9,"sum":159000,"label":"民眾服務社"},{"count":8,"sum":135000,"label":"學會"},{"count":2,"sum":40000,"label":"促進會"},{"count":0,"sum":0,"label":"商會"},{"count":0,"sum":0,"label":"公會"},{"count":0,"sum":0,"label":"研習會"},{"count":0,"sum":0,"label":"婦聯會"},{"count":0,"sum":0,"label":"同心會"},{"count":0,"sum":0,"label":"早起會"},{"count":0,"sum":0,"label":"健身會"},{"count":0,"sum":0,"label":"宗親會"},{"count":0,"sum":0,"label":"功德會"},{"count":0,"sum":0,"label":"商業會"},{"count":0,"sum":0,"label":"長青會"},{"count":0,"sum":0,"label":"聯盟"}],"suggestions_piles":[{"count":208,"tokens":"協會|學會|商會|公會|協進會|促進會|研習會|婦聯會|婦女會|體育會|同心會|農會|早起會|健身會|宗親會|功德會|商業會|長青會|民眾服務社|聯盟","sum":5757000,"label":"協會"},{"count":55,"tokens":"國中|國小","sum":3730000,"label":"國中、國小"},{"count":26,"tokens":"廟|宮","sum":643000,"label":"廟"},{"count":6,"tokens":"消防局|消防隊|分隊|中隊","sum":238000,"label":"消防局"},{"count":4,"tokens":"警察局|分局","sum":215000,"label":"警察局"},{"count":0,"tokens":"辦公室|辦公處","sum":0,"label":"辦公室"}]},"councilor":"250acd4a82ab4d76b914c385798ce18c"}],"uid":"250acd4a82ab4d76b914c385798ce18c","name":"曾瓊慧","birth":null,"former_names":"","identifiers":["曽瓊慧","曾瓊慧"]},{"url":"http://councils.g0v.tw/api/councilors/1500/","each_terms":[{"url":"http://councils.g0v.tw/api/councilors_terms/2426/","election_year":"2009","name":"林亞相","gender":"男","party":"民主進步黨","title":"","constituency":6,"county":"屏東縣","district":"中枋山鄉、車城鄉、恆春鎮、滿州鄉","in_office":true,"contact_details":[{"type":"address","value":"屏東縣恆春鎮94647省北路85號","label":"通訊處"},{"type":"voice","value":"08-8880888","label":"電話"}],"term_start":"2009-12-25","term_end":{"date":"2014-12-25"},"education":null,"experience":null,"remark":null,"image":"http://www.ptcc.gov.tw/upload/upimage/fcd4bd83-d1db-7cee-13f1-86376c302554-S.jpg","links":[{"url":"http://www.ptcc.gov.tw/?Page=PersionalDetail&Guid=330496c0-4a4f-ee7c-0aa4-ba2dbdf4315e","note":"議會個人官網"}],"social_media":null,"platform":"一、監督並輔助縣政之推展以期建立透明化、效率化的廉能政府。\n二、落實老人、婦幼及弱勢團體之照顧以強化社會福利政策。\n三、整合社區耆老及文史工作者，發揚屬於恆春半島的文化與藝術。\n四、爭取大型教學醫院與恆春半島醫療機構達成策略聯盟以提升區域醫療品質。\n五、以社區總體營造出發、強化社區環境之基礎建設、凝聚社區共同意識、展現各社區特色與優勢。\n六、爭取恆春半島國中、小學教學環境改善與校舍充實，以降低教師流動率，提升恆春半島教育品質。\n七、督促縣府積極規劃農產單項產業與整體產業升級使農漁特產品產銷結構健全化，以振興農村經濟。\n八、整合恆春半島的觀光資源，積極開發半島觀光景點、並進行商業化的規劃行銷以提升整體的產值。\n九、輔導民宿合法發展、開拓半島觀光新視野。","param":{"suggestions_years":{"count":402,"sum":22091000,"years":[{"count":101,"sum":5592000,"suggest_year":"2011","small_purchase":95},{"count":98,"sum":5440000,"suggest_year":"2012","small_purchase":92},{"count":77,"sum":2671000,"suggest_year":"2013","small_purchase":75},{"count":126,"sum":8388000,"suggest_year":"2014","small_purchase":120}]},"suggestions_associations":[{"count":119,"sum":2835000,"label":"社區發展協會"},{"count":7,"sum":611000,"label":"農會"},{"count":14,"sum":305000,"label":"體育會"},{"count":3,"sum":150000,"label":"促進會"},{"count":6,"sum":120000,"label":"宗親會"},{"count":2,"sum":40000,"label":"學會"},{"count":1,"sum":20000,"label":"民眾服務社"},{"count":0,"sum":0,"label":"商會"},{"count":0,"sum":0,"label":"公會"},{"count":0,"sum":0,"label":"協進會"},{"count":0,"sum":0,"label":"研習會"},{"count":0,"sum":0,"label":"婦聯會"},{"count":0,"sum":0,"label":"婦女會"},{"count":0,"sum":0,"label":"同心會"},{"count":0,"sum":0,"label":"早起會"},{"count":0,"sum":0,"label":"健身會"},{"count":0,"sum":0,"label":"功德會"},{"count":0,"sum":0,"label":"商業會"},{"count":0,"sum":0,"label":"長青會"},{"count":0,"sum":0,"label":"聯盟"}],"suggestions_piles":[{"count":254,"tokens":"協會|學會|商會|公會|協進會|促進會|研習會|婦聯會|婦女會|體育會|同心會|農會|早起會|健身會|宗親會|功德會|商業會|長青會|民眾服務社|聯盟","sum":6603000,"label":"協會"},{"count":48,"tokens":"國中|國小","sum":2752000,"label":"國中、國小"},{"count":5,"tokens":"警察局|分局","sum":437000,"label":"警察局"},{"count":10,"tokens":"廟|宮","sum":225000,"label":"廟"},{"count":4,"tokens":"消防局|消防隊|分隊|中隊","sum":170000,"label":"消防局"},{"count":0,"tokens":"辦公室|辦公處","sum":0,"label":"辦公室"}]},"councilor":"27951bdf5811454a8ebdf8de24c583d3"}],"uid":"27951bdf5811454a8ebdf8de24c583d3","name":"林亞相","birth":null,"former_names":"","identifiers":["林亞相","林亞相"]},{"url":"http://councils.g0v.tw/api/councilors/1502/","each_terms":[{"url":"http://councils.g0v.tw/api/councilors_terms/2428/","election_year":"2009","name":"楊嘉慶","gender":"男","party":"民主進步黨","title":"","constituency":5,"county":"屏東縣","district":"崁頂鄉、南州鄉、林邊鄉、佳冬鄉","in_office":true,"contact_details":[{"type":"address","value":"屏東縣佳冬鄉93144石光村中山路100號","label":"通訊處"},{"type":"voice","value":"08-8660463","label":"電話"}],"term_start":"2009-12-25","term_end":{"date":"2014-12-25"},"education":null,"experience":null,"remark":null,"image":"http://www.ptcc.gov.tw/upload/upimage/ecf2a601-d2ec-84ac-2fd0-f22335327690-S.jpg","links":[{"url":"http://www.ptcc.gov.tw/?Page=PersionalDetail&Guid=eac3d4a5-a6c0-4a6d-9962-574161501dee","note":"議會個人官網"}],"social_media":null,"platform":"一、敦促經濟部拆堤防還河床、認真檢討河川禁拆之法令。\n二、爭取資源建設地方。\n三、關心農民畜牧業者及水產業者之作物栽種養殖及產銷管道及環保問題。\n四、注重青少年之教育、身心發展及婦孺之保護。","param":{"suggestions_years":{"count":432,"sum":20858000,"years":[{"count":108,"sum":5357000,"suggest_year":"2011","small_purchase":103},{"count":124,"sum":5804000,"suggest_year":"2012","small_purchase":120},{"count":86,"sum":2918000,"suggest_year":"2013","small_purchase":85},{"count":114,"sum":6779000,"suggest_year":"2014","small_purchase":106}]},"suggestions_associations":[{"count":100,"sum":2198000,"label":"社區發展協會"},{"count":47,"sum":1447000,"label":"體育會"},{"count":25,"sum":675000,"label":"促進會"},{"count":15,"sum":549000,"label":"農會"},{"count":6,"sum":160000,"label":"協進會"},{"count":8,"sum":150000,"label":"學會"},{"count":1,"sum":20000,"label":"宗親會"},{"count":0,"sum":0,"label":"商會"},{"count":0,"sum":0,"label":"公會"},{"count":0,"sum":0,"label":"研習會"},{"count":0,"sum":0,"label":"婦聯會"},{"count":0,"sum":0,"label":"婦女會"},{"count":0,"sum":0,"label":"同心會"},{"count":0,"sum":0,"label":"早起會"},{"count":0,"sum":0,"label":"健身會"},{"count":0,"sum":0,"label":"功德會"},{"count":0,"sum":0,"label":"商業會"},{"count":0,"sum":0,"label":"長青會"},{"count":0,"sum":0,"label":"民眾服務社"},{"count":0,"sum":0,"label":"聯盟"}],"suggestions_piles":[{"count":290,"tokens":"協會|學會|商會|公會|協進會|促進會|研習會|婦聯會|婦女會|體育會|同心會|農會|早起會|健身會|宗親會|功德會|商業會|長青會|民眾服務社|聯盟","sum":7745000,"label":"協會"},{"count":27,"tokens":"國中|國小","sum":2141000,"label":"國中、國小"},{"count":28,"tokens":"消防局|消防隊|分隊|中隊","sum":640000,"label":"消防局"},{"count":9,"tokens":"廟|宮","sum":509000,"label":"廟"},{"count":16,"tokens":"警察局|分局","sum":456000,"label":"警察局"},{"count":0,"tokens":"辦公室|辦公處","sum":0,"label":"辦公室"}]},"councilor":"2ff74a5d3ec748c89a6c043c41df3e23"}],"uid":"2ff74a5d3ec748c89a6c043c41df3e23","name":"楊嘉慶","birth":null,"former_names":"","identifiers":["楊嘉慶"]},{"url":"http://councils.g0v.tw/api/councilors/706/","each_terms":[{"url":"http://councils.g0v.tw/api/councilors_terms/1273/","election_year":"1998","name":"王景源","gender":"","party":"","title":"議員","constituency":1,"county":"新北市","district":"板橋市","in_office":true,"contact_details":null,"term_start":"1998-03-01","term_end":{"date":"2002-02-28"},"education":"沙崙國小\n樹林國中\n景文高中\n德霖技術學院土木工程工學士","experience":"臺北縣議會第16屆議員\n三屆議員\n二屆市代\n一屆里長\n土風舞、田徑主委\n家扶中心主委\n國際生命線理事長\n義消分隊長，中隊長\n亞東醫院人體試驗審議委員\n議會警政、衛生、環保、消防、財政、主計召集人\n張廖簡、黃、林、彭、詹、宗親會顧問\n機車、洗衣、中藥、牙醫、藥劑師、藥劑生公會顧問\n柯媽媽車禍關懷協會顧問\n佛光會海山分會顧問","remark":null,"image":"http://www.ntp.gov.tw/UpFile/CouncilorFile/TTCC1409.jpg","links":[{"url":"http://www.ntp.gov.tw/content/history/history01-5-p.aspx?sid=477","note":"議會個人官網"}],"social_media":null,"platform":"","param":null,"councilor":"b90be33258b24e099750f5b1ec57ee60"},{"url":"http://councils.g0v.tw/api/councilors_terms/1340/","election_year":"2002","name":"王景源","gender":"","party":"","title":"議員","constituency":1,"county":"新北市","district":"板橋市","in_office":true,"contact_details":null,"term_start":"2002-03-01","term_end":{"date":"2006-02-28"},"education":"沙崙國小\n樹林國中\n景文高中\n德霖技術學院土木工程工學士","experience":"臺北縣議會第16屆議員\n三屆議員\n二屆市代\n一屆里長\n土風舞、田徑主委\n家扶中心主委\n國際生命線理事長\n義消分隊長，中隊長\n亞東醫院人體試驗審議委員\n議會警政、衛生、環保、消防、財政、主計召集人\n張廖簡、黃、林、彭、詹、宗親會顧問\n機車、洗衣、中藥、牙醫、藥劑師、藥劑生公會顧問\n柯媽媽車禍關懷協會顧問\n佛光會海山分會顧問","remark":null,"image":"http://www.ntp.gov.tw/UpFile/CouncilorFile/TTCC1409.jpg","links":[{"url":"http://www.ntp.gov.tw/content/history/history01-5-p.aspx?sid=477","note":"議會個人官網"}],"social_media":null,"platform":"","param":null,"councilor":"b90be33258b24e099750f5b1ec57ee60"},{"url":"http://councils.g0v.tw/api/councilors_terms/1401/","election_year":"2006","name":"王景源","gender":"","party":"","title":"議員","constituency":1,"county":"新北市","district":"板橋市","in_office":true,"contact_details":null,"term_start":"2006-03-01","term_end":{"date":"2010-12-24"},"education":"沙崙國小\n樹林國中\n景文高中\n德霖技術學院土木工程工學士","experience":"臺北縣議會第16屆議員\n三屆議員\n二屆市代\n一屆里長\n土風舞、田徑主委\n家扶中心主委\n國際生命線理事長\n義消分隊長，中隊長\n亞東醫院人體試驗審議委員\n議會警政、衛生、環保、消防、財政、主計召集人\n張廖簡、黃、林、彭、詹、宗親會顧問\n機車、洗衣、中藥、牙醫、藥劑師、藥劑生公會顧問\n柯媽媽車禍關懷協會顧問\n佛光會海山分會顧問","remark":null,"image":"http://www.ntp.gov.tw/UpFile/CouncilorFile/TTCC1409.jpg","links":[{"url":"http://www.ntp.gov.tw/content/history/history01-5-p.aspx?sid=477","note":"議會個人官網"}],"social_media":null,"platform":"","param":null,"councilor":"b90be33258b24e099750f5b1ec57ee60"}],"uid":"b90be33258b24e099750f5b1ec57ee60","name":"王景源","birth":null,"former_names":"","identifiers":["王景源"]}]}