{"count":1904,"next":"http://councils.g0v.tw/api/councilors/?page=59","previous":"http://councils.g0v.tw/api/councilors/?page=57","results":[{"url":"http://councils.g0v.tw/api/councilors/707/","each_terms":[{"url":"http://councils.g0v.tw/api/councilors_terms/1279/","election_year":"2002","name":"田春枝","gender":"","party":"","title":"議員","constituency":11,"county":"新北市","district":"平地原住民","in_office":true,"contact_details":null,"term_start":"2002-03-01","term_end":{"date":"2006-02-28"},"education":"國立臺灣師範大學教育系畢業","experience":"臺北縣議會第15屆議員\n台灣原住民族發展協會第1、2屆理事長\n享譽海內外十幾年的臺北山舞藝術團負責人\n臺北縣政府原住民行政局書記\n臺北市政府原住民事務委員會主任秘書\n花蓮光復國中暨臺北福和國中教師共22年\n民國102年10月11日歿","remark":null,"image":"http://www.ntp.gov.tw/UpFile/CouncilorFile/TTCC1560.jpg","links":[{"url":"http://www.ntp.gov.tw/content/history/history01-5-p.aspx?sid=523","note":"議會個人官網"}],"social_media":null,"platform":"","param":null,"councilor":"7040ffd69b72453ea2e8e606a095aa33"}],"uid":"7040ffd69b72453ea2e8e606a095aa33","name":"田春枝","birth":null,"former_names":"","identifiers":["田春枝"]},{"url":"http://councils.g0v.tw/api/councilors/561/","each_terms":[{"url":"http://councils.g0v.tw/api/councilors_terms/969/","election_year":"1986","name":"黃建清","gender":"","party":"","title":"議員","constituency":7,"county":"新北市","district":"汐止鎮、金山鄉、萬里鄉","in_office":true,"contact_details":null,"term_start":"1986-03-01","term_end":{"date":"1990-02-28"},"education":"北峰國小\n育達商職\n開南工商高級部土木科\n後幹班100期結業","experience":"汐止義消中隊長\n汐止仁愛救急基金會副會長\n汐止後備軍人輔導中心主任\n建清兄弟建設公司董事長\n臺北縣議會第10、11、12、13、14屆議員\n汐止市第2、3屆市長","remark":null,"image":"http://www.ntp.gov.tw/UpFile/CouncilorFile/TTCC1054.jpg","links":[{"url":"http://www.ntp.gov.tw/content/history/history01-5-p.aspx?sid=385","note":"議會個人官網"}],"social_media":null,"platform":"","param":null,"councilor":"4e65791d393d479a931a425aea21c4bc"},{"url":"http://councils.g0v.tw/api/councilors_terms/1018/","election_year":"1982","name":"黃建清","gender":"","party":"","title":"議員","constituency":7,"county":"新北市","district":"汐止鎮、金山鄉、萬里鄉","in_office":true,"contact_details":null,"term_start":"1982-03-01","term_end":{"date":"1986-02-28"},"education":"北峰國小\n育達商職\n開南工商高級部土木科\n後幹班100期結業","experience":"汐止義消中隊長\n汐止仁愛救急基金會副會長\n汐止後備軍人輔導中心主任\n建清兄弟建設公司董事長\n臺北縣議會第10、11、12、13、14屆議員\n汐止市第2、3屆市長","remark":null,"image":"http://www.ntp.gov.tw/UpFile/CouncilorFile/TTCC1054.jpg","links":[{"url":"http://www.ntp.gov.tw/content/history/history01-5-p.aspx?sid=385","note":"議會個人官網"}],"social_media":null,"platform":"","param":null,"councilor":"4e65791d393d479a931a425aea21c4bc"},{"url":"http://councils.g0v.tw/api/councilors_terms/1096/","election_year":"1990","name":"黃建清","gender":"","party":"","title":"議員","constituency":8,"county":"新北市","district":"汐止鎮、金山鄉、萬里鄉","in_office":true,"contact_details":null,"term_start":"1990-03-01","term_end":{"date":"1994-02-28"},"education":"北峰國小\n育達商職\n開南工商高級部土木科\n後幹班100期結業","experience":"汐止義消中隊長\n汐止仁愛救急基金會副會長\n汐止後備軍人輔導中心主任\n建清兄弟建設公司董事長\n臺北縣議會第10、11、12、13、14屆議員\n汐止市第2、3屆市長","remark":null,"image":"http://www.ntp.gov.tw/UpFile/CouncilorFile/TTCC1054.jpg","links":[{"url":"http://www.ntp.gov.tw/content/history/history01-5-p.aspx?sid=385","note":"議會個人官網"}],"social_media":null,"platform":"","param":null,"councilor":"4e65791d393d479a931a425aea21c4bc"},{"url":"http://councils.g0v.tw/api/councilors_terms/1159/","election_year":"1994","name":"黃建清","gender":"","party":"","title":"議員","constituency":8,"county":"新北市","district":"汐止鎮、金山鄉、萬里鄉","in_office":true,"contact_details":null,"term_start":"1994-03-01","term_end":{"date":"1998-02-28"},"education":"北峰國小\n育達商職\n開南工商高級部土木科\n後幹班100期結業","experience":"汐止義消中隊長\n汐止仁愛救急基金會副會長\n汐止後備軍人輔導中心主任\n建清兄弟建設公司董事長\n臺北縣議會第10、11、12、13、14屆議員\n汐止市第2、3屆市長","remark":null,"image":"http://www.ntp.gov.tw/UpFile/CouncilorFile/TTCC1054.jpg","links":[{"url":"http://www.ntp.gov.tw/content/history/history01-5-p.aspx?sid=385","note":"議會個人官網"}],"social_media":null,"platform":"","param":null,"councilor":"4e65791d393d479a931a425aea21c4bc"},{"url":"http://councils.g0v.tw/api/councilors_terms/1228/","election_year":"1998","name":"黃建清","gender":"","party":"","title":"議員","constituency":8,"county":"新北市","district":"汐止鎮、金山鄉、萬里鄉","in_office":true,"contact_details":null,"term_start":"1998-03-01","term_end":{"date":"2002-02-28"},"education":"北峰國小\n育達商職\n開南工商高級部土木科\n後幹班100期結業","experience":"汐止義消中隊長\n汐止仁愛救急基金會副會長\n汐止後備軍人輔導中心主任\n建清兄弟建設公司董事長\n臺北縣議會第10、11、12、13、14屆議員\n汐止市第2、3屆市長","remark":null,"image":"http://www.ntp.gov.tw/UpFile/CouncilorFile/TTCC1054.jpg","links":[{"url":"http://www.ntp.gov.tw/content/history/history01-5-p.aspx?sid=385","note":"議會個人官網"}],"social_media":null,"platform":"","param":null,"councilor":"4e65791d393d479a931a425aea21c4bc"}],"uid":"4e65791d393d479a931a425aea21c4bc","name":"黃建清","birth":null,"former_names":"","identifiers":["黄建清","黃建清"]},{"url":"http://councils.g0v.tw/api/councilors/562/","each_terms":[{"url":"http://councils.g0v.tw/api/councilors_terms/970/","election_year":"1986","name":"廖學廣","gender":"","party":"","title":"議員","constituency":7,"county":"新北市","district":"汐止鎮、金山鄉、萬里鄉","in_office":true,"contact_details":null,"term_start":"1986-03-01","term_end":{"date":"1990-02-28"},"education":"汐止國小畢業\n北市松山初中畢業\n復興高中肄業\n師大附中畢\n國立臺灣大學法律系\n美國加州州立大學政治研究所碩士","experience":"汐止鎮長\n國民大會代表\n黨外公政會創會會員\n民進黨建黨發起人\n民進黨第1屆中央訓誡委員\n臺大汐止校友會長等\n尤清縣長選舉副總幹事及助講員\n汐止鎮鎮長\n臺北縣議會第10、11屆議員","remark":null,"image":"http://www.ntp.gov.tw/UpFile/CouncilorFile/TTCC1053.jpg","links":[{"url":"http://www.ntp.gov.tw/content/history/history01-5-p.aspx?sid=384","note":"議會個人官網"}],"social_media":null,"platform":"","param":null,"councilor":"af5107ae58bd457c84a53dd4f267c965"},{"url":"http://councils.g0v.tw/api/councilors_terms/1029/","election_year":"1982","name":"廖學廣","gender":"","party":"","title":"議員","constituency":7,"county":"新北市","district":"汐止鎮、金山鄉、萬里鄉","in_office":true,"contact_details":null,"term_start":"1982-03-01","term_end":{"date":"1986-02-28"},"education":"汐止國小畢業\n北市松山初中畢業\n復興高中肄業\n師大附中畢\n國立臺灣大學法律系\n美國加州州立大學政治研究所碩士","experience":"汐止鎮長\n國民大會代表\n黨外公政會創會會員\n民進黨建黨發起人\n民進黨第1屆中央訓誡委員\n臺大汐止校友會長等\n尤清縣長選舉副總幹事及助講員\n汐止鎮鎮長\n臺北縣議會第10、11屆議員","remark":null,"image":"http://www.ntp.gov.tw/UpFile/CouncilorFile/TTCC1053.jpg","links":[{"url":"http://www.ntp.gov.tw/content/history/history01-5-p.aspx?sid=384","note":"議會個人官網"}],"social_media":null,"platform":"","param":null,"councilor":"af5107ae58bd457c84a53dd4f267c965"}],"uid":"af5107ae58bd457c84a53dd4f267c965","name":"廖學廣","birth":null,"former_names":"","identifiers":["廖學廣"]},{"url":"http://councils.g0v.tw/api/councilors/418/","each_terms":[{"url":"http://councils.g0v.tw/api/councilors_terms/756/","election_year":"2010","name":"洪平朗","gender":"","party":"民主進步黨","title":"議員","constituency":7,"county":"高雄市","district":"三民區","in_office":true,"contact_details":[{"type":"voice","value":"396-1727","label":"傳真"},{"type":"fax","value":"396-1725","label":"傳真"},{"type":"email","value":"hpl3807120@kcc.gov.tw","label":"電子信箱"},{"type":"address","value":"807三民區大豐二路1-1號","label":"通訊處"}],"term_start":"2010-12-25","term_end":{"date":"2014-12-25"},"education":"高雄市立空中大學大眾傳播學系畢業","experience":"1.國大代表\n2.高雄市極限運動委員會主任委員\n3.高雄市澎湖同鄉會顧問\n4.鼎金保安宮顧問\n5.高雄市文武聖殿顧問\n6.高雄市成功聯合敬老協會名譽理事長\n7.高雄市立空中大學大眾傳播學系\n8.高雄市議會議員\n9.高雄市議會友誼聯盟會長","remark":null,"image":"http://www.kcc.gov.tw/Upload/PeriodMembers/0701033.jpg","links":[{"url":"http://www.kcc.gov.tw/PeriodMembers/Introduction.aspx?KeyID=33","note":"議會個人官網"}],"social_media":null,"platform":"一、守護高雄，穩定議會，做好府會溝通橋樑。\n二、繼續爭取學童營養午餐免費，減輕家長負擔。\n三、繼續爭取增設監視系統，杜絕犯罪，維護治安。\n四、捍衛弱勢權益，督促政府落實單親、婦幼、老年人全方位照護。\n五、結合愛河美景，推動中都都市更新、爭取編列專案經費解決老舊國宅問題。\n六、督促寶華里防洪工程早日完工，解決地區水患問題\n七、再造三民東區商圈風華、活絡地區生活機能。\n八、打造金獅湖新景觀、成為高雄觀光新地標。\n九、督促政府鐵路地下化早日完工、儘早規劃後驛地區新風貌、再造後驛商機。\n十、要求市府增加警政預算添購警用新型設備，激勵基層員警士氣、有效預防與打擊犯罪，打造市民安心居住環境。","param":{"bills_role_statistics":{"total":273,"priproposer":11,"sponsor":11,"cosponsor":262},"votes_decision_statistics":{"abstain":0,"disagree":3,"not_voting":0,"total":3,"agree":0,"conflict":0},"diversity":{"中國國民黨":0.22230158730158744,"民主進步黨":0.5943650793650789,"親民黨":0.0,"無黨籍":0.18333333333333363},"suggestions_years":{"count":71,"sum":36809609,"years":[{"count":17,"sum":8735969,"suggest_year":"2011","small_purchase":6},{"count":27,"sum":11705640,"suggest_year":"2012","small_purchase":6},{"count":16,"sum":9850000,"suggest_year":"2013","small_purchase":3},{"count":11,"sum":6518000,"suggest_year":"2014","small_purchase":3}]},"attendance_statistics":{"absent":3,"total":392},"suggestions_associations":[{"count":4,"sum":0,"label":"社區發展協會"},{"count":0,"sum":0,"label":"學會"},{"count":0,"sum":0,"label":"商會"},{"count":0,"sum":0,"label":"公會"},{"count":0,"sum":0,"label":"協進會"},{"count":0,"sum":0,"label":"促進會"},{"count":0,"sum":0,"label":"研習會"},{"count":0,"sum":0,"label":"婦聯會"},{"count":0,"sum":0,"label":"婦女會"},{"count":0,"sum":0,"label":"體育會"},{"count":0,"sum":0,"label":"同心會"},{"count":0,"sum":0,"label":"農會"},{"count":0,"sum":0,"label":"早起會"},{"count":0,"sum":0,"label":"健身會"},{"count":0,"sum":0,"label":"宗親會"},{"count":0,"sum":0,"label":"功德會"},{"count":0,"sum":0,"label":"商業會"},{"count":0,"sum":0,"label":"長青會"},{"count":0,"sum":0,"label":"民眾服務社"},{"count":0,"sum":0,"label":"聯盟"}],"bills_party_diversity":[{"party":"民主進步黨","ratio":0.6395663956639567},{"party":"中國國民黨","ratio":0.18337850045167117},{"party":"無黨籍","ratio":0.17253839205058719},{"party":"親民黨","ratio":0.004516711833785004}],"suggestions_piles":[{"count":21,"tokens":"警察局|分局","sum":7777600,"label":"警察局"},{"count":7,"tokens":"國中|國小","sum":6395162,"label":"國中、國小"},{"count":1,"tokens":"廟|宮","sum":1200000,"label":"廟"},{"count":4,"tokens":"協會|學會|商會|公會|協進會|促進會|研習會|婦聯會|婦女會|體育會|同心會|農會|早起會|健身會|宗親會|功德會|商業會|長青會|民眾服務社|聯盟","sum":0,"label":"協會"},{"count":0,"tokens":"辦公室|辦公處","sum":0,"label":"辦公室"},{"count":0,"tokens":"消防局|消防隊|分隊|中隊","sum":0,"label":"消防局"}]},"councilor":"c253c3e4f4fc4ad298f817f790ca0169"}],"uid":"c253c3e4f4fc4ad298f817f790ca0169","name":"洪平朗","birth":null,"former_names":"","identifiers":["洪平朗"]},{"url":"http://councils.g0v.tw/api/councilors/423/","each_terms":[{"url":"http://councils.g0v.tw/api/councilors_terms/761/","election_year":"2010","name":"曾水文","gender":"","party":"中國國民黨","title":"議員","constituency":3,"county":"高雄市","district":"永安區、岡山區、燕巢區、彌陀區、梓官區、橋頭區","in_office":false,"contact_details":[{"type":"voice","value":"","label":"傳真"},{"type":"voice","value":"","label":"傳真"},{"type":"fax","value":"","label":"傳真"},{"type":"fax","value":"","label":"傳真"},{"type":"address","value":"","label":"通訊處"},{"type":"address","value":"","label":"通訊處"}],"term_start":"2010-12-25","term_end":{"date":"2011-12-28","reason":""},"education":"蚵寮國小、梓官國中、省立岡山農工、東方技術學院二專部","experience":"梓官鄉第十三、十四、十五屆鄉民代表\n國民黨第十七全黨代表社區理事\n龍安堂委員\n觀海府委員\n梓官鄉青工會顧問\n梓官鄉後備憲兵顧問","remark":"已解職(100.12.28)","image":"http://www.kcc.gov.tw/Upload/PeriodMembers/0701012.jpg","links":[{"url":"http://www.kcc.gov.tw/PeriodMembers/Introduction.aspx?KeyID=12","note":"議會個人官網"}],"social_media":null,"platform":"一、秉持熱情百分百，服務最勤快的精神，為地方和鄉親打拼。\n二、縣市合併，鄉鎮行政劃改制為區，未來將於岡山、燕巢、橋頭、梓官、彌陀、永安區設立服務處，服務鄉親。\n三、爭取學童營養午餐免費。\n四、建議警政單位成立專責巡邏的警力，強化社區治安維護。\n五、以BOT的方式強化，提升社區監視器功能，建構治安無死角的社區環境。\n六、要求市政府於各區公所設立就業諮詢、服務中心，提供鄉親完整、迅速的就業資訊。\n七、爭取提升老人、婦女、殘障朋友、單親家庭、中低收入戶等弱勢族群的福利。\n八、要求全面改善易淹水地區的水患，讓地方脫離淹水的夢魘。\n九、全力為農、漁民鄉親爭取權益，主張市政府應建立完善產銷制度，未來農業局應致力發展農漁業、提升農漁民收益。\n十、監督高市捷運如期興建完成R24岡山捷運站，更應在岡山區六鄉鎮建構完善、便捷的捷運接駁車交通。\n十一、主張打造岡山為北高雄地區的科技、環保、產業重鎮、拼經濟、創造繁榮、提升勞工朋友就業率。\n十二、加速燕巢大學城開發進程，繁榮地方。\n十三、加速建設橋頭新市鎮、於新市鎮設立第二市政行政中心。\n十四、完整規劃梓官、彌陀、永安等海岸線觀光休閒設施，全面發展海洋觀光產業，同時致力帶動當地漁業發展，造福漁民鄉親。","param":{"bills_role_statistics":{"total":69,"priproposer":55,"sponsor":55,"cosponsor":14},"diversity":{"中國國民黨":0.7198067632850241,"民主進步黨":0.011594202898550725,"親民黨":0.0,"無黨籍":0.26859903381642497},"suggestions_years":{"count":51,"sum":12242966,"years":[{"count":51,"sum":12242966,"suggest_year":"2011","small_purchase":32}]},"attendance_statistics":{"absent":0,"total":107},"suggestions_associations":[{"count":7,"sum":556336,"label":"社區發展協會"},{"count":0,"sum":0,"label":"學會"},{"count":0,"sum":0,"label":"商會"},{"count":0,"sum":0,"label":"公會"},{"count":0,"sum":0,"label":"協進會"},{"count":0,"sum":0,"label":"促進會"},{"count":0,"sum":0,"label":"研習會"},{"count":0,"sum":0,"label":"婦聯會"},{"count":0,"sum":0,"label":"婦女會"},{"count":0,"sum":0,"label":"體育會"},{"count":0,"sum":0,"label":"同心會"},{"count":0,"sum":0,"label":"農會"},{"count":0,"sum":0,"label":"早起會"},{"count":0,"sum":0,"label":"健身會"},{"count":0,"sum":0,"label":"宗親會"},{"count":0,"sum":0,"label":"功德會"},{"count":0,"sum":0,"label":"商業會"},{"count":0,"sum":0,"label":"長青會"},{"count":0,"sum":0,"label":"民眾服務社"},{"count":0,"sum":0,"label":"聯盟"}],"bills_party_diversity":null,"suggestions_piles":[{"count":20,"tokens":"國中|國小","sum":4142747,"label":"國中、國小"},{"count":2,"tokens":"警察局|分局","sum":1605700,"label":"警察局"},{"count":7,"tokens":"協會|學會|商會|公會|協進會|促進會|研習會|婦聯會|婦女會|體育會|同心會|農會|早起會|健身會|宗親會|功德會|商業會|長青會|民眾服務社|聯盟","sum":556336,"label":"協會"},{"count":1,"tokens":"辦公室|辦公處","sum":490062,"label":"辦公室"},{"count":0,"tokens":"廟|宮","sum":0,"label":"廟"},{"count":0,"tokens":"消防局|消防隊|分隊|中隊","sum":0,"label":"消防局"}]},"councilor":"11a18f3ec8ee48f492861a5916a0d2df"}],"uid":"11a18f3ec8ee48f492861a5916a0d2df","name":"曾水文","birth":null,"former_names":"","identifiers":["曽水文","曾水文"]},{"url":"http://councils.g0v.tw/api/councilors/663/","each_terms":[{"url":"http://councils.g0v.tw/api/councilors_terms/1178/","election_year":"1994","name":"朱永惠","gender":"","party":"","title":"議員","constituency":5,"county":"新北市","district":"三重市、蘆洲鄉","in_office":true,"contact_details":null,"term_start":"1994-03-01","term_end":{"date":"1998-02-28"},"education":"文化大學法律系畢業","experience":"尤清監察委員國會助理\n臺北縣政府勞工教育委員\n立委盧修一法律服務顧問\n民進黨臺北縣黨部第3、5屆執行委員\n臺北縣議會第13屆議員","remark":null,"image":"http://www.ntp.gov.tw/UpFile/CouncilorFile/TTCC1336.jpg","links":[{"url":"http://www.ntp.gov.tw/content/history/history01-5-p.aspx?sid=466","note":"議會個人官網"}],"social_media":null,"platform":"","param":null,"councilor":"d5104e77a93245078064e7eae9f0b0b3"}],"uid":"d5104e77a93245078064e7eae9f0b0b3","name":"朱永惠","birth":null,"former_names":"","identifiers":["朱永惠"]},{"url":"http://councils.g0v.tw/api/councilors/426/","each_terms":[{"url":"http://councils.g0v.tw/api/councilors_terms/764/","election_year":"2010","name":"許福森","gender":"","party":"中國國民黨","title":"議員","constituency":3,"county":"高雄市","district":"永安區、岡山區、燕巢區、彌陀區、梓官區、橋頭區","in_office":true,"contact_details":[{"type":"voice","value":"6213312","label":"傳真"},{"type":"fax","value":"6240146","label":"傳真"},{"type":"address","value":"820岡山區岡山里平和路8號","label":"通訊處"}],"term_start":"2010-12-25","term_end":{"date":"2014-12-25"},"education":"高中畢","experience":"一、岡山調解會主席。\n二、岡山第十四屆代表會主席。\n三、高雄縣第十三、十四、十五屆縣議員。\n四、高雄縣第十四、十五屆議長。\n五、心橋殘障協會榮譽理事長。\n六、岡山義消中隊顧問。\n七、大崗山獅子會。\n八、岡山扶輪社職業服務委員。\n九、高雄縣總工會理事長。\n十、義守大學進修部。","remark":null,"image":"http://www.kcc.gov.tw/Upload/PeriodMembers/0701009.jpg","links":[{"url":"http://www.kcc.gov.tw/PeriodMembers/Introduction.aspx?KeyID=9","note":"議會個人官網"}],"social_media":null,"platform":"一、加強岡山及大遼區域重點排水整治力促完成。\n二、阿公店溪全域排水系統之清理整治應限期完成，讓區域居民永除水患。\n三、高雄捷運R24站(岡山站)落實建置完成。\n四、積極開發橋頭新市鎮，促成新都行政中心遷建本區。\n五、全面招商，謀造民眾就業機會。\n六、推動精緻農、漁業並協助農、漁產品銷售。\n七、推展新都觀光產業、教育、文化之提振。\n八、弱勢民眾、老人福利及就業之保障及提昇。\n九、優生養、教育工作應儘速落實。\n十、力促老舊社區更新、提昇農村居住品質。\n十一、推動「新都」行政區域之整併期能順利完成。\n上列各點是為現階段之部份工作抱負；人生以服務為目的，期盼在爾後的歲月中竭盡所能為鄉親作最完美的服務。讓「新都」的建設突飛猛進，成為全國首善之都。","param":{"bills_role_statistics":{"total":16,"priproposer":4,"sponsor":4,"cosponsor":12},"votes_decision_statistics":{"abstain":0,"disagree":0,"not_voting":0,"total":3,"agree":3,"conflict":0},"diversity":{"中國國民黨":0.9407407407407408,"民主進步黨":0.0,"親民黨":0.022222222222222223,"無黨籍":0.037037037037037035},"suggestions_years":{"count":51,"sum":34650323,"years":[{"count":11,"sum":13482922,"suggest_year":"2011","small_purchase":2},{"count":15,"sum":6654041,"suggest_year":"2012","small_purchase":1},{"count":16,"sum":12535330,"suggest_year":"2013","small_purchase":0},{"count":9,"sum":1978030,"suggest_year":"2014","small_purchase":4}]},"attendance_statistics":{"absent":1,"total":392},"suggestions_associations":[{"count":2,"sum":228000,"label":"社區發展協會"},{"count":0,"sum":0,"label":"學會"},{"count":0,"sum":0,"label":"商會"},{"count":0,"sum":0,"label":"公會"},{"count":0,"sum":0,"label":"協進會"},{"count":0,"sum":0,"label":"促進會"},{"count":0,"sum":0,"label":"研習會"},{"count":0,"sum":0,"label":"婦聯會"},{"count":0,"sum":0,"label":"婦女會"},{"count":0,"sum":0,"label":"體育會"},{"count":0,"sum":0,"label":"同心會"},{"count":0,"sum":0,"label":"農會"},{"count":0,"sum":0,"label":"早起會"},{"count":0,"sum":0,"label":"健身會"},{"count":0,"sum":0,"label":"宗親會"},{"count":0,"sum":0,"label":"功德會"},{"count":0,"sum":0,"label":"商業會"},{"count":0,"sum":0,"label":"長青會"},{"count":0,"sum":0,"label":"民眾服務社"},{"count":0,"sum":0,"label":"聯盟"}],"bills_party_diversity":[{"party":"中國國民黨","ratio":0.6722689075630253},{"party":"民主進步黨","ratio":0.2184873949579832},{"party":"無黨籍","ratio":0.06722689075630252},{"party":"親民黨","ratio":0.04201680672268908}],"suggestions_piles":[{"count":7,"tokens":"警察局|分局","sum":4043370,"label":"警察局"},{"count":4,"tokens":"國中|國小","sum":2042452,"label":"國中、國小"},{"count":2,"tokens":"辦公室|辦公處","sum":593000,"label":"辦公室"},{"count":2,"tokens":"協會|學會|商會|公會|協進會|促進會|研習會|婦聯會|婦女會|體育會|同心會|農會|早起會|健身會|宗親會|功德會|商業會|長青會|民眾服務社|聯盟","sum":228000,"label":"協會"},{"count":1,"tokens":"廟|宮","sum":0,"label":"廟"},{"count":0,"tokens":"消防局|消防隊|分隊|中隊","sum":0,"label":"消防局"}]},"councilor":"185dab5147b8444a9c7a2b1fa974d89d"}],"uid":"185dab5147b8444a9c7a2b1fa974d89d","name":"許福森","birth":null,"former_names":"","identifiers":["許褔森","許福森"]},{"url":"http://councils.g0v.tw/api/councilors/428/","each_terms":[{"url":"http://councils.g0v.tw/api/councilors_terms/766/","election_year":"2010","name":"蘇琦莉","gender":"","party":"中國國民黨","title":"議員","constituency":2,"county":"高雄市","district":"茄定區、湖內區、路竹區、阿蓮區、田寮區","in_office":true,"contact_details":[{"type":"voice","value":"6075688","label":"傳真"},{"type":"fax","value":"6075987","label":"傳真"},{"type":"address","value":"821路竹區中山路811號","label":"通訊處"}],"term_start":"2010-12-25","term_end":{"date":"2014-12-25"},"education":"一、臺南市私立聖功女子中學畢業。\n二、中華大學建築與都市計畫學士。\n三、美國紐約長島大學語言教學碩士。","experience":"一、高雄縣議會第16屆縣議員。\n二、高雄縣路竹鄉救國團顧問。\n三、高雄縣社會青年工作協會常務監事。\n四、路竹鄉武功（蘇氏）宗親會常務理事。\n五、高雄縣政府消防局路竹義消分隊顧問。","remark":null,"image":"http://www.kcc.gov.tw/Upload/PeriodMembers/0701007.jpg","links":[{"url":"http://www.kcc.gov.tw/PeriodMembers/Introduction.aspx?KeyID=7","note":"議會個人官網"}],"social_media":null,"platform":"一、落實辦理全民社會福利，督促政府照顧身心障礙、弱勢族群，提供救助管道，並加強老人、兒童福利。\n二、促進婦女參與社會活動，保障婦女權益與安全，推動兩性平權，並發放婦女生育補助津貼。\n三、消除教育亂象，建立優質教育環境，改善校園與教室設備。\n四、強化治安工作，全面推動重要路口監視系統，使e社區化。\n五、促進農漁民福利，推動農漁民政策，推動地方農業休閒活動。\n六、加強路竹科學園區開發及招商，以增加就業機會，並要求路竹科學園區廠商聘用在地子弟。\n七、積極督促政府儘快延伸高雄捷運到路竹、湖內，闢建阿蓮至路竹科學園區的聯絡道路，以提昇交通便利性，促進區域繁榮。\n八、推動二仁溪整治計劃，防範污染與淹水；儘速改善排水問題，徹底解決低窪地區排水不佳的問題，提昇居民生活品質。\n九、敦促發展觀光，整合茄萣情人碼頭、湖內自行車道、路竹科學園區、阿蓮宗教文化園區及田寮月世界觀光資源，整體行銷創造商\n機。\n十、要求鄉鎮現有各項回饋金專款專用於地方建設與鄉鎮民福利，不由政府統籌運用。","param":{"bills_role_statistics":{"total":110,"priproposer":23,"sponsor":23,"cosponsor":87},"votes_decision_statistics":{"abstain":0,"disagree":0,"not_voting":0,"total":3,"agree":3,"conflict":0},"diversity":{"中國國民黨":0.9674242424242423,"民主進步黨":0.0,"親民黨":0.0,"無黨籍":0.03257575757575758},"suggestions_years":{"count":49,"sum":36772321,"years":[{"count":7,"sum":12068348,"suggest_year":"2011","small_purchase":1},{"count":16,"sum":12532836,"suggest_year":"2012","small_purchase":2},{"count":15,"sum":12171137,"suggest_year":"2013","small_purchase":1},{"count":11,"sum":0,"suggest_year":"2014","small_purchase":10}]},"attendance_statistics":{"absent":0,"total":392},"suggestions_associations":[{"count":3,"sum":270000,"label":"社區發展協會"},{"count":0,"sum":0,"label":"學會"},{"count":0,"sum":0,"label":"商會"},{"count":0,"sum":0,"label":"公會"},{"count":0,"sum":0,"label":"協進會"},{"count":0,"sum":0,"label":"促進會"},{"count":0,"sum":0,"label":"研習會"},{"count":0,"sum":0,"label":"婦聯會"},{"count":0,"sum":0,"label":"婦女會"},{"count":0,"sum":0,"label":"體育會"},{"count":0,"sum":0,"label":"同心會"},{"count":0,"sum":0,"label":"農會"},{"count":0,"sum":0,"label":"早起會"},{"count":0,"sum":0,"label":"健身會"},{"count":0,"sum":0,"label":"宗親會"},{"count":0,"sum":0,"label":"功德會"},{"count":0,"sum":0,"label":"商業會"},{"count":0,"sum":0,"label":"長青會"},{"count":0,"sum":0,"label":"民眾服務社"},{"count":0,"sum":0,"label":"聯盟"}],"bills_party_diversity":[{"party":"中國國民黨","ratio":0.9142857142857143},{"party":"民主進步黨","ratio":0.05714285714285714},{"party":"無黨籍","ratio":0.023809523809523808},{"party":"親民黨","ratio":0.0047619047619047615}],"suggestions_piles":[{"count":10,"tokens":"國中|國小","sum":11482600,"label":"國中、國小"},{"count":9,"tokens":"警察局|分局","sum":4631000,"label":"警察局"},{"count":3,"tokens":"廟|宮","sum":1554000,"label":"廟"},{"count":3,"tokens":"協會|學會|商會|公會|協進會|促進會|研習會|婦聯會|婦女會|體育會|同心會|農會|早起會|健身會|宗親會|功德會|商業會|長青會|民眾服務社|聯盟","sum":270000,"label":"協會"},{"count":2,"tokens":"辦公室|辦公處","sum":218000,"label":"辦公室"},{"count":0,"tokens":"消防局|消防隊|分隊|中隊","sum":0,"label":"消防局"}]},"councilor":"2679d34eb82948e088791036207aabb6"}],"uid":"2679d34eb82948e088791036207aabb6","name":"蘇琦莉","birth":null,"former_names":"","identifiers":["蘇琦莉"]},{"url":"http://councils.g0v.tw/api/councilors/461/","each_terms":[{"url":"http://councils.g0v.tw/api/councilors_terms/807/","election_year":"1973","name":"何新傳","gender":"","party":"","title":"議員","constituency":4,"county":"新北市","district":"三重市","in_office":true,"contact_details":null,"term_start":"1973-05-01","term_end":{"date":"1977-12-29"},"education":"工職補習學校畢\n省立北一工程機械科畢","experience":"臺北縣基層建設工作小組委員\n議會第四審查會召集人\n義消大隊總幹事\n義警大隊顧問\n足球委員會主委\n三重市農會常務監事\n中華民國汽車駕駛教育學會理事\n臺北縣議會第7、8、9、10屆議員\n*民國78年歿","remark":null,"image":"http://www.ntp.gov.tw/UpFile/CouncilorFile/TTCC0732.jpg","links":[{"url":"http://www.ntp.gov.tw/content/history/history01-5-p.aspx?sid=286","note":"議會個人官網"}],"social_media":null,"platform":"","param":null,"councilor":"85c9d67d34694d1ca95618e6bf9f9847"},{"url":"http://councils.g0v.tw/api/councilors_terms/866/","election_year":"1968","name":"何新傳","gender":"","party":"","title":"議員","constituency":4,"county":"新北市","district":"三重市","in_office":true,"contact_details":null,"term_start":"1968-02-21","term_end":{"date":"1973-04-30"},"education":"工職補習學校畢\n省立北一工程機械科畢","experience":"臺北縣基層建設工作小組委員\n議會第四審查會召集人\n義消大隊總幹事\n義警大隊顧問\n足球委員會主委\n三重市農會常務監事\n中華民國汽車駕駛教育學會理事\n臺北縣議會第7、8、9、10屆議員\n*民國78年歿","remark":null,"image":"http://www.ntp.gov.tw/UpFile/CouncilorFile/TTCC0732.jpg","links":[{"url":"http://www.ntp.gov.tw/content/history/history01-5-p.aspx?sid=286","note":"議會個人官網"}],"social_media":null,"platform":"","param":null,"councilor":"85c9d67d34694d1ca95618e6bf9f9847"},{"url":"http://councils.g0v.tw/api/councilors_terms/924/","election_year":"1977","name":"何新傳","gender":"","party":"","title":"議員","constituency":3,"county":"新北市","district":"三重市、新莊鎮、泰山鄉、五股鄉、蘆洲鄉、林口鄉","in_office":true,"contact_details":null,"term_start":"1977-12-30","term_end":{"date":"1982-02-28"},"education":"工職補習學校畢\n省立北一工程機械科畢","experience":"臺北縣基層建設工作小組委員\n議會第四審查會召集人\n義消大隊總幹事\n義警大隊顧問\n足球委員會主委\n三重市農會常務監事\n中華民國汽車駕駛教育學會理事\n臺北縣議會第7、8、9、10屆議員\n*民國78年歿","remark":null,"image":"http://www.ntp.gov.tw/UpFile/CouncilorFile/TTCC0732.jpg","links":[{"url":"http://www.ntp.gov.tw/content/history/history01-5-p.aspx?sid=286","note":"議會個人官網"}],"social_media":null,"platform":"","param":null,"councilor":"85c9d67d34694d1ca95618e6bf9f9847"},{"url":"http://councils.g0v.tw/api/councilors_terms/1046/","election_year":"1982","name":"何新傳","gender":"","party":"","title":"議員","constituency":4,"county":"新北市","district":"三重市、蘆洲鄉","in_office":true,"contact_details":null,"term_start":"1982-03-01","term_end":{"date":"1986-02-28"},"education":"工職補習學校畢\n省立北一工程機械科畢","experience":"臺北縣基層建設工作小組委員\n議會第四審查會召集人\n義消大隊總幹事\n義警大隊顧問\n足球委員會主委\n三重市農會常務監事\n中華民國汽車駕駛教育學會理事\n臺北縣議會第7、8、9、10屆議員\n*民國78年歿","remark":null,"image":"http://www.ntp.gov.tw/UpFile/CouncilorFile/TTCC0732.jpg","links":[{"url":"http://www.ntp.gov.tw/content/history/history01-5-p.aspx?sid=286","note":"議會個人官網"}],"social_media":null,"platform":"","param":null,"councilor":"85c9d67d34694d1ca95618e6bf9f9847"}],"uid":"85c9d67d34694d1ca95618e6bf9f9847","name":"何新傳","birth":null,"former_names":"","identifiers":["何新傳"]},{"url":"http://councils.g0v.tw/api/councilors/1454/","each_terms":[{"url":"http://councils.g0v.tw/api/councilors_terms/2380/","election_year":"2009","name":"鄭怡信","gender":"男","party":"中國國民黨","title":"","constituency":6,"county":"基隆市","district":"暖暖區","in_office":true,"contact_details":[{"type":"email","value":"tel24583591@yahoo.com.tw","label":"電子信箱"},{"type":"voice","value":"(02) 2458-3591","label":"電話"},{"type":"fax","value":"(02) 2458-1014","label":"傳真"},{"type":"address","value":"基隆市暖暖街87號4樓","label":"通訊處"}],"term_start":"2009-12-25","term_end":{"date":"2014-12-25"},"education":"．台北商業技術學院企管科","experience":"．國民黨暖暖區民眾服務社理事長\n．暖暖區體育會理事長\n．救國團團務委員會暖暖區會長\n．暖暖區衛生促進委員會主任委員\n．暖暖國小、暖暖中學家長會長\n．基隆市家長聯合會總會長、\n．基隆第14、15、16、17屆市議員","remark":null,"image":"http://www.kmc.gov.tw/kmcii/images/councillor_026.gif","links":[{"url":"http://www.kmc.gov.tw/KMCII/coun_info_26.aspx","note":"議會個人官網"}],"social_media":null,"platform":"怡信在經歷一場惡質選舉的過程後，雖然耗費了一年的時間，最後司法維持了社會正義，讓結果回歸到\n正確，也印證我所堅持乾淨選舉的理念，捍衛清白的人格是對的。\n\n這一年來，怡信更積極、沒有喪志，仍然秉持過去12年來的服務精神和理念，繼續在基層從事服務的\n工作，熱忱也從未減退，感謝我的競選團隊和鄉親，在過去這一年來給怡信精神的支持和鼓勵，讓\n怡信有綿延不斷的動力，堅持下去。\n\n為了暖暖的鄉親，為了暖暖的未來，怡信不會忘記當年所許下服務與建設的初衷，在第17屆議員未來的\n任期中，怡信將帶著選民的聲音一起進入議會，盡我所能，奉獻心力，完成鄉親的付託，我服務處的\n大門是永遠敞開的，我的競選政見與承諾也將隨著我的就職，即刻逐步去推動，乃至達成。\n\n心存正代，天佑基隆，怡信感恩。\n","param":{"suggestions_years":{"count":2,"sum":2373333,"years":[{"count":2,"sum":2373333,"suggest_year":"2014","small_purchase":0}]},"suggestions_associations":[{"count":0,"sum":0,"label":"社區發展協會"},{"count":0,"sum":0,"label":"學會"},{"count":0,"sum":0,"label":"商會"},{"count":0,"sum":0,"label":"公會"},{"count":0,"sum":0,"label":"協進會"},{"count":0,"sum":0,"label":"促進會"},{"count":0,"sum":0,"label":"研習會"},{"count":0,"sum":0,"label":"婦聯會"},{"count":0,"sum":0,"label":"婦女會"},{"count":0,"sum":0,"label":"體育會"},{"count":0,"sum":0,"label":"同心會"},{"count":0,"sum":0,"label":"農會"},{"count":0,"sum":0,"label":"早起會"},{"count":0,"sum":0,"label":"健身會"},{"count":0,"sum":0,"label":"宗親會"},{"count":0,"sum":0,"label":"功德會"},{"count":0,"sum":0,"label":"商業會"},{"count":0,"sum":0,"label":"長青會"},{"count":0,"sum":0,"label":"民眾服務社"},{"count":0,"sum":0,"label":"聯盟"}],"suggestions_piles":[{"count":2,"tokens":"國中|國小","sum":2373333,"label":"國中、國小"},{"count":0,"tokens":"協會|學會|商會|公會|協進會|促進會|研習會|婦聯會|婦女會|體育會|同心會|農會|早起會|健身會|宗親會|功德會|商業會|長青會|民眾服務社|聯盟","sum":0,"label":"協會"},{"count":0,"tokens":"辦公室|辦公處","sum":0,"label":"辦公室"},{"count":0,"tokens":"廟|宮","sum":0,"label":"廟"},{"count":0,"tokens":"警察局|分局","sum":0,"label":"警察局"},{"count":0,"tokens":"消防局|消防隊|分隊|中隊","sum":0,"label":"消防局"}]},"councilor":"d4f2ed1440ad449f8bb67f89d59e5c2b"}],"uid":"d4f2ed1440ad449f8bb67f89d59e5c2b","name":"鄭怡信","birth":"1955-12-26","former_names":"","identifiers":["鄭怡信"]}]}