{"count":1904,"next":"http://councils.g0v.tw/api/councilors/?page=60","previous":"http://councils.g0v.tw/api/councilors/?page=58","results":[{"url":"http://councils.g0v.tw/api/councilors/1455/","each_terms":[{"url":"http://councils.g0v.tw/api/councilors_terms/2381/","election_year":"2009","name":"黃景泰","gender":"男","party":"中國國民黨","title":"","constituency":6,"county":"基隆市","district":"暖暖區","in_office":true,"contact_details":[{"type":"email","value":"15806@kmc.gov.tw","label":"電子信箱"},{"type":"voice","value":"(02) 2457-6701","label":"電話"},{"type":"fax","value":"(02) 2457-0950","label":"傳真"},{"type":"address","value":"基隆市源遠路262號","label":"通訊處"}],"term_start":"2009-12-25","term_end":{"date":"2014-12-25"},"education":"．國立政治大學法學碩士","experience":"．基隆市議會第13、14、15、16屆市議員\n．政院研考會研究助理\n．立法院國會助理\n．基隆市退伍軍人協會理事長\n．中國國民黨雙十園雜誌社編輯\n．長青志工、義警、義消、民防、巡守隊、社區發展協會…\n等、服務性社團顧問","remark":null,"image":"http://www.kmc.gov.tw/kmcii/images/councillor_025.gif","links":[{"url":"http://www.kmc.gov.tw/KMCII/coun_info_25.aspx","note":"議會個人官網"}],"social_media":null,"platform":"．強烈要求政府早日完成「捷運延伸基隆」政策，提供市民便捷、舒適的交通運輸工具。\n．持續推動「闔家歡健康檢查」，提供市民充分健康資訊，加強婦女、兒童、殘障及老人福利工作，打造健康福利城。\n．爭取免費「營養午餐」、試辦「營養早餐」、推動「書包減重」、充實「學校圖書館書籍」，改善軟、硬體教學設施，提供優質學習教學環境。\n．落實「馬路要平、路燈要亮、水溝要通」「三要政策」提昇市民生活居住品質。\n．                      繼續成立「平民法律服務中心」，保障市民權益，伸張社會公義。\n．落實整合監視器系統，打造電子巡邏城，消滅治安死角，保障市民生命財產安全。\n．建請政府修訂「公寓大廈管理條例」，針對封閉型社區大樓的消防安全及相關公共設施放寬補助標準，提供安全優質的生活空間。\n．改造暖暖運動公園，加速完成荖寮坑礦業博物生態園區，爭取設立河川自來水博物館，串連自行車步道及三座景觀吊橋，使暖暖區成為宜山、宜水的宜居城。\n．監督市府儘速將「暖暖高中重建工程」早日完工，提供學生繼碇內國中、暖西國小後又一全新教學環境。\n","param":null,"councilor":"308f98ece65943de86e45c4f8ce2833e"}],"uid":"308f98ece65943de86e45c4f8ce2833e","name":"黃景泰","birth":"1965-11-05","former_names":"","identifiers":["黃景泰","黄景泰"]},{"url":"http://councils.g0v.tw/api/councilors/1466/","each_terms":[{"url":"http://councils.g0v.tw/api/councilors_terms/2392/","election_year":"2009","name":"沈義傳","gender":"男","party":"中國國民黨","title":"","constituency":5,"county":"基隆市","district":"安樂區","in_office":true,"contact_details":[{"type":"email","value":"15706@kmc.gov.tw","label":"電子信箱"},{"type":"voice","value":"(02) 2426-9955","label":"電話"},{"type":"fax","value":"(02) 2425-6298","label":"傳真"},{"type":"address","value":"基隆市安一路348-24號4樓","label":"通訊處"}],"term_start":"2009-12-25","term_end":{"date":"2014-12-25"},"education":"．初中","experience":"．里長\n．社區發展協會理事長\n．救國團安樂區團委會會長\n．義消安樂中隊中隊長\n．安樂區體育會理事長\n．安樂區民眾服務社理事長\n．基隆市第十四、十五、十六屆市議員\n．現任基隆市議會中國國民黨黨團書記長","remark":null,"image":"http://www.kmc.gov.tw/kmcii/images/councillor_018.gif","links":[{"url":"http://www.kmc.gov.tw/KMCII/coun_info_18.aspx","note":"議會個人官網"}],"social_media":null,"platform":"．爭取建設鶯歌溪沿岸休憩步道及美化綠地，打造永續及優質社區環境。\n．督促市府爭取台北捷運延申基隆，建構城際間便捷運輸。\n．促請市府持續關心老人身障、照護弱勢族群，強化婦幼福利、落實家庭照顧。\n．促請市府老舊建築物防漏、拉皮及臨市區都更案之推動。\n．督促市府做好易淹水地區、低窪地區排水設施之改善。\n．促請市府將空地空屋拆除、高架道路下方增闢停車場。\n．促請市府在安樂區設置砲台展示館。\n．促請市長以更大格局和勇氣來面對城鄉差距的變化，加速安樂區景觀改造，營朔繽紛、有特色之城區建設。\n．促請市長儘速進行基金公路通台北縣萬里外環道路興建，以解決塞車之苦。\n．促請市長將仁愛之家擴大為社會福利園區，以彰顯照顧老人之決心。\n．促請市長編列預算爭取壯觀、武崙、新崙、鶯安里里民會堂新建，以增進與民互動情感。\n．促請市長重視節能減碳，支持綠化政策。\n","param":{"suggestions_years":{"count":4,"sum":2133000,"years":[{"count":4,"sum":2133000,"suggest_year":"2014","small_purchase":1}]},"suggestions_associations":[{"count":0,"sum":0,"label":"社區發展協會"},{"count":0,"sum":0,"label":"學會"},{"count":0,"sum":0,"label":"商會"},{"count":0,"sum":0,"label":"公會"},{"count":0,"sum":0,"label":"協進會"},{"count":0,"sum":0,"label":"促進會"},{"count":0,"sum":0,"label":"研習會"},{"count":0,"sum":0,"label":"婦聯會"},{"count":0,"sum":0,"label":"婦女會"},{"count":0,"sum":0,"label":"體育會"},{"count":0,"sum":0,"label":"同心會"},{"count":0,"sum":0,"label":"農會"},{"count":0,"sum":0,"label":"早起會"},{"count":0,"sum":0,"label":"健身會"},{"count":0,"sum":0,"label":"宗親會"},{"count":0,"sum":0,"label":"功德會"},{"count":0,"sum":0,"label":"商業會"},{"count":0,"sum":0,"label":"長青會"},{"count":0,"sum":0,"label":"民眾服務社"},{"count":0,"sum":0,"label":"聯盟"}],"suggestions_piles":[{"count":1,"tokens":"消防局|消防隊|分隊|中隊","sum":400000,"label":"消防局"},{"count":1,"tokens":"國中|國小","sum":94000,"label":"國中、國小"},{"count":0,"tokens":"協會|學會|商會|公會|協進會|促進會|研習會|婦聯會|婦女會|體育會|同心會|農會|早起會|健身會|宗親會|功德會|商業會|長青會|民眾服務社|聯盟","sum":0,"label":"協會"},{"count":0,"tokens":"辦公室|辦公處","sum":0,"label":"辦公室"},{"count":0,"tokens":"廟|宮","sum":0,"label":"廟"},{"count":0,"tokens":"警察局|分局","sum":0,"label":"警察局"}]},"councilor":"04c29c04b04d41be983be7604137e240"}],"uid":"04c29c04b04d41be983be7604137e240","name":"沈義傳","birth":"1949-04-08","former_names":"","identifiers":["沈義傳"]},{"url":"http://councils.g0v.tw/api/councilors/1467/","each_terms":[{"url":"http://councils.g0v.tw/api/councilors_terms/2393/","election_year":"2009","name":"蔡適應","gender":"男","party":"民主進步黨","title":"","constituency":5,"county":"基隆市","district":"安樂區","in_office":true,"contact_details":[{"type":"email","value":"office@tsy-taiwan.idv.tw","label":"電子信箱"},{"type":"voice","value":"(02) 2431-0070","label":"電話"},{"type":"fax","value":"(02) 2431-0071","label":"傳真"},{"type":"address","value":"基隆市基金一路135巷21弄2-1號","label":"通訊處"}],"term_start":"2009-12-25","term_end":{"date":"2014-12-25"},"education":"．國立台北大學 都市計劃研究所博士班\n．淡江大學 國際事務與戰略研究所碩士\n．台灣師範大學 國家發展碩士學分班\n．東海大學政治系國際關係組 學士\n．陸軍指職軍官班第一期","experience":"．前立委王拓服務處 副主任\n．基隆市議會民進黨黨團 召集人\n．經國管理暨健康學院 講師\n．基隆市觀光協會理事長\n．基隆市柯蔡宗親會\n．淡江大學校友會 理事\n．基隆市家扶中心，朝陽愛心社 助養人及贊助會員","remark":null,"image":"http://www.kmc.gov.tw/kmcii/images/councillor_017.gif","links":[{"url":"http://www.kmc.gov.tw/KMCII/coun_info_17.aspx","note":"議會個人官網"}],"social_media":null,"platform":"．嚴格監督市府預算執行，有未來：迄今基隆市舉債已突破90億元，反對預算浪費，債留子孫。97年基隆交．通違規取締件數高達20萬件，反對市府藉罰鍰變相徵稅。\n．推動基隆大眾運輸便捷，有方便：推動基金一、二、三路，麥金路等基隆市公車直達八堵、七堵車站。推動「綠色共乘網」，國道客運路權再開放，提升北基交通運量。推動基隆大眾運輸系統納入悠遊卡使用範圍。\n．關注基隆弱勢族群權益，有照顧：協助急難家庭爭取補助，包括中央、地方與民間團體等急難補助款。提案\n修改自治條例法納入更多老人免費健保補助，已自97年開始執行。\n．提昇城市生活品質，有幸福：推動安樂、國家新城、大武崙商圈營造並納入國旅卡使用範圍。支持大武崙工\n業區辦理招商，轉型觀光工廠。\n．打造觀光遊憩旅遊港都，有願景：爭取情人湖、外木山風景特定區成立並升格納入北海岸國家風景區。擔任\n基隆市觀光協會理事長，爭取外地觀光客來基隆旅遊。\n．爭取文化教育資源補助，有尊嚴：提案推動圖書館延長開放時間，已自97年開始執行。支持老舊教室改建\n，國小班級學生數降至25人。\n","param":{"suggestions_years":{"count":5,"sum":1530500,"years":[{"count":5,"sum":1530500,"suggest_year":"2014","small_purchase":2}]},"suggestions_associations":[{"count":0,"sum":0,"label":"社區發展協會"},{"count":0,"sum":0,"label":"學會"},{"count":0,"sum":0,"label":"商會"},{"count":0,"sum":0,"label":"公會"},{"count":0,"sum":0,"label":"協進會"},{"count":0,"sum":0,"label":"促進會"},{"count":0,"sum":0,"label":"研習會"},{"count":0,"sum":0,"label":"婦聯會"},{"count":0,"sum":0,"label":"婦女會"},{"count":0,"sum":0,"label":"體育會"},{"count":0,"sum":0,"label":"同心會"},{"count":0,"sum":0,"label":"農會"},{"count":0,"sum":0,"label":"早起會"},{"count":0,"sum":0,"label":"健身會"},{"count":0,"sum":0,"label":"宗親會"},{"count":0,"sum":0,"label":"功德會"},{"count":0,"sum":0,"label":"商業會"},{"count":0,"sum":0,"label":"長青會"},{"count":0,"sum":0,"label":"民眾服務社"},{"count":0,"sum":0,"label":"聯盟"}],"suggestions_piles":[{"count":3,"tokens":"國中|國小","sum":963000,"label":"國中、國小"},{"count":0,"tokens":"協會|學會|商會|公會|協進會|促進會|研習會|婦聯會|婦女會|體育會|同心會|農會|早起會|健身會|宗親會|功德會|商業會|長青會|民眾服務社|聯盟","sum":0,"label":"協會"},{"count":0,"tokens":"辦公室|辦公處","sum":0,"label":"辦公室"},{"count":0,"tokens":"廟|宮","sum":0,"label":"廟"},{"count":0,"tokens":"警察局|分局","sum":0,"label":"警察局"},{"count":0,"tokens":"消防局|消防隊|分隊|中隊","sum":0,"label":"消防局"}]},"councilor":"bead73fc53db484facfb27283e799cd5"},{"url":"http://councils.g0v.tw/api/councilors_terms/11536/","election_year":"2014","name":"蔡適應","gender":"男","party":"民主進步黨","title":null,"constituency":5,"county":"基隆市","district":"安樂區","in_office":false,"contact_details":null,"term_start":"2014-12-25","term_end":{"date":"2016-01-31","judicial_links":"","reason":"請辭，就任立委","ref":"","replacement":""},"education":null,"experience":null,"remark":null,"image":"","links":null,"social_media":null,"platform":"","param":{"attendance_statistics":{"absent":0,"total":66},"suggestions_years":{"count":9,"sum":4729000,"years":[{"count":4,"sum":2090000,"suggest_year":"2015","small_purchase":1},{"count":5,"sum":2639000,"suggest_year":"2016","small_purchase":3}]},"suggestions_associations":[{"count":0,"sum":0,"label":"社區發展協會"},{"count":0,"sum":0,"label":"學會"},{"count":0,"sum":0,"label":"商會"},{"count":0,"sum":0,"label":"公會"},{"count":0,"sum":0,"label":"協進會"},{"count":0,"sum":0,"label":"促進會"},{"count":0,"sum":0,"label":"研習會"},{"count":0,"sum":0,"label":"婦聯會"},{"count":0,"sum":0,"label":"婦女會"},{"count":0,"sum":0,"label":"體育會"},{"count":0,"sum":0,"label":"同心會"},{"count":0,"sum":0,"label":"農會"},{"count":0,"sum":0,"label":"早起會"},{"count":0,"sum":0,"label":"健身會"},{"count":0,"sum":0,"label":"宗親會"},{"count":0,"sum":0,"label":"功德會"},{"count":0,"sum":0,"label":"商業會"},{"count":0,"sum":0,"label":"長青會"},{"count":0,"sum":0,"label":"民眾服務社"},{"count":0,"sum":0,"label":"聯盟"}],"suggestions_piles":[{"count":5,"tokens":"國中|國小","sum":3417500,"label":"國中、國小"},{"count":0,"tokens":"協會|學會|商會|公會|協進會|促進會|研習會|婦聯會|婦女會|體育會|同心會|農會|早起會|健身會|宗親會|功德會|商業會|長青會|民眾服務社|聯盟","sum":0,"label":"協會"},{"count":0,"tokens":"辦公室|辦公處","sum":0,"label":"辦公室"},{"count":0,"tokens":"廟|宮","sum":0,"label":"廟"},{"count":0,"tokens":"警察局|分局","sum":0,"label":"警察局"},{"count":0,"tokens":"消防局|消防隊|分隊|中隊","sum":0,"label":"消防局"}],"bills_party_diversity":null},"councilor":"bead73fc53db484facfb27283e799cd5"}],"uid":"bead73fc53db484facfb27283e799cd5","name":"蔡適應","birth":"1973-06-14","former_names":"","identifiers":["蔡適應"]},{"url":"http://councils.g0v.tw/api/councilors/1512/","each_terms":[{"url":"http://councils.g0v.tw/api/councilors_terms/2438/","election_year":"2009","name":"盧同恊","gender":"男","party":"民主進步黨","title":"","constituency":4,"county":"屏東縣","district":"萬丹鄉、新園鄉、東港鎮","in_office":true,"contact_details":[{"type":"address","value":"屏東縣萬丹鄉91341萬丹路1段259號","label":"通訊處"},{"type":"voice","value":"08-7760667","label":"電話"}],"term_start":"2009-12-25","term_end":{"date":"2014-12-25"},"education":null,"experience":null,"remark":null,"image":"http://www.ptcc.gov.tw/upload/upimage/54ff77ce-2833-09eb-1fc0-c3f5f7399d77-S.jpg","links":[{"url":"http://www.ptcc.gov.tw/?Page=PersionalDetail&Guid=d4fe191a-bf42-4073-b1c3-58ea71552321","note":"議會個人官網"}],"social_media":null,"platform":"堅持台灣本土意識；追求社會公平正義，照顧弱勢農民勞工，以及殘障團體；提升屏東縣教育和文化水準；推動社區營造，活化社區文化產業；推動一鄉一特產，提升農民生活水準；建立祥和社會，提高問政品質。","param":{"suggestions_years":{"count":376,"sum":12988864,"years":[{"count":88,"sum":1800000,"suggest_year":"2011","small_purchase":88},{"count":110,"sum":3960000,"suggest_year":"2012","small_purchase":109},{"count":71,"sum":3767864,"suggest_year":"2013","small_purchase":67},{"count":107,"sum":3461000,"suggest_year":"2014","small_purchase":106}]},"suggestions_associations":[{"count":185,"sum":4138000,"label":"社區發展協會"},{"count":3,"sum":265000,"label":"農會"},{"count":10,"sum":235000,"label":"協進會"},{"count":6,"sum":180000,"label":"促進會"},{"count":2,"sum":40000,"label":"研習會"},{"count":1,"sum":20000,"label":"公會"},{"count":0,"sum":0,"label":"學會"},{"count":0,"sum":0,"label":"商會"},{"count":0,"sum":0,"label":"婦聯會"},{"count":0,"sum":0,"label":"婦女會"},{"count":0,"sum":0,"label":"體育會"},{"count":0,"sum":0,"label":"同心會"},{"count":0,"sum":0,"label":"早起會"},{"count":0,"sum":0,"label":"健身會"},{"count":0,"sum":0,"label":"宗親會"},{"count":0,"sum":0,"label":"功德會"},{"count":0,"sum":0,"label":"商業會"},{"count":0,"sum":0,"label":"長青會"},{"count":0,"sum":0,"label":"民眾服務社"},{"count":0,"sum":0,"label":"聯盟"}],"suggestions_piles":[{"count":280,"tokens":"協會|學會|商會|公會|協進會|促進會|研習會|婦聯會|婦女會|體育會|同心會|農會|早起會|健身會|宗親會|功德會|商業會|長青會|民眾服務社|聯盟","sum":7063000,"label":"協會"},{"count":26,"tokens":"國中|國小","sum":2014864,"label":"國中、國小"},{"count":13,"tokens":"消防局|消防隊|分隊|中隊","sum":520000,"label":"消防局"},{"count":13,"tokens":"廟|宮","sum":445000,"label":"廟"},{"count":7,"tokens":"警察局|分局","sum":140000,"label":"警察局"},{"count":0,"tokens":"辦公室|辦公處","sum":0,"label":"辦公室"}]},"councilor":"7ce8fde33a604d8bb510f0243a739cd1"}],"uid":"7ce8fde33a604d8bb510f0243a739cd1","name":"盧同恊","birth":null,"former_names":"","identifiers":["盧同恊"]},{"url":"http://councils.g0v.tw/api/councilors/1519/","each_terms":[{"url":"http://councils.g0v.tw/api/councilors_terms/2445/","election_year":"2009","name":"邱名璋","gender":"男","party":"民主進步黨","title":"","constituency":1,"county":"屏東縣","district":"屏東市","in_office":true,"contact_details":[{"type":"address","value":"屏東市900公園路89號","label":"通訊處"},{"type":"voice","value":"08-7332829","label":"電話"}],"term_start":"2009-12-25","term_end":{"date":"2014-12-25"},"education":null,"experience":null,"remark":null,"image":"http://www.ptcc.gov.tw/upload/upimage/49c97709-31a2-70e3-61a8-334b1f21821d-S.jpg","links":[{"url":"http://www.ptcc.gov.tw/?Page=PersionalDetail&Guid=4e3cc927-dc8b-9f7f-be8d-8f2f332e3971","note":"議會個人官網"}],"social_media":null,"platform":"選擇讓屏東更進步\n一、堅持公平正義，延續政見百分百兌現率。\n二、重視基層體育人才培育，活絡屏縣四級棒球培育機制。\n三、「愛心、細心」，關懷校園教育，保障婦幼福利。\n四、督促地方自治條例，重視交通改善，還路於民。\n五、監督基層建設進度，反映社區民眾心聲。\n六、結合文化創意概念，推動市區觀光產業。","param":{"suggestions_years":{"count":417,"sum":20300000,"years":[{"count":97,"sum":5294000,"suggest_year":"2011","small_purchase":92},{"count":116,"sum":5550000,"suggest_year":"2012","small_purchase":112},{"count":91,"sum":4373000,"suggest_year":"2013","small_purchase":88},{"count":113,"sum":5083000,"suggest_year":"2014","small_purchase":110}]},"suggestions_associations":[{"count":59,"sum":1195000,"label":"社區發展協會"},{"count":19,"sum":430000,"label":"協進會"},{"count":6,"sum":360000,"label":"體育會"},{"count":7,"sum":299000,"label":"學會"},{"count":12,"sum":290000,"label":"公會"},{"count":6,"sum":150000,"label":"促進會"},{"count":2,"sum":118000,"label":"宗親會"},{"count":5,"sum":100000,"label":"商會"},{"count":1,"sum":20000,"label":"研習會"},{"count":1,"sum":20000,"label":"功德會"},{"count":1,"sum":20000,"label":"商業會"},{"count":0,"sum":0,"label":"婦聯會"},{"count":0,"sum":0,"label":"婦女會"},{"count":0,"sum":0,"label":"同心會"},{"count":0,"sum":0,"label":"農會"},{"count":0,"sum":0,"label":"早起會"},{"count":0,"sum":0,"label":"健身會"},{"count":0,"sum":0,"label":"長青會"},{"count":0,"sum":0,"label":"民眾服務社"},{"count":0,"sum":0,"label":"聯盟"}],"suggestions_piles":[{"count":264,"tokens":"協會|學會|商會|公會|協進會|促進會|研習會|婦聯會|婦女會|體育會|同心會|農會|早起會|健身會|宗親會|功德會|商業會|長青會|民眾服務社|聯盟","sum":7264000,"label":"協會"},{"count":30,"tokens":"國中|國小","sum":1772000,"label":"國中、國小"},{"count":25,"tokens":"廟|宮","sum":1639000,"label":"廟"},{"count":11,"tokens":"警察局|分局","sum":250000,"label":"警察局"},{"count":11,"tokens":"消防局|消防隊|分隊|中隊","sum":220000,"label":"消防局"},{"count":2,"tokens":"辦公室|辦公處","sum":142000,"label":"辦公室"}]},"councilor":"75088a0eb5544b1b90113e40999a8383"}],"uid":"75088a0eb5544b1b90113e40999a8383","name":"邱名璋","birth":null,"former_names":"","identifiers":["邱名璋"]},{"url":"http://councils.g0v.tw/api/councilors/708/","each_terms":[{"url":"http://councils.g0v.tw/api/councilors_terms/1287/","election_year":"2002","name":"許春財","gender":"","party":"","title":"議員","constituency":8,"county":"新北市","district":"汐止鎮、金山鄉、萬里鄉","in_office":true,"contact_details":null,"term_start":"2002-03-01","term_end":{"date":"2006-02-28"},"education":"國立政治大學企管班肄業\n省立基隆高中畢\n金山初級中學畢\n金山國小","experience":"臺北縣議會第15屆縣議員\n金山鄉第12、13屆鄉長\n金山鄉第14屆鄉民代表\n基隆區後備憲兵副主任\n後備憲兵金山、萬里區主任、副總幹事","remark":null,"image":"http://www.ntp.gov.tw/UpFile/CouncilorFile/TTCC1553.jpg","links":[{"url":"http://www.ntp.gov.tw/content/history/history01-5-p.aspx?sid=522","note":"議會個人官網"}],"social_media":null,"platform":"","param":null,"councilor":"325dfdc2186c4c32bba7b149cf1c1df1"}],"uid":"325dfdc2186c4c32bba7b149cf1c1df1","name":"許春財","birth":null,"former_names":"","identifiers":["許春財"]},{"url":"http://councils.g0v.tw/api/councilors/709/","each_terms":[{"url":"http://councils.g0v.tw/api/councilors_terms/1288/","election_year":"2002","name":"唐有吉","gender":"","party":"","title":"議員","constituency":8,"county":"新北市","district":"汐止鎮、金山鄉、萬里鄉","in_office":true,"contact_details":null,"term_start":"2002-03-01","term_end":{"date":"2006-02-28"},"education":"培德高工畢業\n安樂國中畢業\n萬里國小畢業","experience":"臺北縣議會第16屆議員\n鄉民代表、鄉長、縣議員\n南華大學公研班結業\n是施政滿意度全縣第一名的鄉長\n是理性問政、強力監督的議員\n是內政部頒發救災獎章暨鳳凰獎的義消\n是國防部後備軍人楷模\n是全國好人好事代表八德獎得主\n是兩度獲頒華夏二等獎章的黨員\n是十步芳草光輝獎登錄人","remark":null,"image":"http://www.ntp.gov.tw/UpFile/CouncilorFile/TTCC1552.jpg","links":[{"url":"http://www.ntp.gov.tw/content/history/history01-5-p.aspx?sid=521","note":"議會個人官網"}],"social_media":null,"platform":"","param":null,"councilor":"7181dd02f73b4ee689c3611bcaccb493"},{"url":"http://councils.g0v.tw/api/councilors_terms/1350/","election_year":"2006","name":"唐有吉","gender":"","party":"","title":"議員","constituency":8,"county":"新北市","district":"汐止鎮、金山鄉、萬里鄉","in_office":true,"contact_details":null,"term_start":"2006-03-01","term_end":{"date":"2010-12-24"},"education":"培德高工畢業\n安樂國中畢業\n萬里國小畢業","experience":"臺北縣議會第16屆議員\n鄉民代表、鄉長、縣議員\n南華大學公研班結業\n是施政滿意度全縣第一名的鄉長\n是理性問政、強力監督的議員\n是內政部頒發救災獎章暨鳳凰獎的義消\n是國防部後備軍人楷模\n是全國好人好事代表八德獎得主\n是兩度獲頒華夏二等獎章的黨員\n是十步芳草光輝獎登錄人","remark":null,"image":"http://www.ntp.gov.tw/UpFile/CouncilorFile/TTCC1552.jpg","links":[{"url":"http://www.ntp.gov.tw/content/history/history01-5-p.aspx?sid=521","note":"議會個人官網"}],"social_media":null,"platform":"","param":null,"councilor":"7181dd02f73b4ee689c3611bcaccb493"}],"uid":"7181dd02f73b4ee689c3611bcaccb493","name":"唐有吉","birth":null,"former_names":"","identifiers":["唐有吉"]},{"url":"http://councils.g0v.tw/api/councilors/565/","each_terms":[{"url":"http://councils.g0v.tw/api/councilors_terms/974/","election_year":"1986","name":"呂子昌","gender":"","party":"","title":"議員","constituency":6,"county":"新北市","district":"淡水鎮、八里鄉、三芝鄉、石門鄉","in_office":true,"contact_details":null,"term_start":"1986-03-01","term_end":{"date":"1990-02-28"},"education":"淡水國小\n淡水國中\n十信高商\n東南工專","experience":"台北縣第10、11、12、13、14、15、16屆議員\n淡水信用合作社理事主席\n淡信慈善基金會董事長\n民主進步黨全國黨代表\n淡水正興宮管理委員會榮譽主任委員\n淡水清水巖管理委員會常務監察委員","remark":null,"image":"http://www.ntp.gov.tw/UpFile/CouncilorFile/TTCC1051.jpg","links":[{"url":"http://www.ntp.gov.tw/content/history/history01-5-p.aspx?sid=383","note":"議會個人官網"}],"social_media":null,"platform":"","param":null,"councilor":"44958488f913455ca37ad632c2622af8"},{"url":"http://councils.g0v.tw/api/councilors_terms/1031/","election_year":"1982","name":"呂子昌","gender":"","party":"","title":"議員","constituency":6,"county":"新北市","district":"淡水鎮、八里鄉、三芝鄉、石門鄉","in_office":true,"contact_details":null,"term_start":"1982-03-01","term_end":{"date":"1986-02-28"},"education":"淡水國小\n淡水國中\n十信高商\n東南工專","experience":"台北縣第10、11、12、13、14、15、16屆議員\n淡水信用合作社理事主席\n淡信慈善基金會董事長\n民主進步黨全國黨代表\n淡水正興宮管理委員會榮譽主任委員\n淡水清水巖管理委員會常務監察委員","remark":null,"image":"http://www.ntp.gov.tw/UpFile/CouncilorFile/TTCC1051.jpg","links":[{"url":"http://www.ntp.gov.tw/content/history/history01-5-p.aspx?sid=383","note":"議會個人官網"}],"social_media":null,"platform":"","param":null,"councilor":"44958488f913455ca37ad632c2622af8"},{"url":"http://councils.g0v.tw/api/councilors_terms/1099/","election_year":"1990","name":"呂子昌","gender":"","party":"","title":"議員","constituency":7,"county":"新北市","district":"淡水鎮、八里鄉、三芝鄉、石門鄉","in_office":true,"contact_details":null,"term_start":"1990-03-01","term_end":{"date":"1994-02-28"},"education":"淡水國小\n淡水國中\n十信高商\n東南工專","experience":"台北縣第10、11、12、13、14、15、16屆議員\n淡水信用合作社理事主席\n淡信慈善基金會董事長\n民主進步黨全國黨代表\n淡水正興宮管理委員會榮譽主任委員\n淡水清水巖管理委員會常務監察委員","remark":null,"image":"http://www.ntp.gov.tw/UpFile/CouncilorFile/TTCC1051.jpg","links":[{"url":"http://www.ntp.gov.tw/content/history/history01-5-p.aspx?sid=383","note":"議會個人官網"}],"social_media":null,"platform":"","param":null,"councilor":"44958488f913455ca37ad632c2622af8"},{"url":"http://councils.g0v.tw/api/councilors_terms/1165/","election_year":"1994","name":"呂子昌","gender":"","party":"","title":"議員","constituency":7,"county":"新北市","district":"淡水鎮、八里鄉、三芝鄉、石門鄉","in_office":true,"contact_details":null,"term_start":"1994-03-01","term_end":{"date":"1998-02-28"},"education":"淡水國小\n淡水國中\n十信高商\n東南工專","experience":"台北縣第10、11、12、13、14、15、16屆議員\n淡水信用合作社理事主席\n淡信慈善基金會董事長\n民主進步黨全國黨代表\n淡水正興宮管理委員會榮譽主任委員\n淡水清水巖管理委員會常務監察委員","remark":null,"image":"http://www.ntp.gov.tw/UpFile/CouncilorFile/TTCC1051.jpg","links":[{"url":"http://www.ntp.gov.tw/content/history/history01-5-p.aspx?sid=383","note":"議會個人官網"}],"social_media":null,"platform":"","param":null,"councilor":"44958488f913455ca37ad632c2622af8"},{"url":"http://councils.g0v.tw/api/councilors_terms/1225/","election_year":"1998","name":"呂子昌","gender":"","party":"","title":"議員","constituency":7,"county":"新北市","district":"淡水鎮、八里鄉、三芝鄉、石門鄉","in_office":true,"contact_details":null,"term_start":"1998-03-01","term_end":{"date":"2002-02-28"},"education":"淡水國小\n淡水國中\n十信高商\n東南工專","experience":"台北縣第10、11、12、13、14、15、16屆議員\n淡水信用合作社理事主席\n淡信慈善基金會董事長\n民主進步黨全國黨代表\n淡水正興宮管理委員會榮譽主任委員\n淡水清水巖管理委員會常務監察委員","remark":null,"image":"http://www.ntp.gov.tw/UpFile/CouncilorFile/TTCC1051.jpg","links":[{"url":"http://www.ntp.gov.tw/content/history/history01-5-p.aspx?sid=383","note":"議會個人官網"}],"social_media":null,"platform":"","param":null,"councilor":"44958488f913455ca37ad632c2622af8"},{"url":"http://councils.g0v.tw/api/councilors_terms/1292/","election_year":"2002","name":"呂子昌","gender":"","party":"","title":"議員","constituency":7,"county":"新北市","district":"淡水鎮、八里鄉、三芝鄉、石門鄉","in_office":true,"contact_details":null,"term_start":"2002-03-01","term_end":{"date":"2006-02-28"},"education":"淡水國小\n淡水國中\n十信高商\n東南工專","experience":"台北縣第10、11、12、13、14、15、16屆議員\n淡水信用合作社理事主席\n淡信慈善基金會董事長\n民主進步黨全國黨代表\n淡水正興宮管理委員會榮譽主任委員\n淡水清水巖管理委員會常務監察委員","remark":null,"image":"http://www.ntp.gov.tw/UpFile/CouncilorFile/TTCC1051.jpg","links":[{"url":"http://www.ntp.gov.tw/content/history/history01-5-p.aspx?sid=383","note":"議會個人官網"}],"social_media":null,"platform":"","param":null,"councilor":"44958488f913455ca37ad632c2622af8"},{"url":"http://councils.g0v.tw/api/councilors_terms/1353/","election_year":"2006","name":"呂子昌","gender":"","party":"","title":"議員","constituency":7,"county":"新北市","district":"淡水鎮、八里鄉、三芝鄉、石門鄉","in_office":true,"contact_details":null,"term_start":"2006-03-01","term_end":{"date":"2010-12-24"},"education":"淡水國小\n淡水國中\n十信高商\n東南工專","experience":"台北縣第10、11、12、13、14、15、16屆議員\n淡水信用合作社理事主席\n淡信慈善基金會董事長\n民主進步黨全國黨代表\n淡水正興宮管理委員會榮譽主任委員\n淡水清水巖管理委員會常務監察委員","remark":null,"image":"http://www.ntp.gov.tw/UpFile/CouncilorFile/TTCC1051.jpg","links":[{"url":"http://www.ntp.gov.tw/content/history/history01-5-p.aspx?sid=383","note":"議會個人官網"}],"social_media":null,"platform":"","param":null,"councilor":"44958488f913455ca37ad632c2622af8"},{"url":"http://councils.g0v.tw/api/councilors_terms/1931/","election_year":"2010","name":"呂子昌","gender":"","party":"民主進步黨","title":"議員","constituency":1,"county":"新北市","district":"石門區、三芝區、淡水區、八里區","in_office":true,"contact_details":[{"type":"voice","value":"02-26262828","label":"電話"},{"type":"fax","value":"02-26237777","label":"傳真"},{"type":"address","value":"25158新北市淡水區中正路69號","label":"通訊處"},{"type":"email","value":"lutzuchang@ntp.gov.tw","label":"E-mail"}],"term_start":"2010-12-25","term_end":{"date":"2014-12-24"},"education":"淡水國小\n淡水國中\n十信高商\n東南工專","experience":"台北縣第10、11、12、13、14、15、16屆議員\n淡水信用合作社理事主席\n淡信慈善基金會董事長\n民主進步黨全國黨代表\n淡水正興宮管理委員會榮譽主任委員\n淡水清水巖管理委員會常務監察委員","remark":null,"image":"http://www.ntp.gov.tw/UpFile/CouncilorFile/TTCC1051.jpg","links":[{"url":"http://www.ntp.gov.tw/content/list/list01-1-03-1.aspx?sid=383&cid=168","note":"議會個人官網"}],"social_media":null,"platform":"爭取儘速興建淡江大橋，連結新北市區域路網。\n建議淡水捷運系統延伸至淡海新市鎮，並爭取經沙崙延伸至八里及經台2線延伸至三芝。\n爭取淡水竹圍地區（台2線）計劃道路拓寬，改善交通壅塞問題。\n爭取增加生育補助、育嬰補助、幼兒教育補助，提高至以實際必需費用補助，減輕家庭負擔。\n爭取補助老人會定期舉辦長青文康旅遊活動，並固定補助長青社團及照護中心以照顧年長者就醫及生活。\n學生就學貸款利息由政府全額負擔，並增加弱勢家庭學生助學金補助。\n建議調降大眾運輸乘坐費用，差額由政府補助，減輕生活負擔，同時落實節能減碳。\n建議政府加強輔導農民發展精緻農業，全額補助肥料經費；輔導漁民增加收入改善生活。\n建議政府廣建公園、停車場、社區活動中心，提升生活品質。\n爭取加強建設北海岸，打造黃金海岸線，發展觀光事業，增加收入改善生活。\n爭取新北市在淡水設立高中，以利本地區學生子弟就讀。\n願以豐富之經驗，熱忱服務鄉親，全心全力爭取人民權益，【就是要讓大家過的更好】。","param":{"attendance_statistics":{"absent":10,"total":124},"bills_role_statistics":{"total":99,"priproposer":32,"sponsor":46,"cosponsor":53},"diversity":{"中國國民黨":0.1278927732219643,"無黨團結聯盟":0.045812987690876085,"民主進步黨":0.824715592774523,"無黨籍":0.0015786463126364603},"bills_party_diversity":[{"party":"民主進步黨","ratio":0.7115724381625441},{"party":"中國國民黨","ratio":0.20185512367491165},{"party":"無黨團結聯盟","ratio":0.04637809187279152},{"party":"無黨籍","ratio":0.03401060070671378},{"party":"臺灣團結聯盟","ratio":0.006183745583038869}]},"councilor":"44958488f913455ca37ad632c2622af8"}],"uid":"44958488f913455ca37ad632c2622af8","name":"呂子昌","birth":null,"former_names":"","identifiers":["呂子昌"]},{"url":"http://councils.g0v.tw/api/councilors/566/","each_terms":[{"url":"http://councils.g0v.tw/api/councilors_terms/975/","election_year":"1986","name":"蔡正欽","gender":"","party":"","title":"議員","constituency":5,"county":"新北市","district":"新莊市、泰山鄉、五股鄉、林口鄉","in_office":true,"contact_details":null,"term_start":"1986-03-01","term_end":{"date":"1990-02-28"},"education":"雲林縣仁愛國小畢\n臺北縣明志國中畢\n格致高中畢\n臺灣軍管區後幹班150期學員長","experience":"臺北縣雲林同鄉會顧問\n臺北縣高級中學以上清寒優秀學生獎學金審查委員\n中國國民黨臺北縣黨11區黨部委員\n75年當選第4屆雲林旅外十大傑出人才\n永昇商品開發有限公司負責人\n臺北縣議會第11屆議員","remark":null,"image":"http://www.ntp.gov.tw/UpFile/CouncilorFile/TTCC1149.jpg","links":[{"url":"http://www.ntp.gov.tw/content/history/history01-5-p.aspx?sid=406","note":"議會個人官網"}],"social_media":null,"platform":"","param":null,"councilor":"de7f81583693488881df23bef40ab41c"}],"uid":"de7f81583693488881df23bef40ab41c","name":"蔡正欽","birth":null,"former_names":"","identifiers":["蔡正欽"]},{"url":"http://councils.g0v.tw/api/councilors/581/","each_terms":[{"url":"http://councils.g0v.tw/api/councilors_terms/993/","election_year":"1986","name":"黃阿春","gender":"","party":"","title":"議員","constituency":3,"county":"新北市","district":"樹林鎮、鶯歌鎮、三峽鎮","in_office":true,"contact_details":null,"term_start":"1986-03-01","term_end":{"date":"1990-02-28"},"education":"樹人高商畢業","experience":"樹林鎮農會事務員\n樹林鎮樹南里第1至3屆里長\n樹林鎮婦女會理事長\n臺北縣婦女工作委員會委員\n樹林鎮鎮南宮常務董事\n樹林國際青年商會顧問\n臺北縣議會第10、11、12屆議員","remark":null,"image":"http://www.ntp.gov.tw/UpFile/CouncilorFile/TTCC1030.jpg","links":[{"url":"http://www.ntp.gov.tw/content/history/history01-5-p.aspx?sid=370","note":"議會個人官網"}],"social_media":null,"platform":"","param":null,"councilor":"41074b4d5e8f4068a7c28ecd190206ec"},{"url":"http://councils.g0v.tw/api/councilors_terms/1055/","election_year":"1982","name":"黃阿春","gender":"","party":"","title":"議員","constituency":3,"county":"新北市","district":"樹林鎮、鶯歌鎮、三峽鎮","in_office":true,"contact_details":null,"term_start":"1982-03-01","term_end":{"date":"1986-02-28"},"education":"樹人高商畢業","experience":"樹林鎮農會事務員\n樹林鎮樹南里第1至3屆里長\n樹林鎮婦女會理事長\n臺北縣婦女工作委員會委員\n樹林鎮鎮南宮常務董事\n樹林國際青年商會顧問\n臺北縣議會第10、11、12屆議員","remark":null,"image":"http://www.ntp.gov.tw/UpFile/CouncilorFile/TTCC1030.jpg","links":[{"url":"http://www.ntp.gov.tw/content/history/history01-5-p.aspx?sid=370","note":"議會個人官網"}],"social_media":null,"platform":"","param":null,"councilor":"41074b4d5e8f4068a7c28ecd190206ec"},{"url":"http://councils.g0v.tw/api/councilors_terms/1122/","election_year":"1990","name":"黃阿春","gender":"","party":"","title":"議員","constituency":4,"county":"新北市","district":"樹林鎮、鶯歌鎮、三峽鎮、土城鄉","in_office":true,"contact_details":null,"term_start":"1990-03-01","term_end":{"date":"1994-02-28"},"education":"樹人高商畢業","experience":"樹林鎮農會事務員\n樹林鎮樹南里第1至3屆里長\n樹林鎮婦女會理事長\n臺北縣婦女工作委員會委員\n樹林鎮鎮南宮常務董事\n樹林國際青年商會顧問\n臺北縣議會第10、11、12屆議員","remark":null,"image":"http://www.ntp.gov.tw/UpFile/CouncilorFile/TTCC1030.jpg","links":[{"url":"http://www.ntp.gov.tw/content/history/history01-5-p.aspx?sid=370","note":"議會個人官網"}],"social_media":null,"platform":"","param":null,"councilor":"41074b4d5e8f4068a7c28ecd190206ec"}],"uid":"41074b4d5e8f4068a7c28ecd190206ec","name":"黃阿春","birth":null,"former_names":"","identifiers":["黃阿春","黄阿春"]}]}