{"count":1904,"next":"http://councils.g0v.tw/api/councilors/?page=7","previous":"http://councils.g0v.tw/api/councilors/?page=5","results":[{"url":"http://councils.g0v.tw/api/councilors/1761/","each_terms":[{"url":"http://councils.g0v.tw/api/councilors_terms/2964/","election_year":"2014","name":"楊順木","gender":"男","party":"民主進步黨","title":"議員","constituency":1,"county":"宜蘭縣","district":"宜蘭","in_office":true,"contact_details":[{"type":"voice","value":"9288906","label":"服務處所電話"},{"type":"address","value":"宜蘭市津梅路186號","label":"服務處所"}],"term_start":"2014-12-25","term_end":{"date":"2018-12-25"},"education":"宜蘭高商","experience":"1.89年革命實踐研究院第九期畢業。\n2.新生社區發展協會理事長。\n3.第十六屆宜蘭市市民代表。\n4.國際獅子會2004-2005宜蘭會會長。\n5.國際扶輪第2003-2004宜蘭南區社社長。\n6.新生帝王廟主任委員。\n7.第十五屆縣議員。","remark":null,"image":"http://www.ilcc.gov.tw/pictures/people/A1807.JPG","links":[{"url":"http://www.ilcc.gov.tw/Html/H_05/H_0501.asp?GoOut=&pic=1&clique=DDP&User_id=A1807","note":"議會個人官網"}],"social_media":null,"platform":"一、增設宜蘭河自中山橋到慶和橋至宜蘭橋間兩邊河岸，編設經費建設如直排\n輪、溜冰表演台、滑板場、遙控車場等等多樣休閒、運動、娛樂等，充實\n兩河岸設施吸引人潮、帶動光觀，促使兩岸住家變商家，讓市民有投資的\n機會，市民有工作的機會，如速食店、簡餐、超商、咖啡店、各級商店，\n並能促進人民收入改善生活品質。\n二、照顧基層警察工作環境，警民合作，全民拼治安，人人受到保障。\n三、監督政府、推行建設、照顧弱勢團體、服務市民。\n四、普設監視系統，補助守望相助隊設備，保障市民生命財產安全。\n五、均衡都市發展，改善交通，便利市民生活。","param":{"attendance_statistics":{"absent":4,"total":262},"bills_role_statistics":{"total":146,"priproposer":10,"sponsor":11,"cosponsor":135},"bills_party_diversity":[{"party":"民主進步黨","ratio":0.5619924201407688},{"party":"中國國民黨","ratio":0.18299945858148348},{"party":"無黨籍","ratio":0.14834867352463454},{"party":"在野問政聯盟","ratio":0.10665944775311316}]},"councilor":"8888d86a701240819273c7cdd46480f9"}],"uid":"8888d86a701240819273c7cdd46480f9","name":"楊順木","birth":null,"former_names":"","identifiers":["楊順木"]},{"url":"http://councils.g0v.tw/api/councilors/1762/","each_terms":[{"url":"http://councils.g0v.tw/api/councilors_terms/2965/","election_year":"2014","name":"林志鴻","gender":"男","party":"民主進步黨","title":"議員","constituency":1,"county":"宜蘭縣","district":"宜蘭","in_office":true,"contact_details":[{"type":"email","value":"yes9373733@gmail.com","label":"E-mail"},{"type":"voice","value":"9373733","label":"服務處所電話"},{"type":"address","value":"宜蘭市陽明二路31號","label":"服務處所"}],"term_start":"2014-12-25","term_end":{"date":"2018-12-25"},"education":"東海大學社會工作系","experience":"1.榮譽：2006年全國社會優秀青年。\n2.證照：勞委會就業服務乙級證照。\n3.宜蘭市市民代表會第19屆代表。\n4.民主進步黨第15屆全國黨代表。\n5.台灣對外關係暨研究發展協會理事。\n6.宜蘭縣萬得福弱勢群權益發展協會理事。\n7.宜蘭縣社區服務志工協會常務理事。\n8.宜蘭縣後備憲兵荷松協會忠貞589T。","remark":null,"image":"http://www.ilcc.gov.tw/pictures/people/A1806.JPG","links":[{"url":"http://www.ilcc.gov.tw/Html/H_05/H_0501.asp?GoOut=&pic=1&clique=DDP&User_id=A1806","note":"議會個人官網"}],"social_media":null,"platform":"珍惜所託：捍衛您的權益，是志鴻的責任。幸福宜蘭：嚴格監督縣政推動，實\n現幸福城市的願景。非核家園：為世代永保安康，免於核災恐懼。\n1.督促縣府推動創意經濟，打造有利招商環境，增加青年就業機會，運用雲端\n科技促進在地經濟發展。\n2.積極維護勞工、農民權益、改善勞動環境增加收入，落實有機農業加值農民\n收益，並爭取農特產品暨美食展覽館設置。\n3.落實打造健康照護家園，照顧老人、身心障疑者，並爭取婦女及弱勢族群之\n權益福利。\n4.重視青年學子權益，充實教育設施，改善教育品質，加強社會教育。\n5.督促陽大醫院早日興建完成，提升宜蘭醫療品質，照顧縣民健康，並爭取擴\n建升格設置「醫學中心」。\n6.爭取「宜蘭市區鐵路高架化」及早興建，並提出國道5號平原線解編為「快速\n道路」，帶動宜蘭縣溪北、溪南整體經濟發展。\n7.擴大宜蘭市都市計畫、增設宜蘭市停車空間，健全完善大眾運輸系統，解決\n交通壅塞問題，重啟繁榮商機。\n8.督促縣府舊城振興計畫持續推動，興建宜蘭河濱公園觀光休閒美景，打造慢\n活怡居宜蘭城。\n9.爭取經費裝置監視器，促進社區守望相助彰顯功能，警民合作，維護治安，\n促請政府充實消防救災設備，保障人民生圈財產安全。\n10.推廣傳統藝文民俗活動，結合民間辦理紀錄、保存、傳習等相關事務，提升\n生活素質，落實文化立縣的精神。\n11.推動公有土地興建社會住宅，檢討不合時宜的縣自治規章，推動制定保障縣\n民權益，增進縣民福祉的地方自治條例。\n12.無限期支持「年金改革」政策推動。","param":{"attendance_statistics":{"absent":1,"total":262},"bills_role_statistics":{"total":144,"priproposer":19,"sponsor":19,"cosponsor":125},"bills_party_diversity":[{"party":"民主進步黨","ratio":0.48870967741935484},{"party":"中國國民黨","ratio":0.23763440860215054},{"party":"無黨籍","ratio":0.14193548387096774},{"party":"在野問政聯盟","ratio":0.13172043010752688}]},"councilor":"4bf48ff4bd74406aaf3363f5b964e62d"}],"uid":"4bf48ff4bd74406aaf3363f5b964e62d","name":"林志鴻","birth":null,"former_names":"","identifiers":["林志鴻","林志鴻"]},{"url":"http://councils.g0v.tw/api/councilors/1099/","each_terms":[{"url":"http://councils.g0v.tw/api/councilors_terms/2024/","election_year":"2009","name":"林岳賢","gender":"","party":"中國國民黨","title":"議員","constituency":1,"county":"宜蘭縣","district":"宜蘭","in_office":true,"contact_details":[{"type":"address","value":"宜蘭市民族路495號","label":"服務處所"},{"type":"voice","value":"9332307-8","label":"服務處所電話"},{"type":"email","value":"hsiem20013@yahoo.com.tw","label":"E-mail"}],"term_start":"2009-12-25","term_end":{"date":"2014-12-25"},"education":"佛光大學政研所碩士","experience":"宜蘭縣議會第十七屆議員。\n交通部觀光局領隊考試合格。\n國民黨16、17、18屆全國黨代表。\n國民黨宜蘭縣黨部副主委。\n國民黨青工總會長。\n宜蘭青商會副會長。\n宜蘭警友會警民副主委。\n宜蘭市後備軍人輔導組長。\n思源社區顧問。\n五大社區顧問。\n國際太極氣功復興支會顧問。\n民防第二中隊隊員。\n國大代表林明昌特助。","remark":null,"image":"http://www.ilcc.gov.tw/pictures/people/A1705.JPG","links":[{"url":"http://www.ilcc.gov.tw/Html/H_05/H_0501.asp?GoOut=&pic=1&clique=KMT&User_id=A1705","note":"議會個人官網"}],"social_media":null,"platform":"一、爭取北宜直線鐵路早日興建，完成宜蘭至台北行車時間只需36分鐘，可\n疏解雪山道塞車問題。\n二、促進宜蘭校舍路至四城鐵路高架工程早日動工，使宜蘭市東西向平衡發\n展。\n三、爭取國道五號聯絡道〈嵐峰路〉拓寬工程30~35公尺寬早日興建，疏導車\n流量避免市區塞車。\n四、全縣國小學童免費營養午餐早日實施，並提供青年學子助學貸款零利\n率，幫助貧困學童就學。\n五、提升宜蘭醫療品質，要求國立陽明大學教學醫院早日興建完成。\n六、爭取宜蘭市八米以上計畫道路，縣府全額補助全部打通以利交通。\n七、照顧榮民、榮眷，並嚴格監督眷村改建之工程品質。\n八、照顧縣內基層勞工，農民及婦幼弱勢團體並關心基層員警之心聲，並爭\n取增加社會福利之經費。\n九、對縣內農民之農作物收成，採取保障收益之政策，以確保農民收入。\n十、宜蘭河沿岸加強美化，打造成冬山河第二之國際級水準，以利南北觀光\n均衡發展。\n十一、全心全力服務市民，做一個認真打拼，盡職負責，最好央叫的民意代\n表。","param":{"bills_role_statistics":{"total":181,"priproposer":49,"sponsor":50,"cosponsor":131},"diversity":{"中國國民黨":0.6600923485105556,"民主進步黨":0.2045779123418269,"無黨籍":0.1353297391476163},"bills_party_diversity":[{"party":"中國國民黨","ratio":0.62},{"party":"民主進步黨","ratio":0.24518518518518517},{"party":"無黨籍","ratio":0.1348148148148148}]},"councilor":"2951ccf28a7a4c469f9e0aa32c175aff"},{"url":"http://councils.g0v.tw/api/councilors_terms/2966/","election_year":"2014","name":"林岳賢","gender":"男","party":"中國國民黨","title":"議員","constituency":1,"county":"宜蘭縣","district":"宜蘭","in_office":true,"contact_details":[{"type":"email","value":"hsien20013@yahoo.com.tw","label":"E-mail"},{"type":"voice","value":"9332307","label":"服務處所電話"},{"type":"address","value":"宜蘭市民族路495號","label":"服務處所"}],"term_start":"2014-12-25","term_end":{"date":"2018-12-25"},"education":"佛光大學政治研究所","experience":"1.宜蘭縣第十七屆議員。\n2.宜蘭市民眾服務社理事長。\n3.宜蘭縣籃球委員會主委。\n4.宜蘭市後備軍人輔導中心組長。\n5.宜蘭警友會副主委。\n6.宜蘭市民防第二中隊隊員。\n7.宜蘭縣義消大隊顧問團副團長。\n8.宜蘭縣果菜運銷合作社顧問。\n9.宜蘭縣不動產仲介公會審議會委員。","remark":null,"image":"http://www.ilcc.gov.tw/pictures/people/A1805.JPG","links":[{"url":"http://www.ilcc.gov.tw/Html/H_05/H_0501.asp?GoOut=&pic=1&clique=KMT&User_id=A1805","note":"議會個人官網"}],"social_media":null,"platform":"一、積極爭取宜蘭市區鐵路高架化，解決交通阻塞，促進東區發展。\n二、爭取北宜直線鐵路早日興建，紓解雪隧塞車及縮短縣民往返台北時間。\n三、提昇醫療品質，監督促進國立陽明大學教學醫院早日興建完成，保障縣民\n健康。\n四、協助解決婦幼、低收入戶、弱勢殘障團體之困難，爭取提高補助。\n五、保障學童健康，要求縣府補助全縣國小學童至少每週喝一瓶鮮奶。\n六、要求縣府爭取經費，徵收公共設施並打通宜蘭重要道路及巷道之通行。\n七、爭取經費，充實警義消之裝備，以保障警義消及全民之生命財產安全。\n八、教育經費應充分編列，並推動幼兒園及國小雙語教學，以提昇教育品質。\n九、為鼓勵生育，建請縣府整高生育補助，每胎3萬元，並健全托嬰保母系統。\n十、關懷老人安養及失業縣民之生活，加強補助公私立安養長照中心，並提高\n失業救濟金、爭取增加縣民就業機會。","param":{"attendance_statistics":{"absent":2,"total":262},"bills_role_statistics":{"total":117,"priproposer":24,"sponsor":29,"cosponsor":88},"bills_party_diversity":[{"party":"民主進步黨","ratio":0.38724373576309795},{"party":"中國國民黨","ratio":0.3561123766135156},{"party":"在野問政聯盟","ratio":0.1427486712224753},{"party":"無黨籍","ratio":0.11389521640091116}]},"councilor":"2951ccf28a7a4c469f9e0aa32c175aff"}],"uid":"2951ccf28a7a4c469f9e0aa32c175aff","name":"林岳賢","birth":null,"former_names":"","identifiers":["林岳賢","林岳賢"]},{"url":"http://councils.g0v.tw/api/councilors/1097/","each_terms":[{"url":"http://councils.g0v.tw/api/councilors_terms/2022/","election_year":"2009","name":"江碧華","gender":"","party":"中國國民黨","title":"議員","constituency":1,"county":"宜蘭縣","district":"宜蘭","in_office":true,"contact_details":[{"type":"address","value":"宜蘭市東港路校舍巷30-5號","label":"服務處所"},{"type":"voice","value":"9380369","label":"服務處所電話"},{"type":"email","value":"a1604@ilcc.gov.tw","label":"E-mail"}],"term_start":"2009-12-25","term_end":{"date":"2014-12-25"},"education":"台北商業技術學院畢","experience":"宜蘭縣議會第十七屆議員。\n一、第十四屆宜蘭市民代表。\n二、黎明國小、蘭陽女中家長會長。\n三、中華民國婦聯青溪分會常務委員。\n四、宜商校友會常務理事。\n五、宜縣觀護協會副理事長。\n六、宜縣體育會羽球委員會主任委員。\n七、第十三屆、第十四屆、第十六屆宜蘭縣議員。","remark":null,"image":"http://www.ilcc.gov.tw/pictures/people/A1702.JPG","links":[{"url":"http://www.ilcc.gov.tw/Html/H_05/H_0501.asp?GoOut=&pic=1&clique=KMT&User_id=A1702","note":"議會個人官網"}],"social_media":null,"platform":"一、促進工商發展，謀求勞工權益，提高就業機會。\n二、加強農村基層建設，提昇農民生活水準。\n三、督促眷村興建，早日完成，照顧榮民生活。\n四、尊重婦女地位，爭取婦女權益，提昇婦女生活，增進家庭幸福。\n五、爭取婦女權利，謀老幼殘障暨中低收入弱勢團體之福利。\n六、充實教育設施，改善教育品質，加強社會教育，培育青少年正常發展。\n七、督促宜蘭市東區檢討和整體規劃開發建設，以利地方均衡發展。\n八、爭取宜蘭市東區設立大型的縣立圖書館，以提昇文化水準。\n九、爭取經費裝置監視器，促進社區守望相助彰顯功能，警民合作，改善治安。\n十、提高教育成果，注重學生德智體群均衡發展，減少青少年犯罪。\n十一、督促宜蘭火車站月台儘早設立電梯，以利老幼殘障者方便搭乘火車。\n十二、督促陽明醫學中心設立，興建完成，提高醫療水準，照顧縣民健康。\n十三、爭取鐵路直線高架化，以利地方均衡發展。\n十四、爭取宜蘭河後續堤防興建，整治河川美化景觀。\n十五、以正的形象，實的作風，樹立民意代表新風範。","param":{"bills_role_statistics":{"total":180,"priproposer":49,"sponsor":50,"cosponsor":130},"diversity":{"中國國民黨":0.621333477799926,"民主進步黨":0.2620119229672324,"無黨籍":0.11665459923284088},"bills_party_diversity":[{"party":"中國國民黨","ratio":0.5788043478260869},{"party":"民主進步黨","ratio":0.29415760869565216},{"party":"無黨籍","ratio":0.12703804347826086}]},"councilor":"3e0e14cb0a0142ba87a5692735381e0f"},{"url":"http://councils.g0v.tw/api/councilors_terms/2967/","election_year":"2014","name":"江碧華","gender":"女","party":"無黨籍","title":"議員","constituency":1,"county":"宜蘭縣","district":"宜蘭","in_office":true,"contact_details":[{"type":"email","value":"a1604@ilcc.gov.tw","label":"E-mail"},{"type":"voice","value":"9380369","label":"服務處所電話"},{"type":"address","value":"宜蘭市女中路1段136號","label":"服務處所"}],"term_start":"2014-12-25","term_end":{"date":"2018-12-25"},"education":"佛光大學政治研究所","experience":"1.第十四屆宜蘭市民代表。\n2.第十三、十四、十六、十七屆縣議員。\n3.宜蘭縣榮光協會理事長。\n4.宜蘭縣擎天協會理事長。\n5.宜蘭縣閩南同鄉會理事長。\n6.宜蘭縣羽球委員會主委。\n7.宜蘭縣觀護協會副理事長。\n8.宜商校友會常務理事。\n9.婦聯會常委。","remark":null,"image":"http://www.ilcc.gov.tw/pictures/people/A1804.JPG","links":[{"url":"http://www.ilcc.gov.tw/Html/H_05/H_0501.asp?GoOut=&pic=1&clique=&User_id=A1804","note":"議會個人官網"}],"social_media":null,"platform":"一、促進工商發展，謀求勞工權益，提高就業機會。\n二、加強農村基層建設，提高農民轉經濟作物補助以提昇農民生活水準。\n三、爭取榮民、榮眷應得權益和福利，照顧榮民生活。\n四、尊重婦女地位，爭取婦女權益，提昇婦女生活，增進家庭幸福。\n五、爭取婦女權利，謀老幼殘障暨中低收入和弱勢團體之補助和福利。\n六、充實教育設施，改善教育品質，加強社會教育，培育青少年正常發展。\n七、督促宜蘭市東區整體檢討和整體規劃開發建設，以利地方均衡發展。\n八、爭取宜蘭市東區設立大型的縣立圖書館以提昇文化水準。\n九、爭取經費裝置監視器，促進社區守望相助隊彰顯功能，警民合作，改善治\n安。\n十、提高教育成果，注重學生德智的群均衡發展，減少青少年犯罪。\n十一、東港路拓寬工程同時爭取台電變電所考慮選移他處或室內環保化。\n十二、督促陽明醫學中心營早設立興建完成，提高醫療水準，照顧縣民健康。\n十三、爭取鐵路直線高架化，台電高壓鐵塔地下化，以利地方均衡發展。\n十四、爭取宜蘭河後續堤防興建，整治河川美化景觀，增加休閒多功能設施。\n十五、爭取宜蘭市南、北館重新建造一個串聯式的現代化綜合型商城。\n十六、督促宜蘭市中央市場用地建造一個宜蘭地標的商業大樓。\n十七、檢討宜蘭市整個排水系統功能，加強疏浚和系統連結讓水患消失。\n十八、老舊社區巷弄狹窄有礙救護、消防功能，儘速都市更新改建成現代化新\n社區。\n十九、以正的形象，實的作風樹立民意代表的新風範。","param":{"attendance_statistics":{"absent":5,"total":262},"bills_role_statistics":{"total":103,"priproposer":11,"sponsor":17,"cosponsor":86},"bills_party_diversity":[{"party":"民主進步黨","ratio":0.44394951744617667},{"party":"無黨籍","ratio":0.23162583518930957},{"party":"中國國民黨","ratio":0.22048997772828507},{"party":"在野問政聯盟","ratio":0.10393466963622866}]},"councilor":"3e0e14cb0a0142ba87a5692735381e0f"}],"uid":"3e0e14cb0a0142ba87a5692735381e0f","name":"江碧華","birth":null,"former_names":"","identifiers":["江碧華"]},{"url":"http://councils.g0v.tw/api/councilors/1763/","each_terms":[{"url":"http://councils.g0v.tw/api/councilors_terms/2968/","election_year":"2014","name":"林錫明","gender":"男","party":"在野問政聯盟","title":"議員","constituency":1,"county":"宜蘭縣","district":"宜蘭","in_office":true,"contact_details":[{"type":"voice","value":"9351830","label":"服務處所電話"},{"type":"address","value":"宜蘭市民權里神農路二段21號","label":"服務處所"}],"term_start":"2014-12-25","term_end":{"date":"2018-12-25"},"education":"員山初級中學","experience":"1.宜蘭縣議會議員。\n2.宜蘭市農理事長。\n3.宜蘭市市民代表會副主席。","remark":null,"image":"http://www.ilcc.gov.tw/pictures/people/A1803.JPG","links":[{"url":"http://www.ilcc.gov.tw/Html/H_05/H_0501.asp?GoOut=&pic=1&clique=&User_id=A1803","note":"議會個人官網"}],"social_media":null,"platform":"一、要求政府改善十二年國民基本教育，確保每一個孩子受教權益。\n二、促進國立陽明大學附設醫院蘭陽院區新建工程如期完成營運，提昇本縣醫\n療水準。\n三、加速宜蘭科學園區城南基地開發及招商，創造本縣縣民就業機會。\n四、爭取鐵路高架化，解決平交道雍塞現象，以提高土地利用及發展。\n五、促請政府設置北宜直線鐵路，改善國道五號塞車現象。\n六、增設鄰里及重要路口監視系統設置，促進警民合作、有效打擊不法，維護\n社會治安。\n七、要求政府照顧縣內基層勞工、農民、婦幼及殘障等弱勢團體之權益。\n八、督促政府積極推動擴大都市計劃，俾利宜蘭市全面發展。\n九、要求縣府落實各項福利政策，加強社會福利工作及增加社會福利之經費。\n十、促請縣府規劃停車空間、設置接駁車行駛，有效解決市區假日交通壅塞現\n象。","param":{"attendance_statistics":{"absent":7,"total":262},"bills_role_statistics":{"total":130,"priproposer":8,"sponsor":9,"cosponsor":121},"bills_party_diversity":[{"party":"民主進步黨","ratio":0.42710997442455245},{"party":"中國國民黨","ratio":0.2595907928388747},{"party":"在野問政聯盟","ratio":0.18286445012787725},{"party":"無黨籍","ratio":0.13043478260869565}]},"councilor":"bac936a951ed445daefd5a62562389fb"}],"uid":"bac936a951ed445daefd5a62562389fb","name":"林錫明","birth":null,"former_names":"","identifiers":["林錫明","林錫明"]},{"url":"http://councils.g0v.tw/api/councilors/1096/","each_terms":[{"url":"http://councils.g0v.tw/api/councilors_terms/2021/","election_year":"2009","name":"張建榮","gender":"","party":"中國國民黨","title":"議長","constituency":1,"county":"宜蘭縣","district":"宜蘭","in_office":true,"contact_details":[{"type":"address","value":"宜蘭市復興路2段16號","label":"服務處所"},{"type":"voice","value":"9331589","label":"服務處所電話"},{"type":"email","value":"ccr@ilcc.gov.tw","label":"E-mail"}],"term_start":"2009-12-25","term_end":{"date":"2014-12-25"},"education":"宜蘭市光復國小畢業","experience":"宜蘭縣議會第十七屆議長。\n(一)宜蘭縣議會議員、副議長、議長\n(二)宜蘭市民代表會副主席、主席\n(三)宜蘭縣商業總會理事長\n(四)宜蘭縣義消總隊總隊長\n(五)國際獅子會300F區總監\n(六)宜蘭市照應宮、三清宮主任委員\n(七)宜蘭縣張、廖、簡宗親會理事長\n(八)宜蘭縣土木包工業公會理事長\n(九)宜蘭縣社會福利聯合勸募基金會常務監察人","remark":null,"image":"http://www.ilcc.gov.tw/pictures/people/A1701.JPG","links":[{"url":"http://www.ilcc.gov.tw/Html/H_05/H_0501.asp?GoOut=&pic=1&clique=KMT&User_id=A1701","note":"議會個人官網"}],"social_media":null,"platform":"一、促請政府儘速規闢北宜直線鐵路及宜蘭市鐵路全面高架。\n二、北宜高速公路側車道，促請全線開通。\n三、北宜高速公路東西向五條連絡道路，促請全面開通。\n四、督促政府加速宜蘭市污水下水道早日全面完工。\n五、促請政府充實消防設備，保障人民生命財產安全。\n六、促進政府加強治安設備，充實村里監視系統，以維護社會安寧。\n七、督促政府設立資訊研發中心，獎勵高科技產業設廠。\n八、建請政府落實老人福利，照顧殘障、維護婦女權益及弱勢族群。\n九、督促政府創造勞工就業，爭取勞工權益。\n十、推動社區藝文活動，落實文化紮根，提升生活素養。\n十一、督促縣政府廢除容積、建蔽率限制，回歸中央政府訂頒標準，以利土地開發，保障\n縣民權益。\n十二、督促縣政府落實國軍眷利興建工程早日啟用。","param":{"bills_role_statistics":{"total":19,"priproposer":3,"sponsor":3,"cosponsor":16},"diversity":{"中國國民黨":0.49560099744310276,"民主進步黨":0.3031566215002748,"無黨籍":0.2012423810566225},"bills_party_diversity":[{"party":"中國國民黨","ratio":0.4908424908424908},{"party":"民主進步黨","ratio":0.3443223443223443},{"party":"無黨籍","ratio":0.16483516483516483}]},"councilor":"1c4ca1fa0b4e433c973b1f3a52460c51"},{"url":"http://councils.g0v.tw/api/councilors_terms/2969/","election_year":"2014","name":"張建榮","gender":"男","party":"中國國民黨","title":"議員","constituency":1,"county":"宜蘭縣","district":"宜蘭","in_office":true,"contact_details":[{"type":"email","value":"ccr@ilcc.gov.tw","label":"E-mail"},{"type":"voice","value":"9331589","label":"服務處所電話"},{"type":"address","value":"宜蘭市軍民路1巷56號","label":"服務處所"}],"term_start":"2014-12-25","term_end":{"date":"2018-12-25"},"education":"光復國小","experience":"1.宜蘭市代表會副主席、主席。\n2.宜蘭縣議會議員、副議長、議長。\n3.宜蘭縣義勇消防總隊總隊長。\n4.宜蘭市昭應宮主任委員。\n5.宜蘭市三清宮主任委員。\n6.宜蘭縣商業總會理事長。\n7.國際獅子會300F區總監。","remark":null,"image":"http://www.ilcc.gov.tw/pictures/people/A1802.JPG","links":[{"url":"http://www.ilcc.gov.tw/Html/H_05/H_0501.asp?GoOut=&pic=1&clique=KMT&User_id=A1802","note":"議會個人官網"}],"social_media":null,"platform":"一、督促縣府廢除容積、建蔽率，以利土地開發，保障縣民權益。\n二、督促政府設立資訊研發中心，獎勵高科技產業設廠。\n三、督促政府儘速完成宜蘭科學園區城南基地開發，俾利廠商進駐帶動工商發\n展。\n四、促請政府儘速規闢北宜直線鐵路及宜蘭高鐵路全面高架，可疏解雪山隧道\n塞車問題。\n五、促請政府充實消防設備，保障人民生命財產安全。\n六、促請政府加強治安設備，充實路口監視系統，以維護社會安寧。\n七、建請政府落實老人福利、照顧殘障，維護婦女權益及弱勢族群。\n八、督促政府創造勞工就業，爭取勞工權益。\n九、推動社區藝文活動，落實文化紮根、提升生活素養。\n十、爭取地方各項建設，健全社區生活品質。","param":{"attendance_statistics":{"absent":3,"total":262},"bills_role_statistics":{"total":88,"priproposer":2,"sponsor":4,"cosponsor":84},"bills_party_diversity":[{"party":"中國國民黨","ratio":0.38486140724946694},{"party":"民主進步黨","ratio":0.31982942430703626},{"party":"在野問政聯盟","ratio":0.1812366737739872},{"party":"無黨籍","ratio":0.1140724946695096}]},"councilor":"1c4ca1fa0b4e433c973b1f3a52460c51"}],"uid":"1c4ca1fa0b4e433c973b1f3a52460c51","name":"張建榮","birth":null,"former_names":"","identifiers":["張建榮"]},{"url":"http://councils.g0v.tw/api/councilors/437/","each_terms":[{"url":"http://councils.g0v.tw/api/councilors_terms/779/","election_year":"1946","name":"林旭","gender":"","party":"","title":"議員","constituency":null,"county":"新北市","district":"","in_office":true,"contact_details":null,"term_start":"1946-04-15","term_end":{"date":"1950-12-31"},"education":"高中畢業。","experience":"莊協議員及保正","remark":null,"image":"http://www.ntp.gov.tw/UpFile/CouncilorFile/TTCC0019.jpg","links":[{"url":"http://www.ntp.gov.tw/content/history/history01-5-p.aspx?sid=19","note":"議會個人官網"}],"social_media":null,"platform":"","param":null,"councilor":"18641e7f16d244978c3aa37d8bf7c73d"}],"uid":"18641e7f16d244978c3aa37d8bf7c73d","name":"林旭","birth":null,"former_names":"","identifiers":["林旭","林旭"]},{"url":"http://councils.g0v.tw/api/councilors/719/","each_terms":[{"url":"http://councils.g0v.tw/api/councilors_terms/1314/","election_year":"2002","name":"蔡黃隆","gender":"","party":"","title":"議員","constituency":4,"county":"新北市","district":"土城市、樹林市、鶯歌鎮、三峽鎮","in_office":true,"contact_details":null,"term_start":"2002-03-01","term_end":{"date":"2006-02-28"},"education":"大埔國小\n三峽國中\n板橋高中\n東吳大學經濟系法學士畢業","experience":"台北縣第15、16屆議員\n台北縣議會北台灣問政會會長\n土城市震安宮主任委員\n土城市義消中隊副中隊長\n台北縣社會服務協會榮譽理事長\n台北縣土城市宗教文化協進會榮譽理事長\n民國100年12月9日歿","remark":null,"image":"http://www.ntp.gov.tw/UpFile/CouncilorFile/TTCC1528.jpg","links":[{"url":"http://www.ntp.gov.tw/content/history/history01-5-p.aspx?sid=511","note":"議會個人官網"}],"social_media":null,"platform":"","param":null,"councilor":"e27be7a9c3db44d3a6b4de60cb999f67"},{"url":"http://councils.g0v.tw/api/councilors_terms/1377/","election_year":"2006","name":"蔡黃隆","gender":"","party":"","title":"議員","constituency":4,"county":"新北市","district":"土城市、樹林市、鶯歌鎮、三峽鎮","in_office":true,"contact_details":null,"term_start":"2006-03-01","term_end":{"date":"2010-12-24"},"education":"大埔國小\n三峽國中\n板橋高中\n東吳大學經濟系法學士畢業","experience":"台北縣第15、16屆議員\n台北縣議會北台灣問政會會長\n土城市震安宮主任委員\n土城市義消中隊副中隊長\n台北縣社會服務協會榮譽理事長\n台北縣土城市宗教文化協進會榮譽理事長\n民國100年12月9日歿","remark":null,"image":"http://www.ntp.gov.tw/UpFile/CouncilorFile/TTCC1528.jpg","links":[{"url":"http://www.ntp.gov.tw/content/history/history01-5-p.aspx?sid=511","note":"議會個人官網"}],"social_media":null,"platform":"","param":null,"councilor":"e27be7a9c3db44d3a6b4de60cb999f67"}],"uid":"e27be7a9c3db44d3a6b4de60cb999f67","name":"蔡黃隆","birth":null,"former_names":"","identifiers":["蔡黄隆","蔡黃隆"]},{"url":"http://councils.g0v.tw/api/councilors/1469/","each_terms":[{"url":"http://councils.g0v.tw/api/councilors_terms/2395/","election_year":"2009","name":"謝守男","gender":"男","party":"中國國民黨","title":"","constituency":1,"county":"基隆市","district":"中正區","in_office":true,"contact_details":[{"type":"email","value":"16805@kmc.gov.tw","label":"電子信箱"},{"type":"voice","value":"(02) 2462-1487","label":"電話"},{"type":"fax","value":"(02) 2462-1487","label":"傳真"},{"type":"address","value":"基隆市正信路151巷1號5樓","label":"通訊處"}],"term_start":"2009-12-25","term_end":{"date":"2014-12-25"},"education":"．基隆市省立高級水產學校畢業\n．革命實踐研究院第64期結業","experience":"．第八、十三、十四屆市議員\n．基隆區漁會第九、十屆理事長\n．台灣省漁船保險合作社理事\n．中國國民黨市14全代表\n．基隆漁民區黨部常委\n．台灣省黨部基隆市代表\n．基隆市黨部委員\n．中華民國對外漁業合作協會董事\n．中國兩岸礦業協進會常務監事","remark":null,"image":"http://www.kmc.gov.tw/kmcii/images/councillor_03.gif","links":[{"url":"http://www.kmc.gov.tw/KMCII/coun_info_3.aspx","note":"議會個人官網"}],"social_media":null,"platform":"．重視漁業拓展及對外漁業合作。\n．持續補貼漁船油價，促銷魚貨、振興漁業。\n．加速籌建輕軌捷運。\n．加速完成海科館及週邊整理規劃。\n．監督污水處理廠之運作降低和平島污染、爭取回饋金。\n．和平島及中正區應第一優先納入污水處理以提升生活品質。\n．中正區優先興建共同管道，整平所有路面。\n．開闢和平島環山道路促進觀光事業及創造就業機會。","param":{"suggestions_years":{"count":5,"sum":472000,"years":[{"count":5,"sum":472000,"suggest_year":"2014","small_purchase":5}]},"suggestions_associations":[{"count":0,"sum":0,"label":"社區發展協會"},{"count":0,"sum":0,"label":"學會"},{"count":0,"sum":0,"label":"商會"},{"count":0,"sum":0,"label":"公會"},{"count":0,"sum":0,"label":"協進會"},{"count":0,"sum":0,"label":"促進會"},{"count":0,"sum":0,"label":"研習會"},{"count":0,"sum":0,"label":"婦聯會"},{"count":0,"sum":0,"label":"婦女會"},{"count":0,"sum":0,"label":"體育會"},{"count":0,"sum":0,"label":"同心會"},{"count":0,"sum":0,"label":"農會"},{"count":0,"sum":0,"label":"早起會"},{"count":0,"sum":0,"label":"健身會"},{"count":0,"sum":0,"label":"宗親會"},{"count":0,"sum":0,"label":"功德會"},{"count":0,"sum":0,"label":"商業會"},{"count":0,"sum":0,"label":"長青會"},{"count":0,"sum":0,"label":"民眾服務社"},{"count":0,"sum":0,"label":"聯盟"}],"suggestions_piles":[{"count":2,"tokens":"辦公室|辦公處","sum":188000,"label":"辦公室"},{"count":1,"tokens":"警察局|分局","sum":90000,"label":"警察局"},{"count":0,"tokens":"協會|學會|商會|公會|協進會|促進會|研習會|婦聯會|婦女會|體育會|同心會|農會|早起會|健身會|宗親會|功德會|商業會|長青會|民眾服務社|聯盟","sum":0,"label":"協會"},{"count":0,"tokens":"廟|宮","sum":0,"label":"廟"},{"count":0,"tokens":"消防局|消防隊|分隊|中隊","sum":0,"label":"消防局"},{"count":0,"tokens":"國中|國小","sum":0,"label":"國中、國小"}]},"councilor":"63c30679ddc14c80b2f6d8c91ed64bce"}],"uid":"63c30679ddc14c80b2f6d8c91ed64bce","name":"謝守男","birth":"1944-04-06","former_names":"","identifiers":["謝守男"]},{"url":"http://councils.g0v.tw/api/councilors/1472/","each_terms":[{"url":"http://councils.g0v.tw/api/councilors_terms/2398/","election_year":"2009","name":"盧文信","gender":"男","party":"無黨籍","title":"","constituency":3,"county":"屏東縣","district":"內埔鄉、竹田鄉、萬巒鄉、潮州鎮、新埤鄉、枋寮鄉","in_office":true,"contact_details":[{"type":"address","value":"屏東縣枋寮鄉94049安樂村隆山路376-1號","label":"通訊處"},{"type":"voice","value":"08-8782111","label":"電話"}],"term_start":"2009-12-25","term_end":{"date":"2014-12-25"},"education":null,"experience":null,"remark":null,"image":"http://www.ptcc.gov.tw/upload/upimage/14eb6835-9178-6123-cf29-67e2607feaba-S.jpg","links":[{"url":"http://www.ptcc.gov.tw/?Page=PersionalDetail&Guid=c3d4f0d5-d921-d1d0-ba54-3c0abc64a023","note":"議會個人官網"}],"social_media":null,"platform":"一、24小時熱忱服務全天候不打烊。\n二、提升農漁業產品價格、保障農漁民生活。\n三、扶助弱勢團體、為殘障人士爭取福利。\n四、發揚客家文化、推動老人及兒童福利。\n五、改善教育環境，落實教學品質，增加教師名額，拉近城鄉差距。\n六、擴大就業、職訓機會，減少失業人口。","param":{"suggestions_years":{"count":328,"sum":21070000,"years":[{"count":90,"sum":5940000,"suggest_year":"2011","small_purchase":84},{"count":82,"sum":5379000,"suggest_year":"2012","small_purchase":74},{"count":65,"sum":4405000,"suggest_year":"2013","small_purchase":60},{"count":91,"sum":5346000,"suggest_year":"2014","small_purchase":79}]},"suggestions_associations":[{"count":22,"sum":1985000,"label":"農會"},{"count":59,"sum":1346000,"label":"社區發展協會"},{"count":6,"sum":251000,"label":"體育會"},{"count":6,"sum":150000,"label":"促進會"},{"count":2,"sum":40000,"label":"協進會"},{"count":2,"sum":35000,"label":"聯盟"},{"count":1,"sum":20000,"label":"研習會"},{"count":1,"sum":20000,"label":"宗親會"},{"count":0,"sum":0,"label":"學會"},{"count":0,"sum":0,"label":"商會"},{"count":0,"sum":0,"label":"公會"},{"count":0,"sum":0,"label":"婦聯會"},{"count":0,"sum":0,"label":"婦女會"},{"count":0,"sum":0,"label":"同心會"},{"count":0,"sum":0,"label":"早起會"},{"count":0,"sum":0,"label":"健身會"},{"count":0,"sum":0,"label":"功德會"},{"count":0,"sum":0,"label":"商業會"},{"count":0,"sum":0,"label":"長青會"},{"count":0,"sum":0,"label":"民眾服務社"}],"suggestions_piles":[{"count":163,"tokens":"協會|學會|商會|公會|協進會|促進會|研習會|婦聯會|婦女會|體育會|同心會|農會|早起會|健身會|宗親會|功德會|商業會|長青會|民眾服務社|聯盟","sum":5554000,"label":"協會"},{"count":27,"tokens":"國中|國小","sum":2382000,"label":"國中、國小"},{"count":12,"tokens":"廟|宮","sum":1074000,"label":"廟"},{"count":3,"tokens":"警察局|分局","sum":168000,"label":"警察局"},{"count":3,"tokens":"消防局|消防隊|分隊|中隊","sum":80000,"label":"消防局"},{"count":0,"tokens":"辦公室|辦公處","sum":0,"label":"辦公室"}]},"councilor":"c8ab69821d864aa5bd3a8ab793e06ece"}],"uid":"c8ab69821d864aa5bd3a8ab793e06ece","name":"盧文信","birth":null,"former_names":"","identifiers":["盧文信"]}]}