{"count":1904,"next":"http://councils.g0v.tw/api/councilors/?page=61","previous":"http://councils.g0v.tw/api/councilors/?page=59","results":[{"url":"http://councils.g0v.tw/api/councilors/145/","each_terms":[{"url":"http://councils.g0v.tw/api/councilors_terms/181/","election_year":"2006","name":"李銀來","gender":"男","party":"中國國民黨","title":"議員","constituency":null,"county":"臺北市","district":"","in_office":true,"contact_details":null,"term_start":"2006-12-25","term_end":{"date":"2010-12-25"},"education":"1.國立中興(台北)大學法學士2.國立師範大學進修3.國立政大公行所碩士學分班(市政建設)結業。","experience":"1.台北市政府教育局秘書、督學2.南港、育達商職兼任教師3.原住民公促會理事長4.第七、八、九屆台北市議員。","remark":"","image":"http://www.tcc.gov.tw/../upload/photo/%E6%9D%8E%E9%8A%80%E4%BE%86.jpg","links":[{"url":"http://www.tcc.gov.tw/Councilor_Content_All.aspx?s=2303&d=390625&n=%E6%9D%8E%E9%8A%80%E4%BE%86","note":"議會個人官網"}],"social_media":null,"platform":"","param":null,"councilor":"297f1a6cf13147c1beba6454327283cd"},{"url":"http://councils.g0v.tw/api/councilors_terms/232/","election_year":"2002","name":"李銀來","gender":"男","party":"中國國民黨","title":"議員","constituency":null,"county":"臺北市","district":"","in_office":true,"contact_details":null,"term_start":"2002-12-25","term_end":{"date":"2006-12-25"},"education":"國立政治大學行專畢業、國立中興大學法學士、國立政治大學公共行政研究所碩士班。","experience":"臺北市直轄市議會第七、八屆議員。花蓮縣玉里、光復、壽豐鄉鎮公所村里幹事、課員。花蓮縣政府課員。臺北市政府教育局股長、編審、秘書、督學。南港高工、育達商職兼任教師。原住民公共事務促進會理事長。","remark":"","image":"http://www.tcc.gov.tw/../upload/photo/%E6%9D%8E%E9%8A%80%E4%BE%8617.bmp","links":[{"url":"http://www.tcc.gov.tw/Councilor_Content_All.aspx?s=1399&d=390625&n=%E6%9D%8E%E9%8A%80%E4%BE%86","note":"議會個人官網"}],"social_media":null,"platform":"","param":null,"councilor":"297f1a6cf13147c1beba6454327283cd"},{"url":"http://councils.g0v.tw/api/councilors_terms/285/","election_year":"1998","name":"李銀來","gender":"男","party":"中國國民黨","title":"議員","constituency":null,"county":"臺北市","district":"","in_office":true,"contact_details":null,"term_start":"1998-12-25","term_end":{"date":"2002-12-25"},"education":"國立政治大學行專畢業、國立中興大學法學士、國立政治大學公共行政研究所碩士班結業。","experience":"花蓮縣政府新聞股代股長、臺北市政府教育局股長、秘書、督學(簡記)。原住民公共事務促進會理事長。國民黨原住民黨部委員。臺北市直轄市議會第七屆議員。","remark":"","image":"http://www.tcc.gov.tw/../upload/photo/%E6%9D%8E%E9%8A%80%E4%BE%8616.jpg","links":[{"url":"http://www.tcc.gov.tw/Councilor_Content_All.aspx?s=1754&d=390625&n=%E6%9D%8E%E9%8A%80%E4%BE%86","note":"議會個人官網"}],"social_media":null,"platform":"","param":null,"councilor":"297f1a6cf13147c1beba6454327283cd"},{"url":"http://councils.g0v.tw/api/councilors_terms/339/","election_year":"1994","name":"李銀來","gender":"男","party":"中國國民黨","title":"議員","constituency":null,"county":"臺北市","district":"","in_office":true,"contact_details":null,"term_start":"1994-12-25","term_end":{"date":"1998-12-25"},"education":"國立中興大學法學士、國立政治大學公共行政研究所碩士班四十分結業。","experience":"壽豐鄉公所村幹事、花蓮縣政府課員、臺北市政府教育局股長、編審、秘書、督學。國中、高中職教師。","remark":"","image":"http://www.tcc.gov.tw/../upload/photo/%E6%9D%8E%E9%8A%80%E4%BE%8615.jpg","links":[{"url":"http://www.tcc.gov.tw/Councilor_Content_All.aspx?s=1524&d=390625&n=%E6%9D%8E%E9%8A%80%E4%BE%86","note":"議會個人官網"}],"social_media":null,"platform":"","param":null,"councilor":"297f1a6cf13147c1beba6454327283cd"}],"uid":"297f1a6cf13147c1beba6454327283cd","name":"李銀來","birth":"1939-06-25","former_names":"","identifiers":["李銀來","李銀來"]},{"url":"http://councils.g0v.tw/api/councilors/936/","each_terms":[{"url":"http://councils.g0v.tw/api/councilors_terms/1680/","election_year":"1958","name":"黃萬生","gender":"","party":"","title":"議員","constituency":7,"county":"新北市","district":"瑞芳鎮、貢寮鄉、雙溪鄉、平溪鄉","in_office":true,"contact_details":null,"term_start":"1958-02-21","term_end":{"date":"1961-02-20"},"education":"東京醫學大學畢業","experience":"鄉民代表會主席\n地方法院醫師\n臺北縣議會第4屆議員","remark":null,"image":"http://www.ntp.gov.tw/UpFile/CouncilorFile/TTCC0460.jpg","links":[{"url":"http://www.ntp.gov.tw/content/history/history01-5-p.aspx?sid=217","note":"議會個人官網"}],"social_media":null,"platform":"","param":null,"councilor":"2378419b5884407e85951e4d8312550e"}],"uid":"2378419b5884407e85951e4d8312550e","name":"黃萬生","birth":null,"former_names":"","identifiers":["黃萬生","黄萬生"]},{"url":"http://councils.g0v.tw/api/councilors/937/","each_terms":[{"url":"http://councils.g0v.tw/api/councilors_terms/1681/","election_year":"1958","name":"陳文祥","gender":"","party":"","title":"議員","constituency":7,"county":"新北市","district":"瑞芳鎮、貢寮鄉、雙溪鄉、平溪鄉","in_office":true,"contact_details":null,"term_start":"1958-02-21","term_end":{"date":"1961-02-20"},"education":"日本中野高等無線電學校\n臺灣總督府氣象技術養成所","experience":"瑞芳鎮民代表\n臺陽金礦廠產業工會監事\n九份地區給水委員會委員\n瑞芳鎮民眾服務分社理事\n臺北縣議會第4、5、6屆議員","remark":null,"image":"http://www.ntp.gov.tw/UpFile/CouncilorFile/TTCC0459.jpg","links":[{"url":"http://www.ntp.gov.tw/content/history/history01-5-p.aspx?sid=216","note":"議會個人官網"}],"social_media":null,"platform":"","param":null,"councilor":"9707b7388b5741b1a303e44492c7b351"},{"url":"http://councils.g0v.tw/api/councilors_terms/1751/","election_year":"1961","name":"陳文祥","gender":"","party":"","title":"議員","constituency":7,"county":"新北市","district":"瑞芳鎮、貢寮鄉、雙溪鄉、平溪鄉","in_office":true,"contact_details":null,"term_start":"1961-02-21","term_end":{"date":"1964-02-20"},"education":"日本中野高等無線電學校\n臺灣總督府氣象技術養成所","experience":"瑞芳鎮民代表\n臺陽金礦廠產業工會監事\n九份地區給水委員會委員\n瑞芳鎮民眾服務分社理事\n臺北縣議會第4、5、6屆議員","remark":null,"image":"http://www.ntp.gov.tw/UpFile/CouncilorFile/TTCC0459.jpg","links":[{"url":"http://www.ntp.gov.tw/content/history/history01-5-p.aspx?sid=216","note":"議會個人官網"}],"social_media":null,"platform":"","param":null,"councilor":"9707b7388b5741b1a303e44492c7b351"},{"url":"http://councils.g0v.tw/api/councilors_terms/1816/","election_year":"1964","name":"陳文祥","gender":"","party":"","title":"議員","constituency":8,"county":"新北市","district":"瑞芳鎮、雙溪鄉、貢寮鄉、平溪鄉","in_office":true,"contact_details":null,"term_start":"1964-02-21","term_end":{"date":"1968-02-20"},"education":"日本中野高等無線電學校\n臺灣總督府氣象技術養成所","experience":"瑞芳鎮民代表\n臺陽金礦廠產業工會監事\n九份地區給水委員會委員\n瑞芳鎮民眾服務分社理事\n臺北縣議會第4、5、6屆議員","remark":null,"image":"http://www.ntp.gov.tw/UpFile/CouncilorFile/TTCC0459.jpg","links":[{"url":"http://www.ntp.gov.tw/content/history/history01-5-p.aspx?sid=216","note":"議會個人官網"}],"social_media":null,"platform":"","param":null,"councilor":"9707b7388b5741b1a303e44492c7b351"}],"uid":"9707b7388b5741b1a303e44492c7b351","name":"陳文祥","birth":null,"former_names":"","identifiers":["陳文祥"]},{"url":"http://councils.g0v.tw/api/councilors/240/","each_terms":[{"url":"http://councils.g0v.tw/api/councilors_terms/444/","election_year":"1985","name":"李定中","gender":"女","party":"民主進步黨","title":"議員","constituency":null,"county":"臺北市","district":"","in_office":true,"contact_details":null,"term_start":"1985-12-25","term_end":{"date":"1989-12-25"},"education":"中山國小畢業、臺北市立女中畢業、國立政治大學企業管理學系畢業。","experience":"臺灣電力公司材料處股長、臺北市國際職業婦女協會發起人、秘書、理事、雷聲雜誌社顧問、立法委員雷渝齊服務處顧問。","remark":"","image":"http://www.tcc.gov.tw/../upload/photo/%E6%9D%8E%E5%AE%9A%E4%B8%AD13.jpg","links":[{"url":"http://www.tcc.gov.tw/Councilor_Content_All.aspx?s=1451&d=411015&n=%E6%9D%8E%E5%AE%9A%E4%B8%AD","note":"議會個人官網"}],"social_media":null,"platform":"","param":null,"councilor":"3c305de3d49e4cfe9cd17ce7f05b0138"}],"uid":"3c305de3d49e4cfe9cd17ce7f05b0138","name":"李定中","birth":"1941-10-15","former_names":"","identifiers":["李定中","李定中"]},{"url":"http://councils.g0v.tw/api/councilors/946/","each_terms":[{"url":"http://councils.g0v.tw/api/councilors_terms/1699/","election_year":"1958","name":"李金龍","gender":"","party":"","title":"議員","constituency":4,"county":"新北市","district":"淡水鎮、三芝鄉、石門鄉、八里鄉","in_office":true,"contact_details":null,"term_start":"1958-02-21","term_end":{"date":"1961-02-20"},"education":"國校畢業\n私塾四年","experience":"臺北縣議會第4、5屆議員\n三芝協議會議員\n農會理事長\n租佃委員會委員\n臺灣省淡水農田水利會常務委員\n三芝鄉兵役協會委員\n農業推廣教育輔導委員會委員","remark":null,"image":"http://www.ntp.gov.tw/UpFile/CouncilorFile/TTCC0441.jpg","links":[{"url":"http://www.ntp.gov.tw/content/history/history01-5-p.aspx?sid=207","note":"議會個人官網"}],"social_media":null,"platform":"","param":null,"councilor":"47192ad095a246d2b8eef7af4f6f9a26"},{"url":"http://councils.g0v.tw/api/councilors_terms/1773/","election_year":"1961","name":"李金龍","gender":"","party":"","title":"議員","constituency":4,"county":"新北市","district":"淡水鎮、三芝鄉、石門鄉、八里鄉","in_office":true,"contact_details":null,"term_start":"1961-02-21","term_end":{"date":"1964-02-20"},"education":"國校畢業\n私塾四年","experience":"臺北縣議會第4、5屆議員\n三芝協議會議員\n農會理事長\n租佃委員會委員\n臺灣省淡水農田水利會常務委員\n三芝鄉兵役協會委員\n農業推廣教育輔導委員會委員","remark":null,"image":"http://www.ntp.gov.tw/UpFile/CouncilorFile/TTCC0441.jpg","links":[{"url":"http://www.ntp.gov.tw/content/history/history01-5-p.aspx?sid=207","note":"議會個人官網"}],"social_media":null,"platform":"","param":null,"councilor":"47192ad095a246d2b8eef7af4f6f9a26"}],"uid":"47192ad095a246d2b8eef7af4f6f9a26","name":"李金龍","birth":null,"former_names":"","identifiers":["李金龍","李金龍"]},{"url":"http://councils.g0v.tw/api/councilors/384/","each_terms":[{"url":"http://councils.g0v.tw/api/councilors_terms/722/","election_year":"2010","name":"唐惠美","gender":"","party":"中國國民黨","title":"議員","constituency":15,"county":"高雄市","district":"居住茂林區、大社區、大樹區、仁武區、鳥松區、鳳山區、大寮區、旗津區、苓雅區、前鎮區、小港區、林園區之山地原住民","in_office":true,"contact_details":[{"type":"voice","value":"7021557","label":"傳真"},{"type":"fax","value":"7021557","label":"傳真"},{"type":"address","value":"851茂林區茂林里18號","label":"通訊處"}],"term_start":"2010-12-25","term_end":{"date":"2014-12-25"},"education":"省立內埔農工","experience":"國立空中大學肄業\n中國國民黨第十八屆黨代表\n中國國民黨茂林、茄萣、六龜、瑪家、霧台、三地門鄉黨部主任\n屏東縣南和國小、高雄縣茂林國小代理教師\n革命實踐研究所原住民菁英班第二期結業\n榮獲中央華夏獎章、青溪婦聯楷模","remark":null,"image":"http://www.kcc.gov.tw/Upload/PeriodMembers/0701067.jpg","links":[{"url":"http://www.kcc.gov.tw/PeriodMembers/Introduction.aspx?KeyID=1732","note":"議會個人官網"}],"social_media":null,"platform":"一、落實原住民基本法，推動建構高雄市政策基礎、制定高雄市原住民族各項權益與福利。\n二、推動原住民地區災後重建、重整、重劃、興業四項計畫。\n1.推動原住民88災後土地重劃、重整及地目變更計畫，加速重建改善道路、橋樑、護堤、水電力公共設施。\n2.重視山區村落安全與遷村問題，強化村落軟硬體設施，營造一個有文化、有特色的無障礙生活空間。\n3.推動原住民農業精化、觀光多元，建立產銷、行銷管道，結合人文、景觀、生態發展文化、農特、民宿、餐飲、休閒旅遊等事業。並請政府編列經費做專業指導、輔導訓練和補助獎勵。\n4.爭取原住民地區造林，除現行禁伐補償外，離水域150公尺外的造林，增編為水資源及國安林保護區全面補助。\n三、爭取都會原住民在各地區將機關與學校之閒置空間提供為各協會組織與宗教團體辦公、聚會及文化傳承之處所。\n四、保障原住民就業與工作權利，爭取籌設「高雄市原住民族勞工權益工會」。以確保原住民就業市場工作權益。\n五、爭取原住民婦女權益，推動成立「原住民婦女人力急智輔導、訓練中心」。暢通婦女就業管道，提升婦女就業機會。\n六、爭取原住民各項醫療及健檢費用之補助，以提升原住民衛生保健水準，拉近一般國民平均壽命之差距。\n七、督促各機關團體放寬、簡化原住民各項申請優惠、補助、補償審核手續與資格標準，使人人都會申請為原則。\n八、爭取原住民撫育、托育、教育各項經費之補助與全免。","param":{"bills_role_statistics":{"total":103,"priproposer":39,"sponsor":39,"cosponsor":64},"votes_decision_statistics":{"abstain":0,"disagree":0,"not_voting":0,"total":3,"agree":3,"conflict":0},"diversity":{"中國國民黨":0.7007575757575754,"民主進步黨":0.07575757575757573,"親民黨":0.03787878787878788,"無黨籍":0.18560606060606064},"suggestions_years":{"count":40,"sum":22648073,"years":[{"count":18,"sum":11587849,"suggest_year":"2012","small_purchase":2},{"count":14,"sum":11060224,"suggest_year":"2013","small_purchase":1},{"count":8,"sum":0,"suggest_year":"2014","small_purchase":8}]},"attendance_statistics":{"absent":2,"total":392},"suggestions_associations":[{"count":3,"sum":0,"label":"社區發展協會"},{"count":0,"sum":0,"label":"學會"},{"count":0,"sum":0,"label":"商會"},{"count":0,"sum":0,"label":"公會"},{"count":0,"sum":0,"label":"協進會"},{"count":0,"sum":0,"label":"促進會"},{"count":0,"sum":0,"label":"研習會"},{"count":0,"sum":0,"label":"婦聯會"},{"count":0,"sum":0,"label":"婦女會"},{"count":0,"sum":0,"label":"體育會"},{"count":0,"sum":0,"label":"同心會"},{"count":0,"sum":0,"label":"農會"},{"count":0,"sum":0,"label":"早起會"},{"count":0,"sum":0,"label":"健身會"},{"count":0,"sum":0,"label":"宗親會"},{"count":0,"sum":0,"label":"功德會"},{"count":0,"sum":0,"label":"商業會"},{"count":0,"sum":0,"label":"長青會"},{"count":0,"sum":0,"label":"民眾服務社"},{"count":0,"sum":0,"label":"聯盟"}],"bills_party_diversity":[{"party":"中國國民黨","ratio":0.7403598971722365},{"party":"無黨籍","ratio":0.16709511568123395},{"party":"民主進步黨","ratio":0.061696658097686374},{"party":"親民黨","ratio":0.030848329048843187}],"suggestions_piles":[{"count":11,"tokens":"國中|國小","sum":10488849,"label":"國中、國小"},{"count":4,"tokens":"警察局|分局","sum":1104000,"label":"警察局"},{"count":3,"tokens":"協會|學會|商會|公會|協進會|促進會|研習會|婦聯會|婦女會|體育會|同心會|農會|早起會|健身會|宗親會|功德會|商業會|長青會|民眾服務社|聯盟","sum":0,"label":"協會"},{"count":1,"tokens":"辦公室|辦公處","sum":0,"label":"辦公室"},{"count":0,"tokens":"廟|宮","sum":0,"label":"廟"},{"count":0,"tokens":"消防局|消防隊|分隊|中隊","sum":0,"label":"消防局"}]},"councilor":"7f0acc7f54884026a8068d84415a2f17"},{"url":"http://councils.g0v.tw/api/councilors_terms/3313/","election_year":"2014","name":"唐惠美","gender":"女","party":"中國國民黨","title":"議員","constituency":15,"county":"高雄市","district":"居住茂林區、大社區、大樹區、仁武區、鳥松區、鳳山區、大寮區、旗津區、苓雅區、前鎮區、小港區、林園區之山地原住民","in_office":true,"contact_details":[{"type":"voice","value":"7021557","label":"聯絡電話"},{"type":"address","value":"830鳳山區仁愛路20號","label":"通訊地址"},{"type":"fax","value":"7022300","label":"傳真電話"}],"term_start":"2014-12-25","term_end":{"date":"2018-12-24"},"education":"一、仁愛國小\n二、明正國中\n三、國立內埔農工\n四、國立空中大學肄業","experience":"一、中國國民黨十八‧十九屆黨代表\n二、中國國民黨茂林、茄萣、六龜、瑪家、霧台、三地門鄉黨部主任\n三、茂林國家風景區管理處行政助理\n四、南和、茂林國小代理教師\n五、革命實踐研究院菁英班結業\n六、榮獲中央力行 華夏獎章 婦聯楷模","remark":null,"image":"http://www.kcc.gov.tw/Upload/PeriodMembers/0702066.jpg","links":[{"url":"http://www.kcc.gov.tw/PeriodMembers/Introduction.aspx?KeyID=1825","note":"議會個人官網"},{"url":"http://www.facebook.com/profile.php?id=100002210340699","note":"個人臉書"}],"social_media":null,"platform":"一、落實原住民基本法，推動建構高雄市原住民政策基礎，保障高雄市原住民各項福利與權益。\n二、落實服務工作，積極推展原住民相關業務。\n三、整合各單位資源，結合各社團、協會、教會、同鄉會等團體共同發展，建立夥伴關係。\n四、協助原區公所及代表會訂定各項執行要點，以利推動原區的事務進行，確保區民之權益。\n五、爭取地方建設，延續八八重建、復建工作未盡事宜，落實城鄉均衡發展。\n六、爭取原住民地區公墓重整規畫，推動公墓更新興建納骨牆。\n七、發展原住民文化特色，強化母語教育，倡導優質文化傳承，加強培育、訓練各項技能。\n八、爭取原住民預算寬列，公益彩券分配數增加，以利各項事務推動與發展。\n九、推動原住民各項產業計畫：\n1.農業再生精緻計畫。\n2.文化觀光產業計畫。\n3.傳統工藝特色計畫。\n4.溫泉開發計畫。\n5.餐飲、民宿推廣計畫等。\n十、爭取都會區，規劃各區或併區成立原住民老人關懷站。\n十一、督促原民會擬訂都會區教會處所租賃補助管理辦法，提供教友優質環境，強化教會宣教功能。\n十二、落實服務機制，強化監督功能，力求市民各項權力與福利，為百姓守住最後一道牆。","param":{"suggestions_years":{"count":1,"sum":2500000,"years":[{"count":1,"sum":2500000,"suggest_year":"2015","small_purchase":0}]},"bills_role_statistics":{"total":126,"priproposer":4,"sponsor":4,"cosponsor":122},"attendance_statistics":{"absent":0,"total":243},"suggestions_associations":[{"count":0,"sum":0,"label":"社區發展協會"},{"count":0,"sum":0,"label":"學會"},{"count":0,"sum":0,"label":"商會"},{"count":0,"sum":0,"label":"公會"},{"count":0,"sum":0,"label":"協進會"},{"count":0,"sum":0,"label":"促進會"},{"count":0,"sum":0,"label":"研習會"},{"count":0,"sum":0,"label":"婦聯會"},{"count":0,"sum":0,"label":"婦女會"},{"count":0,"sum":0,"label":"體育會"},{"count":0,"sum":0,"label":"同心會"},{"count":0,"sum":0,"label":"農會"},{"count":0,"sum":0,"label":"早起會"},{"count":0,"sum":0,"label":"健身會"},{"count":0,"sum":0,"label":"宗親會"},{"count":0,"sum":0,"label":"功德會"},{"count":0,"sum":0,"label":"商業會"},{"count":0,"sum":0,"label":"長青會"},{"count":0,"sum":0,"label":"民眾服務社"},{"count":0,"sum":0,"label":"聯盟"}],"bills_party_diversity":[{"party":"中國國民黨","ratio":0.9680851063829787},{"party":"民主進步黨","ratio":0.014893617021276596},{"party":"無黨籍","ratio":0.01276595744680851},{"party":"無黨團結聯盟","ratio":0.002127659574468085},{"party":"親民黨","ratio":0.002127659574468085}],"suggestions_piles":[{"count":0,"tokens":"協會|學會|商會|公會|協進會|促進會|研習會|婦聯會|婦女會|體育會|同心會|農會|早起會|健身會|宗親會|功德會|商業會|長青會|民眾服務社|聯盟","sum":0,"label":"協會"},{"count":0,"tokens":"辦公室|辦公處","sum":0,"label":"辦公室"},{"count":0,"tokens":"廟|宮","sum":0,"label":"廟"},{"count":0,"tokens":"警察局|分局","sum":0,"label":"警察局"},{"count":0,"tokens":"消防局|消防隊|分隊|中隊","sum":0,"label":"消防局"},{"count":0,"tokens":"國中|國小","sum":0,"label":"國中、國小"}]},"councilor":"7f0acc7f54884026a8068d84415a2f17"}],"uid":"7f0acc7f54884026a8068d84415a2f17","name":"唐惠美","birth":null,"former_names":"","identifiers":["唐惠美"]},{"url":"http://councils.g0v.tw/api/councilors/1128/","each_terms":[{"url":"http://councils.g0v.tw/api/councilors_terms/2974/","election_year":"2014","name":"陳孝仁","gender":"男","party":"中國國民黨","title":"議員","constituency":13,"county":"宜蘭縣","district":"平地原住民","in_office":true,"contact_details":[{"type":"email","value":"mebo1201@gmail.com","label":"E-mail"},{"type":"voice","value":"9981348","label":"服務處所電話"},{"type":"address","value":"南澳鄉蘇花路2段491號","label":"服務處所"}],"term_start":"2014-12-25","term_end":{"date":"2018-12-25"},"education":"國立花蓮師範學院","experience":"1.國立台灣師範大學國文研究所四十學分班。\n2.南澳鄉團委會總幹事、會長。\n3.南澳鄉後備軍人輔導中心組長、主任。\n4.南澳鄉碧候國小、南澳國小教師、主任。\n5.現任宜蘭縣縣議員。","remark":null,"image":"http://www.ilcc.gov.tw/pictures/people/A1834.JPG","links":[{"url":"http://www.ilcc.gov.tw/Html/H_05/H_0501.asp?GoOut=&pic=13&clique=KMT&User_id=A1834","note":"議會個人官網"}],"social_media":null,"platform":"一、爭取原住民土地及自然資源權益。協助重新檢討原住民保留地多年不當之\n政策，還給原住民農林該有之權益。\n二、增加原住民在地就業機會及享有公平待遇。\n三、落實原鄉部落經濟產業培育及輔導、開拓原鄉農特產品產銷管道。\n四、維護原住民文化教育權，追求原住民教育文化桌越發展，推動學校發展文\n化藝術及體育等特色。\n五、增進兒童、婦女、老人及身心障礙者福利，提升原鄉醫護資源，長期照護\n服務及部落托育幼兒照顧政策。\n六、積極爭取及協調恢復辦理原住民警員專班特考，培育原住民優秀人才投入\n警界服務。","param":{"attendance_statistics":{"absent":1,"total":262},"bills_role_statistics":{"total":112,"priproposer":12,"sponsor":13,"cosponsor":99},"bills_party_diversity":[{"party":"民主進步黨","ratio":0.3669724770642202},{"party":"中國國民黨","ratio":0.3653044203502919},{"party":"無黨籍","ratio":0.16180150125104253},{"party":"在野問政聯盟","ratio":0.10592160133444536}]},"councilor":"80f85ec69d6c4441ba44f086798b1724"},{"url":"http://councils.g0v.tw/api/councilors_terms/2054/","election_year":"2009","name":"陳孝仁","gender":"","party":"中國國民黨","title":"議員","constituency":12,"county":"宜蘭縣","district":"山地原住民","in_office":true,"contact_details":[{"type":"address","value":"南澳鄉蘇花路2段491號","label":"服務處所"},{"type":"voice","value":"9981348","label":"服務處所電話"}],"term_start":"2009-12-25","term_end":{"date":"2014-12-25"},"education":"國立花蓮師範學院","experience":"宜蘭縣議會第十七屆議員。\n一、南澳鄉團委會總幹事、會長。\n二、南澳鄉後備軍人輔導中心組長、主任。\n三、南澳鄉碧候國小總務主任。\n四、南澳鄉南澳國小教導主任。\n五、國立師範大學國文研究所四十學分班。","remark":null,"image":"http://www.ilcc.gov.tw/pictures/people/A1733.JPG","links":[{"url":"http://www.ilcc.gov.tw/Html/H_05/H_0501.asp?GoOut=&pic=12&clique=KMT&User_id=A1733","note":"議會個人官網"}],"social_media":null,"platform":"一、提昇原住民教育，增加投注社會福利資源，重建部落道德倫理，營造部\n落尊榮感。\n二、建議增劃編原住民保留地，安定原住民生計及促進原住民在地就業能\n力。\n三、推動部落永續及產業發展，設置提供原住民商圈及特色文化，振興部落\n經濟。\n四、善用森林與自然資源及溫泉開發與利用，推動自然生態旅遊及維護，創\n造觀光產業。\n五、充實原鄉醫療資源及消防設備，提供高品質醫療服務及消防救災功能。\n六、促成興建蘇花高，解決交通運輸功能，均衡鄉村及都市發展，提高土地\n使用方便。","param":{"bills_role_statistics":{"total":115,"priproposer":11,"sponsor":11,"cosponsor":104},"diversity":{"中國國民黨":0.7060618877027189,"民主進步黨":0.20609475222752205,"無黨籍":0.08784336006975833},"bills_party_diversity":[{"party":"中國國民黨","ratio":0.626},{"party":"民主進步黨","ratio":0.269},{"party":"無黨籍","ratio":0.105}]},"councilor":"80f85ec69d6c4441ba44f086798b1724"}],"uid":"80f85ec69d6c4441ba44f086798b1724","name":"陳孝仁","birth":null,"former_names":"","identifiers":["陳孝仁"]},{"url":"http://councils.g0v.tw/api/councilors/1767/","each_terms":[{"url":"http://councils.g0v.tw/api/councilors_terms/2975/","election_year":"2014","name":"陳傑麟","gender":"男","party":"無黨籍","title":"議員","constituency":12,"county":"宜蘭縣","district":"山地原住民","in_office":true,"contact_details":[{"type":"email","value":"chiehlin77@yahoo.com.tw","label":"E-mail"},{"type":"voice","value":"9228396","label":"服務處所電話"},{"type":"address","value":"員山鄉金古三路70巷77號","label":"服務處所"}],"term_start":"2014-12-25","term_end":{"date":"2018-12-25"},"education":"佛光大學公共事務研究所","experience":"1.大同鄉公所村幹事、課員、圖書館管理員、托兒所所長、清潔隊隊長。\n2.大同鄉第十四、十五屆鄉長。\n3.宜蘭縣政府民政處副處長、秘書。\n4.考試：臺灣省基層特考丙等及格、全國原住民特考丙等、乙等及格。","remark":null,"image":"http://www.ilcc.gov.tw/pictures/people/A1833.JPG","links":[{"url":"http://www.ilcc.gov.tw/Html/H_05/H_0501.asp?GoOut=&pic=12&clique=&User_id=A1833","note":"議會個人官網"}],"social_media":null,"platform":"「拋開藍綠，專注三中(中小企業、中產階級、中低收入)民主」為親民黨候選\n人共同信念。「要產業、拼建設」是原住民部落永續發展的根基。以此信念，\n廣納五大先見，十五項督促。產業創先：\n一、爭取多元農業休閒產業，推動農村再生，協助特色農產品行銷。\n二、建構「生態鄉」風貌，連結社區產業推動生態旅遊。\n三、建置泰雅山徑，塑造部落優質永續生態環境。建設爭先；\n四、督促成立原住民多功能行政中心，提供原住民推動產業發展場所。\n五、積極爭取農業設施，降低生產成本，改善農路橋樑系統，以利農特產品運\n輸。\n六、爭取治山防洪工程，加強部落安全設施，保障人民生命財產安全。福利為\n先；\n七、爭取設立原住民行政局(處)，統籌原住民事務，健全原住民事務推展。\n八、捍衛原住民權益，提供專業律師法律諮詢；關懷弱勢家庭，落實老人關懷\n照顧。\n九、改善山地醫療及防疫品質，確保原住民身心健康。就業搶先；\n十、爭取公益彩券基金，提供原鄉就業方案。\n十一、開辦適性在地職訓類別，提升原民就業競爭力。\n十二、建置原住民服務網路，以迅速提供原住民就業服務。教文優先；\n十三、協助部落大學暨泰雅族南湖大山部落學校推動終身學習教育。\n十四、落實原住民學生課後輔導；成立課程發展中心。\n十五、爭取教育資源，充實體育設備，培育原住民人才。","param":{"attendance_statistics":{"absent":8,"total":262},"bills_role_statistics":{"total":154,"priproposer":11,"sponsor":11,"cosponsor":143},"bills_party_diversity":[{"party":"民主進步黨","ratio":0.4519286125503742},{"party":"無黨籍","ratio":0.23258491652274035},{"party":"中國國民黨","ratio":0.22913068508923431},{"party":"在野問政聯盟","ratio":0.08635578583765112}]},"councilor":"292410f17ad740b59b3665f393baa544"}],"uid":"292410f17ad740b59b3665f393baa544","name":"陳傑麟","birth":null,"former_names":"","identifiers":["陳傑麟"]},{"url":"http://councils.g0v.tw/api/councilors/1127/","each_terms":[{"url":"http://councils.g0v.tw/api/councilors_terms/2976/","election_year":"2014","name":"陳正男","gender":"男","party":"民主進步黨","title":"議員","constituency":10,"county":"宜蘭縣","district":"蘇澳","in_office":true,"contact_details":[{"type":"email","value":"gike145@yahoo.com.tw","label":"E-mail"},{"type":"voice","value":"9961800","label":"服務處所電話"},{"type":"address","value":"蘇澳鎮南安里南安路105號","label":"服務處所"}],"term_start":"2014-12-25","term_end":{"date":"2018-12-25"},"education":"國立台北商專","experience":"1.宜蘭縣 議員。\n2.南方澳南天宮金媽祖 主任委員。\n3.宜蘭縣第十三、十五、十六、十七屆議員。\n4.蘇澳鎮第十三、十四屆 鎮民代表。","remark":null,"image":"http://www.ilcc.gov.tw/pictures/people/A1831.JPG","links":[{"url":"http://www.ilcc.gov.tw/Html/H_05/H_0501.asp?GoOut=&pic=10&clique=DDP&User_id=A1831","note":"議會個人官網"}],"social_media":null,"platform":"一、蘇澳新馬地區都市計劃區內，支持市地重劃制的開發方式，加速新馬地區\n發展。\n二、爭取豆腐岬遊憩專業區，納入東北角國家風景區，並延伸到南方澳內埤公\n園，以利地方發展觀光休閒。\n三、和平電廠污染本縣海域，嚴重影響漁場資源繁殖及成長促請有關單一改善\n排放污染及回饋本縣蘇澳區漁民損失。\n四、爭取交通部鐵路局北迴鐵路南澳區段改善為鐵路高架化，以配合蘇花改該\n處交通網交會點之行車安全。\n五、建請政府重視農業區及反映農漁民心聲，以維護農漁永續經營，確保農漁\n民權益及福利。\n六、重視婦幼及弱勢團體福利，落實社會福利制度。\n七、爭取推動蘇澳鎮教育、文化、社會、經濟、交通等各項建設提高人民生活\n品質。\n八、爭取蘇澳鎮南方澳港區商場改建及增設公共停車場，以利地方工商觀光發\n展。","param":{"attendance_statistics":{"absent":43,"total":262},"bills_role_statistics":{"total":79,"priproposer":11,"sponsor":11,"cosponsor":68},"bills_party_diversity":[{"party":"民主進步黨","ratio":0.4762386248736097},{"party":"中國國民黨","ratio":0.26188068756319516},{"party":"在野問政聯盟","ratio":0.13346814964610718},{"party":"無黨籍","ratio":0.12841253791708795}]},"councilor":"305639171b954f5b9daec6139b0bfca1"},{"url":"http://councils.g0v.tw/api/councilors_terms/2053/","election_year":"2009","name":"陳正男","gender":"","party":"無黨籍","title":"議員","constituency":10,"county":"宜蘭縣","district":"蘇澳","in_office":true,"contact_details":[{"type":"address","value":"蘇澳鎮南安里南安路105號","label":"服務處所"},{"type":"voice","value":"9961800","label":"服務處所電話"}],"term_start":"2009-12-25","term_end":{"date":"2014-12-25"},"education":"國立台北商專畢業","experience":"宜蘭縣議會第十七屆議員。\n宜蘭縣第十三、十五、十六屆議員。\n蘇澳鎮第十三、十四屆鎮民代表。\n南方澳南天宮金媽祖主任委員。\n蘇澳鎮義守維安促進會副團長。\n蘇澳鎮聖湖社區守望相助隊副團長。\n南方澳義消分隊顧問。","remark":null,"image":"http://www.ilcc.gov.tw/pictures/people/A1731.JPG","links":[{"url":"http://www.ilcc.gov.tw/Html/H_05/H_0501.asp?GoOut=&pic=10&clique=&User_id=A1731","note":"議會個人官網"}],"social_media":null,"platform":"1.爭取蘇澳鎮南方澳港區商場改建及增設公共停車場，以利工商發展。\n2.爭取南方澳豆腐岬風景區納入東北角國家風景區管理，並延伸到南方澳內\n埤公園，以利發展觀光。\n3.爭取蘇澳鎮新馬地區都市更新細部規劃，早日完成，促進地方繁榮。\n4.建請政府在蘇澳鎮蘇港路及蘇東路交叉路口，設高架立體車道，以疏解蘇\n澳市區假日交通流暢。\n5.請政府重視農漁業及反映農漁民心聲。\n6.爭取蘇澳榮民醫院為公設安養中心，對人民身體健康之維護。\n7.重視婦幼及弱勢團體福利，落實社會福利制度。\n8.爭取提供外籍配偶諮詢輔導及服務管道，協助適應台灣文化及生活環境。\n9.促進全面整頓治安，加強警民聯防打擊犯罪，維護社會安寧。\n10.爭取推動蘇澳鎮教育、文化、社會、經濟、交通等各項建設提高人民生活\n品質。","param":{"bills_role_statistics":{"total":93,"priproposer":11,"sponsor":13,"cosponsor":80},"diversity":{"中國國民黨":0.2858168803820976,"民主進步黨":0.40362897616733917,"無黨籍":0.31055414345056276},"bills_party_diversity":[{"party":"民主進步黨","ratio":0.41857659831121835},{"party":"中國國民黨","ratio":0.3232810615199035},{"party":"無黨籍","ratio":0.25814234016887816}]},"councilor":"305639171b954f5b9daec6139b0bfca1"}],"uid":"305639171b954f5b9daec6139b0bfca1","name":"陳正男","birth":null,"former_names":"","identifiers":["陳正男"]},{"url":"http://councils.g0v.tw/api/councilors/1126/","each_terms":[{"url":"http://councils.g0v.tw/api/councilors_terms/2977/","election_year":"2014","name":"林棋山","gender":"男","party":"無黨籍","title":"副議長","constituency":10,"county":"宜蘭縣","district":"蘇澳","in_office":true,"contact_details":[{"type":"email","value":"lincs@ilcc.gov.tw","label":"E-mail"},{"type":"voice","value":"9963986","label":"服務處所電話"},{"type":"address","value":"蘇澳鎮南建里內埤路155號","label":"服務處所"}],"term_start":"2014-12-25","term_end":{"date":"2018-12-25"},"education":"國立臺灣海洋大學","experience":"1.考試院報務員特考及格。\n2.蘇澳鎮南建里長。\n3.蘇澳區漁民代表。\n4.蘇澳鎮長。\n5.宜蘭縣議會議員。\n6.南安國中基金會董事長。\n7.近海魚貨運銷合作社經理。\n8.南方澳、蘇澳義消分隊顧問。\n9.南方澳守望相助隊副團長。\n10.華棋娛樂漁業漁船董事長。\n11.蘇澳國際獅子會副會長。","remark":null,"image":"http://www.ilcc.gov.tw/pictures/people/A1830.JPG","links":[{"url":"http://www.ilcc.gov.tw/Html/H_05/H_0501.asp?GoOut=&pic=10&clique=&User_id=A1830","note":"議會個人官網"}],"social_media":null,"platform":"一、爭取縣府規劃設置蘇澳地區、新馬地區、南方澳地區轉運站及停車場，讓\n蘇澳鎮所有交通系統能(無縫接軌)or(全面暢通)，解決塞車問題，繁榮地\n方。\n二、改善南方澳地區及蘇澳市區排水系統，以解決嚴重的淹水問題。\n三、改建南方澳第一漁市場，為觀光現撈魚市，帶動漁貨價格增加漁民收益。\n四、爭取政府設置公共的漁船上架及加冰廠專區，以利漁民之補給及維修。\n五、爭取觀光局全面規劃蘇澳冷泉休憩專區，使其早日成為國際級的觀光園\n區，帶動地方繁榮。\n六、爭取政府落實蘇澳港自由經濟貿易港區，並盡速設置旅客服務中心，配合\n客輪旅客候船之需求，以符合國際水準，帶來無限商機繁榮地方。\n七、新馬地區細部計畫，應依地主的期望早日變更為市地重劃，以保障地主權\n益，並繁榮地方。\n八、為維護本縣全民之健康及生命安全，要求政府禁止外縣市之廢棄物及垃圾\n運入利澤焚化爐燃燒，杜絕汙染源。(以免造成空氣、水源長期嚴重污染、\n危害本縣縣民之生命健康)。(目前每日約有300-400噸垃圾來自鄰近的花蓮\n縣、新北市、台北市、桃園縣等四個縣市)\n九、爭取設置大南澳地區為國內第一個有機休閒農業區，讓農村全面更新，使\n產業與觀光(相輔相成)。(相互結合及升級)，農民子弟能返鄉投入當地農\n業經營，讓農村子弟、婦女有就業機會並改善農村經濟。\n十、爭取政府放領大南澳地區先民開墾的國有地，早日歸還其子女(擁有完整土\n地所有權)，以符合社會公平正義。","param":{"attendance_statistics":{"absent":17,"total":262},"bills_role_statistics":{"total":73,"priproposer":11,"sponsor":13,"cosponsor":60},"bills_party_diversity":[{"party":"民主進步黨","ratio":0.4288770053475936},{"party":"無黨籍","ratio":0.22780748663101605},{"party":"中國國民黨","ratio":0.22566844919786097},{"party":"在野問政聯盟","ratio":0.11764705882352941}]},"councilor":"fa8d47d4b7a74471962c286d119d322e"},{"url":"http://councils.g0v.tw/api/councilors_terms/2052/","election_year":"2009","name":"林棋山","gender":"","party":"中國國民黨","title":"議員","constituency":10,"county":"宜蘭縣","district":"蘇澳","in_office":true,"contact_details":[{"type":"address","value":"蘇澳鎮南建里內埤路155號","label":"服務處所"},{"type":"voice","value":"9963986","label":"服務處所電話"}],"term_start":"2009-12-25","term_end":{"date":"2014-12-25"},"education":"國立台灣海洋大學畢業","experience":"宜蘭縣議會第十七屆議員。\n一、南安國中教育基金會董事長。\n二、華棋娛樂漁業董事長。\n三、宜蘭縣漁民權益協會總幹事。\n四、宜蘭縣漁貨運銷合作社經理。\n五、義守維安協會顧問副團長。\n六、南方澳義消分隊顧問。\n七、照安宮主任委員、南天宮副主任委員。\n八、南建里里長二屆。\n九、蘇澳鎮鎮長二屆。\n十、考試院報務員特考及格。\n十一、宜蘭縣議會第十六屆議員","remark":null,"image":"http://www.ilcc.gov.tw/pictures/people/A1730.JPG","links":[{"url":"http://www.ilcc.gov.tw/Html/H_05/H_0501.asp?GoOut=&pic=10&clique=KMT&User_id=A1730","note":"議會個人官網"}],"social_media":null,"platform":"一、爭取海軍、海巡加強海上護漁任務，以保障漁民海上作業漁區及海域之\n權利。\n二、爭取設置有機蔬菜、水果專業園區〈新馬、蘇澳、東南澳區等區域〉，\n由園區產業與觀光結合，讓農民及農村婦女在家鄉有就業機會，並提高\n全體農民之收益。\n三、爭取大型醫院前來蘇澳榮民醫院合作，以提升本縣溪南醫療品質保障全\n民的生命健康之維護。\n四、爭取觀光局東管處蘇澳沿岸景觀環境之改善，以利提升人民之生活品\n質。\n五、爭取經濟部工業區將龍德工業區之廠區環境道路及綠美化全面建設為現\n代化及環保工業區，藉以改善附近居民之生活品質。\n六、爭取建設蘇澳鎮、南澳鄉之社福大樓及各公園之公共設施以造福民眾。","param":{"bills_role_statistics":{"total":179,"priproposer":33,"sponsor":36,"cosponsor":143},"diversity":{"中國國民黨":0.633371447234134,"民主進步黨":0.24142187167762624,"無黨籍":0.1252066810882392},"bills_party_diversity":[{"party":"中國國民黨","ratio":0.582109479305741},{"party":"民主進步黨","ratio":0.28304405874499333},{"party":"無黨籍","ratio":0.1348464619492657}]},"councilor":"fa8d47d4b7a74471962c286d119d322e"}],"uid":"fa8d47d4b7a74471962c286d119d322e","name":"林棋山","birth":null,"former_names":"","identifiers":["林棋山","林棋山"]}]}