{"count":1904,"next":"http://councils.g0v.tw/api/councilors/?page=63","previous":"http://councils.g0v.tw/api/councilors/?page=61","results":[{"url":"http://councils.g0v.tw/api/councilors/163/","each_terms":[{"url":"http://councils.g0v.tw/api/councilors_terms/254/","election_year":"1998","name":"鄧家基","gender":"男","party":"親民黨","title":"議員","constituency":null,"county":"臺北市","district":"","in_office":true,"contact_details":null,"term_start":"1998-12-25","term_end":{"date":"2002-12-25"},"education":"建國高級中學、成功大學土木系學士、碩士、美國加州大學洛杉磯校區環境工程碩士、博士。","experience":"1.復興工專講師。2.水美工程公司環境工程師。3.臺北市環保局第一科科長。4.UCLA  土木系助教及研究員。5.環境品質文教基金會高級研究員兼副祕書長。6.新黨臺北市競選暨發展委員會召集人。7.新黨全國競選發展委員會副秘書長。8.臺北市直轄市議會第七屆議員。","remark":"","image":"http://www.tcc.gov.tw/../upload/photo/%E9%84%A7%E5%AE%B6%E5%9F%BA16.bmp","links":[{"url":"http://www.tcc.gov.tw/Councilor_Content_All.aspx?s=1846&d=560524&n=%E9%84%A7%E5%AE%B6%E5%9F%BA","note":"議會個人官網"}],"social_media":null,"platform":"","param":null,"councilor":"9f22cdbef75944dd8104376ced913d55"},{"url":"http://councils.g0v.tw/api/councilors_terms/303/","election_year":"1994","name":"鄧家基","gender":"男","party":"新黨","title":"議員","constituency":null,"county":"臺北市","district":"","in_office":true,"contact_details":null,"term_start":"1994-12-25","term_end":{"date":"1998-12-25"},"education":"成功大學土木系學士、成功大學土木研究所碩士、美國加州大學洛杉磯校區環境工程碩士暨博士。七十年高考環境工程科及格。","experience":"1.復興工專講師。2.水美工程公司環境工程師。3.台北市環保局第一科科長。4.加州大學洛杉磯校區土木暨環境工程系助教及研究員。5.環境品質文教基金會高級研究員兼副祕書長。","remark":"","image":"http://www.tcc.gov.tw/../upload/photo/%E9%84%A7%E5%AE%B6%E5%9F%BA15.jpg","links":[{"url":"http://www.tcc.gov.tw/Councilor_Content_All.aspx?s=1643&d=560524&n=%E9%84%A7%E5%AE%B6%E5%9F%BA","note":"議會個人官網"}],"social_media":null,"platform":"","param":null,"councilor":"9f22cdbef75944dd8104376ced913d55"}],"uid":"9f22cdbef75944dd8104376ced913d55","name":"鄧家基","birth":"1956-05-24","former_names":"","identifiers":["鄧家基"]},{"url":"http://councils.g0v.tw/api/councilors/164/","each_terms":[{"url":"http://councils.g0v.tw/api/councilors_terms/255/","election_year":"1998","name":"蔡秋凰","gender":"女","party":"民主進步黨","title":"議員","constituency":null,"county":"臺北市","district":"","in_office":true,"contact_details":null,"term_start":"1998-12-25","term_end":{"date":"2002-12-25"},"education":"中山女高畢業、東吳大學中文系畢業。","experience":"臺北市議員服務處主任八年，國大代表鄭麗文競選副總幹事，十信工商國文教師。","remark":"","image":"http://www.tcc.gov.tw/../upload/photo/%E8%94%A1%E7%A7%8B%E5%87%B016.bmp","links":[{"url":"http://www.tcc.gov.tw/Councilor_Content_All.aspx?s=1564&d=640204&n=%E8%94%A1%E7%A7%8B%E5%87%B0","note":"議會個人官網"}],"social_media":null,"platform":"","param":null,"councilor":"4f835e2c75be4daa83ee093dbb6d9435"}],"uid":"4f835e2c75be4daa83ee093dbb6d9435","name":"蔡秋凰","birth":"1964-02-04","former_names":"","identifiers":["蔡秋凰"]},{"url":"http://councils.g0v.tw/api/councilors/165/","each_terms":[{"url":"http://councils.g0v.tw/api/councilors_terms/258/","election_year":"1998","name":"葉信義","gender":"男","party":"民主進步黨","title":"議員","constituency":null,"county":"臺北市","district":"","in_office":true,"contact_details":null,"term_start":"1998-12-25","term_end":{"date":"2002-12-25"},"education":"延平國小、蘭州國中、普通檢定考一般行政及格、文化大學地政人員進修班結業","experience":"陳昭南辦公室主任。民進黨全國黨代表。延平國小家長會副會長。鄰江里里長。社區發展協會理事長。民進黨北市黨部執委。陳水扁競選中區副總幹事。南區立委聯合競選顧問。謝明達服務處副主任。永樂社區發展協會顧問。","remark":"","image":"http://www.tcc.gov.tw/../upload/photo/%E8%91%89%E4%BF%A1%E7%BE%A916.jpg","links":[{"url":"http://www.tcc.gov.tw/Councilor_Content_All.aspx?s=1578&d=611223&n=%E8%91%89%E4%BF%A1%E7%BE%A9","note":"議會個人官網"}],"social_media":null,"platform":"","param":null,"councilor":"d60ea68c40a948f5a3b4d9eff186c777"}],"uid":"d60ea68c40a948f5a3b4d9eff186c777","name":"葉信義","birth":"1961-12-23","former_names":"","identifiers":["葉信義"]},{"url":"http://councils.g0v.tw/api/councilors/166/","each_terms":[{"url":"http://councils.g0v.tw/api/councilors_terms/266/","election_year":"1998","name":"陳進棋","gender":"男","party":"中國國民黨","title":"議員","constituency":null,"county":"臺北市","district":"","in_office":true,"contact_details":null,"term_start":"1998-12-25","term_end":{"date":"2002-12-25"},"education":"北投國小、桃源國小、桃源國中、十信工商建築科畢、革實院地方黨務第八期結業。","experience":"臺北市直轄市第七屆北市議員。士林區陽明黨部常委。北投區救國團前會長。北投區警友會主任。德明商專董事。士林地檢署榮譽觀察人。北投區後備軍人輔導中心前主任。北投區義勇中隊指導員。北投區跆拳道委員會主任委員。軍管區後幹班２０８期學員長。","remark":"","image":"http://www.tcc.gov.tw/../upload/photo/%E9%99%B3%E9%80%B2%E6%A3%8B16.jpg","links":[{"url":"http://www.tcc.gov.tw/Councilor_Content_All.aspx?s=2022&d=611110&n=%E9%99%B3%E9%80%B2%E6%A3%8B","note":"議會個人官網"}],"social_media":null,"platform":"","param":null,"councilor":"1cab504a12e1450f8e74a65c2f4dc457"},{"url":"http://councils.g0v.tw/api/councilors_terms/315/","election_year":"1994","name":"陳進棋","gender":"男","party":"中國國民黨","title":"議員","constituency":null,"county":"臺北市","district":"","in_office":true,"contact_details":null,"term_start":"1994-12-25","term_end":{"date":"1998-12-25"},"education":"桃源國小、桃源國中、十信工商建築科畢業、革命實踐研究院結業(刪除地方黨務第八期結業)。","experience":"北投區後備軍人輔導中心主任、北投警察分局交通義警中隊長、北投區義勇警察中隊指導員、北投區救國團前會長、軍管區(刪除後幹班)  208 期學員長、北投區民眾服務社理事、德明商業專科學校董事、十信工商校友會副會長、臺北市慈善會常務理事、臺北市青溪計程車榮譽大隊長、田明建設公司總經理。","remark":"","image":"http://www.tcc.gov.tw/../upload/photo/%E9%99%B3%E9%80%B2%E6%A3%8B15.jpg","links":[{"url":"http://www.tcc.gov.tw/Councilor_Content_All.aspx?s=1710&d=611110&n=%E9%99%B3%E9%80%B2%E6%A3%8B","note":"議會個人官網"}],"social_media":null,"platform":"","param":null,"councilor":"1cab504a12e1450f8e74a65c2f4dc457"}],"uid":"1cab504a12e1450f8e74a65c2f4dc457","name":"陳進棋","birth":"1961-11-10","former_names":"","identifiers":["陳進棋"]},{"url":"http://councils.g0v.tw/api/councilors/1233/","each_terms":[{"url":"http://councils.g0v.tw/api/councilors_terms/2159/","election_year":"2009","name":"羅文欽","gender":"","party":"","title":"議員","constituency":8,"county":"桃園縣","district":"平鎮市","in_office":true,"contact_details":[{"type":"email","value":"polo242@pchome.com.tw","label":"EMAIL"},{"type":"address","value":"平鎮市延平路二段242號","label":"服務處"},{"type":"voice","value":"492-2188","label":"電話"},{"type":"fax","value":"491-9057","label":"傳真"}],"term_start":"2009-12-25","term_end":{"date":"2014-12-25"},"education":"大崙國小、國中\n智光商職\n萬能科技大學環境工程\n開南大學公共行政學系碩士班","experience":"故前縣議員莊順興秘書\n平鎮青商會2004年會長\n中華民國勞工事務基金會副會長\n平鎮市公所專員\n書誠代書事務所所長\n民進黨平鎮市黨部執行委員\n桃園縣議會民進黨團副總召\n桃園縣客家公共事務協會副理事長\n桃園縣羅氏宗親會副理事長\n桃園縣排球委員會主任委員","remark":null,"image":"http://www.tycc.gov.tw/file%5Cperson%5Capp%5Ca634641656505408399%E7%BE%85%E6%96%87%E6%AC%BD%E8%AD%B0%E5%93%A1.jpg","links":[{"url":"http://www.tycc.gov.tw/page.aspx?wtp=1&wnd=204&id=72","note":"議會個人官網"},{"url":"http://www.facebook.com/profile.php?id=100000258577253&ref=ffa#!/profile.php?id=100002572683839","note":"臉書"}],"social_media":null,"platform":"1.督促縣政，落實施政，嚴審預算，社絕浪費公帑。\n2.嚴格監督，基層建設公共建設品，維護縣民權益。\n3.力促國中、小學恢復一本一綱教學制。\n4.協助低收入戶學童營養午餐費之處理。\n5.加強校園安全維護及巡邏增加導護媽媽及校園義工福利。\n6.加強管制上、下課交通安全，爭取國中、小學增設行人陸橋。\n7.促進青少年健康活動，推廣校園：防毒品、防暴力、防色情、防性侵之安全活動。\n8.增設公立托兒所、幼稚園班級數量，改善環境及設備，強化教學品質及師資培訓。\n9.推廣終身教育，廣設市民大學、社會大學，完善終身學習機制。\n10.重視婦女福利，促使婦女人力資源充分發揮。\n11.推行公立老人安養機構、托老單位，爭取提高敬老津貼及老人福利。\n12.促請提撥預算：加強老人、殘障、婦女、新生兒、幼童、農民、低收入戶等弱勢族群\n之社會副利。\n13.爭取設立大型露天劇場及藝廊，提升人文藝術氣質。\n14.督促成立精緻農業資訊網，輔導休閒農業，改善農民生活。\n15.關心勞工，爭取勞工失業輔、維護勞退權益。\n16.爭取經費建設鄉理，繁榮地方，促進商機，增加就業機會，提昇生活品質。\n17.擴大「巡守隊」編制及功能提升，全力爭取各重要路口設置：監視錄影及廣播系統，\n維護治安。\n18.爭取建立廚餘再生回收場維護環境衛生，為「環保志工隊」爭取福利。\n19.為各志工隊爭取福利及提高預算編列。\n20.督促縣府徹底解決颱風停水問題，提高偏遠地區自來水接管率","param":null,"councilor":"35f21259f9974bf78bc38b8fc81dd722"}],"uid":"35f21259f9974bf78bc38b8fc81dd722","name":"羅文欽","birth":null,"former_names":"","identifiers":["羅文欽"]},{"url":"http://councils.g0v.tw/api/councilors/1234/","each_terms":[{"url":"http://councils.g0v.tw/api/councilors_terms/2160/","election_year":"2009","name":"陳賴素美","gender":"","party":"","title":"議員","constituency":9,"county":"桃園縣","district":"楊梅鎮","in_office":true,"contact_details":[{"type":"email","value":"su.mei0110@yahoo.com.tw","label":"EMAIL"},{"type":"email","value":"tycca096@tycc.gov.tw","label":"EMAIL"},{"type":"address","value":"楊梅鎮新農街137號","label":"服務處"},{"type":"voice","value":"478-5555","label":"電話"},{"type":"fax","value":"475-2740","label":"傳真"}],"term_start":"2009-12-25","term_end":{"date":"2014-12-25"},"education":"國立新竹高商\n萬能科技大學畢\n中央大學EMBA企管碩士班\n國家地政士特考及格","experience":"聯合代書事務所負責人\n民進黨桃園縣楊梅市黨部主任委員\n民進黨全國黨代表\n桃園縣議會第16屆縣議員\n現任：\n桃園縣陳姓宗親會副會長\n桃園縣楊梅市陽光婦女會理事長\n桃園縣活力康福養生協會理事長\n民進黨桃園縣黨部執行委員\n桃園縣議會第17屆縣議員","remark":null,"image":"http://www.tycc.gov.tw/file%5Cperson%5Capp%5Ca634810702592252763%E9%99%B3%E8%B3%B4%E7%B4%A0%E7%BE%8E%E8%AD%B0%E5%93%A1122.jpg","links":[{"url":"http://www.tycc.gov.tw/page.aspx?wtp=1&wnd=204&id=78","note":"議會個人官網"},{"url":"http://tw.myblog.yahoo.com/su.mei0110","note":"部落格"},{"url":"http://https://www.facebook.com/people/%E9%99%B3%E8%B3%B4%E7%B4%A0%E7%BE%8E/100003570733627","note":"臉書"}],"social_media":null,"platform":"一、 議員建設款，全數回地方，建設大楊梅。\n二、 爭取社區公園及催生大型運動公園。\n三、 因應人口結構增設區域消防分隊。\n四、 爭取區域老人會館的建立及修繕。\n五、 規劃社區托兒制、保障婦女安心就業。\n六、 規劃車道替代系統、解決交通尖峰時段塞車問題。\n七、 檢討重覆修、挖馬路，造成擾民，公帑的弊病。\n八、 督促警察局落實人民保姆維護治安的工作，並推動社區巡守，保護居家安全，降低\n犯罪率，使治安無死角。\n九、 督促縣政府提高老人年金，建立社會公平正義。\n十、 督促縣政府正視全縣日益嚴重的水患及缺水問題。","param":null,"councilor":"fdcd8d56428f4f9aa2c1c2d67c39c737"},{"url":"http://councils.g0v.tw/api/councilors_terms/11854/","election_year":"2014","name":"陳賴素美","gender":"女","party":"民主進步黨","title":null,"constituency":9,"county":"桃園市","district":"楊梅市","in_office":false,"contact_details":null,"term_start":"2014-12-25","term_end":{"date":"2016-01-31","judicial_links":"","reason":"請辭，就任立委","ref":"","replacement":""},"education":null,"experience":null,"remark":null,"image":"","links":null,"social_media":null,"platform":"","param":{"suggestions_years":{"count":2,"sum":9000000,"years":[{"count":2,"sum":9000000,"suggest_year":"2015","small_purchase":0}]},"bills_role_statistics":{"total":76,"priproposer":6,"sponsor":6,"cosponsor":70},"attendance_statistics":{"absent":0,"total":59},"suggestions_associations":[{"count":0,"sum":0,"label":"社區發展協會"},{"count":0,"sum":0,"label":"學會"},{"count":0,"sum":0,"label":"商會"},{"count":0,"sum":0,"label":"公會"},{"count":0,"sum":0,"label":"協進會"},{"count":0,"sum":0,"label":"促進會"},{"count":0,"sum":0,"label":"研習會"},{"count":0,"sum":0,"label":"婦聯會"},{"count":0,"sum":0,"label":"婦女會"},{"count":0,"sum":0,"label":"體育會"},{"count":0,"sum":0,"label":"同心會"},{"count":0,"sum":0,"label":"農會"},{"count":0,"sum":0,"label":"早起會"},{"count":0,"sum":0,"label":"健身會"},{"count":0,"sum":0,"label":"宗親會"},{"count":0,"sum":0,"label":"功德會"},{"count":0,"sum":0,"label":"商業會"},{"count":0,"sum":0,"label":"長青會"},{"count":0,"sum":0,"label":"民眾服務社"},{"count":0,"sum":0,"label":"聯盟"}],"bills_party_diversity":[{"party":"民主進步黨","ratio":1.0}],"suggestions_piles":[{"count":2,"tokens":"國中|國小","sum":9000000,"label":"國中、國小"},{"count":0,"tokens":"協會|學會|商會|公會|協進會|促進會|研習會|婦聯會|婦女會|體育會|同心會|農會|早起會|健身會|宗親會|功德會|商業會|長青會|民眾服務社|聯盟","sum":0,"label":"協會"},{"count":0,"tokens":"辦公室|辦公處","sum":0,"label":"辦公室"},{"count":0,"tokens":"廟|宮","sum":0,"label":"廟"},{"count":0,"tokens":"警察局|分局","sum":0,"label":"警察局"},{"count":0,"tokens":"消防局|消防隊|分隊|中隊","sum":0,"label":"消防局"}]},"councilor":"fdcd8d56428f4f9aa2c1c2d67c39c737"}],"uid":"fdcd8d56428f4f9aa2c1c2d67c39c737","name":"陳賴素美","birth":null,"former_names":"","identifiers":["陳賴素美","陳頼素美"]},{"url":"http://councils.g0v.tw/api/councilors/1244/","each_terms":[{"url":"http://councils.g0v.tw/api/councilors_terms/12122/","election_year":"2014","name":"魏嘉賢","gender":"男","party":"中國國民黨","title":null,"constituency":1,"county":"花蓮縣","district":"花蓮市","in_office":false,"contact_details":null,"term_start":"2014-12-25","term_end":{"date":"2016-09-02","judicial_links":"","reason":"請辭，就任花蓮市市長","ref":"","replacement":""},"education":null,"experience":null,"remark":null,"image":"","links":null,"social_media":null,"platform":"","param":{"suggestions_years":{"count":49,"sum":6828378,"years":[{"count":30,"sum":3280500,"suggest_year":"2015","small_purchase":23},{"count":19,"sum":3547878,"suggest_year":"2016","small_purchase":17}]},"suggestions_associations":[{"count":0,"sum":0,"label":"社區發展協會"},{"count":0,"sum":0,"label":"學會"},{"count":0,"sum":0,"label":"商會"},{"count":0,"sum":0,"label":"公會"},{"count":0,"sum":0,"label":"協進會"},{"count":0,"sum":0,"label":"促進會"},{"count":0,"sum":0,"label":"研習會"},{"count":0,"sum":0,"label":"婦聯會"},{"count":0,"sum":0,"label":"婦女會"},{"count":0,"sum":0,"label":"體育會"},{"count":0,"sum":0,"label":"同心會"},{"count":0,"sum":0,"label":"農會"},{"count":0,"sum":0,"label":"早起會"},{"count":0,"sum":0,"label":"健身會"},{"count":0,"sum":0,"label":"宗親會"},{"count":0,"sum":0,"label":"功德會"},{"count":0,"sum":0,"label":"商業會"},{"count":0,"sum":0,"label":"長青會"},{"count":0,"sum":0,"label":"民眾服務社"},{"count":0,"sum":0,"label":"聯盟"}],"suggestions_piles":[{"count":23,"tokens":"國中|國小","sum":3228035,"label":"國中、國小"},{"count":5,"tokens":"辦公室|辦公處","sum":420000,"label":"辦公室"},{"count":0,"tokens":"協會|學會|商會|公會|協進會|促進會|研習會|婦聯會|婦女會|體育會|同心會|農會|早起會|健身會|宗親會|功德會|商業會|長青會|民眾服務社|聯盟","sum":0,"label":"協會"},{"count":0,"tokens":"廟|宮","sum":0,"label":"廟"},{"count":0,"tokens":"警察局|分局","sum":0,"label":"警察局"},{"count":0,"tokens":"消防局|消防隊|分隊|中隊","sum":0,"label":"消防局"}]},"councilor":"e119685f1df84683a9aa8695b98686b0"},{"url":"http://councils.g0v.tw/api/councilors_terms/2170/","election_year":"2009","name":"魏嘉賢","gender":"男","party":"中國國民黨","title":"","constituency":1,"county":"花蓮縣","district":"花蓮市","in_office":true,"contact_details":[{"type":"address","value":"花蓮市國裕里3鄰富強路20號","label":"通訊處"},{"type":"voice","value":"03-8569877．0933-995035","label":"電話"}],"term_start":"2009-12-25","term_end":{"date":"2014-12-25"},"education":"慈濟技術學院放射系畢業","experience":"1.花蓮縣第十六屆、十七屆縣議員。\n2.花蓮縣體育會籃球委員會主任委員。\n3.當選救國團96年度花蓮縣社會優秀青年。\n4.花蓮縣政府身心障礙者權益保障小組第三屆委員。\n5.(花蓮縣衛生局、富里鄉衛生所、蘇澳榮民醫院)醫事放射師。","remark":null,"image":"http://www.hlcc.gov.tw/upfile/20100308141111-165.jpg","links":[{"url":"http://www.hlcc.gov.tw/councillor-data.php?index_no=8","note":"議會個人官網"}],"social_media":null,"platform":"1、全面改善眷村生活環境，爭取榮民榮眷應有權益。\n2、縮短城鄉醫療衛生差距，提升生活居住環境品質。\n3、督促政府重視全民體育，加強各單項體育之設施。\n4、促請政府開發觀光據點，結合商業行銷發展觀光。\n5、促請建立災害預警設施，有效降低災害帶來傷害。\n6、落實推動老人福利措施，保障弱勢團體基本權益。\n7、力促蘇花替代道路興建，展現花蓮魅力商機無限。\n8、深耕節能減碳環保教育，攜手維護環境長久永續。","param":{"suggestions_years":{"count":12,"sum":3056970,"years":[{"count":12,"sum":3056970,"suggest_year":"2014","small_purchase":8}]},"diversity":{"中國國民黨":0.8186895394425866,"民主進步黨":0.07801278187988225,"無黨籍":0.10329767867753066},"bills_role_statistics":{"total":263,"priproposer":53,"sponsor":54,"cosponsor":209},"suggestions_associations":[{"count":0,"sum":0,"label":"社區發展協會"},{"count":0,"sum":0,"label":"學會"},{"count":0,"sum":0,"label":"商會"},{"count":0,"sum":0,"label":"公會"},{"count":0,"sum":0,"label":"協進會"},{"count":0,"sum":0,"label":"促進會"},{"count":0,"sum":0,"label":"研習會"},{"count":0,"sum":0,"label":"婦聯會"},{"count":0,"sum":0,"label":"婦女會"},{"count":0,"sum":0,"label":"體育會"},{"count":0,"sum":0,"label":"同心會"},{"count":0,"sum":0,"label":"農會"},{"count":0,"sum":0,"label":"早起會"},{"count":0,"sum":0,"label":"健身會"},{"count":0,"sum":0,"label":"宗親會"},{"count":0,"sum":0,"label":"功德會"},{"count":0,"sum":0,"label":"商業會"},{"count":0,"sum":0,"label":"長青會"},{"count":0,"sum":0,"label":"民眾服務社"},{"count":0,"sum":0,"label":"聯盟"}],"bills_party_diversity":[{"party":"中國國民黨","ratio":0.7766527695056581},{"party":"無黨籍","ratio":0.12269207861822513},{"party":"民主進步黨","ratio":0.10065515187611673}],"suggestions_piles":[{"count":7,"tokens":"國中|國小","sum":987899,"label":"國中、國小"},{"count":0,"tokens":"協會|學會|商會|公會|協進會|促進會|研習會|婦聯會|婦女會|體育會|同心會|農會|早起會|健身會|宗親會|功德會|商業會|長青會|民眾服務社|聯盟","sum":0,"label":"協會"},{"count":0,"tokens":"辦公室|辦公處","sum":0,"label":"辦公室"},{"count":0,"tokens":"廟|宮","sum":0,"label":"廟"},{"count":0,"tokens":"警察局|分局","sum":0,"label":"警察局"},{"count":0,"tokens":"消防局|消防隊|分隊|中隊","sum":0,"label":"消防局"}]},"councilor":"e119685f1df84683a9aa8695b98686b0"}],"uid":"e119685f1df84683a9aa8695b98686b0","name":"魏嘉賢","birth":null,"former_names":"","identifiers":["魏嘉賢"]},{"url":"http://councils.g0v.tw/api/councilors/1245/","each_terms":[{"url":"http://councils.g0v.tw/api/councilors_terms/2171/","election_year":"2009","name":"蔡啟塔","gender":"男","party":"中國國民黨","title":"","constituency":1,"county":"花蓮縣","district":"花蓮市","in_office":true,"contact_details":[{"type":"address","value":"花蓮市五權街40號","label":"通訊處"},{"type":"voice","value":"03-8343986．0910-468901","label":"電話"}],"term_start":"2009-12-25","term_end":{"date":"2014-12-25"},"education":"台灣觀光學院肄業","experience":"1.第14、15屆花蓮市市長\n2.花蓮市民代表會第14、15、16屆主席\n3.花蓮縣總工會理事長\n4.大仁科技大學碩士學分班\n5.花蓮縣議會第十七屆議員","remark":null,"image":"http://www.hlcc.gov.tw/upfile/20100304151447-185.jpg","links":[{"url":"http://www.hlcc.gov.tw/councillor-data.php?index_no=7","note":"議會個人官網"}],"social_media":null,"platform":"一、國際交流，建構亞太自由經貿。\n二、國土規劃，永續休閒養生機能。\n三、節能減碳，開發綠能經濟資源。\n四、引進投資，國際觀光策略資源。\n五、族群融合，培植文化創意產業。\n六、共同管溝，基礎工程節省內耗。\n七、社區營造，優質生活幸福花蓮。\n八、網路科技，整合通訊傳媒行銷。\n九、藍金海岸，設立海釣遊艇專區。\n十、技術創新，改良精緻有機農產。\n十一、智識經濟，書呆子便成ＣＥＯ。\n十二、運動休閒，推動國際競技活動。","param":{"suggestions_years":{"count":29,"sum":4774022,"years":[{"count":29,"sum":4774022,"suggest_year":"2014","small_purchase":19}]},"diversity":{"中國國民黨":0.8599754422259852,"民主進步黨":0.053399335379237176,"無黨籍":0.08662522239477734},"bills_role_statistics":{"total":71,"priproposer":1,"sponsor":3,"cosponsor":68},"suggestions_associations":[{"count":0,"sum":0,"label":"社區發展協會"},{"count":0,"sum":0,"label":"學會"},{"count":0,"sum":0,"label":"商會"},{"count":0,"sum":0,"label":"公會"},{"count":0,"sum":0,"label":"協進會"},{"count":0,"sum":0,"label":"促進會"},{"count":0,"sum":0,"label":"研習會"},{"count":0,"sum":0,"label":"婦聯會"},{"count":0,"sum":0,"label":"婦女會"},{"count":0,"sum":0,"label":"體育會"},{"count":0,"sum":0,"label":"同心會"},{"count":0,"sum":0,"label":"農會"},{"count":0,"sum":0,"label":"早起會"},{"count":0,"sum":0,"label":"健身會"},{"count":0,"sum":0,"label":"宗親會"},{"count":0,"sum":0,"label":"功德會"},{"count":0,"sum":0,"label":"商業會"},{"count":0,"sum":0,"label":"長青會"},{"count":0,"sum":0,"label":"民眾服務社"},{"count":0,"sum":0,"label":"聯盟"}],"bills_party_diversity":[{"party":"中國國民黨","ratio":0.8157303370786517},{"party":"無黨籍","ratio":0.09213483146067415},{"party":"民主進步黨","ratio":0.09213483146067415}],"suggestions_piles":[{"count":4,"tokens":"警察局|分局","sum":1056000,"label":"警察局"},{"count":2,"tokens":"國中|國小","sum":708800,"label":"國中、國小"},{"count":1,"tokens":"辦公室|辦公處","sum":77250,"label":"辦公室"},{"count":0,"tokens":"協會|學會|商會|公會|協進會|促進會|研習會|婦聯會|婦女會|體育會|同心會|農會|早起會|健身會|宗親會|功德會|商業會|長青會|民眾服務社|聯盟","sum":0,"label":"協會"},{"count":0,"tokens":"廟|宮","sum":0,"label":"廟"},{"count":0,"tokens":"消防局|消防隊|分隊|中隊","sum":0,"label":"消防局"}]},"councilor":"48a74d8da90f449aab901073068ace55"}],"uid":"48a74d8da90f449aab901073068ace55","name":"蔡啟塔","birth":null,"former_names":"","identifiers":["蔡啟塔","蔡啓塔"]},{"url":"http://councils.g0v.tw/api/councilors/1370/","each_terms":[{"url":"http://councils.g0v.tw/api/councilors_terms/2296/","election_year":"2009","name":"黃傑","gender":"男","party":"","title":"","constituency":1,"county":"嘉義縣","district":"太保市、水上鄉、鹿草鄉","in_office":true,"contact_details":[{"type":"phone","value":"05-3612388 ","label":"電話"},{"type":"address","value":"嘉義縣太保市舊埤里新埤６１之５號 ","label":"通訊處"},{"type":"email","value":"","label":"電子信箱"}],"term_start":"2009-12-25","term_end":{"date":"2014-12-25"},"education":"國中畢業 ","experience":"(一)嘉義縣太保市第三屆市民代表會主席。\n(二)嘉義縣農會代表。\n(三)嘉義縣第十五、十六屆議員。\n ","remark":null,"image":"http://www.cyscc.gov.tw/template/DisplaySmallPicture.ashx?p=/Upload/Parliamentary/11/634535096001355875.bmp&w=145&h=170","links":[{"url":"http://www.cyscc.gov.tw/chinese/Parliamentary_Detail.aspx?s=11&n=29","note":"議會個人官網"}],"social_media":null,"platform":"(一)監督縣府清廉施政。\n(二)督促縣府規劃故宮南院週邊相關設施。\n(三)爭取農民福利協助政府落實農業轉型政策。\n(四)爭取地方建設落實社區總體營造。 ","param":{"suggestions_years":{"count":28,"sum":29180630,"years":[{"count":4,"sum":3670000,"suggest_year":"2011","small_purchase":0},{"count":11,"sum":10118530,"suggest_year":"2012","small_purchase":1},{"count":10,"sum":7592100,"suggest_year":"2013","small_purchase":4},{"count":3,"sum":7800000,"suggest_year":"2014","small_purchase":0}]},"diversity":{"":1.0},"bills_role_statistics":{"total":5,"priproposer":0,"sponsor":0,"cosponsor":5},"suggestions_associations":[{"count":0,"sum":0,"label":"社區發展協會"},{"count":0,"sum":0,"label":"學會"},{"count":0,"sum":0,"label":"商會"},{"count":0,"sum":0,"label":"公會"},{"count":0,"sum":0,"label":"協進會"},{"count":0,"sum":0,"label":"促進會"},{"count":0,"sum":0,"label":"研習會"},{"count":0,"sum":0,"label":"婦聯會"},{"count":0,"sum":0,"label":"婦女會"},{"count":0,"sum":0,"label":"體育會"},{"count":0,"sum":0,"label":"同心會"},{"count":0,"sum":0,"label":"農會"},{"count":0,"sum":0,"label":"早起會"},{"count":0,"sum":0,"label":"健身會"},{"count":0,"sum":0,"label":"宗親會"},{"count":0,"sum":0,"label":"功德會"},{"count":0,"sum":0,"label":"商業會"},{"count":0,"sum":0,"label":"長青會"},{"count":0,"sum":0,"label":"民眾服務社"},{"count":0,"sum":0,"label":"聯盟"}],"bills_party_diversity":[{"party":"","ratio":1.0}],"suggestions_piles":[{"count":0,"tokens":"協會|學會|商會|公會|協進會|促進會|研習會|婦聯會|婦女會|體育會|同心會|農會|早起會|健身會|宗親會|功德會|商業會|長青會|民眾服務社|聯盟","sum":0,"label":"協會"},{"count":0,"tokens":"辦公室|辦公處","sum":0,"label":"辦公室"},{"count":0,"tokens":"廟|宮","sum":0,"label":"廟"},{"count":0,"tokens":"警察局|分局","sum":0,"label":"警察局"},{"count":0,"tokens":"消防局|消防隊|分隊|中隊","sum":0,"label":"消防局"},{"count":0,"tokens":"國中|國小","sum":0,"label":"國中、國小"}]},"councilor":"ce571e37614e4b63825b19928f9aee3a"}],"uid":"ce571e37614e4b63825b19928f9aee3a","name":"黃傑","birth":null,"former_names":"","identifiers":["黃傑","黄傑"]},{"url":"http://councils.g0v.tw/api/councilors/435/","each_terms":[{"url":"http://councils.g0v.tw/api/councilors_terms/775/","election_year":"1958","name":"簡福源","gender":"","party":"","title":"議員","constituency":10,"county":"新北市","district":"烏來鄉山地鄉","in_office":true,"contact_details":null,"term_start":"1958-02-21","term_end":{"date":"1961-02-20"},"education":"省立新竹中學畢\n革命研究院結業\n後幹班結業\n三民主義幹部訓練斑結業","experience":"烏來鄉第6、7屆鄉長\n烏來鄉護林協會業務員、村幹事\n山胞觀光股份有限公司董事長\n調解委員會主席\n臺北縣議會第3、4、6屆議員\n民國98年6月28日歿","remark":null,"image":"http://www.ntp.gov.tw/UpFile/CouncilorFile/TTCC0367.jpg","links":[{"url":"http://www.ntp.gov.tw/content/history/history01-5-p.aspx?sid=184","note":"議會個人官網"}],"social_media":null,"platform":"","param":null,"councilor":"e9caf8a882174f40a2dbc97bc7902466"},{"url":"http://councils.g0v.tw/api/councilors_terms/776/","election_year":"1955","name":"簡福源","gender":"","party":"","title":"議員","constituency":10,"county":"新北市","district":"鳥來鄉山地鄉","in_office":true,"contact_details":null,"term_start":"1955-01-16","term_end":{"date":"1958-02-20"},"education":"省立新竹中學畢\n革命研究院結業\n後幹班結業\n三民主義幹部訓練斑結業","experience":"烏來鄉第6、7屆鄉長\n烏來鄉護林協會業務員、村幹事\n山胞觀光股份有限公司董事長\n調解委員會主席\n臺北縣議會第3、4、6屆議員\n民國98年6月28日歿","remark":null,"image":"http://www.ntp.gov.tw/UpFile/CouncilorFile/TTCC0367.jpg","links":[{"url":"http://www.ntp.gov.tw/content/history/history01-5-p.aspx?sid=184","note":"議會個人官網"}],"social_media":null,"platform":"","param":null,"councilor":"e9caf8a882174f40a2dbc97bc7902466"},{"url":"http://councils.g0v.tw/api/councilors_terms/773/","election_year":"1964","name":"簡福源","gender":"","party":"","title":"議員","constituency":9,"county":"新北市","district":"新店鎮、景美鎮、木柵鄉、深坑鄉、石碇鄉、坪林鄉、烏來鄉山地鄉","in_office":true,"contact_details":null,"term_start":"1964-02-21","term_end":{"date":"1968-02-20"},"education":"省立新竹中學畢\n革命研究院結業\n後幹班結業\n三民主義幹部訓練斑結業","experience":"烏來鄉第6、7屆鄉長\n烏來鄉護林協會業務員、村幹事\n山胞觀光股份有限公司董事長\n調解委員會主席\n臺北縣議會第3、4、6屆議員\n民國98年6月28日歿","remark":null,"image":"http://www.ntp.gov.tw/UpFile/CouncilorFile/TTCC0367.jpg","links":[{"url":"http://www.ntp.gov.tw/content/history/history01-5-p.aspx?sid=184","note":"議會個人官網"}],"social_media":null,"platform":"","param":null,"councilor":"e9caf8a882174f40a2dbc97bc7902466"}],"uid":"e9caf8a882174f40a2dbc97bc7902466","name":"簡福源","birth":null,"former_names":"","identifiers":["簡褔源","簡福源"]}]}