{"count":1904,"next":"http://councils.g0v.tw/api/councilors/?page=64","previous":"http://councils.g0v.tw/api/councilors/?page=62","results":[{"url":"http://councils.g0v.tw/api/councilors/436/","each_terms":[{"url":"http://councils.g0v.tw/api/councilors_terms/774/","election_year":"1961","name":"周志朗","gender":"","party":"","title":"議員","constituency":10,"county":"新北市","district":"烏來鄉山地鄉","in_office":true,"contact_details":null,"term_start":"1961-02-21","term_end":{"date":"1964-02-20"},"education":"烏來教育所\n南澳農會專門學校","experience":"臺北縣議會第1、2、5屆議員\n第5屆烏來鄉長\n山地觀光股份有限公司董事長","remark":null,"image":"http://www.ntp.gov.tw/UpFile/CouncilorFile/TTCC0160.jpg","links":[{"url":"http://www.ntp.gov.tw/content/history/history01-5-p.aspx?sid=118","note":"議會個人官網"}],"social_media":null,"platform":"","param":null,"councilor":"ae5f200aaf744b97abf1797de8a06ba3"},{"url":"http://councils.g0v.tw/api/councilors_terms/777/","election_year":"1953","name":"周志朗","gender":"","party":"","title":"議員","constituency":10,"county":"新北市","district":"烏來鄉山地鄉","in_office":true,"contact_details":null,"term_start":"1953-01-16","term_end":{"date":"1955-01-15"},"education":"烏來教育所\n南澳農會專門學校","experience":"臺北縣議會第1、2、5屆議員\n第5屆烏來鄉長\n山地觀光股份有限公司董事長","remark":null,"image":"http://www.ntp.gov.tw/UpFile/CouncilorFile/TTCC0160.jpg","links":[{"url":"http://www.ntp.gov.tw/content/history/history01-5-p.aspx?sid=118","note":"議會個人官網"}],"social_media":null,"platform":"","param":null,"councilor":"ae5f200aaf744b97abf1797de8a06ba3"},{"url":"http://councils.g0v.tw/api/councilors_terms/778/","election_year":"1951","name":"周志朗","gender":"","party":"","title":"議員","constituency":10,"county":"新北市","district":"烏來鄉山地鄉","in_office":true,"contact_details":null,"term_start":"1951-01-04","term_end":{"date":"1953-01-05"},"education":"烏來教育所\n南澳農會專門學校","experience":"臺北縣議會第1、2、5屆議員\n第5屆烏來鄉長\n山地觀光股份有限公司董事長","remark":null,"image":"http://www.ntp.gov.tw/UpFile/CouncilorFile/TTCC0160.jpg","links":[{"url":"http://www.ntp.gov.tw/content/history/history01-5-p.aspx?sid=118","note":"議會個人官網"}],"social_media":null,"platform":"","param":null,"councilor":"ae5f200aaf744b97abf1797de8a06ba3"}],"uid":"ae5f200aaf744b97abf1797de8a06ba3","name":"周志朗","birth":null,"former_names":"","identifiers":["周志朗"]},{"url":"http://councils.g0v.tw/api/councilors/182/","each_terms":[{"url":"http://councils.g0v.tw/api/councilors_terms/309/","election_year":"1994","name":"黃金如","gender":"男","party":"中國國民黨","title":"議員","constituency":null,"county":"臺北市","district":"","in_office":true,"contact_details":null,"term_start":"1994-12-25","term_end":{"date":"1998-12-25"},"education":"中央警官學校正科二十一期畢業。省訓團戶政系結業。考試院特種考試及格。革命實踐研究院省市議員研究班結業。","experience":"臺北市直轄市議會第五、六屆議員，政治小組參加人，黨團副書記長，臺北市警察分局組長、主任，中國國民黨十三屆全國代表大會代表，臺北市烹飪商業同業公會理事長，臺灣省砂石商業聯合會理事長，臺北市體育、國術會理事，中正國際獅子會會長，中山區羽球會副主委，臺北市建國國際同濟會常務理事，臺北市中山區早操會會長。","remark":"","image":"http://www.tcc.gov.tw/../upload/photo/%E9%BB%83%E9%87%91%E5%A6%8215.jpg","links":[{"url":"http://www.tcc.gov.tw/Councilor_Content_All.aspx?s=1635&d=320102&n=%E9%BB%83%E9%87%91%E5%A6%82","note":"議會個人官網"}],"social_media":null,"platform":"","param":null,"councilor":"336a6cd5e75d4bdf9103b88a408f218e"},{"url":"http://councils.g0v.tw/api/councilors_terms/360/","election_year":"1989","name":"黃金如","gender":"男","party":"中國國民黨","title":"議員","constituency":null,"county":"臺北市","district":"","in_office":true,"contact_details":null,"term_start":"1989-12-25","term_end":{"date":"1994-12-25"},"education":"中央警官學校正科二十一期畢業、考試院乙等特考及格。","experience":"中正獅子會會長、臺灣砂石聯合會理事長、福建同鄉會理事、臺北市老人福利協會理事長，臺北市直轄市議會第五屆議員。","remark":"","image":"http://www.tcc.gov.tw/../upload/photo/%E9%BB%83%E9%87%91%E5%A6%8214.jpg","links":[{"url":"http://www.tcc.gov.tw/Councilor_Content_All.aspx?s=1585&d=220102&n=%E9%BB%83%E9%87%91%E5%A6%82","note":"議會個人官網"}],"social_media":null,"platform":"","param":null,"councilor":"336a6cd5e75d4bdf9103b88a408f218e"},{"url":"http://councils.g0v.tw/api/councilors_terms/411/","election_year":"1985","name":"黃金如","gender":"男","party":"中國國民黨","title":"議員","constituency":null,"county":"臺北市","district":"","in_office":true,"contact_details":null,"term_start":"1985-12-25","term_end":{"date":"1989-12-25"},"education":"中央警官學校正科二十一期畢業、考試院乙等特考資格、臺灣省訓練團戶政系結業。","experience":"延平松山大安警察分局員、組長、桃園砂石公會理事長、中山早操會會長、北市商會、北市體育會、國術會、福建同鄉會理事。","remark":"","image":"http://www.tcc.gov.tw/../upload/photo/%E9%BB%83%E9%87%91%E5%A6%8213.jpg","links":[{"url":"http://www.tcc.gov.tw/Councilor_Content_All.aspx?s=2249&d=220102&n=%E9%BB%83%E9%87%91%E5%A6%82","note":"議會個人官網"}],"social_media":null,"platform":"","param":null,"councilor":"336a6cd5e75d4bdf9103b88a408f218e"}],"uid":"336a6cd5e75d4bdf9103b88a408f218e","name":"黃金如","birth":"1932-01-02","former_names":"","identifiers":["黃金如","黄金如"]},{"url":"http://councils.g0v.tw/api/councilors/204/","each_terms":[{"url":"http://councils.g0v.tw/api/councilors_terms/358/","election_year":"1989","name":"楊炯明","gender":"男","party":"中國國民黨","title":"議員","constituency":null,"county":"臺北市","district":"","in_office":true,"contact_details":null,"term_start":"1989-12-25","term_end":{"date":"1994-12-25"},"education":"日本產業能率大學畢業、革命實踐研究院結業。","experience":"臺北市大同區合作社理事主席、臺北市農會理監事、臺北市楊姓宗親會理事長、臺北市省轄市議會第五、六屆暨臨時議會、直轄市議會第一到五屆議員。","remark":"","image":"http://www.tcc.gov.tw/../upload/photo/%E6%A5%8A%E7%82%AF%E6%98%8E14.jpg","links":[{"url":"http://www.tcc.gov.tw/Councilor_Content_All.aspx?s=1402&d=331122&n=%E6%A5%8A%E7%82%AF%E6%98%8E","note":"議會個人官網"}],"social_media":null,"platform":"","param":null,"councilor":"a84eb55fbac541eaa166120f75bd5449"},{"url":"http://councils.g0v.tw/api/councilors_terms/409/","election_year":"1985","name":"楊炯明","gender":"男","party":"中國國民黨","title":"議員","constituency":null,"county":"臺北市","district":"","in_office":true,"contact_details":null,"term_start":"1985-12-25","term_end":{"date":"1989-12-25"},"education":"日本產業能率大學畢業、革命實踐研究院結業。","experience":"臺北市省轄市議會第五、六屆、臨時議會、直轄市議會第一到四屆議員、大同區合作社理事主席、市農會理事、市區體育會常務理事、景文高商常務董事、民權國中、延平國小家長會會長。","remark":"","image":"http://www.tcc.gov.tw/../upload/photo/%E6%A5%8A%E7%82%AF%E6%98%8E13.jpg","links":[{"url":"http://www.tcc.gov.tw/Councilor_Content_All.aspx?s=1427&d=331122&n=%E6%A5%8A%E7%82%AF%E6%98%8E","note":"議會個人官網"}],"social_media":null,"platform":"","param":null,"councilor":"a84eb55fbac541eaa166120f75bd5449"},{"url":"http://councils.g0v.tw/api/councilors_terms/459/","election_year":"1981","name":"楊炯明","gender":"男","party":"中國國民黨","title":"議員","constituency":null,"county":"臺北市","district":"","in_office":true,"contact_details":null,"term_start":"1981-12-25","term_end":{"date":"1985-12-25"},"education":"日本產業能大學畢業、革命實踐研究院結業。","experience":"臺北市省轄市議會第五、六屆暨臨時議會、直轄市議會第一到三屆議員、臺灣省合作金庫監事、臺北市體育會理事、大同區合作社理事主席、民權國中家長會會長、延平國小家長會會長、大同區農會理事、臺北市糕餅罐頭、肉品商業同業公會顧問、臺北市愛護禽鳥協會理事長、稻江高級家政商業職業學校董事。","remark":"","image":"http://www.tcc.gov.tw/../upload/photo/%E6%A5%8A%E7%82%AF%E6%98%8E12.jpg","links":[{"url":"http://www.tcc.gov.tw/Councilor_Content_All.aspx?s=1433&d=331122&n=%E6%A5%8A%E7%82%AF%E6%98%8E","note":"議會個人官網"}],"social_media":null,"platform":"","param":null,"councilor":"a84eb55fbac541eaa166120f75bd5449"},{"url":"http://councils.g0v.tw/api/councilors_terms/511/","election_year":"1977","name":"楊炯明","gender":"男","party":"中國國民黨","title":"議員","constituency":null,"county":"臺北市","district":"","in_office":true,"contact_details":null,"term_start":"1977-12-25","term_end":{"date":"1981-12-25"},"education":"日本產業能率大學畢業","experience":"臺北市省轄市議會第五、六屆、臨時議會、及直轄市議會第一、二屆議員、臺灣省合作金庫監事、大同區合作社理事主席、臺北市大同區農會理事、臺北市體育會理事、臺北市私立稻江高級家政商業職業學校董事會董事、臺北市楊姓宗親會常務理事、臺北市民權國民中學家長會會長、臺北市延平國民小學家長會會長、臺北市糕餅罐頭肉品商業公會顧問。","remark":"","image":"http://www.tcc.gov.tw/../upload/photo/%E6%A5%8A%E7%82%AF%E6%98%8E11.jpg","links":[{"url":"http://www.tcc.gov.tw/Councilor_Content_All.aspx?s=1432&d=331122&n=%E6%A5%8A%E7%82%AF%E6%98%8E","note":"議會個人官網"}],"social_media":null,"platform":"","param":null,"councilor":"a84eb55fbac541eaa166120f75bd5449"},{"url":"http://councils.g0v.tw/api/councilors_terms/558/","election_year":"1973","name":"楊炯明","gender":"男","party":"中國國民黨","title":"議員","constituency":null,"county":"臺北市","district":"","in_office":true,"contact_details":null,"term_start":"1973-12-25","term_end":{"date":"1977-12-25"},"education":"臺北市私立稻江商業職業補習學校高級部畢業、日本產業能率大學畢業。","experience":"臺北市大同區農會理事、臺北市兵役協會委員、臺北市大同區合作社理事、臺北市地方自治協會理事、臺北市省轄市議會第五、六屆、臨時市議會、直轄市議會第一屆議會議員。","remark":"","image":"http://www.tcc.gov.tw/../upload/photo/%E6%A5%8A%E7%82%AF%E6%98%8E10.jpg","links":[{"url":"http://www.tcc.gov.tw/Councilor_Content_All.aspx?s=2246&d=331122&n=%E6%A5%8A%E7%82%AF%E6%98%8E","note":"議會個人官網"}],"social_media":null,"platform":"","param":null,"councilor":"a84eb55fbac541eaa166120f75bd5449"},{"url":"http://councils.g0v.tw/api/councilors_terms/607/","election_year":"1969","name":"楊炯明","gender":"男","party":"中國國民黨","title":"議員","constituency":null,"county":"臺北市","district":"","in_office":true,"contact_details":null,"term_start":"1969-12-25","term_end":{"date":"1973-12-25"},"education":"臺北市私立稻江商業職業補習學校高級部畢業","experience":"臺北市大同區合作社理事、臺北市兵役協會委員、臺灣省地方自治協會監事、臺北市省轄市議會第五、六屆以及臨時議會議員。","remark":"","image":"http://www.tcc.gov.tw/../upload/photo/%E6%A5%8A%E7%82%AF%E6%98%8E09.jpg","links":[{"url":"http://www.tcc.gov.tw/Councilor_Content_All.aspx?s=2157&d=331122&n=%E6%A5%8A%E7%82%AF%E6%98%8E","note":"議會個人官網"}],"social_media":null,"platform":"","param":null,"councilor":"a84eb55fbac541eaa166120f75bd5449"}],"uid":"a84eb55fbac541eaa166120f75bd5449","name":"楊炯明","birth":"1933-11-22","former_names":"","identifiers":["楊炯明"]},{"url":"http://councils.g0v.tw/api/councilors/205/","each_terms":[{"url":"http://councils.g0v.tw/api/councilors_terms/361/","election_year":"1989","name":"黃宗文","gender":"男","party":"民主進步黨","title":"議員","constituency":null,"county":"臺北市","district":"","in_office":true,"contact_details":null,"term_start":"1989-12-25","term_end":{"date":"1994-12-25"},"education":"屏東萬丹國中、國立師大附中、東吳大學法律系畢業。","experience":"關懷雜誌總編輯、美國總統大選臺灣觀察團代表、世界人權會議年會臺灣代表、中國事務觀察團團長。","remark":"","image":"http://www.tcc.gov.tw/../upload/photo/%E9%BB%83%E5%AE%97%E6%96%8714.jpg","links":[{"url":"http://www.tcc.gov.tw/Councilor_Content_All.aspx?s=1388&d=571202&n=%E9%BB%83%E5%AE%97%E6%96%87","note":"議會個人官網"}],"social_media":null,"platform":"","param":null,"councilor":"43e3021942c5414db5506f010be3aa4d"}],"uid":"43e3021942c5414db5506f010be3aa4d","name":"黃宗文","birth":"1957-12-02","former_names":"","identifiers":["黄宗文","黃宗文"]},{"url":"http://councils.g0v.tw/api/councilors/206/","each_terms":[{"url":"http://councils.g0v.tw/api/councilors_terms/362/","election_year":"1989","name":"馮定亞","gender":"女","party":"中國國民黨","title":"議員","constituency":null,"county":"臺北市","district":"","in_office":true,"contact_details":null,"term_start":"1989-12-25","term_end":{"date":"1994-12-25"},"education":"板橋國小、中興中學、中山女高、臺灣大學學士、加拿大麥格爾大學生化碩士。","experience":"中國文化大學、臺北市立師範學院副教授，中華民國五心協會創始人，臺北市仁愛國小家長會榮譽會長、會長，臺視「家庭情報」主持人。","remark":"","image":"http://www.tcc.gov.tw/../upload/photo/%E9%A6%AE%E5%AE%9A%E4%BA%9E14.jpg","links":[{"url":"http://www.tcc.gov.tw/Councilor_Content_All.aspx?s=1570&d=460805&n=%E9%A6%AE%E5%AE%9A%E4%BA%9E","note":"議會個人官網"}],"social_media":null,"platform":"","param":null,"councilor":"2842043affe74449b9d49c4b8df0a747"}],"uid":"2842043affe74449b9d49c4b8df0a747","name":"馮定亞","birth":"1946-08-05","former_names":"","identifiers":["馮定亞"]},{"url":"http://councils.g0v.tw/api/councilors/207/","each_terms":[{"url":"http://councils.g0v.tw/api/councilors_terms/367/","election_year":"1989","name":"陳振芳","gender":"男","party":"中國國民黨","title":"議員","constituency":null,"county":"臺北市","district":"","in_office":true,"contact_details":null,"term_start":"1989-12-25","term_end":{"date":"1994-12-25"},"education":"國立臺北商專企管科、美國舊金山大學畢業。","experience":"忠孝獅子會長、五金工會理事長、臺北市直轄市議會第四、五屆議員、臺北市總工會理事長。","remark":"","image":"http://www.tcc.gov.tw/../upload/photo/%E9%99%B3%E6%8C%AF%E8%8A%B314.jpg","links":[{"url":"http://www.tcc.gov.tw/Councilor_Content_All.aspx?s=1376&d=470205&n=%E9%99%B3%E6%8C%AF%E8%8A%B3","note":"議會個人官網"}],"social_media":null,"platform":"","param":null,"councilor":"a93b137fc94b4b58b58fe3f8446a5e6f"},{"url":"http://councils.g0v.tw/api/councilors_terms/414/","election_year":"1985","name":"陳振芳","gender":"男","party":"中國國民黨","title":"議員","constituency":null,"county":"臺北市","district":"","in_office":true,"contact_details":null,"term_start":"1985-12-25","term_end":{"date":"1989-12-25"},"education":"開南商工、稻江商職、臺北商專畢業、軍管區後幹班七十三期結業。","experience":"臺北市籃球委員會主任委員、臺北市忠孝國際獅子會會長、臺北市大直國小家長會長、臺北市五金工會理事長、臺北市直轄市議會第四屆議員。","remark":"","image":"http://www.tcc.gov.tw/../upload/photo/%E9%99%B3%E6%8C%AF%E8%8A%B313.jpg","links":[{"url":"http://www.tcc.gov.tw/Councilor_Content_All.aspx?s=1446&d=470205&n=%E9%99%B3%E6%8C%AF%E8%8A%B3","note":"議會個人官網"}],"social_media":null,"platform":"","param":null,"councilor":"a93b137fc94b4b58b58fe3f8446a5e6f"},{"url":"http://councils.g0v.tw/api/councilors_terms/462/","election_year":"1981","name":"陳振芳","gender":"男","party":"中國國民黨","title":"議員","constituency":null,"county":"臺北市","district":"","in_office":true,"contact_details":null,"term_start":"1981-12-25","term_end":{"date":"1985-12-25"},"education":"開南商工、西湖工商、臺北商專補校企管科畢業、臺灣軍管區後幹班七十三期畢業。","experience":"臺北市忠孝國際獅子會會長、臺北市籃球委員會主任委員、臺北市五金工會理事長、中山區後備軍人輔導中心主任、大直國小家長會會長。","remark":"","image":"http://www.tcc.gov.tw/../upload/photo/%E9%99%B3%E6%8C%AF%E8%8A%B312.jpg","links":[{"url":"http://www.tcc.gov.tw/Councilor_Content_All.aspx?s=1756&d=470205&n=%E9%99%B3%E6%8C%AF%E8%8A%B3","note":"議會個人官網"}],"social_media":null,"platform":"","param":null,"councilor":"a93b137fc94b4b58b58fe3f8446a5e6f"}],"uid":"a93b137fc94b4b58b58fe3f8446a5e6f","name":"陳振芳","birth":"1947-02-05","former_names":"","identifiers":["陳振芳"]},{"url":"http://councils.g0v.tw/api/councilors/147/","each_terms":[{"url":"http://councils.g0v.tw/api/councilors_terms/185/","election_year":"2006","name":"李仁人","gender":"女","party":"中國國民黨","title":"議員","constituency":null,"county":"臺北市","district":"","in_office":true,"contact_details":null,"term_start":"2006-12-25","term_end":{"date":"2010-12-25"},"education":"政大公研所碩士班結業，台北市立師範學院畢業，實踐家專畢業，市立女中畢業，老松國小畢業","experience":"台北市六、七、八、九屆市議員，北市婦女會理事長，市立師院校友會長，救國團真善美會長，市體育會副理事長中華民國婦女總會副理事長，台北市義警督導，萬華區民防義警義交義消，中小學家長會及其他社團顧問。","remark":"","image":"http://www.tcc.gov.tw/../upload/photo/%E6%9D%8E%E4%BB%81%E4%BA%BA.jpg","links":[{"url":"http://www.tcc.gov.tw/Councilor_Content_All.aspx?s=2304&d=410210&n=%E6%9D%8E%E4%BB%81%E4%BA%BA","note":"議會個人官網"}],"social_media":null,"platform":"","param":null,"councilor":"2a1f340de38f4518bc7baee4d4b2a131"},{"url":"http://councils.g0v.tw/api/councilors_terms/236/","election_year":"2002","name":"李仁人","gender":"女","party":"中國國民黨","title":"議員","constituency":null,"county":"臺北市","district":"","in_office":true,"contact_details":null,"term_start":"2002-12-25","term_end":{"date":"2006-12-25"},"education":"臺北市立師範學院畢業、私立實踐家專畢業、國立政治大學公研所碩士班結業、市立女中畢業、老松國小。","experience":"臺北市直轄市議會第六、七、八屆議員、中華民國婦女會總會副理事長、臺北市婦女會理事長、臺北市立師院校友會理事長、臺北市救國團真善美聯誼會長、臺北市義警督導、萬華區民防、義警、義交、義消顧問、萬華區中小學家長會顧問、臺北市油漆及塗料公會顧問、幼教顧問。","remark":"","image":"http://www.tcc.gov.tw/../upload/photo/%E6%9D%8E%E4%BB%81%E4%BA%BA17.bmp","links":[{"url":"http://www.tcc.gov.tw/Councilor_Content_All.aspx?s=1669&d=410210&n=%E6%9D%8E%E4%BB%81%E4%BA%BA","note":"議會個人官網"}],"social_media":null,"platform":"","param":null,"councilor":"2a1f340de38f4518bc7baee4d4b2a131"},{"url":"http://councils.g0v.tw/api/councilors_terms/288/","election_year":"1998","name":"李仁人","gender":"女","party":"中國國民黨","title":"議員","constituency":null,"county":"臺北市","district":"","in_office":true,"contact_details":null,"term_start":"1998-12-25","term_end":{"date":"2002-12-25"},"education":"私立實踐家專及市立師專畢業畢業、國立政治大學公研所碩士班結業、美國奧克拉荷馬大學資優兒童教育研究所結業。","experience":"臺北市直轄市議會第六、七屆議員、臺北市婦女會理監事、華江幼稚園園長、龍山、艋舺、力行及古亭國際青商會顧問、臺北市義警督導、萬華義交、華江義警及莒光民防顧問。","remark":"","image":"http://www.tcc.gov.tw/../upload/photo/%E6%9D%8E%E4%BB%81%E4%BA%BA16.jpg","links":[{"url":"http://www.tcc.gov.tw/Councilor_Content_All.aspx?s=1347&d=410210&n=%E6%9D%8E%E4%BB%81%E4%BA%BA","note":"議會個人官網"}],"social_media":null,"platform":"","param":null,"councilor":"2a1f340de38f4518bc7baee4d4b2a131"},{"url":"http://councils.g0v.tw/api/councilors_terms/344/","election_year":"1994","name":"李仁人","gender":"女","party":"中國國民黨","title":"議員","constituency":null,"county":"臺北市","district":"","in_office":true,"contact_details":null,"term_start":"1994-12-25","term_end":{"date":"1998-12-25"},"education":"實踐家專畢業、市立師專畢業、政大市政建設規劃人才進修班碩士課程結業、美國奧克拉荷馬大學研習資優兒童教育。","experience":"臺北市直轄市議會第六屆議員、婦女會常務理事、友聯女獅會創會長、龍山、艋舺、力行及古亭國際青商會顧問。臺北市廣照宮及迦蚋庄福德宮顧問。臺北市中醫師公會、市商公會及國術會顧問。萬華義交、華江義警及莒光民防顧問。","remark":"","image":"http://www.tcc.gov.tw/../upload/photo/%E6%9D%8E%E4%BB%81%E4%BA%BA15.jpg","links":[{"url":"http://www.tcc.gov.tw/Councilor_Content_All.aspx?s=1500&d=410210&n=%E6%9D%8E%E4%BB%81%E4%BA%BA","note":"議會個人官網"}],"social_media":null,"platform":"","param":null,"councilor":"2a1f340de38f4518bc7baee4d4b2a131"},{"url":"http://councils.g0v.tw/api/councilors_terms/393/","election_year":"1989","name":"李仁人","gender":"女","party":"中國國民黨","title":"議員","constituency":null,"county":"臺北市","district":"","in_office":true,"contact_details":null,"term_start":"1989-12-25","term_end":{"date":"1994-12-25"},"education":"臺北市立師專畢業、私立實踐家專畢業、美國奧克拉荷馬大學資優兒童教育班結業。(刪除國立政治大學公研所碩士班結業、市立女中畢業、老松國小)。","experience":"友聯國際女獅會會長、中華民國兒童保育協會理事、私立華江幼稚園園長、臺北市婦女會理事。","remark":"","image":"http://www.tcc.gov.tw/../upload/photo/%E6%9D%8E%E4%BB%81%E4%BA%BA14.jpg","links":[{"url":"http://www.tcc.gov.tw/Councilor_Content_All.aspx?s=2208&d=410210&n=%E6%9D%8E%E4%BB%81%E4%BA%BA","note":"議會個人官網"}],"social_media":null,"platform":"","param":null,"councilor":"2a1f340de38f4518bc7baee4d4b2a131"}],"uid":"2a1f340de38f4518bc7baee4d4b2a131","name":"李仁人","birth":"1941-02-10","former_names":"","identifiers":["李仁人","李仁人"]},{"url":"http://councils.g0v.tw/api/councilors/932/","each_terms":[{"url":"http://councils.g0v.tw/api/councilors_terms/1670/","election_year":"1958","name":"高墀貢","gender":"","party":"","title":"議員","constituency":9,"county":"新北市","district":"新店鎮、景美鎮、木柵鄉、深坑鄉、石碇鄉、坪林鄉","in_office":true,"contact_details":null,"term_start":"1958-02-21","term_end":{"date":"1961-02-20"},"education":"景美國校高級班","experience":"保正\n木柵鄉調解委員會主任委員\n木柵鄉兵役協會主任委員\n臺北縣窯業工業同業公會理事長\n民眾服務社木柵分社理事長\n臺北縣議會第4、5屆議員\n民國86年7月26日歿","remark":null,"image":"http://www.ntp.gov.tw/UpFile/CouncilorFile/TTCC0469.jpg","links":[{"url":"http://www.ntp.gov.tw/content/history/history01-5-p.aspx?sid=220","note":"議會個人官網"}],"social_media":null,"platform":"","param":null,"councilor":"3b1029a3152b4edf996fb7aef89db749"},{"url":"http://councils.g0v.tw/api/councilors_terms/1740/","election_year":"1961","name":"高墀貢","gender":"","party":"","title":"議員","constituency":9,"county":"新北市","district":"新店鎮、景美鎮、木柵鄉、深坑鄉、石碇鄉、坪林鄉","in_office":true,"contact_details":null,"term_start":"1961-02-21","term_end":{"date":"1964-02-20"},"education":"景美國校高級班","experience":"保正\n木柵鄉調解委員會主任委員\n木柵鄉兵役協會主任委員\n臺北縣窯業工業同業公會理事長\n民眾服務社木柵分社理事長\n臺北縣議會第4、5屆議員\n民國86年7月26日歿","remark":null,"image":"http://www.ntp.gov.tw/UpFile/CouncilorFile/TTCC0469.jpg","links":[{"url":"http://www.ntp.gov.tw/content/history/history01-5-p.aspx?sid=220","note":"議會個人官網"}],"social_media":null,"platform":"","param":null,"councilor":"3b1029a3152b4edf996fb7aef89db749"}],"uid":"3b1029a3152b4edf996fb7aef89db749","name":"高墀貢","birth":null,"former_names":"","identifiers":["高墀貢"]},{"url":"http://councils.g0v.tw/api/councilors/933/","each_terms":[{"url":"http://councils.g0v.tw/api/councilors_terms/1671/","election_year":"1958","name":"蕭徹志","gender":"","party":"","title":"議員","constituency":9,"county":"新北市","district":"新店鎮、景美鎮、木柵鄉、深坑鄉、石碇鄉、坪林鄉","in_office":true,"contact_details":null,"term_start":"1958-02-21","term_end":{"date":"1961-02-20"},"education":"國校畢\n省訓團鎮長班畢業","experience":"萬里鄉第1、2、3屆鄉長\n農漁會理事長\n臺北縣議會第4屆議員","remark":null,"image":"http://www.ntp.gov.tw/UpFile/CouncilorFile/TTCC0474.jpg","links":[{"url":"http://www.ntp.gov.tw/content/history/history01-5-p.aspx?sid=571","note":"議會個人官網"}],"social_media":null,"platform":"","param":null,"councilor":"3cb2625ac5614ab99c8b9e4fe3fe2be4"}],"uid":"3cb2625ac5614ab99c8b9e4fe3fe2be4","name":"蕭徹志","birth":null,"former_names":"","identifiers":["蕭徹志"]},{"url":"http://councils.g0v.tw/api/councilors/1505/","each_terms":[{"url":"http://councils.g0v.tw/api/councilors_terms/2431/","election_year":"2009","name":"黃纓桔","gender":"女","party":"民主進步黨","title":"","constituency":4,"county":"屏東縣","district":"萬丹鄉、新園鄉、東港鎮","in_office":true,"contact_details":[{"type":"address","value":"屏東縣萬丹鄉四維村四維東路560號","label":"通訊處"},{"type":"voice","value":"08-7763807","label":"電話"}],"term_start":"2009-12-25","term_end":{"date":"2014-12-25"},"education":null,"experience":null,"remark":null,"image":"http://www.ptcc.gov.tw/upload/upimage/c3364add-74b8-2654-5b92-a9607f9e5345-S.jpg","links":[{"url":"http://www.ptcc.gov.tw/?Page=PersionalDetail&Guid=438a1c8f-9a2e-407f-a930-b1ca393c0786","note":"議會個人官網"}],"social_media":null,"platform":"新任議員，多年來一直與夫婿前立委鄭朝明，為台灣民主政治打拼，走遍屏東各角落，在為鄉親服務中，更加了解地方需求；為著正義及理念，不論時代如何變遷，不論環境如何困難，仍應秉持一貫態度，勤實為民服務。","param":{"suggestions_years":{"count":201,"sum":10808140,"years":[{"count":11,"sum":620000,"suggest_year":"2012","small_purchase":11},{"count":68,"sum":3056000,"suggest_year":"2013","small_purchase":67},{"count":122,"sum":7132140,"suggest_year":"2014","small_purchase":117}]},"suggestions_associations":[{"count":46,"sum":1247000,"label":"社區發展協會"},{"count":9,"sum":247000,"label":"促進會"},{"count":8,"sum":150000,"label":"協進會"},{"count":1,"sum":15000,"label":"商會"},{"count":0,"sum":0,"label":"學會"},{"count":0,"sum":0,"label":"公會"},{"count":0,"sum":0,"label":"研習會"},{"count":0,"sum":0,"label":"婦聯會"},{"count":0,"sum":0,"label":"婦女會"},{"count":0,"sum":0,"label":"體育會"},{"count":0,"sum":0,"label":"同心會"},{"count":0,"sum":0,"label":"農會"},{"count":0,"sum":0,"label":"早起會"},{"count":0,"sum":0,"label":"健身會"},{"count":0,"sum":0,"label":"宗親會"},{"count":0,"sum":0,"label":"功德會"},{"count":0,"sum":0,"label":"商業會"},{"count":0,"sum":0,"label":"長青會"},{"count":0,"sum":0,"label":"民眾服務社"},{"count":0,"sum":0,"label":"聯盟"}],"suggestions_piles":[{"count":125,"tokens":"協會|學會|商會|公會|協進會|促進會|研習會|婦聯會|婦女會|體育會|同心會|農會|早起會|健身會|宗親會|功德會|商業會|長青會|民眾服務社|聯盟","sum":4056000,"label":"協會"},{"count":16,"tokens":"國中|國小","sum":1170000,"label":"國中、國小"},{"count":10,"tokens":"廟|宮","sum":464000,"label":"廟"},{"count":1,"tokens":"警察局|分局","sum":20000,"label":"警察局"},{"count":1,"tokens":"消防局|消防隊|分隊|中隊","sum":20000,"label":"消防局"},{"count":0,"tokens":"辦公室|辦公處","sum":0,"label":"辦公室"}]},"councilor":"f2cee797c9034b3d83f167bca0c2176b"}],"uid":"f2cee797c9034b3d83f167bca0c2176b","name":"黃纓桔","birth":null,"former_names":"","identifiers":["黃纓桔","黄纓桔"]}]}