{"count":1904,"next":"http://councils.g0v.tw/api/councilors/?page=65","previous":"http://councils.g0v.tw/api/councilors/?page=63","results":[{"url":"http://councils.g0v.tw/api/councilors/1522/","each_terms":[{"url":"http://councils.g0v.tw/api/councilors_terms/2448/","election_year":"2009","name":"林亞蒓","gender":"女","party":"中國國民黨","title":"","constituency":1,"county":"屏東縣","district":"屏東市","in_office":true,"contact_details":[{"type":"address","value":"屏東市90063忠孝路171號","label":"通訊處"},{"type":"voice","value":"08-7326808","label":"電話"}],"term_start":"2009-12-25","term_end":{"date":"2014-12-25"},"education":null,"experience":null,"remark":null,"image":"http://www.ptcc.gov.tw/upload/upimage/f9734bc4-1a48-305f-3efd-6f12a42d435b-S.jpg","links":[{"url":"http://www.ptcc.gov.tw/?Page=PersionalDetail&Guid=566d2b49-137a-d267-c256-58778d91a4ca","note":"議會個人官網"}],"social_media":null,"platform":"一、爭取提高教育預算比例，創造愉快的教學與學習環境，提升孩子競爭力。\n二、爭取興建屏東及青少年育樂館。\n三、加強校園及學生上下學安全管理，提供孩子安全的學習環境。\n四、規劃並加速學校之重點發展項目，建立學校特色及啟發學生學習興趣。\n五、加強學校社區化之落實，使學校發展與地方特色得以充分結合。\n六、保障婦幼及老人之安全與福利，加速公共場所各項福利設施之設置。\n七、加強都市綠美化，推廣各項藝文活動。\n八、推動全市網路普及，公共區域網路無線化。\n九、推動縣府建置生活資訊平台。\n十、督促政府持續興建污水下水道，整治萬年溪，恢復河川自然生命力。\n十一、提倡終身學習，推動各項自我成長課程及藝文表演活動，豐富都市生活內涵。\n十二、倡導青年健康休閒活動，提供青年參與志工服務的機會，散發熱情，實現自我。\n十三、督促縣府加速招商工作，活絡屏東經濟，增加就業機會。\n十四、推動社區總體營造，強化社區意識，營造地方文化特色。","param":{"suggestions_years":{"count":380,"sum":19269000,"years":[{"count":97,"sum":3401000,"suggest_year":"2011","small_purchase":95},{"count":110,"sum":5465000,"suggest_year":"2012","small_purchase":105},{"count":84,"sum":5022000,"suggest_year":"2013","small_purchase":79},{"count":89,"sum":5381000,"suggest_year":"2014","small_purchase":85}]},"suggestions_associations":[{"count":51,"sum":1341000,"label":"社區發展協會"},{"count":7,"sum":210000,"label":"協進會"},{"count":9,"sum":200000,"label":"促進會"},{"count":6,"sum":194000,"label":"體育會"},{"count":6,"sum":120000,"label":"婦女會"},{"count":2,"sum":100000,"label":"公會"},{"count":2,"sum":60000,"label":"宗親會"},{"count":1,"sum":20000,"label":"學會"},{"count":1,"sum":20000,"label":"研習會"},{"count":1,"sum":20000,"label":"農會"},{"count":0,"sum":0,"label":"商會"},{"count":0,"sum":0,"label":"婦聯會"},{"count":0,"sum":0,"label":"同心會"},{"count":0,"sum":0,"label":"早起會"},{"count":0,"sum":0,"label":"健身會"},{"count":0,"sum":0,"label":"功德會"},{"count":0,"sum":0,"label":"商業會"},{"count":0,"sum":0,"label":"長青會"},{"count":0,"sum":0,"label":"民眾服務社"},{"count":0,"sum":0,"label":"聯盟"}],"suggestions_piles":[{"count":292,"tokens":"協會|學會|商會|公會|協進會|促進會|研習會|婦聯會|婦女會|體育會|同心會|農會|早起會|健身會|宗親會|功德會|商業會|長青會|民眾服務社|聯盟","sum":10400000,"label":"協會"},{"count":12,"tokens":"廟|宮","sum":665000,"label":"廟"},{"count":7,"tokens":"國中|國小","sum":486000,"label":"國中、國小"},{"count":5,"tokens":"警察局|分局","sum":296000,"label":"警察局"},{"count":2,"tokens":"消防局|消防隊|分隊|中隊","sum":100000,"label":"消防局"},{"count":0,"tokens":"辦公室|辦公處","sum":0,"label":"辦公室"}]},"councilor":"9c54119500344089845ab4e27289a14b"}],"uid":"9c54119500344089845ab4e27289a14b","name":"林亞蒓","birth":null,"former_names":"","identifiers":["林亞蒓","林亞莼","林亞蒓","林亞莼"]},{"url":"http://councils.g0v.tw/api/councilors/1524/","each_terms":[{"url":"http://councils.g0v.tw/api/councilors_terms/2450/","election_year":"2009","name":"李清聖","gender":"男","party":"民主進步黨","title":"","constituency":1,"county":"屏東縣","district":"屏東市","in_office":true,"contact_details":[{"type":"address","value":"屏東市90059廣東路474-2號","label":"通訊處"},{"type":"voice","value":"08-7351177","label":"電話"}],"term_start":"2009-12-25","term_end":{"date":"2014-12-25"},"education":null,"experience":null,"remark":null,"image":"http://www.ptcc.gov.tw/upload/upimage/173baf12-635b-4c94-1a17-fbdbcdff7ea6-S.jpg","links":[{"url":"http://www.ptcc.gov.tw/?Page=PersionalDetail&Guid=02d34fba-4625-e292-7ebc-223997df8044","note":"議會個人官網"}],"social_media":null,"platform":"一、持續督促縣府儘速完成解編大連工業區重劃為住商區及基督教公墓建納骨塔核准案。\n二、持續督促推動屏東市衛生所新建及屏東市第二消防分隊新建案。\n三、持續推動高屏溪河濱公園開發，市區萬年溪活水美化綠化，殺蛇溪整治復育計畫。\n四、落實鄉土文化教育，持續推動補教協會育苗專案，關懷弱勢與急難救助。\n五、推動全面降低中小學班級人數，有效鋪設社區監視系統，積極營造社區娛樂、運動、文化活動與安全的環境。\n六、實踐清廉從政，落實優質服務、優質問政，塑造政治好模範。","param":{"suggestions_years":{"count":511,"sum":20006000,"years":[{"count":123,"sum":5382000,"suggest_year":"2011","small_purchase":118},{"count":136,"sum":5352000,"suggest_year":"2012","small_purchase":131},{"count":119,"sum":4409000,"suggest_year":"2013","small_purchase":117},{"count":133,"sum":4863000,"suggest_year":"2014","small_purchase":128}]},"suggestions_associations":[{"count":40,"sum":870000,"label":"社區發展協會"},{"count":9,"sum":255000,"label":"協進會"},{"count":6,"sum":200000,"label":"體育會"},{"count":8,"sum":154000,"label":"研習會"},{"count":6,"sum":140000,"label":"公會"},{"count":3,"sum":90000,"label":"商業會"},{"count":2,"sum":70000,"label":"學會"},{"count":1,"sum":50000,"label":"促進會"},{"count":1,"sum":20000,"label":"商會"},{"count":1,"sum":20000,"label":"宗親會"},{"count":0,"sum":0,"label":"婦聯會"},{"count":0,"sum":0,"label":"婦女會"},{"count":0,"sum":0,"label":"同心會"},{"count":0,"sum":0,"label":"農會"},{"count":0,"sum":0,"label":"早起會"},{"count":0,"sum":0,"label":"健身會"},{"count":0,"sum":0,"label":"功德會"},{"count":0,"sum":0,"label":"長青會"},{"count":0,"sum":0,"label":"民眾服務社"},{"count":0,"sum":0,"label":"聯盟"}],"suggestions_piles":[{"count":304,"tokens":"協會|學會|商會|公會|協進會|促進會|研習會|婦聯會|婦女會|體育會|同心會|農會|早起會|健身會|宗親會|功德會|商業會|長青會|民眾服務社|聯盟","sum":8615000,"label":"協會"},{"count":28,"tokens":"國中|國小","sum":1158000,"label":"國中、國小"},{"count":9,"tokens":"警察局|分局","sum":305000,"label":"警察局"},{"count":12,"tokens":"廟|宮","sum":295000,"label":"廟"},{"count":9,"tokens":"消防局|消防隊|分隊|中隊","sum":270000,"label":"消防局"},{"count":1,"tokens":"辦公室|辦公處","sum":60000,"label":"辦公室"}]},"councilor":"c458470b4a254e73954a28d2d23e3ef5"}],"uid":"c458470b4a254e73954a28d2d23e3ef5","name":"李清聖","birth":null,"former_names":"","identifiers":["李清聖","李清聖"]},{"url":"http://councils.g0v.tw/api/councilors/1529/","each_terms":[{"url":"http://councils.g0v.tw/api/councilors_terms/2455/","election_year":"2009","name":"王長明","gender":"男","party":"無黨籍","title":"","constituency":2,"county":"連江縣","district":"北竿鄉","in_office":true,"contact_details":[{"type":"address","value":"馬祖北竿鄉坂里村54號","label":"通訊處"},{"type":"voice","value":"0836-56508、0928-094936","label":"電話"}],"term_start":"2009-12-25","term_end":{"date":"2014-12-25"},"education":null,"experience":"北竿鄉坂里村村長","remark":null,"image":"http://www.mtcc.gov.tw/representative/wang.jpg","links":[{"url":"http://www.mtcc.gov.tw/cu_representative5.htm","note":"議會個人官網"}],"social_media":null,"platform":"凡設籍本縣居民轉診赴台就醫者交通費全免，陪同赴台之家屬則補助來回交通費一半。\n推動北竿機場候補機制與全國各機場一致。(南北竿後補機制需透明化，杜絕走後門避免影響鄉親暨觀光客權益)\n積極督促縣府向中央政府爭取將北竿機場擴建為可飛737機型飛機起降場，並強力要求立榮增加北竿每日航班為五班。\n爭取漁貨船一年一次定期檢查費由政府全額補助辦理。\n積極督促中央政府落實還地於民政策，並由縣府積極先作。\n全力爭取國立大學在北竿鄉設校。(預定地為北竿塘岐靶場)\n拓展國際視野，培養學生國際觀，積極促請縣府恢復國二出國遊學計畫，並給予最低新台幣16,000元之國外遊學補助，國內遊學補助則最低新台幣8,500元整。\n為照顧北竿國中生夜間課輔安全，爭取縣府配合學校課輔時間加開夜間公車支援輸運。\n為利學童健康成長，積極要求政府在各島派駐一位營養師，協助學校辦理營養午餐，並研議開辦學童早餐，所需經費亦請縣府比照學童午餐方式撥補經費辦理，落實兒童福利政策。\n為儘速解決離島學校人事、主計人員問題，積極要求縣府在各離島學校增列一名幹事或增聘約雇人員協助辦理，還給老師暨學童安定的校務運作。\n推動落實幼托整合政策，要求北竿區列為第一優先辦理，並積極撥補經費改善幼童受教環境。\n爭取地區居民曾參加民國47年八二三台海保衛戰役者，積極要求政府落實立法院三讀通過之榮民輔導就養條例，並比照金門模式視同退除役官兵發給月退休撫養金新台幣13,550元整，並追溯自民國90年1月1日起算。\n全力推動北竿白沙至黃岐航線增加觀光人潮。\n重視弱勢外籍新娘及原住民生活照護。","param":null,"councilor":"1010209769c54312bd655c0c79df8baf"}],"uid":"1010209769c54312bd655c0c79df8baf","name":"王長明","birth":null,"former_names":"","identifiers":["王長明"]},{"url":"http://councils.g0v.tw/api/councilors/47277/","each_terms":[{"url":"http://councils.g0v.tw/api/councilors_terms/26508/","election_year":"2014","name":"陳百川","gender":null,"party":"中國國民黨","title":null,"constituency":2,"county":"澎湖縣","district":null,"in_office":false,"contact_details":null,"term_start":"2014-12-25","term_end":{"date":"2016-03-31","judicial_links":"","reason":"當選無效","ref":"","replacement":""},"education":null,"experience":null,"remark":null,"image":null,"links":null,"social_media":null,"platform":null,"param":{"bills_role_statistics":{"total":16,"priproposer":0,"sponsor":0,"cosponsor":16},"suggestions_years":{"count":21,"sum":979500,"years":[{"count":21,"sum":979500,"suggest_year":"2015","small_purchase":20}]},"suggestions_associations":[{"count":1,"sum":20000,"label":"公會"},{"count":0,"sum":0,"label":"社區發展協會"},{"count":0,"sum":0,"label":"學會"},{"count":0,"sum":0,"label":"商會"},{"count":0,"sum":0,"label":"協進會"},{"count":0,"sum":0,"label":"促進會"},{"count":0,"sum":0,"label":"研習會"},{"count":0,"sum":0,"label":"婦聯會"},{"count":0,"sum":0,"label":"婦女會"},{"count":0,"sum":0,"label":"體育會"},{"count":0,"sum":0,"label":"同心會"},{"count":0,"sum":0,"label":"農會"},{"count":0,"sum":0,"label":"早起會"},{"count":0,"sum":0,"label":"健身會"},{"count":0,"sum":0,"label":"宗親會"},{"count":0,"sum":0,"label":"功德會"},{"count":0,"sum":0,"label":"商業會"},{"count":0,"sum":0,"label":"長青會"},{"count":0,"sum":0,"label":"民眾服務社"},{"count":0,"sum":0,"label":"聯盟"}],"suggestions_piles":[{"count":2,"tokens":"廟|宮","sum":230000,"label":"廟"},{"count":5,"tokens":"協會|學會|商會|公會|協進會|促進會|研習會|婦聯會|婦女會|體育會|同心會|農會|早起會|健身會|宗親會|功德會|商業會|長青會|民眾服務社|聯盟","sum":140000,"label":"協會"},{"count":2,"tokens":"辦公室|辦公處","sum":124500,"label":"辦公室"},{"count":2,"tokens":"國中|國小","sum":100000,"label":"國中、國小"},{"count":0,"tokens":"警察局|分局","sum":0,"label":"警察局"},{"count":0,"tokens":"消防局|消防隊|分隊|中隊","sum":0,"label":"消防局"}],"bills_party_diversity":[{"party":"中國國民黨","ratio":0.7142857142857143},{"party":"無黨籍","ratio":0.19047619047619047},{"party":"無黨團結聯盟","ratio":0.06349206349206349},{"party":"民主進步黨","ratio":0.031746031746031744}]},"councilor":"65c1b7bf06f741f4a763e22f20453c37"}],"uid":"65c1b7bf06f741f4a763e22f20453c37","name":"陳百川","birth":null,"former_names":"","identifiers":["陳百川"]},{"url":"http://councils.g0v.tw/api/councilors/711/","each_terms":[{"url":"http://councils.g0v.tw/api/councilors_terms/1294/","election_year":"2002","name":"張當木","gender":"","party":"","title":"議員","constituency":6,"county":"新北市","district":"新莊市、泰山鄉、五股鄉、林口鄉","in_office":true,"contact_details":null,"term_start":"2002-03-01","term_end":{"date":"2006-02-28"},"education":"格致中學","experience":"臺北縣議會第15屆議員\n國際300B區觀音山獅子會2002~2003年會長\n臺北縣加油站公會理事長\n五股鄉體育委員會顧問\n臺北縣五股鄉義警\n民防分隊顧問\n五股義消分隊顧問團長\n臺北縣殘障福利服務協會顧問\n德音文教基金會董事長\n臺北縣五股鄉德音國小家長會長","remark":null,"image":"http://www.ntp.gov.tw/UpFile/CouncilorFile/TTCC1546.jpg","links":[{"url":"http://www.ntp.gov.tw/content/history/history01-5-p.aspx?sid=518","note":"議會個人官網"}],"social_media":null,"platform":"","param":null,"councilor":"c188ed14e70d443285e4b29a310a3090"}],"uid":"c188ed14e70d443285e4b29a310a3090","name":"張當木","birth":null,"former_names":"","identifiers":["張當木"]},{"url":"http://councils.g0v.tw/api/councilors/1658/","each_terms":[{"url":"http://councils.g0v.tw/api/councilors_terms/2584/","election_year":"2009","name":"賴源順","gender":"","party":"","title":"","constituency":1,"county":"苗栗縣","district":"苗栗市、公館鄉、頭屋鄉","in_office":true,"contact_details":null,"term_start":"2009-12-25","term_end":{"date":"2014-12-25"},"education":null,"experience":null,"remark":null,"image":"http://www.mcc.gov.tw/admin/upload/small_news_201003131636420.jpg","links":[{"url":"http://www.mcc.gov.tw/imgtxt_list.php?menu=27&typeid=42&typeid2=665","note":"議會個人官網"}],"social_media":null,"platform":"","param":{"suggestions_years":{"count":1,"sum":465500,"years":[{"count":1,"sum":465500,"suggest_year":"2012","small_purchase":0}]},"suggestions_associations":[{"count":0,"sum":0,"label":"社區發展協會"},{"count":0,"sum":0,"label":"學會"},{"count":0,"sum":0,"label":"商會"},{"count":0,"sum":0,"label":"公會"},{"count":0,"sum":0,"label":"協進會"},{"count":0,"sum":0,"label":"促進會"},{"count":0,"sum":0,"label":"研習會"},{"count":0,"sum":0,"label":"婦聯會"},{"count":0,"sum":0,"label":"婦女會"},{"count":0,"sum":0,"label":"體育會"},{"count":0,"sum":0,"label":"同心會"},{"count":0,"sum":0,"label":"農會"},{"count":0,"sum":0,"label":"早起會"},{"count":0,"sum":0,"label":"健身會"},{"count":0,"sum":0,"label":"宗親會"},{"count":0,"sum":0,"label":"功德會"},{"count":0,"sum":0,"label":"商業會"},{"count":0,"sum":0,"label":"長青會"},{"count":0,"sum":0,"label":"民眾服務社"},{"count":0,"sum":0,"label":"聯盟"}],"suggestions_piles":[{"count":0,"tokens":"協會|學會|商會|公會|協進會|促進會|研習會|婦聯會|婦女會|體育會|同心會|農會|早起會|健身會|宗親會|功德會|商業會|長青會|民眾服務社|聯盟","sum":0,"label":"協會"},{"count":0,"tokens":"辦公室|辦公處","sum":0,"label":"辦公室"},{"count":0,"tokens":"廟|宮","sum":0,"label":"廟"},{"count":0,"tokens":"警察局|分局","sum":0,"label":"警察局"},{"count":0,"tokens":"消防局|消防隊|分隊|中隊","sum":0,"label":"消防局"},{"count":0,"tokens":"國中|國小","sum":0,"label":"國中、國小"}]},"councilor":"446c60de22b344ba86ecd195f5b58ac9"}],"uid":"446c60de22b344ba86ecd195f5b58ac9","name":"賴源順","birth":null,"former_names":"","identifiers":["賴源順","頼源順"]},{"url":"http://councils.g0v.tw/api/councilors/535/","each_terms":[{"url":"http://councils.g0v.tw/api/councilors_terms/917/","election_year":"1968","name":"張天發","gender":"","party":"","title":"議員","constituency":6,"county":"新北市","district":"汐止鎮、萬里鄉、金山鄉","in_office":true,"contact_details":null,"term_start":"1968-02-21","term_end":{"date":"1973-04-30"},"education":"私塾\n革命實踐研究院結業","experience":"臺北縣挑挽工會理事長\n臺北縣總工會常務理事\n貨物裝卸運送勞動合作社理事長\n資生堂醫院\n新發礦業有限公司負責人\n臺北縣議會第6、7屆議員","remark":null,"image":"http://www.ntp.gov.tw/UpFile/CouncilorFile/TTCC0635.jpg","links":[{"url":"http://www.ntp.gov.tw/content/history/history01-5-p.aspx?sid=264","note":"議會個人官網"}],"social_media":null,"platform":"","param":null,"councilor":"485f97ade83f46bda316ac0b6e29292c"},{"url":"http://councils.g0v.tw/api/councilors_terms/1828/","election_year":"1964","name":"張天發","gender":"","party":"","title":"議員","constituency":6,"county":"新北市","district":"內湖鄉、南港鎮、汐止鎮、萬里鄉、金山鄉","in_office":true,"contact_details":null,"term_start":"1964-02-21","term_end":{"date":"1968-02-20"},"education":"私塾\n革命實踐研究院結業","experience":"臺北縣挑挽工會理事長\n臺北縣總工會常務理事\n貨物裝卸運送勞動合作社理事長\n資生堂醫院\n新發礦業有限公司負責人\n臺北縣議會第6、7屆議員","remark":null,"image":"http://www.ntp.gov.tw/UpFile/CouncilorFile/TTCC0635.jpg","links":[{"url":"http://www.ntp.gov.tw/content/history/history01-5-p.aspx?sid=264","note":"議會個人官網"}],"social_media":null,"platform":"","param":null,"councilor":"485f97ade83f46bda316ac0b6e29292c"}],"uid":"485f97ade83f46bda316ac0b6e29292c","name":"張天發","birth":null,"former_names":"","identifiers":["張天發"]},{"url":"http://councils.g0v.tw/api/councilors/42669/","each_terms":[{"url":"http://councils.g0v.tw/api/councilors_terms/24732/","election_year":"2014","name":"陳志成","gender":"男","party":"無黨籍","title":"議員","constituency":3,"county":"屏東縣","district":"內埔鄉、竹田鄉、萬巒鄉、潮州鎮、新埤鄉、枋寮鄉","in_office":true,"contact_details":[{"type":"voice","value":"08-8782229","label":"電話"},{"type":"address","value":"屏東縣枋寮鄉隆山村中山路152號","label":"聯絡處"}],"term_start":"2014-12-25","term_end":{"date":"2018-12-25"},"education":null,"experience":null,"remark":null,"image":"http://www.ptcc.gov.tw/upload/upimage/2481f9cd-7a6f-f6fc-1d9b-9986f500c45d-S.jpg","links":[{"url":"http://www.ptcc.gov.tw/?Page=PersionalDetail&Guid=2481f9cd-7a6f-f6fc-1d9b-9986f500c45d","note":"議會個人官網"}],"social_media":null,"platform":"小檔案\n出生：1963年\n經歷：枋寮調解委員會主席\n縣議員徐進德枋寮服務處主任\n北勢寮保安宮重建主任委員\n水底寮保寧宮副主任委員\n大武力福德宮功德會第一屆理事長\n枋寮區漁會代表\n枋寮分局義警顧問團團長\n枋寮高中排球後援會會長\n瑞翔賽鴿協會會長\n陳議員為新科議員，過去雖然並沒有擔任民意代表，但都一直扮演調解的角色，對選民服務一點都不陌生。\n未當選縣議員之前，他已擔任枋寮鄉調解委員，為民眾排解糾紛，經手之調解案件不計其數，獲得肯定，也贏得委員們信任，被推舉為調解委員會主席，綜理調解會會務。加上他又曾擔任本會前議員徐進德枋寮服務處主任，接觸的服務案件的層面更廣，益加豐富其處事經驗與圓融。\n陳議員依其多年調解經驗認為，調解案件因當事雙方各有立場，如果雙方都堅持己見，就只有走上法院訴訟一途，耗費的心力遠超過當時如各退一步的代價，其實只要雙方拋開意氣之爭，就能有化干戈為玉帛的圓滿結局。\n本屆陳議員問政的目標：\n一、開發大屏南地區觀光旅遊帶。\n二、有效利用台糖休閒農地。\n三、發掘自然觀光資源。\n四、開發在地文化產業。\n五、加強弱勢團體關懷與照顧。\n六、發展精緻農漁業。","param":{"bills_role_statistics":{"total":1,"priproposer":1,"sponsor":1,"cosponsor":0},"suggestions_years":{"count":225,"sum":9741000,"years":[{"count":117,"sum":5568000,"suggest_year":"2015","small_purchase":113},{"count":108,"sum":4173000,"suggest_year":"2016","small_purchase":106}]},"suggestions_associations":[{"count":56,"sum":1201000,"label":"社區發展協會"},{"count":16,"sum":906000,"label":"農會"},{"count":8,"sum":320000,"label":"協進會"},{"count":6,"sum":180000,"label":"體育會"},{"count":3,"sum":60000,"label":"促進會"},{"count":1,"sum":30000,"label":"宗親會"},{"count":0,"sum":0,"label":"學會"},{"count":0,"sum":0,"label":"商會"},{"count":0,"sum":0,"label":"公會"},{"count":0,"sum":0,"label":"研習會"},{"count":0,"sum":0,"label":"婦聯會"},{"count":0,"sum":0,"label":"婦女會"},{"count":0,"sum":0,"label":"同心會"},{"count":0,"sum":0,"label":"早起會"},{"count":0,"sum":0,"label":"健身會"},{"count":0,"sum":0,"label":"功德會"},{"count":0,"sum":0,"label":"商業會"},{"count":0,"sum":0,"label":"長青會"},{"count":0,"sum":0,"label":"民眾服務社"},{"count":0,"sum":0,"label":"聯盟"}],"suggestions_piles":[{"count":146,"tokens":"協會|學會|商會|公會|協進會|促進會|研習會|婦聯會|婦女會|體育會|同心會|農會|早起會|健身會|宗親會|功德會|商業會|長青會|民眾服務社|聯盟","sum":4031000,"label":"協會"},{"count":12,"tokens":"廟|宮","sum":685000,"label":"廟"},{"count":6,"tokens":"國中|國小","sum":215000,"label":"國中、國小"},{"count":6,"tokens":"警察局|分局","sum":198000,"label":"警察局"},{"count":5,"tokens":"消防局|消防隊|分隊|中隊","sum":168000,"label":"消防局"},{"count":0,"tokens":"辦公室|辦公處","sum":0,"label":"辦公室"}],"bills_party_diversity":[{"party":"無黨籍","ratio":0.5},{"party":"中國國民黨","ratio":0.5}]},"councilor":"1f60b6ed1178469286159644f5af27ac"}],"uid":"1f60b6ed1178469286159644f5af27ac","name":"陳志成","birth":null,"former_names":"","identifiers":["陳志成"]},{"url":"http://councils.g0v.tw/api/councilors/1518/","each_terms":[{"url":"http://councils.g0v.tw/api/councilors_terms/2444/","election_year":"2009","name":"唐玉琴","gender":"女","party":"中國國民黨","title":"","constituency":1,"county":"屏東縣","district":"屏東市","in_office":true,"contact_details":[{"type":"address","value":"屏東市90091武愛街230號","label":"通訊處"},{"type":"voice","value":"08-7536833","label":"電話"}],"term_start":"2009-12-25","term_end":{"date":"2014-12-25"},"education":null,"experience":null,"remark":null,"image":"http://www.ptcc.gov.tw/upload/upimage/29f2e1ff-d6c8-7642-c01b-1fad9e57aacb-S.jpg","links":[{"url":"http://www.ptcc.gov.tw/?Page=PersionalDetail&Guid=543f2932-4835-9d13-18bb-3163e96a47fd","note":"議會個人官網"}],"social_media":null,"platform":"一、秉持清廉問政，熱心服務百分百。\n二、督促政府推動加工區積極招商增進就業率。\n三、重視體育及教育均衡發展留住優秀人才。\n四、推廣各項休閒活動打造優質社區文化。\n五、積極建議政府加強治安悠活城市Long Stay。\n六、結合運動推動農產品結合農產品觀光創造繁榮新屏東。\n七、活絡屏東一日遊，如名勝古蹟、觀光夜市南北小吃。\n八、持續推動眷村文化及精神的傳承。","param":{"suggestions_years":{"count":375,"sum":13450000,"years":[{"count":104,"sum":2830000,"suggest_year":"2011","small_purchase":102},{"count":105,"sum":3796000,"suggest_year":"2012","small_purchase":101},{"count":69,"sum":2689000,"suggest_year":"2013","small_purchase":66},{"count":97,"sum":4135000,"suggest_year":"2014","small_purchase":93}]},"suggestions_associations":[{"count":43,"sum":850000,"label":"社區發展協會"},{"count":26,"sum":715000,"label":"體育會"},{"count":21,"sum":415000,"label":"婦女會"},{"count":7,"sum":220000,"label":"學會"},{"count":5,"sum":155000,"label":"協進會"},{"count":6,"sum":110000,"label":"公會"},{"count":6,"sum":110000,"label":"研習會"},{"count":2,"sum":60000,"label":"民眾服務社"},{"count":2,"sum":40000,"label":"商業會"},{"count":1,"sum":20000,"label":"宗親會"},{"count":1,"sum":20000,"label":"功德會"},{"count":0,"sum":0,"label":"商會"},{"count":0,"sum":0,"label":"促進會"},{"count":0,"sum":0,"label":"婦聯會"},{"count":0,"sum":0,"label":"同心會"},{"count":0,"sum":0,"label":"農會"},{"count":0,"sum":0,"label":"早起會"},{"count":0,"sum":0,"label":"健身會"},{"count":0,"sum":0,"label":"長青會"},{"count":0,"sum":0,"label":"聯盟"}],"suggestions_piles":[{"count":260,"tokens":"協會|學會|商會|公會|協進會|促進會|研習會|婦聯會|婦女會|體育會|同心會|農會|早起會|健身會|宗親會|功德會|商業會|長青會|民眾服務社|聯盟","sum":5920000,"label":"協會"},{"count":42,"tokens":"國中|國小","sum":2848000,"label":"國中、國小"},{"count":5,"tokens":"警察局|分局","sum":180000,"label":"警察局"},{"count":1,"tokens":"辦公室|辦公處","sum":95000,"label":"辦公室"},{"count":1,"tokens":"廟|宮","sum":20000,"label":"廟"},{"count":1,"tokens":"消防局|消防隊|分隊|中隊","sum":20000,"label":"消防局"}]},"councilor":"ce15cd6de5a5405dbbd9db41207998e7"},{"url":"http://councils.g0v.tw/api/councilors_terms/3463/","election_year":"2014","name":"唐玉琴","gender":"女","party":"中國國民黨","title":"議員","constituency":1,"county":"屏東縣","district":"屏東市","in_office":true,"contact_details":[{"type":"voice","value":"08-7536833","label":"電話"},{"type":"address","value":"屏東市武愛街230號","label":"聯絡處"}],"term_start":"2014-12-25","term_end":{"date":"2018-12-25"},"education":null,"experience":null,"remark":null,"image":"http://www.ptcc.gov.tw/upload/upimage/9e81b756-2897-1761-ba86-f9d16c1a6bb2-S.jpg","links":[{"url":"http://www.ptcc.gov.tw/?Page=PersionalDetail&Guid=09334aac-1cfc-1a16-2fdf-73bc7a344a0d","note":"議會個人官網"}],"social_media":null,"platform":"小檔案\n出生：1955年\n經歷：屏東縣議會第16、17屆議員\n屏東市民代表會第13、14、15、16屆代表\n屏東市婦女權益促進會委員\n國民黨第15、17、18、19全黨代表\n屏東市婦女會理事長\n屏東縣體育會籃球委員會主委\n唐議員是眷村女兒，從屏東市民代表踏進政壇，經歷四屆16年市民代表的民意洗禮後，再更上層樓，成功當選縣議員且順利連任三屆。靠的是平時勤走基層，認真辦妥每一件選民服務案件，選民給予她最紮實的回饋。\n成長於眷村，對於眷村文化的沒落感觸比別人多，重現眷村風華也成了她放不下的使命感。希望有朝一日，眷村文化館就耀眼地立在屏東市某一個轉角處，完整呈現往日眷村竹籬笆的風華，完整了屏東市的文化拼圖。\n本屆唐議員問政的目標：\n一、積極爭取地方基礎建設，創造活力城市。\n二、提倡觀光資源多元化整合，活絡地方發展。\n三、推廣閒置空間活化再利用、改造優質社區。\n四、督促政府提昇社福制度，照顧弱勢族群。\n五、重視體育及教育均衡發展，留住優秀人才。\n六、建議政府落實治安強化，維護城市安全環境。\n七、持續推動眷村文化資產保存。","param":{"bills_role_statistics":{"total":22,"priproposer":22,"sponsor":22,"cosponsor":0},"suggestions_years":{"count":213,"sum":9013000,"years":[{"count":107,"sum":3856000,"suggest_year":"2015","small_purchase":104},{"count":106,"sum":5157000,"suggest_year":"2016","small_purchase":99}]},"suggestions_associations":[{"count":14,"sum":472000,"label":"體育會"},{"count":17,"sum":310000,"label":"社區發展協會"},{"count":5,"sum":100000,"label":"協進會"},{"count":5,"sum":100000,"label":"婦女會"},{"count":3,"sum":50000,"label":"學會"},{"count":2,"sum":20000,"label":"宗親會"},{"count":1,"sum":20000,"label":"民眾服務社"},{"count":1,"sum":10000,"label":"研習會"},{"count":0,"sum":0,"label":"商會"},{"count":0,"sum":0,"label":"公會"},{"count":0,"sum":0,"label":"促進會"},{"count":0,"sum":0,"label":"婦聯會"},{"count":0,"sum":0,"label":"同心會"},{"count":0,"sum":0,"label":"農會"},{"count":0,"sum":0,"label":"早起會"},{"count":0,"sum":0,"label":"健身會"},{"count":0,"sum":0,"label":"功德會"},{"count":0,"sum":0,"label":"商業會"},{"count":0,"sum":0,"label":"長青會"},{"count":0,"sum":0,"label":"聯盟"}],"suggestions_piles":[{"count":124,"tokens":"協會|學會|商會|公會|協進會|促進會|研習會|婦聯會|婦女會|體育會|同心會|農會|早起會|健身會|宗親會|功德會|商業會|長青會|民眾服務社|聯盟","sum":2612000,"label":"協會"},{"count":31,"tokens":"國中|國小","sum":1085000,"label":"國中、國小"},{"count":2,"tokens":"廟|宮","sum":40000,"label":"廟"},{"count":1,"tokens":"警察局|分局","sum":10000,"label":"警察局"},{"count":1,"tokens":"消防局|消防隊|分隊|中隊","sum":10000,"label":"消防局"},{"count":0,"tokens":"辦公室|辦公處","sum":0,"label":"辦公室"}],"bills_party_diversity":[{"party":"中國國民黨","ratio":0.8},{"party":"臺灣團結聯盟","ratio":0.1},{"party":"民主進步黨","ratio":0.06666666666666667},{"party":"無黨籍","ratio":0.03333333333333333}]},"councilor":"ce15cd6de5a5405dbbd9db41207998e7"}],"uid":"ce15cd6de5a5405dbbd9db41207998e7","name":"唐玉琴","birth":null,"former_names":"","identifiers":["唐玉琴"]},{"url":"http://councils.g0v.tw/api/councilors/381/","each_terms":[{"url":"http://councils.g0v.tw/api/councilors_terms/3300/","election_year":"2014","name":"鍾盛有","gender":"男","party":"無黨籍","title":"議員","constituency":1,"county":"高雄市","district":"桃源區、那瑪夏區、甲仙區、六龜區、杉林區、內門區、旗山區、美濃區、茂林區","in_office":true,"contact_details":[{"type":"voice","value":"6822226","label":"聯絡電話"},{"type":"address","value":"843 美濃區合和里成功路97號","label":"通訊地址"},{"type":"fax","value":"6822227","label":"傳真電話"}],"term_start":"2014-12-25","term_end":{"date":"2018-12-24"},"education":"","experience":"一、澳洲國立南澳大學碩士\n二、現任高雄市議員\n三、高雄市議會農林委員會召集人\n四、高雄市政府顧問\n五、台灣省諮議會顧問\n六、高雄縣議員\n七、杉林鄉第十二、十三屆鄉長\n八、台北市警員\n九、高雄縣客家委員\n十、和春技術學院校友會長","remark":null,"image":"http://www.kcc.gov.tw/Upload/PeriodMembers/0702002.jpg","links":[{"url":"http://www.kcc.gov.tw/PeriodMembers/Introduction.aspx?KeyID=1761","note":"議會個人官網"}],"social_media":null,"platform":"一、堅決反對興建美濃水庫，保障居民生命財產安全。\n二、促請政府輔導提昇農產品品質，並落實產地品牌認證制度，招展產銷市場以增加農民收益。\n三、促請政府發展文化產業觀光，配合傳統建築，文化古蹟並獎勵民間重視維護及保存。\n四、促請政府重視土石流、水患問題，應編列足夠預算定期整理河川，保持排水系統之暢通，以保障人民生命財產之安全。\n五、促請政府照顧弱勢族群，保障婦幼安全，重視外籍配偶之就業輔導及子女之教育，並落實政策之執行。\n六、促請政府加強社會治安維護，杜絕毒害與竊盜，共同營造安祥家庭環境，讓人民平安過日子。\n七、爭取規劃延伸高雄捷運與輕軌到大旗美地區，以均衡地方發展，解決塞車交通問題，並帶動觀光產業發展。\n八、促請立委提案，將被國民黨團強行通過，屆滿65歲農保未達15年老農福利津貼刪減一半所省下來的錢，返還用於農民，即年滿65歲農保滿15年，津貼可月領1萬元，農保滿30年者可月領1.5萬元落實照顧弱勢老農。","param":{"suggestions_years":{"count":3,"sum":9280000,"years":[{"count":2,"sum":7480000,"suggest_year":"2015","small_purchase":0},{"count":1,"sum":1800000,"suggest_year":"2016","small_purchase":0}]},"bills_role_statistics":{"total":128,"priproposer":45,"sponsor":47,"cosponsor":81},"attendance_statistics":{"absent":3,"total":243},"suggestions_associations":[{"count":0,"sum":0,"label":"社區發展協會"},{"count":0,"sum":0,"label":"學會"},{"count":0,"sum":0,"label":"商會"},{"count":0,"sum":0,"label":"公會"},{"count":0,"sum":0,"label":"協進會"},{"count":0,"sum":0,"label":"促進會"},{"count":0,"sum":0,"label":"研習會"},{"count":0,"sum":0,"label":"婦聯會"},{"count":0,"sum":0,"label":"婦女會"},{"count":0,"sum":0,"label":"體育會"},{"count":0,"sum":0,"label":"同心會"},{"count":0,"sum":0,"label":"農會"},{"count":0,"sum":0,"label":"早起會"},{"count":0,"sum":0,"label":"健身會"},{"count":0,"sum":0,"label":"宗親會"},{"count":0,"sum":0,"label":"功德會"},{"count":0,"sum":0,"label":"商業會"},{"count":0,"sum":0,"label":"長青會"},{"count":0,"sum":0,"label":"民眾服務社"},{"count":0,"sum":0,"label":"聯盟"}],"bills_party_diversity":[{"party":"民主進步黨","ratio":0.5925110132158591},{"party":"無黨籍","ratio":0.3634361233480176},{"party":"臺灣團結聯盟","ratio":0.028634361233480177},{"party":"中國國民黨","ratio":0.011013215859030838},{"party":"無黨團結聯盟","ratio":0.004405286343612335}],"suggestions_piles":[{"count":0,"tokens":"協會|學會|商會|公會|協進會|促進會|研習會|婦聯會|婦女會|體育會|同心會|農會|早起會|健身會|宗親會|功德會|商業會|長青會|民眾服務社|聯盟","sum":0,"label":"協會"},{"count":0,"tokens":"辦公室|辦公處","sum":0,"label":"辦公室"},{"count":0,"tokens":"廟|宮","sum":0,"label":"廟"},{"count":0,"tokens":"警察局|分局","sum":0,"label":"警察局"},{"count":0,"tokens":"消防局|消防隊|分隊|中隊","sum":0,"label":"消防局"},{"count":0,"tokens":"國中|國小","sum":0,"label":"國中、國小"}]},"councilor":"6f9451e2f0314c7f9195bdf707e391dc"},{"url":"http://councils.g0v.tw/api/councilors_terms/719/","election_year":"2010","name":"鍾盛有","gender":"","party":"民主進步黨","title":"議員","constituency":1,"county":"高雄市","district":"桃源區、那瑪夏區、甲仙區、六龜區、杉林區、內門區、旗山區、美濃區、茂林區","in_office":true,"contact_details":[{"type":"voice","value":"6822226","label":"傳真"},{"type":"fax","value":"6822227","label":"傳真"},{"type":"address","value":"高雄市美濃區合和里成功路97號","label":"通訊處"}],"term_start":"2010-12-25","term_end":{"date":"2014-12-25"},"education":"和春技術學院\n澳洲國立南澳大學產管碩士","experience":"一、高雄縣第十六屆議員\n二、杉林鄉第十二、十三屆鄉長\n三、杉林鄉公所村幹事、課員、課員兼調解秘書\n四、台北市警局警員\n五、高雄縣客家委員\n六、和春技術學院校友會副會長\n七、台灣省諮議會顧問\n八、高雄市政府顧問","remark":null,"image":"http://www.kcc.gov.tw/Upload/PeriodMembers/0701070.jpg","links":[{"url":"http://www.kcc.gov.tw/PeriodMembers/Introduction.aspx?KeyID=1735","note":"議會個人官網"}],"social_media":null,"platform":"一、督造大高雄崢嶸國際先進之都。\n二、扶植弱勢群體，創建優質福利幸福社會。\n三、串聯縣市合縱結構，深耕產業均衡發展。\n四、監督加強河川整治、國土規劃，確保生命財產安全。\n五、精緻教育，專業專才培訓，符合國際打造一流尖兵。\n六、促進捷運六旗茂桃甲杉民，內門心，美濃情，旅遊貓空冠天下。","param":{"bills_role_statistics":{"total":86,"priproposer":6,"sponsor":6,"cosponsor":80},"votes_decision_statistics":{"abstain":0,"disagree":2,"not_voting":1,"total":3,"agree":0,"conflict":0},"diversity":{"中國國民黨":0.024691358024691357,"民主進步黨":0.9259259259259259,"親民黨":0.0,"無黨籍":0.04938271604938271},"suggestions_years":{"count":35,"sum":18333040,"years":[{"count":5,"sum":6013160,"suggest_year":"2012","small_purchase":0},{"count":23,"sum":11819880,"suggest_year":"2013","small_purchase":1},{"count":7,"sum":500000,"suggest_year":"2014","small_purchase":6}]},"attendance_statistics":{"absent":3,"total":392},"suggestions_associations":[{"count":0,"sum":0,"label":"社區發展協會"},{"count":0,"sum":0,"label":"學會"},{"count":0,"sum":0,"label":"商會"},{"count":0,"sum":0,"label":"公會"},{"count":0,"sum":0,"label":"協進會"},{"count":0,"sum":0,"label":"促進會"},{"count":0,"sum":0,"label":"研習會"},{"count":0,"sum":0,"label":"婦聯會"},{"count":0,"sum":0,"label":"婦女會"},{"count":0,"sum":0,"label":"體育會"},{"count":0,"sum":0,"label":"同心會"},{"count":0,"sum":0,"label":"農會"},{"count":0,"sum":0,"label":"早起會"},{"count":0,"sum":0,"label":"健身會"},{"count":0,"sum":0,"label":"宗親會"},{"count":0,"sum":0,"label":"功德會"},{"count":0,"sum":0,"label":"商業會"},{"count":0,"sum":0,"label":"長青會"},{"count":0,"sum":0,"label":"民眾服務社"},{"count":0,"sum":0,"label":"聯盟"}],"bills_party_diversity":[{"party":"民主進步黨","ratio":0.8795518207282913},{"party":"中國國民黨","ratio":0.058823529411764705},{"party":"無黨籍","ratio":0.058823529411764705},{"party":"親民黨","ratio":0.0028011204481792717}],"suggestions_piles":[{"count":6,"tokens":"國中|國小","sum":10194160,"label":"國中、國小"},{"count":7,"tokens":"警察局|分局","sum":2227000,"label":"警察局"},{"count":1,"tokens":"廟|宮","sum":500000,"label":"廟"},{"count":0,"tokens":"協會|學會|商會|公會|協進會|促進會|研習會|婦聯會|婦女會|體育會|同心會|農會|早起會|健身會|宗親會|功德會|商業會|長青會|民眾服務社|聯盟","sum":0,"label":"協會"},{"count":0,"tokens":"辦公室|辦公處","sum":0,"label":"辦公室"},{"count":0,"tokens":"消防局|消防隊|分隊|中隊","sum":0,"label":"消防局"}]},"councilor":"6f9451e2f0314c7f9195bdf707e391dc"}],"uid":"6f9451e2f0314c7f9195bdf707e391dc","name":"鍾盛有","birth":null,"former_names":"","identifiers":["鍾盛有"]}]}