{"count":1904,"next":"http://councils.g0v.tw/api/councilors/?page=67","previous":"http://councils.g0v.tw/api/councilors/?page=65","results":[{"url":"http://councils.g0v.tw/api/councilors/189/","each_terms":[{"url":"http://councils.g0v.tw/api/councilors_terms/328/","election_year":"1994","name":"秦茂松","gender":"男","party":"中國國民黨","title":"議員","constituency":null,"county":"臺北市","district":"","in_office":true,"contact_details":null,"term_start":"1994-12-25","term_end":{"date":"1998-12-25"},"education":"員林實驗中學師範科畢業、國立中興大學法律系畢業、革命實踐研究院結業、後幹班六十三期結業。","experience":"教師、主任、司機工會顧問、河南同鄉會理事、後備軍人輔導組長、中心主任、北市後備憲兵副主任、永吉、福德國小、永吉、榴公國中家長會顧問、永春國小家長會名譽會長、臺北市直轄市議會第三、四、五、六、屆議員、議會黨團書記長。","remark":"","image":"http://www.tcc.gov.tw/../upload/photo/%E7%A7%A6%E8%8C%82%E6%9D%BE15.jpg","links":[{"url":"http://www.tcc.gov.tw/Councilor_Content_All.aspx?s=1429&d=420705&n=%E7%A7%A6%E8%8C%82%E6%9D%BE","note":"議會個人官網"}],"social_media":null,"platform":"","param":null,"councilor":"3dba3f256cdf4b5f8c0010b2fc1b172f"},{"url":"http://councils.g0v.tw/api/councilors_terms/380/","election_year":"1989","name":"秦茂松","gender":"男","party":"中國國民黨","title":"議員","constituency":null,"county":"臺北市","district":"","in_office":true,"contact_details":null,"term_start":"1989-12-25","term_end":{"date":"1994-12-25"},"education":"省立員林實中師範科畢業、國立中興大學法律系畢業、汐止初中畢業。","experience":"教師、訓導主任、松南後備軍人中心主任、臺北市直轄市議會第三、四、五屆議員、全國好人好事代表。","remark":"","image":"http://www.tcc.gov.tw/../upload/photo/%E7%A7%A6%E8%8C%82%E6%9D%BE14.jpg","links":[{"url":"http://www.tcc.gov.tw/Councilor_Content_All.aspx?s=1843&d=420705&n=%E7%A7%A6%E8%8C%82%E6%9D%BE","note":"議會個人官網"}],"social_media":null,"platform":"","param":null,"councilor":"3dba3f256cdf4b5f8c0010b2fc1b172f"},{"url":"http://councils.g0v.tw/api/councilors_terms/432/","election_year":"1985","name":"秦茂松","gender":"男","party":"中國國民黨","title":"議員","constituency":null,"county":"臺北市","district":"","in_office":true,"contact_details":null,"term_start":"1985-12-25","term_end":{"date":"1989-12-25"},"education":"員林實驗中學師範科畢業、國立中興大學法律系畢業、軍管區後幹班六十三期結業。","experience":"永春國小訓導主任、南港舊庄國小教師、訓導主任、河南同鄉會理事、臺北市直轄市議會第三、四屆議員。","remark":"","image":"http://www.tcc.gov.tw/../upload/photo/%E7%A7%A6%E8%8C%82%E6%9D%BE13.jpg","links":[{"url":"http://www.tcc.gov.tw/Councilor_Content_All.aspx?s=1682&d=420705&n=%E7%A7%A6%E8%8C%82%E6%9D%BE","note":"議會個人官網"}],"social_media":null,"platform":"","param":null,"councilor":"3dba3f256cdf4b5f8c0010b2fc1b172f"},{"url":"http://councils.g0v.tw/api/councilors_terms/478/","election_year":"1981","name":"秦茂松","gender":"男","party":"中國國民黨","title":"議員","constituency":null,"county":"臺北市","district":"","in_office":true,"contact_details":null,"term_start":"1981-12-25","term_end":{"date":"1985-12-25"},"education":"員林實驗中學師範科畢業、國立中興大學法律系畢業、革命實踐研究院黨政建設研究班七十一期結業、軍管區後幹班六十三期結業。","experience":"永春國小訓導主任、南港舊莊國小教師、訓導主任、私立育達商職顧問、臺北市司機工會顧問、後備軍人輔導組長、臺北市直轄市議會第三屆議員。","remark":"","image":"http://www.tcc.gov.tw/../upload/photo/%E7%A7%A6%E8%8C%82%E6%9D%BE12.jpg","links":[{"url":"http://www.tcc.gov.tw/Councilor_Content_All.aspx?s=2254&d=420705&n=%E7%A7%A6%E8%8C%82%E6%9D%BE","note":"議會個人官網"}],"social_media":null,"platform":"","param":null,"councilor":"3dba3f256cdf4b5f8c0010b2fc1b172f"},{"url":"http://councils.g0v.tw/api/councilors_terms/527/","election_year":"1977","name":"秦茂松","gender":"男","party":"中國國民黨","title":"議員","constituency":null,"county":"臺北市","district":"","in_office":true,"contact_details":null,"term_start":"1977-12-25","term_end":{"date":"1981-12-25"},"education":"員林實驗中學師範科畢業、國立中興大學法律系畢業、軍管區後幹班六十三期結業、革命實踐研究院黨政建設研究班七十一期結業。","experience":"松山區永春國小訓導主任、南港區舊莊國小教師、訓導主任、河南同鄉會理事、私立育達商職顧問、臺北市司機工會顧問、後備軍人輔導組長。","remark":"","image":"http://www.tcc.gov.tw/../upload/photo/%E7%A7%A6%E8%8C%82%E6%9D%BE11.jpg","links":[{"url":"http://www.tcc.gov.tw/Councilor_Content_All.aspx?s=2163&d=420705&n=%E7%A7%A6%E8%8C%82%E6%9D%BE","note":"議會個人官網"}],"social_media":null,"platform":"","param":null,"councilor":"3dba3f256cdf4b5f8c0010b2fc1b172f"}],"uid":"3dba3f256cdf4b5f8c0010b2fc1b172f","name":"秦茂松","birth":"1942-07-05","former_names":"","identifiers":["秦茂松"]},{"url":"http://councils.g0v.tw/api/councilors/863/","each_terms":[{"url":"http://councils.g0v.tw/api/councilors_terms/1525/","election_year":"1951","name":"林添富","gender":"","party":"","title":"議員","constituency":2,"county":"新北市","district":"三峽鎮、鶯歌鎮、樹林鎮","in_office":true,"contact_details":null,"term_start":"1951-01-04","term_end":{"date":"1953-01-05"},"education":"臺灣大學經濟學系","experience":"鶯歌中學校長\n金敏煤礦公司","remark":null,"image":"http://www.ntp.gov.tw/UpFile/CouncilorFile/TTCC0108.jpg","links":[{"url":"http://www.ntp.gov.tw/content/history/history01-5-p.aspx?sid=75","note":"議會個人官網"}],"social_media":null,"platform":"","param":null,"councilor":"eafc0ae9e5ce4deaa13b36a79525d102"}],"uid":"eafc0ae9e5ce4deaa13b36a79525d102","name":"林添富","birth":null,"former_names":"","identifiers":["林添富","林添富"]},{"url":"http://councils.g0v.tw/api/councilors/864/","each_terms":[{"url":"http://councils.g0v.tw/api/councilors_terms/1526/","election_year":"1951","name":"劉碧雲","gender":"","party":"","title":"議員","constituency":1,"county":"新北市","district":"板橋鎮、中和鄉包括今永和地區、土城鄉","in_office":true,"contact_details":null,"term_start":"1951-01-04","term_end":{"date":"1953-01-05"},"education":"蘇州美術專科學校\n國立政治大學合作指導研究班結業","experience":"中學教員\n縣黨部婦運會主任委員\n縣婦女會常務理事兼理事長\n臺北縣議會第1、3屆議員","remark":null,"image":"http://www.ntp.gov.tw/UpFile/CouncilorFile/TTCC0107.jpg","links":[{"url":"http://www.ntp.gov.tw/content/history/history01-5-p.aspx?sid=74","note":"議會個人官網"}],"social_media":null,"platform":"","param":null,"councilor":"84b0511b1eec442684a6294c69f73174"},{"url":"http://councils.g0v.tw/api/councilors_terms/1653/","election_year":"1955","name":"劉碧雲","gender":"","party":"","title":"議員","constituency":1,"county":"新北市","district":"板橋鎮、中和鄉、土城鄉","in_office":true,"contact_details":null,"term_start":"1955-01-16","term_end":{"date":"1958-02-20"},"education":"蘇州美術專科學校\n國立政治大學合作指導研究班結業","experience":"中學教員\n縣黨部婦運會主任委員\n縣婦女會常務理事兼理事長\n臺北縣議會第1、3屆議員","remark":null,"image":"http://www.ntp.gov.tw/UpFile/CouncilorFile/TTCC0107.jpg","links":[{"url":"http://www.ntp.gov.tw/content/history/history01-5-p.aspx?sid=74","note":"議會個人官網"}],"social_media":null,"platform":"","param":null,"councilor":"84b0511b1eec442684a6294c69f73174"}],"uid":"84b0511b1eec442684a6294c69f73174","name":"劉碧雲","birth":null,"former_names":"","identifiers":["劉碧雲","劉碧雲"]},{"url":"http://councils.g0v.tw/api/councilors/865/","each_terms":[{"url":"http://councils.g0v.tw/api/councilors_terms/1589/","election_year":"1953","name":"林溪泉","gender":"","party":"","title":"議員","constituency":1,"county":"新北市","district":"板橋鎮、中和鄉、土城鄉","in_office":true,"contact_details":null,"term_start":"1953-01-16","term_end":{"date":"1955-01-15"},"education":"臺北師範學校","experience":"國民學校教員\n臺灣省農會理事\n臺北縣議會第1、2屆議員","remark":null,"image":"http://www.ntp.gov.tw/UpFile/CouncilorFile/TTCC0106.jpg","links":[{"url":"http://www.ntp.gov.tw/content/history/history01-5-p.aspx?sid=73","note":"議會個人官網"}],"social_media":null,"platform":"","param":null,"councilor":"70602fd4769d477ea07b8b3f25384e0d"},{"url":"http://councils.g0v.tw/api/councilors_terms/1527/","election_year":"1951","name":"林溪泉","gender":"","party":"","title":"議員","constituency":1,"county":"新北市","district":"板橋鎮、中和鄉包括今永和地區、土城鄉","in_office":true,"contact_details":null,"term_start":"1951-01-04","term_end":{"date":"1953-01-05"},"education":"臺北師範學校","experience":"國民學校教員\n臺灣省農會理事\n臺北縣議會第1、2屆議員","remark":null,"image":"http://www.ntp.gov.tw/UpFile/CouncilorFile/TTCC0106.jpg","links":[{"url":"http://www.ntp.gov.tw/content/history/history01-5-p.aspx?sid=73","note":"議會個人官網"}],"social_media":null,"platform":"","param":null,"councilor":"70602fd4769d477ea07b8b3f25384e0d"}],"uid":"70602fd4769d477ea07b8b3f25384e0d","name":"林溪泉","birth":null,"former_names":"","identifiers":["林溪泉","林溪泉"]},{"url":"http://councils.g0v.tw/api/councilors/898/","each_terms":[{"url":"http://councils.g0v.tw/api/councilors_terms/1647/","election_year":"1955","name":"劉人傑","gender":"","party":"","title":"議員","constituency":2,"county":"新北市","district":"三峽鎮、鶯歌鎮、樹林鎮","in_office":true,"contact_details":null,"term_start":"1955-01-16","term_end":{"date":"1958-02-20"},"education":"昭和醫學專門學校畢業","experience":"鎮民代表\n三峽初中教員\n醫師\n臺北縣議會第2、3屆議員","remark":null,"image":"http://www.ntp.gov.tw/UpFile/CouncilorFile/TTCC0210.jpg","links":[{"url":"http://www.ntp.gov.tw/content/history/history01-5-p.aspx?sid=122","note":"議會個人官網"}],"social_media":null,"platform":"","param":null,"councilor":"40de8af666bc4feba34f191fd82acbee"},{"url":"http://councils.g0v.tw/api/councilors_terms/1584/","election_year":"1953","name":"劉人傑","gender":"","party":"","title":"議員","constituency":2,"county":"新北市","district":"三峽鎮、鶯歌鎮、樹林鎮","in_office":true,"contact_details":null,"term_start":"1953-01-16","term_end":{"date":"1955-01-15"},"education":"昭和醫學專門學校畢業","experience":"鎮民代表\n三峽初中教員\n醫師\n臺北縣議會第2、3屆議員","remark":null,"image":"http://www.ntp.gov.tw/UpFile/CouncilorFile/TTCC0210.jpg","links":[{"url":"http://www.ntp.gov.tw/content/history/history01-5-p.aspx?sid=122","note":"議會個人官網"}],"social_media":null,"platform":"","param":null,"councilor":"40de8af666bc4feba34f191fd82acbee"}],"uid":"40de8af666bc4feba34f191fd82acbee","name":"劉人傑","birth":null,"former_names":"","identifiers":["劉人傑","劉人傑"]},{"url":"http://councils.g0v.tw/api/councilors/899/","each_terms":[{"url":"http://councils.g0v.tw/api/councilors_terms/1585/","election_year":"1953","name":"廖丁旺","gender":"","party":"","title":"議員","constituency":2,"county":"新北市","district":"三峽鎮、鶯歌鎮、樹林鎮","in_office":true,"contact_details":null,"term_start":"1953-01-16","term_end":{"date":"1955-01-15"},"education":"日據時代國校畢業","experience":"鶯歌街保正與協議會員\n萬源炭礦代表人\n山子腳衛生組合長\n樹林信用組合理事\n共榮炭礦株式會社社長\n樹林鎮農會與民眾服務站理事\n亙益煤礦股份有限公司副董事長\n天香化工股份有限公司董事\n三友煤礦股份有限公司監察人\n臺北縣議會第2、3、4、5屆議員\n*民國71年歿","remark":null,"image":"http://www.ntp.gov.tw/UpFile/CouncilorFile/TTCC0209.jpg","links":[{"url":"http://www.ntp.gov.tw/content/history/history01-5-p.aspx?sid=121","note":"議會個人官網"}],"social_media":null,"platform":"","param":null,"councilor":"5c209ade2f934d7c9ffbf22d3e6ce6fe"},{"url":"http://councils.g0v.tw/api/councilors_terms/1651/","election_year":"1955","name":"廖丁旺","gender":"","party":"","title":"議員","constituency":2,"county":"新北市","district":"三峽鎮、鶯歌鎮、樹林鎮","in_office":true,"contact_details":null,"term_start":"1955-01-16","term_end":{"date":"1958-02-20"},"education":"日據時代國校畢業","experience":"鶯歌街保正與協議會員\n萬源炭礦代表人\n山子腳衛生組合長\n樹林信用組合理事\n共榮炭礦株式會社社長\n樹林鎮農會與民眾服務站理事\n亙益煤礦股份有限公司副董事長\n天香化工股份有限公司董事\n三友煤礦股份有限公司監察人\n臺北縣議會第2、3、4、5屆議員\n*民國71年歿","remark":null,"image":"http://www.ntp.gov.tw/UpFile/CouncilorFile/TTCC0209.jpg","links":[{"url":"http://www.ntp.gov.tw/content/history/history01-5-p.aspx?sid=121","note":"議會個人官網"}],"social_media":null,"platform":"","param":null,"councilor":"5c209ade2f934d7c9ffbf22d3e6ce6fe"},{"url":"http://councils.g0v.tw/api/councilors_terms/1721/","election_year":"1958","name":"廖丁旺","gender":"","party":"","title":"議員","constituency":2,"county":"新北市","district":"三峽鎮、鶯歌鎮、樹林鎮","in_office":true,"contact_details":null,"term_start":"1958-02-21","term_end":{"date":"1961-02-20"},"education":"日據時代國校畢業","experience":"鶯歌街保正與協議會員\n萬源炭礦代表人\n山子腳衛生組合長\n樹林信用組合理事\n共榮炭礦株式會社社長\n樹林鎮農會與民眾服務站理事\n亙益煤礦股份有限公司副董事長\n天香化工股份有限公司董事\n三友煤礦股份有限公司監察人\n臺北縣議會第2、3、4、5屆議員\n*民國71年歿","remark":null,"image":"http://www.ntp.gov.tw/UpFile/CouncilorFile/TTCC0209.jpg","links":[{"url":"http://www.ntp.gov.tw/content/history/history01-5-p.aspx?sid=121","note":"議會個人官網"}],"social_media":null,"platform":"","param":null,"councilor":"5c209ade2f934d7c9ffbf22d3e6ce6fe"},{"url":"http://councils.g0v.tw/api/councilors_terms/1792/","election_year":"1961","name":"廖丁旺","gender":"","party":"","title":"議員","constituency":2,"county":"新北市","district":"三峽鎮、鶯歌鎮、樹林鎮","in_office":true,"contact_details":null,"term_start":"1961-02-21","term_end":{"date":"1964-02-20"},"education":"日據時代國校畢業","experience":"鶯歌街保正與協議會員\n萬源炭礦代表人\n山子腳衛生組合長\n樹林信用組合理事\n共榮炭礦株式會社社長\n樹林鎮農會與民眾服務站理事\n亙益煤礦股份有限公司副董事長\n天香化工股份有限公司董事\n三友煤礦股份有限公司監察人\n臺北縣議會第2、3、4、5屆議員\n*民國71年歿","remark":null,"image":"http://www.ntp.gov.tw/UpFile/CouncilorFile/TTCC0209.jpg","links":[{"url":"http://www.ntp.gov.tw/content/history/history01-5-p.aspx?sid=121","note":"議會個人官網"}],"social_media":null,"platform":"","param":null,"councilor":"5c209ade2f934d7c9ffbf22d3e6ce6fe"}],"uid":"5c209ade2f934d7c9ffbf22d3e6ce6fe","name":"廖丁旺","birth":null,"former_names":"","identifiers":["廖丁旺"]},{"url":"http://councils.g0v.tw/api/councilors/941/","each_terms":[{"url":"http://councils.g0v.tw/api/councilors_terms/1691/","election_year":"1958","name":"李義鏡","gender":"","party":"","title":"議員","constituency":6,"county":"新北市","district":"北投鎮、士林鎮","in_office":true,"contact_details":null,"term_start":"1958-02-21","term_end":{"date":"1961-02-20"},"education":"太平國校高等科畢業","experience":"農會評議會主席\n信用合作社理事\n鎮民防團副團長\n陽明山警民協會理事長\n鎮民代表會主席\n臺北縣議會第4屆議員\n民國86年4月29日歿","remark":null,"image":"http://www.ntp.gov.tw/UpFile/CouncilorFile/TTCC0449.jpg","links":[{"url":"http://www.ntp.gov.tw/content/history/history01-5-p.aspx?sid=212","note":"議會個人官網"}],"social_media":null,"platform":"","param":null,"councilor":"347ab1c5d257465c8d6962b2b2fd36c7"}],"uid":"347ab1c5d257465c8d6962b2b2fd36c7","name":"李義鏡","birth":null,"former_names":"","identifiers":["李義鏡","李義鏡"]},{"url":"http://councils.g0v.tw/api/councilors/95/","each_terms":[{"url":"http://councils.g0v.tw/api/councilors_terms/211/","election_year":"2002","name":"陳碧峰","gender":"男","party":"民主進步黨","title":"議員","constituency":null,"county":"臺北市","district":"","in_office":true,"contact_details":null,"term_start":"2002-12-25","term_end":{"date":"2006-12-25"},"education":"臺北商專附設空中補校畢業、新莊農校、社子國小。","experience":"臺北市直轄市議會第八屆議員、第三屆國大代表、臺北市棒球協會理事長。","remark":"","image":"http://www.tcc.gov.tw/../upload/photo/%E9%99%B3%E7%A2%A7%E5%B3%B017.bmp","links":[{"url":"http://www.tcc.gov.tw/Councilor_Content_All.aspx?s=1656&d=441211&n=%E9%99%B3%E7%A2%A7%E5%B3%B0","note":"議會個人官網"}],"social_media":null,"platform":"","param":null,"councilor":"f572936329f24d00a32760d667677188"},{"url":"http://councils.g0v.tw/api/councilors_terms/158/","election_year":"2006","name":"陳碧峰","gender":"男","party":"民主進步黨","title":"議員","constituency":null,"county":"臺北市","district":"","in_office":true,"contact_details":null,"term_start":"2006-12-25","term_end":{"date":"2010-12-25"},"education":"台北商專夜補校畢業","experience":"台北市第八、九屆議員、台北市議會民進黨團副總召集人、民進黨第十一屆中央評議委員、第三屆國大代表、國際獅子會三00A二區百齡獅子會94-95年會長、士林區福安里第六屆里長。","remark":"","image":"http://www.tcc.gov.tw/../upload/photo/%E9%99%B3%E7%A2%A7%E5%B3%B0.jpg","links":[{"url":"http://www.tcc.gov.tw/Councilor_Content_All.aspx?s=2294&d=441211&n=%E9%99%B3%E7%A2%A7%E5%B3%B0","note":"議會個人官網"}],"social_media":null,"platform":"","param":null,"councilor":"f572936329f24d00a32760d667677188"},{"url":"http://councils.g0v.tw/api/councilors_terms/263/","election_year":"1998","name":"陳碧峰","gender":"男","party":"民主進步黨","title":"議員","constituency":null,"county":"臺北市","district":"","in_office":true,"contact_details":null,"term_start":"1998-12-25","term_end":{"date":"2002-12-25"},"education":"臺北商專附設空中補校畢業","experience":"第三屆國民大會代表。民進黨第四屆全國黨代表。立法委員謝長廷服務處副主任。臺北市議員陳勝宏服務處主任。全國社區資源交流協會理事。士林區福安里里長。百齡獅子會會長。福安國中家長會會長。臺北市緊急救援協會常務理事。","remark":"","image":"http://www.tcc.gov.tw/../upload/photo/%E9%99%B3%E7%A2%A7%E5%B3%B016.bmp","links":[{"url":"http://www.tcc.gov.tw/Councilor_Content_All.aspx?s=1559&d=441211&n=%E9%99%B3%E7%A2%A7%E5%B3%B0","note":"議會個人官網"}],"social_media":null,"platform":"","param":null,"councilor":"f572936329f24d00a32760d667677188"},{"url":"http://councils.g0v.tw/api/councilors_terms/99/","election_year":"2010","name":"陳碧峰","gender":"男","party":"民主進步黨","title":"議員","constituency":null,"county":"臺北市","district":"","in_office":false,"contact_details":null,"term_start":"2010-12-25","term_end":{"date":"2013-05-29","reason":"102.05.29解職"},"education":"台北商專夜補校畢業","experience":"八、九、十屆台北市議員、第三屆國大代表、台北市棒球協會理事長、300A2區百齡獅子會會長、阿扁總統競選副總幹事、陳勝宏議員與謝長廷服務處主任、福安里里長、蘭興、榮華、福林、天溪、大豐網球會、天母、榮光晨泳會、中古汽車商會、人人、全聯、平安計程車工會顧問；福安國中家長會長、社子、富安國小、重慶國中、北海水上救生協會、橄欖球協會、足球委員會、紳士總會社子分會顧問 ","remark":"102.05.29解職","image":"http://www.tcc.gov.tw/../upload/photo/%E9%99%B3%E7%A2%A7%E5%B3%B01.jpg","links":[{"url":"http://www.tcc.gov.tw/Councilor_Content_All.aspx?s=2319&d=441211&n=%E9%99%B3%E7%A2%A7%E5%B3%B0","note":"議會個人官網"}],"social_media":null,"platform":"","param":{"bills_role_statistics":{"total":27,"priproposer":2,"sponsor":27,"cosponsor":0},"votes_decision_statistics":{"abstain":0,"disagree":0,"not_voting":31,"total":41,"agree":10,"conflict":0},"diversity":{"臺灣團結聯盟":0.03616504975014079,"親民黨":0.03455889935517769,"無黨籍":0.013313432569429571,"中國國民黨":0.29406944064512724,"新黨":0.017956327103291935,"民主進步黨":0.6039368505768329},"suggestions_years":{"count":12,"sum":235000000,"years":[{"count":5,"sum":167638000,"suggest_year":"2011","small_purchase":0},{"count":3,"sum":53500000,"suggest_year":"2012","small_purchase":0},{"count":3,"sum":10956000,"suggest_year":"2013","small_purchase":1},{"count":1,"sum":2906000,"suggest_year":"2014","small_purchase":0}]},"attendance_statistics":{"absent":0,"total":47},"suggestions_associations":[{"count":0,"sum":0,"label":"社區發展協會"},{"count":0,"sum":0,"label":"學會"},{"count":0,"sum":0,"label":"商會"},{"count":0,"sum":0,"label":"公會"},{"count":0,"sum":0,"label":"協進會"},{"count":0,"sum":0,"label":"促進會"},{"count":0,"sum":0,"label":"研習會"},{"count":0,"sum":0,"label":"婦聯會"},{"count":0,"sum":0,"label":"婦女會"},{"count":0,"sum":0,"label":"體育會"},{"count":0,"sum":0,"label":"同心會"},{"count":0,"sum":0,"label":"農會"},{"count":0,"sum":0,"label":"早起會"},{"count":0,"sum":0,"label":"健身會"},{"count":0,"sum":0,"label":"宗親會"},{"count":0,"sum":0,"label":"功德會"},{"count":0,"sum":0,"label":"商業會"},{"count":0,"sum":0,"label":"長青會"},{"count":0,"sum":0,"label":"民眾服務社"},{"count":0,"sum":0,"label":"聯盟"}],"bills_party_diversity":[{"party":"民主進步黨","ratio":0.5712098009188361},{"party":"中國國民黨","ratio":0.333843797856049},{"party":"親民黨","ratio":0.02909647779479326},{"party":"臺灣團結聯盟","ratio":0.026033690658499236},{"party":"無黨籍","ratio":0.019908116385911178},{"party":"新黨","ratio":0.019908116385911178}],"suggestions_piles":[{"count":0,"tokens":"協會|學會|商會|公會|協進會|促進會|研習會|婦聯會|婦女會|體育會|同心會|農會|早起會|健身會|宗親會|功德會|商業會|長青會|民眾服務社|聯盟","sum":0,"label":"協會"},{"count":0,"tokens":"辦公室|辦公處","sum":0,"label":"辦公室"},{"count":0,"tokens":"廟|宮","sum":0,"label":"廟"},{"count":0,"tokens":"警察局|分局","sum":0,"label":"警察局"},{"count":0,"tokens":"消防局|消防隊|分隊|中隊","sum":0,"label":"消防局"},{"count":0,"tokens":"國中|國小","sum":0,"label":"國中、國小"}]},"councilor":"f572936329f24d00a32760d667677188"}],"uid":"f572936329f24d00a32760d667677188","name":"陳碧峰","birth":"1944-12-11","former_names":"","identifiers":["陳碧峰","陳碧峯"]},{"url":"http://councils.g0v.tw/api/councilors/100/","each_terms":[{"url":"http://councils.g0v.tw/api/councilors_terms/104/","election_year":"2010","name":"陳玉梅","gender":"女","party":"中國國民黨","title":"議員","constituency":null,"county":"臺北市","district":"","in_office":false,"contact_details":null,"term_start":"2010-12-25","term_end":{"date":"2013-09-25","reason":"民國102年9月25日轉任僑務委員會副委員長"},"education":"台灣大學EMBA商學研究所碩士、日本青山學院大學經營學系學士、景美女中、長安國中、中山國小畢業","experience":"第七、八、九、十屆台北市議員、台北市棒球委員會主任委員、台北市快慢速壘球協會理事長、台北市救難協會理事長、兒福聯盟董事、靖娟基金會董事、台北市教師會政策顧問、陳重光文教基金會執行長、聯合勸募協會顧問","remark":"民國102年9月25日轉任僑務委員會副委員長","image":"http://www.tcc.gov.tw/../upload/photo/%E9%99%B3%E7%8E%89%E6%A2%8511.jpg","links":[{"url":"http://www.tcc.gov.tw/Councilor_Content_All.aspx?s=1058&d=660722&n=%E9%99%B3%E7%8E%89%E6%A2%85","note":"議會個人官網"}],"social_media":null,"platform":"","param":{"bills_role_statistics":{"total":47,"priproposer":1,"sponsor":47,"cosponsor":0},"votes_decision_statistics":{"abstain":2,"disagree":14,"not_voting":19,"total":41,"agree":6,"conflict":2},"diversity":{"臺灣團結聯盟":0.019524064824460927,"親民黨":0.028853751911098027,"無黨籍":0.013346490082489634,"中國國民黨":0.6292142302089365,"新黨":0.023355308611436316,"民主進步黨":0.2857061543615786},"suggestions_years":{"count":59,"sum":75972981,"years":[{"count":4,"sum":13973000,"suggest_year":"2011","small_purchase":0},{"count":18,"sum":11211064,"suggest_year":"2012","small_purchase":4},{"count":30,"sum":36332917,"suggest_year":"2013","small_purchase":6},{"count":7,"sum":14456000,"suggest_year":"2014","small_purchase":0}]},"attendance_statistics":{"absent":8,"total":96},"suggestions_associations":[{"count":0,"sum":0,"label":"社區發展協會"},{"count":0,"sum":0,"label":"學會"},{"count":0,"sum":0,"label":"商會"},{"count":0,"sum":0,"label":"公會"},{"count":0,"sum":0,"label":"協進會"},{"count":0,"sum":0,"label":"促進會"},{"count":0,"sum":0,"label":"研習會"},{"count":0,"sum":0,"label":"婦聯會"},{"count":0,"sum":0,"label":"婦女會"},{"count":0,"sum":0,"label":"體育會"},{"count":0,"sum":0,"label":"同心會"},{"count":0,"sum":0,"label":"農會"},{"count":0,"sum":0,"label":"早起會"},{"count":0,"sum":0,"label":"健身會"},{"count":0,"sum":0,"label":"宗親會"},{"count":0,"sum":0,"label":"功德會"},{"count":0,"sum":0,"label":"商業會"},{"count":0,"sum":0,"label":"長青會"},{"count":0,"sum":0,"label":"民眾服務社"},{"count":0,"sum":0,"label":"聯盟"}],"bills_party_diversity":[{"party":"中國國民黨","ratio":0.624712202609363},{"party":"民主進步黨","ratio":0.2908672294704528},{"party":"親民黨","ratio":0.02532617037605526},{"party":"新黨","ratio":0.024558710667689946},{"party":"無黨籍","ratio":0.017651573292402148},{"party":"臺灣團結聯盟","ratio":0.01688411358403684}],"suggestions_piles":[{"count":3,"tokens":"國中|國小","sum":3465000,"label":"國中、國小"},{"count":0,"tokens":"協會|學會|商會|公會|協進會|促進會|研習會|婦聯會|婦女會|體育會|同心會|農會|早起會|健身會|宗親會|功德會|商業會|長青會|民眾服務社|聯盟","sum":0,"label":"協會"},{"count":0,"tokens":"辦公室|辦公處","sum":0,"label":"辦公室"},{"count":0,"tokens":"廟|宮","sum":0,"label":"廟"},{"count":0,"tokens":"警察局|分局","sum":0,"label":"警察局"},{"count":0,"tokens":"消防局|消防隊|分隊|中隊","sum":0,"label":"消防局"}]},"councilor":"92667a31e61340c6a54777f987af6434"},{"url":"http://councils.g0v.tw/api/councilors_terms/216/","election_year":"2002","name":"陳玉梅","gender":"女","party":"中國國民黨","title":"議員","constituency":null,"county":"臺北市","district":"","in_office":true,"contact_details":null,"term_start":"2002-12-25","term_end":{"date":"2006-12-25"},"education":"中山國小、長安國中畢業、景美女中畢業、日本青山學院大學經營學系畢、臺灣大學ＥＭＢＡ商學所碩士班。","experience":"臺北市直轄市議會第七、八屆議員。","remark":"","image":"http://www.tcc.gov.tw/../upload/photo/%E9%99%B3%E7%8E%89%E6%A2%8517.bmp","links":[{"url":"http://www.tcc.gov.tw/Councilor_Content_All.aspx?s=2171&d=660722&n=%E9%99%B3%E7%8E%89%E6%A2%85","note":"議會個人官網"}],"social_media":null,"platform":"","param":null,"councilor":"92667a31e61340c6a54777f987af6434"},{"url":"http://councils.g0v.tw/api/councilors_terms/163/","election_year":"2006","name":"陳玉梅","gender":"女","party":"中國國民黨","title":"議員","constituency":null,"county":"臺北市","district":"","in_office":true,"contact_details":null,"term_start":"2006-12-25","term_end":{"date":"2010-12-25"},"education":"中山國小、長安國中畢業、景美女中畢業、日本青山學院大學經營學系、台灣大學ＥＭＢＡ商學研究所。","experience":"第七、八、九屆台北市議員、台北市救難協會理事長、台北市壘球協會理事長、台北市牙醫師公會顧問、兒福聯盟董事、聯合勸募顧問、救國團台北市團委會委員、台北市機車公會顧問、陳重光基金會執行長。","remark":"","image":"http://www.tcc.gov.tw/../upload/photo/%E9%99%B3%E7%8E%89%E6%A2%85.jpg","links":[{"url":"http://www.tcc.gov.tw/Councilor_Content_All.aspx?s=2298&d=660722&n=%E9%99%B3%E7%8E%89%E6%A2%85","note":"議會個人官網"}],"social_media":null,"platform":"","param":null,"councilor":"92667a31e61340c6a54777f987af6434"},{"url":"http://councils.g0v.tw/api/councilors_terms/272/","election_year":"1998","name":"陳玉梅","gender":"女","party":"中國國民黨","title":"議員","constituency":null,"county":"臺北市","district":"","in_office":true,"contact_details":null,"term_start":"1998-12-25","term_end":{"date":"2002-12-25"},"education":"中山國小、長安國中畢業、景美女中畢業、日本青山學院大學經營學系畢","experience":"陳重光文教基金會執行長。臺北市友愛殘障福利協會顧問。臺北市直轄市議會第七屆議員。中華民國槌球協會副會長。臺北市親子活動發展協會理事長。臺北市美倫國際藍馨交流協會理事長。臺北市大同區青年聯誼會會長。臺北市婦女保健協會理事。","remark":"","image":"http://www.tcc.gov.tw/../upload/photo/%E9%99%B3%E7%8E%89%E6%A2%8516.jpg","links":[{"url":"http://www.tcc.gov.tw/Councilor_Content_All.aspx?s=2090&d=660722&n=%E9%99%B3%E7%8E%89%E6%A2%85","note":"議會個人官網"}],"social_media":null,"platform":"","param":null,"councilor":"92667a31e61340c6a54777f987af6434"},{"url":"http://councils.g0v.tw/api/councilors_terms/319/","election_year":"1994","name":"陳玉梅","gender":"女","party":"中國國民黨","title":"議員","constituency":null,"county":"臺北市","district":"","in_office":true,"contact_details":null,"term_start":"1994-12-25","term_end":{"date":"1998-12-25"},"education":"中山國小、長安國中畢業、景美女中畢業、日本青山學院大學經營學系。","experience":"留日同學會青山學院大學分會會長。長榮航空空勤人員訓練輔導員。陳重光文教基金會執行長。中華民國世新社會服務協進會秘書長。中華民國槌球協會副秘書長。大同區槌球委員會副主任委員。臺北市友愛殘障福利協會顧問。","remark":"","image":"http://www.tcc.gov.tw/../upload/photo/%E9%99%B3%E7%8E%89%E6%A2%8515.jpg","links":[{"url":"http://www.tcc.gov.tw/Councilor_Content_All.aspx?s=1708&d=660722&n=%E9%99%B3%E7%8E%89%E6%A2%85","note":"議會個人官網"}],"social_media":null,"platform":"","param":null,"councilor":"92667a31e61340c6a54777f987af6434"}],"uid":"92667a31e61340c6a54777f987af6434","name":"陳玉梅","birth":"1966-07-22","former_names":"","identifiers":["陳玉梅"]},{"url":"http://councils.g0v.tw/api/councilors/1887/","each_terms":[{"url":"http://councils.g0v.tw/api/councilors_terms/3301/","election_year":"2014","name":"高閔琳","gender":"女","party":"民主進步黨","title":"議員","constituency":3,"county":"高雄市","district":"永安區、岡山區、燕巢區、彌陀區、梓官區、橋頭區","in_office":true,"contact_details":[{"type":"voice","value":"6260801","label":"聯絡電話"},{"type":"address","value":"820 高雄市岡山區公園西路二段125號","label":"通訊地址"},{"type":"email","value":"ntukao@gmail.com","label":"電子郵件"},{"type":"fax","value":"6260803","label":"傳真電話"}],"term_start":"2014-12-25","term_end":{"date":"2018-12-24"},"education":"一、台大昆蟲學系畢業，農學學士\n二、台大國家發展研究所畢業，法學碩士","experience":"一、台大學生會長\n二、台大學生代表大會議長\n三、青年國是會議全國代表\n四、行政院青少年諮詢小組召集人\n五、「逆風行腳」共同發起人（走完全程511公里）\n六、陳菊市長競選總部秘書（2010，縣市合併年）\n七、鄭麗君立法委員國會辦公室研究員\n八、財團法人青平台基金會會務總監","remark":null,"image":"http://www.kcc.gov.tw/Upload/PeriodMembers/0702007.jpg","links":[{"url":"http://www.kcc.gov.tw/PeriodMembers/Introduction.aspx?KeyID=1766","note":"議會個人官網"},{"url":"https://www.facebook.com/MinlinKH","note":"個人臉書"}],"social_media":null,"platform":"一、台灣未來自己決定：台灣前途由全體台灣人共同決定。努力實現公義社會，為幸福高雄骨力打拚。\n二、提昇居住安全：監督中油定期檢測汰換本地區油氣管線。督促政府持續興建滯洪池，整治土庫大排、阿公店溪、典寶溪，杜絕淹水問題。\n三、交通運輸更便利：督促政府延伸捷運至路竹、興建輕軌串聯燕巢大學城，取岡山公車轉運站增加鄰近區域路線及班次；督促興建阿蓮經岡山至仁武高鐵橋下之聯絡道路，成為「第三條縱貫線」。\n四、讓青年看見未來：督促政府增加青年就業、創業機會，提高基本工資；加速岡山大鵬九村都更計劃，興建青年住宅。\n五、照顧嬰幼兒與銀髮族：督促政府增設公共托育中心、老人日托中心，並建立老人長照機制；讓為人父母子女者無後顧之憂。\n六、弱勢關懷與照顧：督促政府健全社會福利政策，扶助身心障礙、高風險家庭、獨居長者及中低收入者之關懷照顧措施。\n七、保障農漁民權益：爭取放寬農漁天然災害補助標準，降低農漁民損失。\n八、提昇教育品質：與教育團體合作，維護學生受教權、保障教師工作權。\n九、促進文化發展：督促政府推展文創及社會創新產業，扶助在地文史團體，活化歷史建築與閒置空間。\n十、闢建運動空間：督促政府編列預算興建多功能運動場域，滿足市民休閒運動之需求。\n十一、平衡城鄉差距：督促政府調整預算資源配置，有效縮減城鄉差距；積極開發橋頭新市鎮。\n十二、促進產業升級：督促政府輔助螺絲扣件產業升級，形成國家級產業聚落。\n十三、重現富麗漁鄉：爭取經費改善梓官、彌陀、永安地區海岸侵蝕問題；推動蚵仔寮、南寮及永新漁港發展為多功能觀光漁港。\n十四、自然景觀納國家公園：爭取大小崗山、漯底山、雞冠山等自然景觀，納入大高雄國家自然公園。","param":{"suggestions_years":{"count":1,"sum":800000,"years":[{"count":1,"sum":800000,"suggest_year":"2016","small_purchase":0}]},"bills_role_statistics":{"total":228,"priproposer":133,"sponsor":133,"cosponsor":95},"attendance_statistics":{"absent":11,"total":243},"suggestions_associations":[{"count":0,"sum":0,"label":"社區發展協會"},{"count":0,"sum":0,"label":"學會"},{"count":0,"sum":0,"label":"商會"},{"count":0,"sum":0,"label":"公會"},{"count":0,"sum":0,"label":"協進會"},{"count":0,"sum":0,"label":"促進會"},{"count":0,"sum":0,"label":"研習會"},{"count":0,"sum":0,"label":"婦聯會"},{"count":0,"sum":0,"label":"婦女會"},{"count":0,"sum":0,"label":"體育會"},{"count":0,"sum":0,"label":"同心會"},{"count":0,"sum":0,"label":"農會"},{"count":0,"sum":0,"label":"早起會"},{"count":0,"sum":0,"label":"健身會"},{"count":0,"sum":0,"label":"宗親會"},{"count":0,"sum":0,"label":"功德會"},{"count":0,"sum":0,"label":"商業會"},{"count":0,"sum":0,"label":"長青會"},{"count":0,"sum":0,"label":"民眾服務社"},{"count":0,"sum":0,"label":"聯盟"}],"bills_party_diversity":[{"party":"民主進步黨","ratio":0.9086161879895561},{"party":"無黨籍","ratio":0.033942558746736295},{"party":"中國國民黨","ratio":0.018276762402088774},{"party":"無黨團結聯盟","ratio":0.014360313315926894},{"party":"親民黨","ratio":0.014360313315926894},{"party":"臺灣團結聯盟","ratio":0.010443864229765013}],"suggestions_piles":[{"count":0,"tokens":"協會|學會|商會|公會|協進會|促進會|研習會|婦聯會|婦女會|體育會|同心會|農會|早起會|健身會|宗親會|功德會|商業會|長青會|民眾服務社|聯盟","sum":0,"label":"協會"},{"count":0,"tokens":"辦公室|辦公處","sum":0,"label":"辦公室"},{"count":0,"tokens":"廟|宮","sum":0,"label":"廟"},{"count":0,"tokens":"警察局|分局","sum":0,"label":"警察局"},{"count":0,"tokens":"消防局|消防隊|分隊|中隊","sum":0,"label":"消防局"},{"count":0,"tokens":"國中|國小","sum":0,"label":"國中、國小"}]},"councilor":"2b8be5711fbf465eac59a2ddeb835cfc"}],"uid":"2b8be5711fbf465eac59a2ddeb835cfc","name":"高閔琳","birth":null,"former_names":"","identifiers":["高閔琳"]}]}