{"count":1904,"next":"http://councils.g0v.tw/api/councilors/?page=68","previous":"http://councils.g0v.tw/api/councilors/?page=66","results":[{"url":"http://councils.g0v.tw/api/councilors/1009/","each_terms":[{"url":"http://councils.g0v.tw/api/councilors_terms/3191/","election_year":"2014","name":"賴美惠","gender":"女","party":"民主進步黨","title":"議長","constituency":1,"county":"臺南市","district":"後壁、白河、東山區","in_office":true,"contact_details":[{"type":"voice","value":"6361666","label":"電話"},{"type":"address","value":"台南市後壁區頂安村197號1","label":"通訊處"},{"type":"email","value":"6330752@gmail.com","label":"電子信箱"}],"term_start":"2014-12-25","term_end":{"date":"2018-12-25"},"education":"真理大學休閒遊憩事業系畢。","experience":"臺南市議會第2屆議長\n臺南市議會第1屆議長\n臺南縣議會第13、14、15、16屆議員\n臺南縣議會教育、社會、勞工、文化小組召集人\n國立中正大學戰略暨國際事務研究所碩士班\n國立中山大學研究所碩士班\n2000、2004陳水扁總統大選後壁鄉後援會會長\n臺南縣賴羅傅氏宗親會常務理事\n後壁區義消分隊顧問團團長","remark":null,"image":"http://www.tncc.gov.tw/warehouse/200000/%E8%B3%B4%E7%BE%8E%E6%83%A0.jpg","links":[{"url":"http://www.tncc.gov.tw/tnccp2/ccp_01a.asp?CName=%E8%B3%B4%E7%BE%8E%E6%83%A0","note":"議會個人官網"},{"url":"webmap.asp","note":"FaceBook"}],"social_media":null,"platform":"一、以民意為依歸，專業專職，爭取民眾權益及福利。\n二、做農民代言人，顧農業、挺農民、建設農村。\n三、65歲以上老人免費裝假牙政策繼續推動。\n四、推動國小英語學習村，提昇學童英語能力。\n五、爭取東山水雲溫泉區開發，打造山城新風貌。\n六 、爭取婦女權益，提昇婦女福利，做婦女朋友後盾，繼續支持婦女生育補助金、幼兒教育券發放。\n七、爭取172縣道全線拓寬，營造成為地景藝術觀光大道，設立稻香故事館、農村博物館。\n八 、支持平埔族正名，爭取西拉雅國家風景區域擴編，納入吉貝耍部落、小南海、後壁區無米樂...等。\n九 、 推展溪北地區觀光旅遊產業整合，結合宗教文化區，設立農特產品展售站，推動農產運銷，提高農\n民經濟收入。\n十、 發揚古都農村民俗藝術，爭取經費培訓農村宗教文化民俗才藝藝陣，如宋江陣、獅陣、電音三太\n子、南北管、車鼓陣... ...等，並舉辦全國性民俗藝陣活動。","param":{"suggestions_years":{"count":48,"sum":126628000,"years":[{"count":22,"sum":93392000,"suggest_year":"2015","small_purchase":2},{"count":26,"sum":33236000,"suggest_year":"2016","small_purchase":0}]},"bills_role_statistics":{"total":13,"priproposer":4,"sponsor":5,"cosponsor":8},"attendance_statistics":{"absent":43,"total":231},"suggestions_associations":[{"count":0,"sum":0,"label":"社區發展協會"},{"count":0,"sum":0,"label":"學會"},{"count":0,"sum":0,"label":"商會"},{"count":0,"sum":0,"label":"公會"},{"count":0,"sum":0,"label":"協進會"},{"count":0,"sum":0,"label":"促進會"},{"count":0,"sum":0,"label":"研習會"},{"count":0,"sum":0,"label":"婦聯會"},{"count":0,"sum":0,"label":"婦女會"},{"count":0,"sum":0,"label":"體育會"},{"count":0,"sum":0,"label":"同心會"},{"count":0,"sum":0,"label":"農會"},{"count":0,"sum":0,"label":"早起會"},{"count":0,"sum":0,"label":"健身會"},{"count":0,"sum":0,"label":"宗親會"},{"count":0,"sum":0,"label":"功德會"},{"count":0,"sum":0,"label":"商業會"},{"count":0,"sum":0,"label":"長青會"},{"count":0,"sum":0,"label":"民眾服務社"},{"count":0,"sum":0,"label":"聯盟"}],"bills_party_diversity":[{"party":"民主進步黨","ratio":0.6129032258064516},{"party":"無黨籍","ratio":0.20967741935483872},{"party":"中國國民黨","ratio":0.15591397849462366},{"party":"臺灣團結聯盟","ratio":0.021505376344086023}],"suggestions_piles":[{"count":2,"tokens":"國中|國小","sum":2300000,"label":"國中、國小"},{"count":1,"tokens":"廟|宮","sum":550000,"label":"廟"},{"count":0,"tokens":"協會|學會|商會|公會|協進會|促進會|研習會|婦聯會|婦女會|體育會|同心會|農會|早起會|健身會|宗親會|功德會|商業會|長青會|民眾服務社|聯盟","sum":0,"label":"協會"},{"count":0,"tokens":"辦公室|辦公處","sum":0,"label":"辦公室"},{"count":0,"tokens":"警察局|分局","sum":0,"label":"警察局"},{"count":0,"tokens":"消防局|消防隊|分隊|中隊","sum":0,"label":"消防局"}]},"councilor":"f280c85abb994de28b4b8be7f528e1f2"},{"url":"http://councils.g0v.tw/api/councilors_terms/1934/","election_year":"2010","name":"賴美惠","gender":"女","party":"民主進步黨","title":"議長","constituency":1,"county":"臺南市","district":"後壁、白河、東山區","in_office":true,"contact_details":[{"type":"email","value":"a0932777151@yahoo.com.tw","label":"電子信箱"},{"type":"voice","value":"6361666","label":"電話"},{"type":"fax","value":"6330752","label":"傳真"},{"type":"address","value":"73149台南市後壁區頂安里197號","label":"通訊處"}],"term_start":"2010-12-25","term_end":{"date":"2014-12-25"},"education":"真理大學休閒遊憩事業系畢。","experience":"現任大台南市議會第1屆議長。\n台南縣議會第13、14、15、16屆議員。\n台南縣議會教育、社會、勞工、文化小組召集人。\n2000年、2004年陳水扁總統大選後壁鄉後援會會長。\n台南縣賴羅傅氏宗親會常務理事。\n後壁鄉義消分隊顧問團團長。\n國立中山大學政治學\n研究所碩士班。","remark":"","image":"http://www.tncc.gov.tw/warehouse/200000/%E8%B3%B4%E7%BE%8E%E6%83%A0.jpg","links":[{"url":"http://www.tncc.gov.tw/tnccp/ccp_01a.asp?CName=%BF%E0%AC%FC%B4f","note":"議會個人官網"},{"url":"http://zh-tw.facebook.com/people/lai-mei-hui/100001117919161","note":"個人網站"}],"social_media":null,"platform":"以民意為依歸，做專業專職議員，爭取民眾權益及福利\n做農民代言人，顧農業、挺農民、建設農村\n爭取65歲以上老人免費裝假牙政策\n爭取國中小學免費營養午餐\n爭取婦女權益，提昇婦女福利，做婦女朋友後盾\n全力推動南北雙行政中心及爭取建設經費不低於現在預算數，以確保後壁、白河、東山地區不被邊緣化\n推展後壁、白河、東山觀光休閒旅遊產業，結合區域農業特產、宗教文化特色，以帶動區域繁榮進步，提高民眾經濟收入，如白河關子嶺、蓮花節；後壁無米樂農村體驗、米、芭樂、蘭花、洋香瓜；東山咖啡、龍眼、青皮椪柑??等\n發揚古都農村民俗藝術，爭取經費培訓農村宗教文化民俗才藝藝陣，如宋江陣、獅陣、電音三太子、南北管、車鼓陣??等，並舉辦全國性民俗藝陣活動\n爭取成功大學農學院設立於後壁、白河、東山地區","param":{"suggestions_years":{"count":60,"sum":58941600,"years":[{"count":60,"sum":58941600,"suggest_year":"2014","small_purchase":3}]},"diversity":{"中國國民黨":0.04016493658105635,"民主進步黨":0.9331131850102319,"無黨籍":0.02672187840871188},"bills_role_statistics":{"total":37,"priproposer":37,"sponsor":37,"cosponsor":0},"suggestions_associations":[{"count":0,"sum":0,"label":"社區發展協會"},{"count":0,"sum":0,"label":"學會"},{"count":0,"sum":0,"label":"商會"},{"count":0,"sum":0,"label":"公會"},{"count":0,"sum":0,"label":"協進會"},{"count":0,"sum":0,"label":"促進會"},{"count":0,"sum":0,"label":"研習會"},{"count":0,"sum":0,"label":"婦聯會"},{"count":0,"sum":0,"label":"婦女會"},{"count":0,"sum":0,"label":"體育會"},{"count":0,"sum":0,"label":"同心會"},{"count":0,"sum":0,"label":"農會"},{"count":0,"sum":0,"label":"早起會"},{"count":0,"sum":0,"label":"健身會"},{"count":0,"sum":0,"label":"宗親會"},{"count":0,"sum":0,"label":"功德會"},{"count":0,"sum":0,"label":"商業會"},{"count":0,"sum":0,"label":"長青會"},{"count":0,"sum":0,"label":"民眾服務社"},{"count":0,"sum":0,"label":"聯盟"}],"bills_party_diversity":[{"party":"民主進步黨","ratio":0.6275862068965518},{"party":"中國國民黨","ratio":0.21379310344827587},{"party":"無黨籍","ratio":0.15862068965517243}],"suggestions_piles":[{"count":3,"tokens":"廟|宮","sum":2563100,"label":"廟"},{"count":0,"tokens":"協會|學會|商會|公會|協進會|促進會|研習會|婦聯會|婦女會|體育會|同心會|農會|早起會|健身會|宗親會|功德會|商業會|長青會|民眾服務社|聯盟","sum":0,"label":"協會"},{"count":0,"tokens":"辦公室|辦公處","sum":0,"label":"辦公室"},{"count":0,"tokens":"警察局|分局","sum":0,"label":"警察局"},{"count":0,"tokens":"消防局|消防隊|分隊|中隊","sum":0,"label":"消防局"},{"count":0,"tokens":"國中|國小","sum":0,"label":"國中、國小"}]},"councilor":"f280c85abb994de28b4b8be7f528e1f2"}],"uid":"f280c85abb994de28b4b8be7f528e1f2","name":"賴美惠","birth":"1958-11-08","former_names":"","identifiers":["賴美惠","頼美惠"]},{"url":"http://councils.g0v.tw/api/councilors/1010/","each_terms":[{"url":"http://councils.g0v.tw/api/councilors_terms/3192/","election_year":"2014","name":"張世賢","gender":"男","party":"中國國民黨","title":"議員","constituency":1,"county":"臺南市","district":"後壁、白河、東山區","in_office":true,"contact_details":[{"type":"voice","value":"6856956","label":"電話"},{"type":"address","value":"台南市白河區昇安里埤仔頭35號","label":"通訊處"},{"type":"email","value":"p0790124@yahoo.com.tw","label":"電子信箱"}],"term_start":"2014-12-25","term_end":{"date":"2018-12-25"},"education":"白河高級商工畢業。","experience":"大臺南市議會第一屆議員\n嘉南農田水利會第三、四屆直選會務委員\n臺南市義消總隊副總隊長\n白河商工校友會理事長\n財團法人白河兒童文教基金會董事\n白河鎮第十三、十四屆鎮長\n臺南縣議會第十三、十六屆議員\n大葉大學休閒事業管理學分班結業","remark":null,"image":"http://www.tncc.gov.tw/warehouse/200000/%E5%BC%B5%E4%B8%96%E8%B3%A2.bmp","links":[{"url":"http://www.tncc.gov.tw/tnccp2/ccp_01a.asp?CName=%E5%BC%B5%E4%B8%96%E8%B3%A2","note":"議會個人官網"},{"url":"webmap.asp","note":"FaceBook"}],"social_media":null,"platform":"一、 持續推動「三鄉鎮五大產業逍遙遊、農特產發展計劃」發展大關子嶺遊憩系統，協助後壁、白河、東山三區統合行銷，以「稻米、蘭花、溫泉、荷蓮、咖啡」為主題，繁榮地方經濟。\n二、 繼續協助本區已通過農村再生社區（後壁4白河11東山4）策略聯盟，舉辦農村小旅遊，活絡農村經濟，並推動成立休閒農業區，朝永續經營邁進。\n三、 繼續「找回中斷的平埔文化」的不變初衷，在完成重建六重溪公廨後，卯足全力爭取「祭祀文化空間再造第二期」經費，及協助「西拉雅原住民正名運動」。\n四、 爭取農作物災損補助標準放寬，並要求勘核時效應加速，承諾積極配合農田水利會，儘速處理白河詔安、蓮潭兩里農地重劃區非灌溉區之灌溉設施、排水設施及區域排水及易淹水地區之淤積或崩塌之農水路問題。\n五、 積極爭取提高婦女生育、托育與安親補助，及中小學、大學高校貧困家庭兒童，營養午餐一律免費。\n六、 督促市府針對老人福利、經濟扶助及救助福利服務要確實貫徹，六十五歲老人健保費由市府編列預算支付。\n七、 繼續督促市府要求第五河川局完成白水溪、白河橋至青葉橋之堤坊，以及頭前溪之疏濬整治，終結水患。\n八、 要求市府續闢公車路線，並結合登山觀光景點，建構大臺南各偏僻角落，都能有大眾運輸服務，拉近城鄉差距，加速合併的認同感。\n九、承諾任內完成拓建東山區東原往嶺南之大埔橋。","param":{"suggestions_years":{"count":32,"sum":28674000,"years":[{"count":27,"sum":14786000,"suggest_year":"2015","small_purchase":5},{"count":5,"sum":13888000,"suggest_year":"2016","small_purchase":0}]},"bills_role_statistics":{"total":157,"priproposer":44,"sponsor":46,"cosponsor":111},"attendance_statistics":{"absent":4,"total":231},"suggestions_associations":[{"count":0,"sum":0,"label":"社區發展協會"},{"count":0,"sum":0,"label":"學會"},{"count":0,"sum":0,"label":"商會"},{"count":0,"sum":0,"label":"公會"},{"count":0,"sum":0,"label":"協進會"},{"count":0,"sum":0,"label":"促進會"},{"count":0,"sum":0,"label":"研習會"},{"count":0,"sum":0,"label":"婦聯會"},{"count":0,"sum":0,"label":"婦女會"},{"count":0,"sum":0,"label":"體育會"},{"count":0,"sum":0,"label":"同心會"},{"count":0,"sum":0,"label":"農會"},{"count":0,"sum":0,"label":"早起會"},{"count":0,"sum":0,"label":"健身會"},{"count":0,"sum":0,"label":"宗親會"},{"count":0,"sum":0,"label":"功德會"},{"count":0,"sum":0,"label":"商業會"},{"count":0,"sum":0,"label":"長青會"},{"count":0,"sum":0,"label":"民眾服務社"},{"count":0,"sum":0,"label":"聯盟"}],"bills_party_diversity":[{"party":"中國國民黨","ratio":0.5729632945389436},{"party":"無黨籍","ratio":0.2829006266786034},{"party":"民主進步黨","ratio":0.1360787824529991},{"party":"臺灣團結聯盟","ratio":0.008057296329453895}],"suggestions_piles":[{"count":1,"tokens":"國中|國小","sum":1740000,"label":"國中、國小"},{"count":1,"tokens":"廟|宮","sum":1140000,"label":"廟"},{"count":0,"tokens":"協會|學會|商會|公會|協進會|促進會|研習會|婦聯會|婦女會|體育會|同心會|農會|早起會|健身會|宗親會|功德會|商業會|長青會|民眾服務社|聯盟","sum":0,"label":"協會"},{"count":0,"tokens":"辦公室|辦公處","sum":0,"label":"辦公室"},{"count":0,"tokens":"警察局|分局","sum":0,"label":"警察局"},{"count":0,"tokens":"消防局|消防隊|分隊|中隊","sum":0,"label":"消防局"}]},"councilor":"1fef78e4de0d44aea4f43dcec2727fc1"},{"url":"http://councils.g0v.tw/api/councilors_terms/1935/","election_year":"2010","name":"張世賢","gender":"男","party":"中國國民黨","title":"議員","constituency":1,"county":"臺南市","district":"後壁、白河、東山區","in_office":true,"contact_details":[{"type":"email","value":"p0790124@yahoo.com.tw","label":"電子信箱"},{"type":"voice","value":"6856956","label":"電話"},{"type":"fax","value":"6856957","label":"傳真"},{"type":"address","value":"73242台南市白河區國光路46號","label":"通訊處"}],"term_start":"2010-12-25","term_end":{"date":"2014-12-25"},"education":"白河高級商工畢業。","experience":"現任大台南市議會第1屆議員。\n一、白河義消分、中隊長\n二、白河鎮體育會理事長\n三、白河鎮民代表會第十三、十四屆副主席\n四、白河鎮第十三、十四屆鎮長\n五、白河商工校友會常務理事\n六、財團法人文教基金會常務董事\n七、台南縣義消第一大隊大隊長\n八、嘉南農田水利會會務委員\n九、台南縣議會第十三、十六屆議員\n十、大葉大學休閒事業管理學分班結業","remark":"","image":"http://www.tncc.gov.tw/warehouse/200000/%E5%BC%B5%E4%B8%96%E8%B3%A2.bmp","links":[{"url":"http://www.tncc.gov.tw/tnccp/ccp_01a.asp?CName=%B1i%A5%40%BD%E5","note":"議會個人官網"},{"url":"http://www.facebook.com/pages/%E5%BC%B5%E4%B8%96%E8%B3%A2/180972661918736","note":"個人網站"}],"social_media":null,"platform":"爭取升格後，所有證件修正換證之工本費（如身份證、所有權狀等）應由新市府自行吸收\n極力爭取升格後，市民應繳新增之稅金（如房屋稅、娛樂稅?等）應維持現狀，不得提高稅賦之原則\n持續推動「三鄉鎮五大產業逍遙遊農特產發展計畫」發展大關子嶺遊憩系統，協助後壁、白河、東山三區統合行銷，以「稻米、蘭花、溫泉、荷蓮、咖啡」為主題，繁榮地方經濟\n縣市合併升格後，為避免被邊緣化，唯有掌握休閒農業發展趨勢，承諾推動規劃每一區成立至少一個休閒農業區，並重新再創「蓮鄉風華」\n繼續「找回中斷的平埔文化」的不變初衷，在完成重建六重溪公廨後，卯足全力爭取「祭祀文化空間再造」經費，及協助「西拉雅原住民正名運動」\n「農村再生條例」承諾協助白河、東山、後壁每一社區參加培根計劃，並督促直轄市政府擬定總體計劃，並成立專責單位，如農村發展或農村再生社區營造局或處\n爭取農作物災損補助標準放寬，並要求勘核時效應加速，承諾積極配合農田水利會，儘速處理區域排水及易淹水地區之淤積或崩塌之農水路問題\n積極爭取老人每年敬老津貼提高\n積極爭取婦女生產補助辦法，促進台灣生育計劃\n積極爭取貧困家庭兒童，營養午餐完全免費","param":{"suggestions_years":{"count":64,"sum":45921000,"years":[{"count":64,"sum":45921000,"suggest_year":"2014","small_purchase":6}]},"diversity":{"中國國民黨":0.5502973775498783,"民主進步黨":0.232946777724526,"無黨籍":0.2167558447255953},"bills_role_statistics":{"total":118,"priproposer":60,"sponsor":62,"cosponsor":56},"suggestions_associations":[{"count":0,"sum":0,"label":"社區發展協會"},{"count":0,"sum":0,"label":"學會"},{"count":0,"sum":0,"label":"商會"},{"count":0,"sum":0,"label":"公會"},{"count":0,"sum":0,"label":"協進會"},{"count":0,"sum":0,"label":"促進會"},{"count":0,"sum":0,"label":"研習會"},{"count":0,"sum":0,"label":"婦聯會"},{"count":0,"sum":0,"label":"婦女會"},{"count":0,"sum":0,"label":"體育會"},{"count":0,"sum":0,"label":"同心會"},{"count":0,"sum":0,"label":"農會"},{"count":0,"sum":0,"label":"早起會"},{"count":0,"sum":0,"label":"健身會"},{"count":0,"sum":0,"label":"宗親會"},{"count":0,"sum":0,"label":"功德會"},{"count":0,"sum":0,"label":"商業會"},{"count":0,"sum":0,"label":"長青會"},{"count":0,"sum":0,"label":"民眾服務社"},{"count":0,"sum":0,"label":"聯盟"}],"bills_party_diversity":[{"party":"中國國民黨","ratio":0.5514250309789344},{"party":"民主進步黨","ratio":0.27261462205700127},{"party":"無黨籍","ratio":0.17596034696406443}],"suggestions_piles":[{"count":4,"tokens":"廟|宮","sum":2803000,"label":"廟"},{"count":0,"tokens":"協會|學會|商會|公會|協進會|促進會|研習會|婦聯會|婦女會|體育會|同心會|農會|早起會|健身會|宗親會|功德會|商業會|長青會|民眾服務社|聯盟","sum":0,"label":"協會"},{"count":0,"tokens":"辦公室|辦公處","sum":0,"label":"辦公室"},{"count":0,"tokens":"警察局|分局","sum":0,"label":"警察局"},{"count":0,"tokens":"消防局|消防隊|分隊|中隊","sum":0,"label":"消防局"},{"count":0,"tokens":"國中|國小","sum":0,"label":"國中、國小"}]},"councilor":"1fef78e4de0d44aea4f43dcec2727fc1"}],"uid":"1fef78e4de0d44aea4f43dcec2727fc1","name":"張世賢","birth":"1953-03-13","former_names":"","identifiers":["張世賢"]},{"url":"http://councils.g0v.tw/api/councilors/615/","each_terms":[{"url":"http://councils.g0v.tw/api/councilors_terms/1074/","election_year":"1982","name":"蕭芳萬","gender":"","party":"","title":"議員","constituency":1,"county":"新北市","district":"板橋市、土城鄉","in_office":true,"contact_details":null,"term_start":"1982-03-01","term_end":{"date":"1986-02-28"},"education":"板橋國小畢\n光華商職高級部\n東海高中畢\n香港珠海學院","experience":"臺北縣議會第10、11屆議員\n中華民國柔道代表隊國手六段\n臺北縣柔道委員會主任委員\n板橋青商會會長\n臺北縣蕭氏宗親會理事長\n臺北縣好人好事代表\n板橋市市民代表１任\n三峽明德國中家長會長\n板橋市埔墘國小家長會副會長\n臺北縣木材公會顧問\n中華民國第２屆國民大會代表\n臺北縣射箭委員會主任委員\n中華民國柔道協會名譽理事\n海山房屋仲介公司董事長\n臺北縣房屋仲介商業同業公會常務理事\n臺北縣蕭氏宗親會創會理事長\n臺北縣警察局柔道教練顧問\n臺北縣糕餅職業工會顧問\n臺北縣木工職業工會顧問\n板橋土城區客屬會顧問\n板橋國際獅子會理事\n板橋市鐘錶眼鏡聯誼會顧問\n臺灣省蕭氏宗親會理事長","remark":null,"image":"http://www.ntp.gov.tw/UpFile/CouncilorFile/TTCC1011.jpg","links":[{"url":"http://www.ntp.gov.tw/content/history/history01-5-p.aspx?sid=358","note":"議會個人官網"}],"social_media":null,"platform":"","param":null,"councilor":"7d24c94e791a40b397d696a74d7688eb"},{"url":"http://councils.g0v.tw/api/councilors_terms/1868/","election_year":"1986","name":"蕭芳萬","gender":"","party":"","title":"議員","constituency":1,"county":"新北市","district":"板橋市、土城鄉","in_office":true,"contact_details":null,"term_start":"1986-03-01","term_end":{"date":"1990-02-28"},"education":"板橋國小畢\n光華商職高級部\n東海高中畢\n香港珠海學院","experience":"臺北縣議會第10、11屆議員\n中華民國柔道代表隊國手六段\n臺北縣柔道委員會主任委員\n板橋青商會會長\n臺北縣蕭氏宗親會理事長\n臺北縣好人好事代表\n板橋市市民代表１任\n三峽明德國中家長會長\n板橋市埔墘國小家長會副會長\n臺北縣木材公會顧問\n中華民國第２屆國民大會代表\n臺北縣射箭委員會主任委員\n中華民國柔道協會名譽理事\n海山房屋仲介公司董事長\n臺北縣房屋仲介商業同業公會常務理事\n臺北縣蕭氏宗親會創會理事長\n臺北縣警察局柔道教練顧問\n臺北縣糕餅職業工會顧問\n臺北縣木工職業工會顧問\n板橋土城區客屬會顧問\n板橋國際獅子會理事\n板橋市鐘錶眼鏡聯誼會顧問\n臺灣省蕭氏宗親會理事長","remark":null,"image":"http://www.ntp.gov.tw/UpFile/CouncilorFile/TTCC1011.jpg","links":[{"url":"http://www.ntp.gov.tw/content/history/history01-5-p.aspx?sid=358","note":"議會個人官網"}],"social_media":null,"platform":"","param":null,"councilor":"7d24c94e791a40b397d696a74d7688eb"}],"uid":"7d24c94e791a40b397d696a74d7688eb","name":"蕭芳萬","birth":null,"former_names":"","identifiers":["蕭芳萬"]},{"url":"http://councils.g0v.tw/api/councilors/616/","each_terms":[{"url":"http://councils.g0v.tw/api/councilors_terms/1075/","election_year":"1982","name":"侯加聖","gender":"","party":"","title":"議員","constituency":1,"county":"新北市","district":"板橋市、土城鄉","in_office":true,"contact_details":null,"term_start":"1982-03-01","term_end":{"date":"1986-02-28"},"education":"嘉義縣蒜南代用小學畢\n嘉義縣東石中學初級部畢\n嘉義縣東石中學高級部畢\n臺灣省警察學校\nCalstata Fullerton高級企業研究所結業","experience":"板橋市後備憲兵聯絡中心副組長\n臺北縣健行會聯絡組長\n臺北縣侯氏宗親會籌備發起人\n臺北縣議會第10屆議員","remark":null,"image":"http://www.ntp.gov.tw/UpFile/CouncilorFile/TTCC1010.jpg","links":[{"url":"http://www.ntp.gov.tw/content/history/history01-5-p.aspx?sid=357","note":"議會個人官網"}],"social_media":null,"platform":"","param":null,"councilor":"8561d7af62674cdeb75aa5336140606c"}],"uid":"8561d7af62674cdeb75aa5336140606c","name":"侯加聖","birth":null,"former_names":"","identifiers":["侯加聖"]},{"url":"http://councils.g0v.tw/api/councilors/466/","each_terms":[{"url":"http://councils.g0v.tw/api/councilors_terms/812/","election_year":"1973","name":"陳冠亨","gender":"","party":"","title":"議員","constituency":4,"county":"新北市","district":"三重市","in_office":true,"contact_details":null,"term_start":"1973-05-01","term_end":{"date":"1977-12-29"},"education":"東海中學初中部畢","experience":"臺北縣機車商業公會理事長\n德泰車行有限公司負責人\n三重市市民代表\n臺北縣議會第8屆議員\n民國100年2月15日歿","remark":null,"image":"http://www.ntp.gov.tw/UpFile/CouncilorFile/TTCC0833.jpg","links":[{"url":"http://www.ntp.gov.tw/content/history/history01-5-p.aspx?sid=313","note":"議會個人官網"}],"social_media":null,"platform":"","param":null,"councilor":"7404dda4f3d043ee88bef84f5de42fa1"}],"uid":"7404dda4f3d043ee88bef84f5de42fa1","name":"陳冠亨","birth":null,"former_names":"","identifiers":["陳冠亨"]},{"url":"http://councils.g0v.tw/api/councilors/297/","each_terms":[{"url":"http://councils.g0v.tw/api/councilors_terms/625/","election_year":"1969","name":"康寧祥","gender":"男","party":"無黨籍","title":"議員","constituency":null,"county":"臺北市","district":"","in_office":true,"contact_details":null,"term_start":"1969-12-25","term_end":{"date":"1973-12-25"},"education":"中興大學法商學院行政系。","experience":"家教、推銷員、工人。","remark":"","image":"http://www.tcc.gov.tw/../upload/photo/%E5%BA%B7%E5%AF%A7%E7%A5%A509.jpg","links":[{"url":"http://www.tcc.gov.tw/Councilor_Content_All.aspx?s=2009&d=381116&n=%E5%BA%B7%E5%AF%A7%E7%A5%A5","note":"議會個人官網"}],"social_media":null,"platform":"","param":null,"councilor":"f77689fd7034472cafad3a3fbde272ed"}],"uid":"f77689fd7034472cafad3a3fbde272ed","name":"康寧祥","birth":"1938-11-16","former_names":"","identifiers":["康寧祥"]},{"url":"http://councils.g0v.tw/api/councilors/299/","each_terms":[{"url":"http://councils.g0v.tw/api/councilors_terms/631/","election_year":"1969","name":"周財源","gender":"男","party":"中國國民黨","title":"議員","constituency":null,"county":"臺北市","district":"","in_office":true,"contact_details":null,"term_start":"1969-12-25","term_end":{"date":"1973-12-25"},"education":"臺北帝國大學農學系。","experience":"臺灣省政府農林廳特產科長、臺北市省轄市議會第三、四、五、六屆及臨時議會議員，其中第四、五屆獲選為副議長。","remark":"","image":"http://www.tcc.gov.tw/../upload/photo/%E5%91%A8%E8%B2%A1%E6%BA%9009.jpg","links":[{"url":"http://www.tcc.gov.tw/Councilor_Content_All.aspx?s=1852&d=090320&n=%E5%91%A8%E8%B2%A1%E6%BA%90","note":"議會個人官網"}],"social_media":null,"platform":"","param":null,"councilor":"eab5b7d3018d43f38fad99406420ff80"}],"uid":"eab5b7d3018d43f38fad99406420ff80","name":"周財源","birth":"1913-03-20","former_names":"","identifiers":["周財源"]},{"url":"http://councils.g0v.tw/api/councilors/300/","each_terms":[{"url":"http://councils.g0v.tw/api/councilors_terms/633/","election_year":"1969","name":"李福長","gender":"男","party":"中國國民黨","title":"議員","constituency":null,"county":"臺北市","district":"","in_office":true,"contact_details":null,"term_start":"1969-12-25","term_end":{"date":"1973-12-25"},"education":"成淵學校別科畢業、文官考試及格。","experience":"臺北地方法院書記官、臺北市松山區中正里里長、臺北市松山區調解委員、臺北市省轄市議會第六屆及臨時議會議員。","remark":"","image":"http://www.tcc.gov.tw/../upload/photo/%E6%9D%8E%E7%A6%8F%E9%95%B709.jpg","links":[{"url":"http://www.tcc.gov.tw/Councilor_Content_All.aspx?s=2258&d=191226&n=%E6%9D%8E%E7%A6%8F%E9%95%B7","note":"議會個人官網"}],"social_media":null,"platform":"","param":null,"councilor":"775294451f354519ab2de8fdcf511744"}],"uid":"775294451f354519ab2de8fdcf511744","name":"李福長","birth":"1919-12-26","former_names":"","identifiers":["李福長","李褔長","李福長","李褔長"]},{"url":"http://councils.g0v.tw/api/councilors/302/","each_terms":[{"url":"http://councils.g0v.tw/api/councilors_terms/11934/","election_year":"2014","name":"林榮進","gender":"男","party":"中國國民黨","title":null,"constituency":16,"county":"臺中市","district":"山地原住民","in_office":false,"contact_details":null,"term_start":"2014-12-25","term_end":{"date":"2016-01-12","judicial_links":"","reason":"當選無效","ref":"","replacement":"朱元宏"},"education":null,"experience":null,"remark":null,"image":"","links":null,"social_media":null,"platform":"","param":{"bills_role_statistics":{"total":19,"priproposer":6,"sponsor":8,"cosponsor":11},"suggestions_years":{"count":14,"sum":10107000,"years":[{"count":14,"sum":10107000,"suggest_year":"2015","small_purchase":7}]},"suggestions_associations":[{"count":0,"sum":0,"label":"社區發展協會"},{"count":0,"sum":0,"label":"學會"},{"count":0,"sum":0,"label":"商會"},{"count":0,"sum":0,"label":"公會"},{"count":0,"sum":0,"label":"協進會"},{"count":0,"sum":0,"label":"促進會"},{"count":0,"sum":0,"label":"研習會"},{"count":0,"sum":0,"label":"婦聯會"},{"count":0,"sum":0,"label":"婦女會"},{"count":0,"sum":0,"label":"體育會"},{"count":0,"sum":0,"label":"同心會"},{"count":0,"sum":0,"label":"農會"},{"count":0,"sum":0,"label":"早起會"},{"count":0,"sum":0,"label":"健身會"},{"count":0,"sum":0,"label":"宗親會"},{"count":0,"sum":0,"label":"功德會"},{"count":0,"sum":0,"label":"商業會"},{"count":0,"sum":0,"label":"長青會"},{"count":0,"sum":0,"label":"民眾服務社"},{"count":0,"sum":0,"label":"聯盟"}],"suggestions_piles":[{"count":0,"tokens":"協會|學會|商會|公會|協進會|促進會|研習會|婦聯會|婦女會|體育會|同心會|農會|早起會|健身會|宗親會|功德會|商業會|長青會|民眾服務社|聯盟","sum":0,"label":"協會"},{"count":0,"tokens":"辦公室|辦公處","sum":0,"label":"辦公室"},{"count":0,"tokens":"廟|宮","sum":0,"label":"廟"},{"count":0,"tokens":"警察局|分局","sum":0,"label":"警察局"},{"count":0,"tokens":"消防局|消防隊|分隊|中隊","sum":0,"label":"消防局"},{"count":0,"tokens":"國中|國小","sum":0,"label":"國中、國小"}],"bills_party_diversity":[{"party":"中國國民黨","ratio":0.6454545454545455},{"party":"民主進步黨","ratio":0.2545454545454545},{"party":"無黨籍","ratio":0.08181818181818182},{"party":"親民黨","ratio":0.01818181818181818}]},"councilor":"25d7ec2255514d16b472eb5ae299241a"},{"url":"http://councils.g0v.tw/api/councilors_terms/639/","election_year":"2010","name":"林榮進","gender":"","party":"中國國民黨","title":"議員","constituency":16,"county":"臺中市","district":"山地原住民","in_office":true,"contact_details":[{"type":"address","value":"臺中市北屯區東山路一段216-20號","label":"服務處地址"},{"type":"voice","value":"04-2435-0911","label":"服務處電話"},{"type":"fax","value":"04-2435-0711","label":"服務處傳真"},{"type":"email","value":"c0122@tccc.gov.tw ","label":"e-mail"}],"term_start":"2010-12-25","term_end":{"date":"2014-12-25"},"education":"台中縣和平鄉平等國小\n南投縣立山地農業職業學校\n省立豐原高中\n國立台灣師範大學","experience":"國立台灣師範大學教育研究所\n台中市立大德國民中學訓導主任、教務主任\n台中縣議會第十四屆縣議員\n台中縣和平鄉第十四屆鄉長\n中國國民黨第十七屆全國黨代表\n中華民國原住民社會發展協會理事長","remark":null,"image":"http://www.tccc.gov.tw/mediafile/1837/editor_model/211/pic/063.bmp","links":[{"url":"http://www.tccc.gov.tw/editor_model/u_editor_v1.asp?id=%7BE2BCDAAC-F9D1-427B-A2F7-3623097F8BEE%7D","note":"議會個人官網"}],"social_media":null,"platform":"促請訂定原住民就業自治條例，監督市政府各級機關、公營機構、廠商、公共工程等，按規定僱用原住民\n敦請加強原住民經濟及產業發展，並爭取公有零售市場攤(舖)位配租\n積極爭取中橫公路之修復，四號道路延伸至谷關，以及完成東崎路之拓寬\n賡續推動原住民部落公共建設，維護原住民土地權益，推展觀光休閒產業\n積極爭取恢復松鶴社區衛生室及派出所之設置，維護社區居民之健康及安全\n全面督促市政府推動原住民教育扶助，爭取就學交通費補助，購置電腦補助，實施托育補助逕行扣抵學雜費。積極催生「原住民完全學校」\n原住民地區各級學校教師之進用及升遷，落實原住民族教育法之規定，應優先遴選當地原住民\n積極爭取取得母語認證族人，納入正式編制，以利推動振興族語，傳承各族文化特色\n推動辦理原住民公寓出租、中低收入家庭租屋、建購或修繕住宅補助\n爭取原住民地區守望相助隊巡邏工作費提升為每年54萬元\n落實執行原住民社會救助工作，另爭取原住民兒童自付健保費補助，以及年滿55歲原住民裝置假牙補助、健康檢查補助、搭乘公車捷運優待與重陽敬老禮\n金，婦女生育補助\n爭取原住民地區至區公所及就醫之免費公車服務\n都會區建請分區設立原住民服務站及「原住民文化主題公園」，和平區設立「泰雅文化園區」\n推展正當的運動休閒文化，以促進身心健全發展。","param":{"suggestions_years":{"count":10,"sum":2511800,"years":[{"count":10,"sum":2511800,"suggest_year":"2014","small_purchase":7}]},"diversity":{"中國國民黨":0.6643959388265752,"民主進步黨":0.2065608575219704,"臺灣團結聯盟":0.001324292595152672,"親民黨":0.003335417969564311,"無黨籍":0.12438349308673764},"bills_role_statistics":{"total":27,"priproposer":0,"sponsor":13,"cosponsor":14},"suggestions_associations":[{"count":0,"sum":0,"label":"社區發展協會"},{"count":0,"sum":0,"label":"學會"},{"count":0,"sum":0,"label":"商會"},{"count":0,"sum":0,"label":"公會"},{"count":0,"sum":0,"label":"協進會"},{"count":0,"sum":0,"label":"促進會"},{"count":0,"sum":0,"label":"研習會"},{"count":0,"sum":0,"label":"婦聯會"},{"count":0,"sum":0,"label":"婦女會"},{"count":0,"sum":0,"label":"體育會"},{"count":0,"sum":0,"label":"同心會"},{"count":0,"sum":0,"label":"農會"},{"count":0,"sum":0,"label":"早起會"},{"count":0,"sum":0,"label":"健身會"},{"count":0,"sum":0,"label":"宗親會"},{"count":0,"sum":0,"label":"功德會"},{"count":0,"sum":0,"label":"商業會"},{"count":0,"sum":0,"label":"長青會"},{"count":0,"sum":0,"label":"民眾服務社"},{"count":0,"sum":0,"label":"聯盟"}],"bills_party_diversity":[{"party":"中國國民黨","ratio":0.7357723577235772},{"party":"民主進步黨","ratio":0.1991869918699187},{"party":"無黨籍","ratio":0.06097560975609756},{"party":"臺灣團結聯盟","ratio":0.0040650406504065045}],"suggestions_piles":[{"count":0,"tokens":"協會|學會|商會|公會|協進會|促進會|研習會|婦聯會|婦女會|體育會|同心會|農會|早起會|健身會|宗親會|功德會|商業會|長青會|民眾服務社|聯盟","sum":0,"label":"協會"},{"count":0,"tokens":"辦公室|辦公處","sum":0,"label":"辦公室"},{"count":0,"tokens":"廟|宮","sum":0,"label":"廟"},{"count":0,"tokens":"警察局|分局","sum":0,"label":"警察局"},{"count":0,"tokens":"消防局|消防隊|分隊|中隊","sum":0,"label":"消防局"},{"count":0,"tokens":"國中|國小","sum":0,"label":"國中、國小"}]},"councilor":"25d7ec2255514d16b472eb5ae299241a"}],"uid":"25d7ec2255514d16b472eb5ae299241a","name":"林榮進","birth":null,"former_names":"","identifiers":["林榮進","林榮進"]},{"url":"http://councils.g0v.tw/api/councilors/249/","each_terms":[{"url":"http://councils.g0v.tw/api/councilors_terms/487/","election_year":"1981","name":"林水吉","gender":"男","party":"中國國民黨","title":"議員","constituency":null,"county":"臺北市","district":"","in_office":true,"contact_details":null,"term_start":"1981-12-25","term_end":{"date":"1985-12-25"},"education":"高雄醫學院畢業、革命實踐研究院結業、軍管區後幹班結業、知識青年黨部夏令會結業。","experience":"松山區黨部委員、救國團區委會常委、後備軍人輔導組長、田邊製藥課長、藥師、西藥公會理事、興雅國中教師。","remark":"","image":"http://www.tcc.gov.tw/../upload/photo/%E6%9E%97%E6%B0%B4%E5%90%8912.jpg","links":[{"url":"http://www.tcc.gov.tw/Councilor_Content_All.aspx?s=1975&d=421008&n=%E6%9E%97%E6%B0%B4%E5%90%89","note":"議會個人官網"}],"social_media":null,"platform":"","param":null,"councilor":"5b6f5e684f944e9ebab6e53a1f7bf431"}],"uid":"5b6f5e684f944e9ebab6e53a1f7bf431","name":"林水吉","birth":"1942-10-08","former_names":"","identifiers":["林水吉","林水吉"]}]}