{"count":1904,"next":"http://councils.g0v.tw/api/councilors/?page=69","previous":"http://councils.g0v.tw/api/councilors/?page=67","results":[{"url":"http://councils.g0v.tw/api/councilors/251/","each_terms":[{"url":"http://councils.g0v.tw/api/councilors_terms/492/","election_year":"1981","name":"李德坤","gender":"男","party":"中國國民黨","title":"議員","constituency":null,"county":"臺北市","district":"","in_office":true,"contact_details":null,"term_start":"1981-12-25","term_end":{"date":"1985-12-25"},"education":"臺灣大學經濟系畢業、革命實踐研究院黨務班七期結業、後幹班九十七期結業。","experience":"臺北市直轄市議會第三屆議員、雙園區黨部常委、民眾服務分社理事長、古亭獅子會會長、雙園區後備軍人輔導中心主任、臺北市體育會理事、雙園區土風舞委員會主任委員。","remark":"","image":"http://www.tcc.gov.tw/../upload/photo/%E6%9D%8E%E5%BE%B7%E5%9D%A412.jpg","links":[{"url":"http://www.tcc.gov.tw/Councilor_Content_All.aspx?s=1955&d=360213&n=%E6%9D%8E%E5%BE%B7%E5%9D%A4","note":"議會個人官網"}],"social_media":null,"platform":"","param":null,"councilor":"fbfdcc6403444887a7f90330b7d27155"},{"url":"http://councils.g0v.tw/api/councilors_terms/540/","election_year":"1977","name":"李德坤","gender":"男","party":"中國國民黨","title":"議員","constituency":null,"county":"臺北市","district":"","in_office":true,"contact_details":null,"term_start":"1977-12-25","term_end":{"date":"1981-12-25"},"education":"臺灣大學經濟系畢業、革命實踐研究院黨務班七期結業。","experience":"雙園區民眾服務分社理事長、古亭國際師子會會長、中國國民黨第11次全國代表大會代表、雙園國中家長會會長、臺北市體育會理事、糕餅罐頭同業公會理事、臺北市義警大隊雙園中隊顧問、國際獅子會中華民國總會理事、副秘書長。","remark":"","image":"http://www.tcc.gov.tw/../upload/photo/%E6%9D%8E%E5%BE%B7%E5%9D%A411.jpg","links":[{"url":"http://www.tcc.gov.tw/Councilor_Content_All.aspx?s=1679&d=360213&n=%E6%9D%8E%E5%BE%B7%E5%9D%A4","note":"議會個人官網"}],"social_media":null,"platform":"","param":null,"councilor":"fbfdcc6403444887a7f90330b7d27155"}],"uid":"fbfdcc6403444887a7f90330b7d27155","name":"李德坤","birth":"1936-02-13","former_names":"","identifiers":["李德坤","李德坤"]},{"url":"http://councils.g0v.tw/api/councilors/67/","each_terms":[{"url":"http://councils.g0v.tw/api/councilors_terms/67/","election_year":"1969","name":"林穆燦","gender":"男","party":"中國國民黨","title":"議員","constituency":null,"county":"臺北市","district":"","in_office":true,"contact_details":null,"term_start":"1969-12-25","term_end":{"date":"1973-12-25"},"education":"陸軍軍官學校22期步科。","experience":"課長、主任、股長、秘書、委員。","remark":"","image":"http://www.tcc.gov.tw/../upload/photo/%E6%9E%97%E7%A9%86%E7%87%A609.jpg","links":[{"url":"http://www.tcc.gov.tw/Councilor_Content_All.aspx?s=1496&d=311006&n=%E6%9E%97%E7%A9%86%E7%87%A6","note":"議會個人官網"}],"social_media":null,"platform":"","param":null,"councilor":"54428a56d2a9402fb4d55f972e52b15c"},{"url":"http://councils.g0v.tw/api/councilors_terms/529/","election_year":"1977","name":"林穆燦","gender":"男","party":"中國國民黨","title":"議員","constituency":null,"county":"臺北市","district":"","in_office":true,"contact_details":null,"term_start":"1977-12-25","term_end":{"date":"1981-12-25"},"education":"陸軍軍官學校22期步兵科畢業、革命實踐研究院黨政班30期畢業。","experience":"排長、中隊長、南港鎮公所里隊附里幹事、戶籍課長、臺北縣議會組主任、秘書、臺北縣政府事務股長、臺北市自治協會監事、南港國小家長會長、南港國中家長會常務委員、臺北市直轄市議會第一、二屆議員。","remark":"","image":"http://www.tcc.gov.tw/../upload/photo/%E6%9E%97%E7%A9%86%E7%87%A611.jpg","links":[{"url":"http://www.tcc.gov.tw/Councilor_Content_All.aspx?s=2109&d=311006&n=%E6%9E%97%E7%A9%86%E7%87%A6","note":"議會個人官網"}],"social_media":null,"platform":"","param":null,"councilor":"54428a56d2a9402fb4d55f972e52b15c"},{"url":"http://councils.g0v.tw/api/councilors_terms/577/","election_year":"1973","name":"林穆燦","gender":"男","party":"中國國民黨","title":"議員","constituency":null,"county":"臺北市","district":"","in_office":true,"contact_details":null,"term_start":"1973-12-25","term_end":{"date":"1977-12-25"},"education":"陸軍軍官學校22期步兵科畢業。","experience":"臺北市第一屆議會議員、東南軍政長官公署警衛團少尉排長、臺灣軍事教導團少尉排長、南港鎮公所課長、臺北縣衛生局課長、臺北縣政府事務股長，臺北縣議會總務主任、秘書，臺北市地方自治協會監事。","remark":"","image":"http://www.tcc.gov.tw/../upload/photo/%E6%9E%97%E7%A9%86%E7%87%A610.jpg","links":[{"url":"http://www.tcc.gov.tw/Councilor_Content_All.aspx?s=2244&d=311006&n=%E6%9E%97%E7%A9%86%E7%87%A6","note":"議會個人官網"}],"social_media":null,"platform":"","param":null,"councilor":"54428a56d2a9402fb4d55f972e52b15c"}],"uid":"54428a56d2a9402fb4d55f972e52b15c","name":"林穆燦","birth":"1931-10-06","former_names":"","identifiers":["林穆燦","林穆燦"]},{"url":"http://councils.g0v.tw/api/councilors/149/","each_terms":[{"url":"http://councils.g0v.tw/api/councilors_terms/207/","election_year":"2002","name":"黃幼中","gender":"女","party":"親民黨","title":"議員","constituency":null,"county":"臺北市","district":"","in_office":true,"contact_details":null,"term_start":"2002-12-25","term_end":{"date":"2006-12-25"},"education":"臺北市市立建安國小、臺北市市立金華國中、臺北市私立育達商職、國立中興大學公共行政系。","experience":"立法委員秦慧珠辦公室主任、臺北市推動社區發展協會總幹事、臺北市榮欣婦聯會第二屆委員。","remark":"","image":"http://www.tcc.gov.tw/../upload/photo/%E9%BB%83%E5%B9%BC%E4%B8%AD17.bmp","links":[{"url":"http://www.tcc.gov.tw/Councilor_Content_All.aspx?s=2006&d=720517&n=%E9%BB%83%E5%B9%BC%E4%B8%AD","note":"議會個人官網"}],"social_media":null,"platform":"","param":null,"councilor":"19dca09a971f46619b24817298e7f548"}],"uid":"19dca09a971f46619b24817298e7f548","name":"黃幼中","birth":"1972-05-17","former_names":"","identifiers":["黃幼中","黄幼中"]},{"url":"http://councils.g0v.tw/api/councilors/150/","each_terms":[{"url":"http://councils.g0v.tw/api/councilors_terms/208/","election_year":"2002","name":"費鴻泰","gender":"男","party":"新黨","title":"議員","constituency":null,"county":"臺北市","district":"","in_office":false,"contact_details":null,"term_start":"2002-12-25","term_end":{"date":"2005-01-31","reason":"94年1月31日當選第6屆立委委員，辭職轉任國會議員。"},"education":"美國肯塔基大學統計學博士、美國北伊利諾大學統計學碩士、國立中興大學法商學院統計學士、成功高中、大安初中、三興國小、信義國小。","experience":"臺北市直轄市議會第八屆副議長、臺北市直轄市議會第七屆議員、臺北大學商學院兼任副教授、國立中興大學法商學院統研所專任副教授、銘傳大學企管系專任副教授。","remark":"94年1月31日當選第6屆立委委員，辭職轉任國會議員。","image":"http://www.tcc.gov.tw/../upload/photo/%E7%AC%AC%E4%B9%9D%E5%B1%86%E8%B2%BB%E9%B4%BB%E6%B3%B0014.jpg","links":[{"url":"http://www.tcc.gov.tw/Councilor_Content_All.aspx?s=1982&d=540707&n=%E8%B2%BB%E9%B4%BB%E6%B3%B0","note":"議會個人官網"}],"social_media":null,"platform":"","param":null,"councilor":"c91589900b6644398039eaa15195463e"},{"url":"http://councils.g0v.tw/api/councilors_terms/296/","election_year":"1998","name":"費鴻泰","gender":"男","party":"新黨","title":"副議長","constituency":null,"county":"臺北市","district":"","in_office":false,"contact_details":null,"term_start":"1998-12-25","term_end":{"date":"2002-12-25","reason":"獲選為第八屆副議長"},"education":"美國肯塔基大學統計學博士、美國北伊利諾大學統計學碩士、國立中興大學法商學院統計學士、成功高中、大安初中、三興國小、信義國小。","experience":"中興大學統計研究所專任副教授。銘傳管理學院企管系專任副教授。臺北市直轄市議會第七屆議員。","remark":"獲選為第八屆副議長","image":"http://www.tcc.gov.tw/../upload/photo/%E7%AC%AC%E5%85%AB%E5%B1%86%E8%B2%BB%E9%B4%BB%E6%B3%B0015.jpg","links":[{"url":"http://www.tcc.gov.tw/Councilor_Content_All.aspx?s=1894&d=540707&n=%E8%B2%BB%E9%B4%BB%E6%B3%B0","note":"議會個人官網"}],"social_media":null,"platform":"","param":null,"councilor":"c91589900b6644398039eaa15195463e"},{"url":"http://councils.g0v.tw/api/councilors_terms/310/","election_year":"1994","name":"費鴻泰","gender":"男","party":"新黨","title":"議員","constituency":null,"county":"臺北市","district":"","in_office":true,"contact_details":null,"term_start":"1994-12-25","term_end":{"date":"1998-12-25"},"education":"美國肯塔基大學統計學博士、美國北伊利諾大學統計學碩士、國立中興大學統計學學士、成功高中畢業、大安初中畢業、三興國小、信義國小。","experience":"國立中興大學統計研究所專任副教授、私立銘傳管理學院企管系專任副教授。","remark":"","image":"http://www.tcc.gov.tw/../upload/photo/%E8%B2%BB%E9%B4%BB%E6%B3%B015.jpg","links":[{"url":"http://www.tcc.gov.tw/Councilor_Content_All.aspx?s=1729&d=540707&n=%E8%B2%BB%E9%B4%BB%E6%B3%B0","note":"議會個人官網"}],"social_media":null,"platform":"","param":null,"councilor":"c91589900b6644398039eaa15195463e"}],"uid":"c91589900b6644398039eaa15195463e","name":"費鴻泰","birth":"1954-07-07","former_names":"","identifiers":["費鴻泰"]},{"url":"http://councils.g0v.tw/api/councilors/151/","each_terms":[{"url":"http://councils.g0v.tw/api/councilors_terms/267/","election_year":"1998","name":"陳惠敏","gender":"男","party":"中國國民黨","title":"議員","constituency":null,"county":"臺北市","district":"","in_office":true,"contact_details":null,"term_start":"1998-12-25","term_end":{"date":"2002-12-25"},"education":"東吳大學政治系畢業。","experience":"中華電視公司新聞主播、記者。中廣公司主播、記者。全國普考實地考試委員。中國國民黨中央助講員。黃復興黨部顧問。","remark":"","image":"http://www.tcc.gov.tw/../upload/photo/%E9%99%B3%E6%83%A0%E6%95%8F16.jpg","links":[{"url":"http://www.tcc.gov.tw/Councilor_Content_All.aspx?s=1599&d=580912&n=%E9%99%B3%E6%83%A0%E6%95%8F","note":"議會個人官網"}],"social_media":null,"platform":"","param":null,"councilor":"1aa6938d4fe64f1484b30443343b51c5"},{"url":"http://councils.g0v.tw/api/councilors_terms/214/","election_year":"2002","name":"陳惠敏","gender":"男","party":"中國國民黨","title":"議員","constituency":null,"county":"臺北市","district":"","in_office":true,"contact_details":null,"term_start":"2002-12-25","term_end":{"date":"2006-12-25"},"education":"東吳大學政治系畢業。","experience":"臺北市直轄市議會第八屆議員、臺北市議會工務、財建小組召集人、臺北市議會國民黨團副書記長、中國國民黨中央助講員、二０００年總統大選國民黨中央文宣小組、華視新聞國臺語主播、記者、中廣新聞主播、記者、臺北市議員助理、中國土地學會副秘書長。","remark":"","image":"http://www.tcc.gov.tw/../upload/photo/%E9%99%B3%E6%83%A0%E6%95%8F17.bmp","links":[{"url":"http://www.tcc.gov.tw/Councilor_Content_All.aspx?s=1372&d=580912&n=%E9%99%B3%E6%83%A0%E6%95%8F","note":"議會個人官網"}],"social_media":null,"platform":"","param":null,"councilor":"1aa6938d4fe64f1484b30443343b51c5"}],"uid":"1aa6938d4fe64f1484b30443343b51c5","name":"陳惠敏","birth":"1958-09-12","former_names":"","identifiers":["陳惠敏"]},{"url":"http://councils.g0v.tw/api/councilors/152/","each_terms":[{"url":"http://councils.g0v.tw/api/councilors_terms/218/","election_year":"2002","name":"陳正德","gender":"男","party":"民主進步黨","title":"議員","constituency":null,"county":"臺北市","district":"","in_office":true,"contact_details":null,"term_start":"2002-12-25","term_end":{"date":"2006-12-25"},"education":"臺南一中、臺灣大學經濟系畢業。","experience":"臺北市直轄市議會第七、八屆議員、臺北市機車商會、工會、百貨公會顧問、人人計程車合作社顧問、天母、北投忠義晨泳會顧問、中華山岳、北市登山育樂、飛鷹登山隊顧問、晴天登山隊員、北市菁英協會顧問、百齡高中、士林國中、小、文昌國小、福安國中、富安國小家長會顧問、北市體育會極限運動委員會、王品羽球俱樂部顧問、士林區體育會體操委員會顧問。","remark":"","image":"http://www.tcc.gov.tw/../upload/photo/%E9%99%B3%E6%AD%A3%E5%BE%B717.bmp","links":[{"url":"http://www.tcc.gov.tw/Councilor_Content_All.aspx?s=2095&d=620113&n=%E9%99%B3%E6%AD%A3%E5%BE%B7","note":"議會個人官網"}],"social_media":null,"platform":"","param":null,"councilor":"aab22d11916c4311bb7e0edc1a7ab420"},{"url":"http://councils.g0v.tw/api/councilors_terms/274/","election_year":"1998","name":"陳正德","gender":"男","party":"民主進步黨","title":"議員","constituency":null,"county":"臺北市","district":"","in_office":true,"contact_details":null,"term_start":"1998-12-25","term_end":{"date":"2002-12-25"},"education":"臺南一中、臺灣大學經濟系畢業。","experience":"蓬萊島系列雜誌編輯。市議園藍美津助理。立委吳淑珍、黃天福助選員。黨外公政會臺北分會發起人、組訓組長。臺北市選委會監查小組委員。民進黨建黨委員、第三屆全代、臺北市黨部第一屆黨代表、第四第五屆執委。士林、北投區黨部籌委、顧問、區里聯絡處審查委員。市議會民進黨團副召集人、幹事長。工務副召、警衛召集人。臺北市直轄市議會第七屆議員。","remark":"","image":"http://www.tcc.gov.tw/../upload/photo/%E9%99%B3%E6%AD%A3%E5%BE%B716.jpg","links":[{"url":"http://www.tcc.gov.tw/Councilor_Content_All.aspx?s=1738&d=620113&n=%E9%99%B3%E6%AD%A3%E5%BE%B7","note":"議會個人官網"}],"social_media":null,"platform":"","param":null,"councilor":"aab22d11916c4311bb7e0edc1a7ab420"},{"url":"http://councils.g0v.tw/api/councilors_terms/321/","election_year":"1994","name":"陳正德","gender":"男","party":"民主進步黨","title":"議員","constituency":null,"county":"臺北市","district":"","in_office":true,"contact_details":null,"term_start":"1994-12-25","term_end":{"date":"1998-12-25"},"education":"臺南一中、臺灣大學經濟系畢業。","experience":"立法委員黃信介助理。臺北市議員藍美津助理。臺灣之聲電台節目主持人。臺北市親子協會創會會員。蓬萊島系列雜誌編輯。立委吳淑珍助選員。臺北市選舉委員會監察小組委員。民進黨建黨黨員、市黨部代表、全國黨代表、市黨部四、五屆執行委員。老人年金524靜坐活動領隊。","remark":"","image":"http://www.tcc.gov.tw/../upload/photo/%E9%99%B3%E6%AD%A3%E5%BE%B715.jpg","links":[{"url":"http://www.tcc.gov.tw/Councilor_Content_All.aspx?s=1691&d=620113&n=%E9%99%B3%E6%AD%A3%E5%BE%B7","note":"議會個人官網"}],"social_media":null,"platform":"","param":null,"councilor":"aab22d11916c4311bb7e0edc1a7ab420"}],"uid":"aab22d11916c4311bb7e0edc1a7ab420","name":"陳正德","birth":"1962-01-13","former_names":"","identifiers":["陳正德"]},{"url":"http://councils.g0v.tw/api/councilors/153/","each_terms":[{"url":"http://councils.g0v.tw/api/councilors_terms/219/","election_year":"2002","name":"許富男","gender":"男","party":"民主進步黨","title":"議員","constituency":null,"county":"臺北市","district":"","in_office":true,"contact_details":null,"term_start":"2002-12-25","term_end":{"date":"2006-12-25"},"education":"淡江大學銀行保險學系、省立臺南二中、臺南市延平中學。","experience":"現任臺北市議員（鑼鼓彈問政小組成員）；參與民主運動廿多年、民進黨創黨黨員、阿扁立委東區服務處主任、八三年阿扁競選市長東區總幹事、阿扁市府秘書（負責「與民有約」）、天母扶輪社理事與公關、社會服務主委、臺北市直轄市議會第八屆議員。","remark":"","image":"http://www.tcc.gov.tw/../upload/photo/%E8%A8%B1%E5%AF%8C%E7%94%B717.bmp","links":[{"url":"http://www.tcc.gov.tw/Councilor_Content_All.aspx?s=1963&d=420202&n=%E8%A8%B1%E5%AF%8C%E7%94%B7","note":"議會個人官網"}],"social_media":null,"platform":"","param":null,"councilor":"b8636740e03445e4953e77ca4bdda435"},{"url":"http://councils.g0v.tw/api/councilors_terms/275/","election_year":"1998","name":"許富男","gender":"男","party":"民主進步黨","title":"議員","constituency":null,"county":"臺北市","district":"","in_office":true,"contact_details":null,"term_start":"1998-12-25","term_end":{"date":"2002-12-25"},"education":"淡江大學銀行保險學系、省立台南二中、台南市延平中學。","experience":"參與民主運動廿多年、民進黨創黨黨員、全國代表第一、五、七屆、康寧祥競選立委三屆組織部組長、陳水扁立委東區服務處主任、八三年阿扁競選市長東區總幹事、阿扁市府秘書處理「與民有約」事宜、天母扶輪社理事與公關、社會服務主委、器官移植策進基金會副執行長。","remark":"","image":"http://www.tcc.gov.tw/../upload/photo/%E8%A8%B1%E5%AF%8C%E7%94%B716.jpg","links":[{"url":"http://www.tcc.gov.tw/Councilor_Content_All.aspx?s=1816&d=420202&n=%E8%A8%B1%E5%AF%8C%E7%94%B7","note":"議會個人官網"}],"social_media":null,"platform":"","param":null,"councilor":"b8636740e03445e4953e77ca4bdda435"}],"uid":"b8636740e03445e4953e77ca4bdda435","name":"許富男","birth":"1942-02-02","former_names":"","identifiers":["許富男"]},{"url":"http://councils.g0v.tw/api/councilors/154/","each_terms":[{"url":"http://councils.g0v.tw/api/councilors_terms/220/","election_year":"2002","name":"常中天","gender":"男","party":"新黨","title":"議員","constituency":null,"county":"臺北市","district":"","in_office":true,"contact_details":null,"term_start":"2002-12-25","term_end":{"date":"2006-12-25"},"education":"私立再興小學、中學。美國德州農工大學應用數學學士、統計碩士。（Texas A & M University）。","experience":"資深體育主播、華衛、東森、臺北ＴＶ、年代、中天等電視台節目製作人及主持人。飛碟電臺、新黨之音節目主持人。冠藍運動網（MVP168.com）總監，新黨副秘書長。","remark":"","image":"http://www.tcc.gov.tw/../upload/photo/%E5%B8%B8%E4%B8%AD%E5%A4%A917.bmp","links":[{"url":"http://www.tcc.gov.tw/Councilor_Content_All.aspx?s=1858&d=650909&n=%E5%B8%B8%E4%B8%AD%E5%A4%A9","note":"議會個人官網"}],"social_media":null,"platform":"","param":null,"councilor":"995acf2697ef4973a37230f82481f6cc"}],"uid":"995acf2697ef4973a37230f82481f6cc","name":"常中天","birth":"1965-09-09","former_names":"","identifiers":["常中天"]},{"url":"http://councils.g0v.tw/api/councilors/155/","each_terms":[{"url":"http://councils.g0v.tw/api/councilors_terms/222/","election_year":"2002","name":"徐國勇","gender":"男","party":"民主進步黨","title":"議員","constituency":null,"county":"臺北市","district":"","in_office":false,"contact_details":null,"term_start":"2002-12-25","term_end":{"date":"2005-01-31","reason":"94年1月31日當選第6屆立委委員，任內轉任國會議員。"},"education":"國立臺北師範學院畢業、中興大學法律系畢業、國立臺灣海洋大學海洋法律研究所法學碩士、律師高考及格。","experience":"北市龍山國小教師、律師、立委卓榮泰辦公室總執行長、綠色和平電臺環球電視臺節目主持人、民進黨各級民意代表助選助講人、扁友會顧問、廢國大、立委減半行動聯盟發起人兼遊行副總指揮、臺北縣政府法律顧問、臺灣教授協會義務律師。","remark":"94年1月31日當選第6屆立委委員，任內轉任國會議員。","image":"http://www.tcc.gov.tw/../upload/photo/%E5%BE%90%E5%9C%8B%E5%8B%8717.jpg","links":[{"url":"http://www.tcc.gov.tw/Councilor_Content_All.aspx?s=1605&d=580607&n=%E5%BE%90%E5%9C%8B%E5%8B%87","note":"議會個人官網"}],"social_media":null,"platform":"","param":null,"councilor":"47c0238fa96f4a2fa60520b19b5a8cf6"}],"uid":"47c0238fa96f4a2fa60520b19b5a8cf6","name":"徐國勇","birth":"1958-06-07","former_names":"","identifiers":["徐國勇"]},{"url":"http://councils.g0v.tw/api/councilors/801/","each_terms":[{"url":"http://councils.g0v.tw/api/councilors_terms/1451/","election_year":"1946","name":"周廷乾","gender":"","party":"","title":"議員","constituency":null,"county":"新北市","district":"","in_office":true,"contact_details":null,"term_start":"1946-04-15","term_end":{"date":"1950-12-31"},"education":"臺北商工學校(開南商工)畢業。","experience":"信用組合長\n第一\n二屆新店鎮長(40.7.1-45.6.30)\n*民國三十六年一月因就任鎮長辭","remark":null,"image":"http://www.ntp.gov.tw/UpFile/CouncilorFile/TTCC0024.jpg","links":[{"url":"http://www.ntp.gov.tw/content/history/history01-5-p.aspx?sid=24","note":"議會個人官網"}],"social_media":null,"platform":"","param":null,"councilor":"fb83a48fc0ba49bd9f3a43d27297aace"}],"uid":"fb83a48fc0ba49bd9f3a43d27297aace","name":"周廷乾","birth":null,"former_names":"","identifiers":["周廷乾"]}]}