{"count":1904,"next":"http://councils.g0v.tw/api/councilors/?page=70","previous":"http://councils.g0v.tw/api/councilors/?page=68","results":[{"url":"http://councils.g0v.tw/api/councilors/802/","each_terms":[{"url":"http://councils.g0v.tw/api/councilors_terms/1452/","election_year":"1946","name":"翁北辰","gender":"","party":"","title":"議員","constituency":null,"county":"新北市","district":"","in_office":true,"contact_details":null,"term_start":"1946-04-15","term_end":{"date":"1950-12-31"},"education":"","experience":"八里鄉農會理事\n協議會員\n*民國三十九年六月，因體弱多病辭職","remark":null,"image":"http://www.ntp.gov.tw/UpFile/CouncilorFile/TTCC0023.jpg","links":[{"url":"http://www.ntp.gov.tw/content/history/history01-5-p.aspx?sid=23","note":"議會個人官網"}],"social_media":null,"platform":"","param":null,"councilor":"67e4153423904082a68c884b1b1cafaa"}],"uid":"67e4153423904082a68c884b1b1cafaa","name":"翁北辰","birth":null,"former_names":"","identifiers":["翁北辰"]},{"url":"http://councils.g0v.tw/api/councilors/803/","each_terms":[{"url":"http://councils.g0v.tw/api/councilors_terms/1453/","election_year":"1946","name":"盧楊柳","gender":"","party":"","title":"議員","constituency":null,"county":"新北市","district":"","in_office":true,"contact_details":null,"term_start":"1946-04-15","term_end":{"date":"1950-12-31"},"education":"中學畢業\n甲種公職候選人考試及格。","experience":"保區總代\n評議員\n茶葉公司董事\n農會理事\n*民國三十八年遞補盧根德缺","remark":null,"image":"http://www.ntp.gov.tw/UpFile/CouncilorFile/TTCC0022.jpg","links":[{"url":"http://www.ntp.gov.tw/content/history/history01-5-p.aspx?sid=22","note":"議會個人官網"}],"social_media":null,"platform":"","param":null,"councilor":"4449b6837ea64af3be884571f8154e9d"}],"uid":"4449b6837ea64af3be884571f8154e9d","name":"盧楊柳","birth":null,"former_names":"","identifiers":["盧楊柳"]},{"url":"http://councils.g0v.tw/api/councilors/804/","each_terms":[{"url":"http://councils.g0v.tw/api/councilors_terms/1454/","election_year":"1946","name":"盧根德","gender":"","party":"","title":"議員","constituency":null,"county":"新北市","district":"","in_office":true,"contact_details":null,"term_start":"1946-04-15","term_end":{"date":"1950-12-31"},"education":"日語學校師範科畢業。","experience":"三芝鄉長\n北縣農會理事長\n北縣合作社聯合社理事主席\n茶葉公會理事長\n*民國三十八年因遞補省參議員黃純青之缺而辭","remark":null,"image":"http://www.ntp.gov.tw/UpFile/CouncilorFile/TTCC0021.jpg","links":[{"url":"http://www.ntp.gov.tw/content/history/history01-5-p.aspx?sid=21","note":"議會個人官網"}],"social_media":null,"platform":"","param":null,"councilor":"747c769c531f468bb950e7f6ed8cc8fe"}],"uid":"747c769c531f468bb950e7f6ed8cc8fe","name":"盧根德","birth":null,"former_names":"","identifiers":["盧根德"]},{"url":"http://councils.g0v.tw/api/councilors/805/","each_terms":[{"url":"http://councils.g0v.tw/api/councilors_terms/1506/","election_year":"1951","name":"施標輝","gender":"","party":"","title":"議員","constituency":4,"county":"新北市","district":"淡水鎮、三芝鄉、石門鄉、八里鄉","in_office":true,"contact_details":null,"term_start":"1951-01-04","term_end":{"date":"1953-01-05"},"education":"國民學校","experience":"臺北縣議會第1屆議員\n組合理事\n莊協議會員\n莊長\n石門鄉長\n石門鄉農會理事長","remark":null,"image":"http://www.ntp.gov.tw/UpFile/CouncilorFile/TTCC0020.jpg","links":[{"url":"http://www.ntp.gov.tw/content/history/history01-5-p.aspx?sid=20","note":"議會個人官網"}],"social_media":null,"platform":"","param":null,"councilor":"38e9f893415c4ae7ac1f52db29e3b74e"},{"url":"http://councils.g0v.tw/api/councilors_terms/1455/","election_year":"1946","name":"施標輝","gender":"","party":"","title":"議員","constituency":null,"county":"新北市","district":"","in_office":true,"contact_details":null,"term_start":"1946-04-15","term_end":{"date":"1950-12-31"},"education":"國民學校","experience":"臺北縣議會第1屆議員\n組合理事\n莊協議會員\n莊長\n石門鄉長\n石門鄉農會理事長","remark":null,"image":"http://www.ntp.gov.tw/UpFile/CouncilorFile/TTCC0020.jpg","links":[{"url":"http://www.ntp.gov.tw/content/history/history01-5-p.aspx?sid=20","note":"議會個人官網"}],"social_media":null,"platform":"","param":null,"councilor":"38e9f893415c4ae7ac1f52db29e3b74e"}],"uid":"38e9f893415c4ae7ac1f52db29e3b74e","name":"施標輝","birth":null,"former_names":"","identifiers":["施標輝"]},{"url":"http://councils.g0v.tw/api/councilors/1341/","each_terms":[{"url":"http://councils.g0v.tw/api/councilors_terms/2267/","election_year":"2009","name":"顏蔡淑惠","gender":"女","party":"","title":"","constituency":5,"county":"嘉義縣","district":"布袋鄉、義竹鄉","in_office":true,"contact_details":[{"type":"phone","value":"05-3412706 ","label":"電話"},{"type":"address","value":"嘉義縣義竹鄉六桂村162-3號 ","label":"通訊處"},{"type":"email","value":"","label":"電子信箱"}],"term_start":"2009-12-25","term_end":{"date":"2014-12-25"},"education":"新塭國小\n明達中學 ","experience":"（一）第十六屆嘉義縣議員。\n（二）義竹鄉鄉民代表第十五、十六、十七屆代表。\n（三）義竹鄉婦女會理事。 ","remark":null,"image":"http://www.cyscc.gov.tw/template/DisplaySmallPicture.ashx?p=/Upload/Parliamentary/33/634535116139975464.bmp&w=145&h=170","links":[{"url":"http://www.cyscc.gov.tw/chinese/Parliamentary_Detail.aspx?s=33&n=29","note":"議會個人官網"}],"social_media":null,"platform":"（一）成立定點為民服務處，專人積極主動為民服務。\n（二）善盡民代質詢與監督縣政之權限，以反映民情執行民意。\n（三）積極爭取布袋義竹淹水地區與養殖區治水改善工程經費、徹底解決淹水問題。\n（四）積極爭取農漁民農藥肥料等相關補助及農漁路排水道路改善工程，以增益農漁民收益。\n（五）爭取婦女、兒童、殘障、老人等各項福利措施與相關公益活動補助。\n（六）爭取農漁村社區各項美化綠化與總體營造整建經費，以提昇農漁村社區環境衛生與生活品質。 ","param":{"suggestions_years":{"count":5,"sum":2124000,"years":[{"count":3,"sum":1084000,"suggest_year":"2012","small_purchase":0},{"count":2,"sum":1040000,"suggest_year":"2013","small_purchase":0}]},"diversity":{"":1.0},"bills_role_statistics":{"total":20,"priproposer":8,"sponsor":8,"cosponsor":12},"suggestions_associations":[{"count":0,"sum":0,"label":"社區發展協會"},{"count":0,"sum":0,"label":"學會"},{"count":0,"sum":0,"label":"商會"},{"count":0,"sum":0,"label":"公會"},{"count":0,"sum":0,"label":"協進會"},{"count":0,"sum":0,"label":"促進會"},{"count":0,"sum":0,"label":"研習會"},{"count":0,"sum":0,"label":"婦聯會"},{"count":0,"sum":0,"label":"婦女會"},{"count":0,"sum":0,"label":"體育會"},{"count":0,"sum":0,"label":"同心會"},{"count":0,"sum":0,"label":"農會"},{"count":0,"sum":0,"label":"早起會"},{"count":0,"sum":0,"label":"健身會"},{"count":0,"sum":0,"label":"宗親會"},{"count":0,"sum":0,"label":"功德會"},{"count":0,"sum":0,"label":"商業會"},{"count":0,"sum":0,"label":"長青會"},{"count":0,"sum":0,"label":"民眾服務社"},{"count":0,"sum":0,"label":"聯盟"}],"bills_party_diversity":[{"party":"","ratio":1.0}],"suggestions_piles":[{"count":0,"tokens":"協會|學會|商會|公會|協進會|促進會|研習會|婦聯會|婦女會|體育會|同心會|農會|早起會|健身會|宗親會|功德會|商業會|長青會|民眾服務社|聯盟","sum":0,"label":"協會"},{"count":0,"tokens":"辦公室|辦公處","sum":0,"label":"辦公室"},{"count":0,"tokens":"廟|宮","sum":0,"label":"廟"},{"count":0,"tokens":"警察局|分局","sum":0,"label":"警察局"},{"count":0,"tokens":"消防局|消防隊|分隊|中隊","sum":0,"label":"消防局"},{"count":0,"tokens":"國中|國小","sum":0,"label":"國中、國小"}]},"councilor":"0ca038ea067542fcb42a8ad29235838a"}],"uid":"0ca038ea067542fcb42a8ad29235838a","name":"顏蔡淑惠","birth":null,"former_names":"","identifiers":["顏蔡淑惠"]},{"url":"http://councils.g0v.tw/api/councilors/1342/","each_terms":[{"url":"http://councils.g0v.tw/api/councilors_terms/2268/","election_year":"2009","name":"郭西川","gender":"男","party":"","title":"","constituency":4,"county":"嘉義縣","district":"朴子市、東石鄉、六腳鄉","in_office":true,"contact_details":[{"type":"phone","value":"05-3799161 ","label":"電話"},{"type":"address","value":"嘉義縣六腳鄉古林村3鄰林內22號 ","label":"通訊處"},{"type":"email","value":"","label":"電子信箱"}],"term_start":"2009-12-25","term_end":{"date":"2014-12-25"},"education":"國校畢業 ","experience":"（一）六腳鄉古林村長四屆。〈第１５．１６．１７．１８屆〉\n（二）六腳鄉調解委員會委員。\n（三）魚寮東安福宮主任委員。 ","remark":null,"image":"http://www.cyscc.gov.tw/template/DisplaySmallPicture.ashx?p=/Upload/Parliamentary/27/634535112520711649.bmp&w=145&h=170","links":[{"url":"http://www.cyscc.gov.tw/chinese/Parliamentary_Detail.aspx?s=27&n=29","note":"議會個人官網"}],"social_media":null,"platform":"（一）爭取整治朴子溪、六腳排水、北港溪等河川，六腳鄉暨故宮周邊堤防兩側興築為混凝土加高工程，以確保人民生命財產安全。\n（二）廣納民意，反映民情，了解人民困苦與心聲，做為政府與人民溝通橋梁。\n（三）建議政府重視農漁業，發展精緻農漁產品，增加農漁民收益。\n（四）爭取改善鄉里道路、產業道路、排水設施以利交通。\n（五）一步一腳印，步步為鄉親，全力打拼爭取地方建設。\n（六）促進地方團結和諧，排難解紛，真情關懷，為鄉親服務，創造安和樂利社會。\n（七）爭取照顧殘障、弱勢團體福利及老人福利措施。 ","param":{"suggestions_years":{"count":3,"sum":3350000,"years":[{"count":2,"sum":1350000,"suggest_year":"2011","small_purchase":0},{"count":1,"sum":2000000,"suggest_year":"2012","small_purchase":0}]},"diversity":{"":1.0},"bills_role_statistics":{"total":18,"priproposer":3,"sponsor":3,"cosponsor":15},"suggestions_associations":[{"count":0,"sum":0,"label":"社區發展協會"},{"count":0,"sum":0,"label":"學會"},{"count":0,"sum":0,"label":"商會"},{"count":0,"sum":0,"label":"公會"},{"count":0,"sum":0,"label":"協進會"},{"count":0,"sum":0,"label":"促進會"},{"count":0,"sum":0,"label":"研習會"},{"count":0,"sum":0,"label":"婦聯會"},{"count":0,"sum":0,"label":"婦女會"},{"count":0,"sum":0,"label":"體育會"},{"count":0,"sum":0,"label":"同心會"},{"count":0,"sum":0,"label":"農會"},{"count":0,"sum":0,"label":"早起會"},{"count":0,"sum":0,"label":"健身會"},{"count":0,"sum":0,"label":"宗親會"},{"count":0,"sum":0,"label":"功德會"},{"count":0,"sum":0,"label":"商業會"},{"count":0,"sum":0,"label":"長青會"},{"count":0,"sum":0,"label":"民眾服務社"},{"count":0,"sum":0,"label":"聯盟"}],"bills_party_diversity":[{"party":"","ratio":1.0}],"suggestions_piles":[{"count":0,"tokens":"協會|學會|商會|公會|協進會|促進會|研習會|婦聯會|婦女會|體育會|同心會|農會|早起會|健身會|宗親會|功德會|商業會|長青會|民眾服務社|聯盟","sum":0,"label":"協會"},{"count":0,"tokens":"辦公室|辦公處","sum":0,"label":"辦公室"},{"count":0,"tokens":"廟|宮","sum":0,"label":"廟"},{"count":0,"tokens":"警察局|分局","sum":0,"label":"警察局"},{"count":0,"tokens":"消防局|消防隊|分隊|中隊","sum":0,"label":"消防局"},{"count":0,"tokens":"國中|國小","sum":0,"label":"國中、國小"}]},"councilor":"1b5a39e376294f879818d02a6a5007f3"}],"uid":"1b5a39e376294f879818d02a6a5007f3","name":"郭西川","birth":null,"former_names":"","identifiers":["郭西川"]},{"url":"http://councils.g0v.tw/api/councilors/1344/","each_terms":[{"url":"http://councils.g0v.tw/api/councilors_terms/2270/","election_year":"2009","name":"翁聰賢","gender":"男","party":"","title":"","constituency":5,"county":"嘉義縣","district":"布袋鄉、義竹鄉","in_office":true,"contact_details":[{"type":"phone","value":"05-3416999 ","label":"電話"},{"type":"address","value":"嘉義縣義竹鄉仁里村418號 ","label":"通訊處"},{"type":"email","value":"","label":"電子信箱"}],"term_start":"2009-12-25","term_end":{"date":"2014-12-25"},"education":"文化大學法律系畢業 ","experience":"（一）嘉義縣議會第16屆議員\n（二）立法委員陳明文國會助理。\n（三）立法委員張花冠特別助理。\n（四）後備軍人幹部訓練班394期。 ","remark":null,"image":"http://www.cyscc.gov.tw/template/DisplaySmallPicture.ashx?p=/Upload/Parliamentary/31/634535115047009313.bmp&w=145&h=170","links":[{"url":"http://www.cyscc.gov.tw/chinese/Parliamentary_Detail.aspx?s=31&n=29","note":"議會個人官網"}],"social_media":null,"platform":"（一）監督縣府。\n（二）爭取建設。\n（三）反映民意。\n（四）服務民眾。 ","param":{"suggestions_years":{"count":34,"sum":25933028,"years":[{"count":2,"sum":1680000,"suggest_year":"2011","small_purchase":0},{"count":9,"sum":7669192,"suggest_year":"2012","small_purchase":1},{"count":10,"sum":5340000,"suggest_year":"2013","small_purchase":2},{"count":13,"sum":11243836,"suggest_year":"2014","small_purchase":2}]},"diversity":{"":1.0},"bills_role_statistics":{"total":37,"priproposer":6,"sponsor":6,"cosponsor":31},"suggestions_associations":[{"count":0,"sum":0,"label":"社區發展協會"},{"count":0,"sum":0,"label":"學會"},{"count":0,"sum":0,"label":"商會"},{"count":0,"sum":0,"label":"公會"},{"count":0,"sum":0,"label":"協進會"},{"count":0,"sum":0,"label":"促進會"},{"count":0,"sum":0,"label":"研習會"},{"count":0,"sum":0,"label":"婦聯會"},{"count":0,"sum":0,"label":"婦女會"},{"count":0,"sum":0,"label":"體育會"},{"count":0,"sum":0,"label":"同心會"},{"count":0,"sum":0,"label":"農會"},{"count":0,"sum":0,"label":"早起會"},{"count":0,"sum":0,"label":"健身會"},{"count":0,"sum":0,"label":"宗親會"},{"count":0,"sum":0,"label":"功德會"},{"count":0,"sum":0,"label":"商業會"},{"count":0,"sum":0,"label":"長青會"},{"count":0,"sum":0,"label":"民眾服務社"},{"count":0,"sum":0,"label":"聯盟"}],"bills_party_diversity":[{"party":"","ratio":1.0}],"suggestions_piles":[{"count":2,"tokens":"警察局|分局","sum":193836,"label":"警察局"},{"count":0,"tokens":"協會|學會|商會|公會|協進會|促進會|研習會|婦聯會|婦女會|體育會|同心會|農會|早起會|健身會|宗親會|功德會|商業會|長青會|民眾服務社|聯盟","sum":0,"label":"協會"},{"count":0,"tokens":"辦公室|辦公處","sum":0,"label":"辦公室"},{"count":0,"tokens":"廟|宮","sum":0,"label":"廟"},{"count":0,"tokens":"消防局|消防隊|分隊|中隊","sum":0,"label":"消防局"},{"count":0,"tokens":"國中|國小","sum":0,"label":"國中、國小"}]},"councilor":"c495f8bf1b5249f59ff45ae7c9746b6b"}],"uid":"c495f8bf1b5249f59ff45ae7c9746b6b","name":"翁聰賢","birth":null,"former_names":"","identifiers":["翁聰賢"]},{"url":"http://councils.g0v.tw/api/councilors/508/","each_terms":[{"url":"http://councils.g0v.tw/api/councilors_terms/855/","election_year":"1968","name":"黃賢忠","gender":"","party":"","title":"議員","constituency":7,"county":"新北市","district":"瑞芳鎮、雙溪鄉、貢寮鄉、平溪鄉","in_office":true,"contact_details":null,"term_start":"1968-02-21","term_end":{"date":"1973-04-30"},"education":"初中畢業後","experience":"臺灣金屬礦業公司員工管理員\n基隆客運公司業務經理\n基隆客運公司總務經理\n臺北縣議會第6、7屆議員","remark":null,"image":"http://www.ntp.gov.tw/UpFile/CouncilorFile/TTCC0652.jpg","links":[{"url":"http://www.ntp.gov.tw/content/history/history01-5-p.aspx?sid=272","note":"議會個人官網"}],"social_media":null,"platform":"","param":null,"councilor":"b23a42ed0bb9446ca1d167786b2500d1"},{"url":"http://councils.g0v.tw/api/councilors_terms/1813/","election_year":"1964","name":"黃賢忠","gender":"","party":"","title":"議員","constituency":8,"county":"新北市","district":"瑞芳鎮、雙溪鄉、貢寮鄉、平溪鄉","in_office":true,"contact_details":null,"term_start":"1964-02-21","term_end":{"date":"1968-02-20"},"education":"初中畢業後","experience":"臺灣金屬礦業公司員工管理員\n基隆客運公司業務經理\n基隆客運公司總務經理\n臺北縣議會第6、7屆議員","remark":null,"image":"http://www.ntp.gov.tw/UpFile/CouncilorFile/TTCC0652.jpg","links":[{"url":"http://www.ntp.gov.tw/content/history/history01-5-p.aspx?sid=272","note":"議會個人官網"}],"social_media":null,"platform":"","param":null,"councilor":"b23a42ed0bb9446ca1d167786b2500d1"}],"uid":"b23a42ed0bb9446ca1d167786b2500d1","name":"黃賢忠","birth":null,"former_names":"","identifiers":["黄賢忠","黃賢忠"]},{"url":"http://councils.g0v.tw/api/councilors/282/","each_terms":[{"url":"http://councils.g0v.tw/api/councilors_terms/586/","election_year":"1973","name":"周恂","gender":"男","party":"中國國民黨","title":"議員","constituency":null,"county":"臺北市","district":"","in_office":true,"contact_details":null,"term_start":"1973-12-25","term_end":{"date":"1977-12-25"},"education":"空軍官校九期畢業、空軍參謀大學研究班四期畢業、國防大學八期畢業。","experience":"飛行員、分隊長、大隊長、空軍總部組長、空軍總司令辦公室主任、國防部處長、空軍通校校長。","remark":"","image":"http://www.tcc.gov.tw/../upload/photo/%E5%91%A8%E6%81%8210.jpg","links":[{"url":"http://www.tcc.gov.tw/Councilor_Content_All.aspx?s=2158&d=160928&n=%E5%91%A8%E6%81%82","note":"議會個人官網"}],"social_media":null,"platform":"","param":null,"councilor":"650b0b929cbf42aa9f9df75e821b5adb"}],"uid":"650b0b929cbf42aa9f9df75e821b5adb","name":"周恂","birth":"1916-09-28","former_names":"","identifiers":["周恂"]},{"url":"http://councils.g0v.tw/api/councilors/760/","each_terms":[{"url":"http://councils.g0v.tw/api/councilors_terms/1410/","election_year":"1946","name":"劉金全","gender":"","party":"","title":"議員","constituency":null,"county":"新北市","district":"","in_office":true,"contact_details":null,"term_start":"1946-04-15","term_end":{"date":"1950-12-31"},"education":"三星公學校(三星國民小學)。","experience":"三星庄副庄長(副鄉長)壯丁團長，地方青年團長\n新蘭陽建設促進委員會常委\n三星鄉民代表會主席，三星信用合作社常務監事\n宜蘭縣議會第二\n六屆議員\n三星書法社社長(六一書道會)\n曾參加國民黨任三星第九區黨部常委，縣黨部委員\n(因不適應社團活動55年退黨\n現職(況)：土地代書業務(自36年至現在)\n三星六一書法社顧問","remark":null,"image":"http://www.ntp.gov.tw/UpFile/CouncilorFile/TTCC0065.jpg","links":[{"url":"http://www.ntp.gov.tw/content/history/history01-5-p.aspx?sid=65","note":"議會個人官網"}],"social_media":null,"platform":"","param":null,"councilor":"3881658d088948cd8312878bfd42bda5"}],"uid":"3881658d088948cd8312878bfd42bda5","name":"劉金全","birth":null,"former_names":"","identifiers":["劉金全","劉金全"]}]}