{"count":1904,"next":"http://councils.g0v.tw/api/councilors/?page=8","previous":"http://councils.g0v.tw/api/councilors/?page=6","results":[{"url":"http://councils.g0v.tw/api/councilors/882/","each_terms":[{"url":"http://councils.g0v.tw/api/councilors_terms/1561/","election_year":"1953","name":"石益","gender":"","party":"","title":"議員","constituency":5,"county":"新北市","district":"汐止鎮、南港鎮、內湖鄉","in_office":true,"contact_details":null,"term_start":"1953-01-16","term_end":{"date":"1955-01-15"},"education":"日據時代南港公學校\n臺北州農業講習所實習農業技術檢定合格","experience":"臺灣旅浙同鄉會理事兼組訓組長\n內湖鄉鄉民代表\n南港副鎮長\n臺北縣租佃委員\n農會種畜場場長\n臺北市七星農田水利會代表\n體育會高齡會主委\n農會理監事\n中華民國武術會常務監事\n臺北縣議會第2、3屆議員\n民國98年12月10日歿","remark":null,"image":"http://www.ntp.gov.tw/UpFile/CouncilorFile/TTCC0231.jpg","links":[{"url":"http://www.ntp.gov.tw/content/history/history01-5-p.aspx?sid=138","note":"議會個人官網"}],"social_media":null,"platform":"","param":null,"councilor":"50f68a40bb60409d85b4699179d1fade"},{"url":"http://councils.g0v.tw/api/councilors_terms/1623/","election_year":"1955","name":"石益","gender":"","party":"","title":"議員","constituency":5,"county":"新北市","district":"汐止鎮、南港鎮、內湖鄉","in_office":true,"contact_details":null,"term_start":"1955-01-16","term_end":{"date":"1958-02-20"},"education":"日據時代南港公學校\n臺北州農業講習所實習農業技術檢定合格","experience":"臺灣旅浙同鄉會理事兼組訓組長\n內湖鄉鄉民代表\n南港副鎮長\n臺北縣租佃委員\n農會種畜場場長\n臺北市七星農田水利會代表\n體育會高齡會主委\n農會理監事\n中華民國武術會常務監事\n臺北縣議會第2、3屆議員\n民國98年12月10日歿","remark":null,"image":"http://www.ntp.gov.tw/UpFile/CouncilorFile/TTCC0231.jpg","links":[{"url":"http://www.ntp.gov.tw/content/history/history01-5-p.aspx?sid=138","note":"議會個人官網"}],"social_media":null,"platform":"","param":null,"councilor":"50f68a40bb60409d85b4699179d1fade"}],"uid":"50f68a40bb60409d85b4699179d1fade","name":"石益","birth":null,"former_names":"","identifiers":["石益"]},{"url":"http://councils.g0v.tw/api/councilors/1351/","each_terms":[{"url":"http://councils.g0v.tw/api/councilors_terms/2277/","election_year":"2009","name":"汪志敏","gender":"男","party":"","title":"","constituency":7,"county":"嘉義縣","district":"阿里山鄉","in_office":true,"contact_details":[{"type":"phone","value":"05-2168809 ","label":"電話"},{"type":"address","value":"嘉義市宣信街7-11號 ","label":"通訊處"},{"type":"email","value":"","label":"電子信箱"}],"term_start":"2009-12-25","term_end":{"date":"2014-12-25"},"education":"南華大學碩士畢業 ","experience":"一、第16屆嘉義縣議員。\n二、阿里山鄉民代表。 ","remark":null,"image":"http://www.cyscc.gov.tw/template/DisplaySmallPicture.ashx?p=/Upload/Parliamentary/5/634462652648150257.jpg&w=145&h=170","links":[{"url":"http://www.cyscc.gov.tw/chinese/Parliamentary_Detail.aspx?s=5&n=29","note":"議會個人官網"}],"social_media":null,"platform":"(一)督促政府迅速落實莫拉克風災後阿里山各部落、產業與觀光重建，從重建與永續的角度發展阿里山未來願景與鄒族文化，讓鄒族鄒而復始，萬象更新。\n(二)積極爭取於阿里山鄉各部落設立物資倉儲中心，以備緊急需要。\n(三)督促政府儘速落實河川與野溪疏濬工程，正視攔沙壩對山川及生態的危害，限期提出有效的解決辦法。\n(四)向政府積極爭取經費，儘速落實原鄉部落聯絡道路、橋梁、簡易自來水設施與基礎環境工作等家園重建工作。\n(五)落實轉型正義，以推動返還原住民傳統領域為起點，落實原住民保留地政策。\n(六)積極向政府爭取修改不合時宜的法令，除去部落發展限制，並爭取公平合理之補償及回饋機制。\n(七)推動原住民各項人才培育計畫，提昇族人競爭與文化藝術的傳承，建設具有鄒族人文特色的魅力原鄉。\n(八)改善原住民經濟劣勢環境，建立公平的就業機會與資源分配機制。\n(九)督促政府提高參與自然復育造林獎勵金，並確切落實水土保持國土復育工作。\n(十)強力要求制定都市原住民發展新策略，正視都市原住民生活困境，解決文化傳承、人才教育及求職創業需求。 ","param":{"bills_role_statistics":{"total":22,"priproposer":12,"sponsor":12,"cosponsor":10},"diversity":{"":1.0},"bills_party_diversity":[{"party":"","ratio":1.0}]},"councilor":"dde60889d5a147a2b5f5f357e483082f"}],"uid":"dde60889d5a147a2b5f5f357e483082f","name":"汪志敏","birth":null,"former_names":"","identifiers":["汪志敏"]},{"url":"http://councils.g0v.tw/api/councilors/156/","each_terms":[{"url":"http://councils.g0v.tw/api/councilors_terms/227/","election_year":"2002","name":"林定勇","gender":"男","party":"親民黨","title":"議員","constituency":null,"county":"臺北市","district":"","in_office":true,"contact_details":null,"term_start":"2002-12-25","term_end":{"date":"2006-12-25"},"education":"太平國小、成淵國中、建國中學、臺灣大學園藝系、臺灣大學園藝研究所碩士班、臺灣大學園藝研究所直攻博士班。","experience":"立法委員林郁方國會辦公室中山、大同區主任、下奎府文史研究室執行長、寧夏夜市自治會秘書、臺北市中山區體育會顧問、成淵中學百年校慶籌備委員、 中華民國文化關懷協會後補理事、臺北市立建國中學校友會理事、臺北市林氏宗親會顧問、福建安溪同鄉會顧問、臺北市體育會顧問。２０００年臺北年貨大街寧夏商圈活動總監。","remark":"","image":"http://www.tcc.gov.tw/../upload/photo/%E6%9E%97%E5%AE%9A%E5%8B%8717.bmp","links":[{"url":"http://www.tcc.gov.tw/Councilor_Content_All.aspx?s=1434&d=691024&n=%E6%9E%97%E5%AE%9A%E5%8B%87","note":"議會個人官網"}],"social_media":null,"platform":"","param":null,"councilor":"d7e3b3b3bae34a8ba658f368123acaaa"}],"uid":"d7e3b3b3bae34a8ba658f368123acaaa","name":"林定勇","birth":"1969-10-24","former_names":"","identifiers":["林定勇","林定勇"]},{"url":"http://councils.g0v.tw/api/councilors/157/","each_terms":[{"url":"http://councils.g0v.tw/api/councilors_terms/237/","election_year":"2002","name":"呂瀅瀅","gender":"女","party":"民主進步黨","title":"議員","constituency":null,"county":"臺北市","district":"","in_office":true,"contact_details":null,"term_start":"2002-12-25","term_end":{"date":"2006-12-25"},"education":"石牌國小、石牌國中、金甌女子高級中學、美國西太平洋大學學士班。","experience":"陳水扁總統競選指揮中心活動部專員、民進黨第十屆全國黨代表、芝麻街美語石牌教學中心主任、士林葫蘆國小家長會顧問、婦幼關懷協會執行長","remark":"","image":"http://www.tcc.gov.tw/../upload/photo/%E5%91%82%E7%80%85%E7%80%8517.bmp","links":[{"url":"http://www.tcc.gov.tw/Councilor_Content_All.aspx?s=1390&d=761014&n=%E5%91%82%E7%80%85%E7%80%85","note":"議會個人官網"}],"social_media":null,"platform":"","param":null,"councilor":"57736729741d4c1180f81c9def4817e8"}],"uid":"57736729741d4c1180f81c9def4817e8","name":"呂瀅瀅","birth":"1976-10-14","former_names":"","identifiers":["呂瀅瀅"]},{"url":"http://councils.g0v.tw/api/councilors/1624/","each_terms":[{"url":"http://councils.g0v.tw/api/councilors_terms/2550/","election_year":"2009","name":"楊慶汶","gender":"","party":"","title":"","constituency":6,"county":"苗栗縣","district":"卓蘭鎮、大湖鄉、獅潭鄉、泰安鄉","in_office":true,"contact_details":null,"term_start":"2009-12-25","term_end":{"date":"2014-12-25"},"education":null,"experience":null,"remark":null,"image":"http://www.mcc.gov.tw/admin/upload/small_news_201003131650250.jpg","links":[{"url":"http://www.mcc.gov.tw/imgtxt_list.php?menu=27&typeid=42&typeid2=671","note":"議會個人官網"}],"social_media":null,"platform":"","param":null,"councilor":"7c47f0a761fd43eeb94b9d817ba3afbf"}],"uid":"7c47f0a761fd43eeb94b9d817ba3afbf","name":"楊慶汶","birth":null,"former_names":"","identifiers":["楊慶汶"]},{"url":"http://councils.g0v.tw/api/councilors/1628/","each_terms":[{"url":"http://councils.g0v.tw/api/councilors_terms/2554/","election_year":"2009","name":"李貴富","gender":"","party":"","title":"","constituency":5,"county":"苗栗縣","district":"頭份鎮、南庄鄉、三灣鄉","in_office":true,"contact_details":null,"term_start":"2009-12-25","term_end":{"date":"2014-12-25"},"education":null,"experience":null,"remark":null,"image":"http://www.mcc.gov.tw/admin/upload/small_news_201003131649300.jpg","links":[{"url":"http://www.mcc.gov.tw/imgtxt_list.php?menu=27&typeid=42&typeid2=670","note":"議會個人官網"}],"social_media":null,"platform":"","param":null,"councilor":"abca246ad35744f9ae14e8706c8eaf7b"}],"uid":"abca246ad35744f9ae14e8706c8eaf7b","name":"李貴富","birth":null,"former_names":"","identifiers":["李貴富","李貴富"]},{"url":"http://councils.g0v.tw/api/councilors/79/","each_terms":[{"url":"http://councils.g0v.tw/api/councilors_terms/145/","election_year":"2006","name":"簡余晏","gender":"女","party":"民主進步黨","title":"議員","constituency":null,"county":"臺北市","district":"","in_office":true,"contact_details":null,"term_start":"2006-12-25","term_end":{"date":"2010-12-25"},"education":"政大新聞碩士、政大新聞學士、北一女中、台北市仁愛國中、台北市三興國小。","experience":"華視「五點現場」節目主持人、台灣藝術台、東森S台政論節目主持人、「台灣心聲」固定來賓、綠色和平電台、寶島新聲電台「台灣大國民」節目主持人、卓越新聞獎廣播主持人獎、東森新聞報副主任、中時、聯晚記者","remark":"","image":"http://www.tcc.gov.tw/../upload/photo/%E7%B0%A1%E4%BD%99%E6%99%8F.JPG","links":[{"url":"http://www.tcc.gov.tw/Councilor_Content_All.aspx?s=2280&d=670205&n=%E7%B0%A1%E4%BD%99%E6%99%8F","note":"議會個人官網"}],"social_media":null,"platform":"","param":null,"councilor":"11bdbcd6c1fe45b6a9eb6a315ddc9be4"},{"url":"http://councils.g0v.tw/api/councilors_terms/83/","election_year":"2010","name":"簡余晏","gender":"女","party":"民主進步黨","title":"議員","constituency":4,"county":"臺北市","district":"中山區、大同區","in_office":true,"contact_details":[{"type":"email","value":"ok@yuyen.tw","label":"電子信箱"},{"type":"voice","value":"2557065827297708#5003、5103","label":"電話"},{"type":"fax","value":"23459114","label":"傳真"},{"type":"address","value":"臺北市錦西街74-1號","label":"通訊處"}],"term_start":"2010-12-25","term_end":{"date":"2014-12-25"},"education":"三興國小、仁愛國中、北一女中、政大新聞系、政大新聞碩士","experience":"媒體資深記者、政治組長、電視、廣播政論節目主持人、第十屆台北市議員、FM89.3《快樂三口組》固定來賓","remark":"","image":"http://www.tcc.gov.tw/../upload/photo/%E7%B0%A1%E4%BD%99%E6%99%8F111.jpg","links":[{"url":"http://www.tcc.gov.tw/Councilor_Content.aspx?s=1060","note":"議會個人官網"},{"url":"http://www.yuyen.tw","note":"個人網站"}],"social_media":null,"platform":"活力環保、城市榮耀：\n以最堅定的意志監督，重視人與土地關係。\n關懷弱勢、清廉政治：\n站在人民這一邊對抗官僚，全面照護市民。\n挑動文化、活絡產業：\n重視歷史風貌，連結社區生活與文化觀光。\n維護人權、提倡多元：\n尊重多元文化，堅持言論自由及憲法人權。","param":{"bills_role_statistics":{"total":87,"priproposer":13,"sponsor":87,"cosponsor":0},"votes_decision_statistics":{"abstain":0,"disagree":11,"not_voting":9,"total":60,"agree":40,"conflict":2},"diversity":{"臺灣團結聯盟":0.03468587451044201,"親民黨":0.024448949695493574,"無黨籍":0.011926020799635038,"中國國民黨":0.2734966301921948,"新黨":0.01660615095547977,"民主進步黨":0.6388363738467548},"suggestions_years":{"count":31,"sum":24341137,"years":[{"count":3,"sum":9158000,"suggest_year":"2011","small_purchase":1},{"count":8,"sum":2992137,"suggest_year":"2012","small_purchase":3},{"count":10,"sum":6604000,"suggest_year":"2013","small_purchase":5},{"count":10,"sum":5587000,"suggest_year":"2014","small_purchase":3}]},"attendance_statistics":{"absent":1,"total":131},"suggestions_associations":[{"count":0,"sum":0,"label":"社區發展協會"},{"count":0,"sum":0,"label":"學會"},{"count":0,"sum":0,"label":"商會"},{"count":0,"sum":0,"label":"公會"},{"count":0,"sum":0,"label":"協進會"},{"count":0,"sum":0,"label":"促進會"},{"count":0,"sum":0,"label":"研習會"},{"count":0,"sum":0,"label":"婦聯會"},{"count":0,"sum":0,"label":"婦女會"},{"count":0,"sum":0,"label":"體育會"},{"count":0,"sum":0,"label":"同心會"},{"count":0,"sum":0,"label":"農會"},{"count":0,"sum":0,"label":"早起會"},{"count":0,"sum":0,"label":"健身會"},{"count":0,"sum":0,"label":"宗親會"},{"count":0,"sum":0,"label":"功德會"},{"count":0,"sum":0,"label":"商業會"},{"count":0,"sum":0,"label":"長青會"},{"count":0,"sum":0,"label":"民眾服務社"},{"count":0,"sum":0,"label":"聯盟"}],"bills_party_diversity":[{"party":"民主進步黨","ratio":0.5862717442407146},{"party":"中國國民黨","ratio":0.3215796897038082},{"party":"臺灣團結聯盟","ratio":0.028678890456041373},{"party":"親民黨","ratio":0.02538787023977433},{"party":"新黨","ratio":0.020216267042783263},{"party":"無黨籍","ratio":0.017865538316878232}],"suggestions_piles":[{"count":1,"tokens":"國中|國小","sum":4920000,"label":"國中、國小"},{"count":0,"tokens":"協會|學會|商會|公會|協進會|促進會|研習會|婦聯會|婦女會|體育會|同心會|農會|早起會|健身會|宗親會|功德會|商業會|長青會|民眾服務社|聯盟","sum":0,"label":"協會"},{"count":0,"tokens":"辦公室|辦公處","sum":0,"label":"辦公室"},{"count":0,"tokens":"廟|宮","sum":0,"label":"廟"},{"count":0,"tokens":"警察局|分局","sum":0,"label":"警察局"},{"count":0,"tokens":"消防局|消防隊|分隊|中隊","sum":0,"label":"消防局"}]},"councilor":"11bdbcd6c1fe45b6a9eb6a315ddc9be4"}],"uid":"11bdbcd6c1fe45b6a9eb6a315ddc9be4","name":"簡余晏","birth":"1967-02-05","former_names":"","identifiers":["簡余晏"]},{"url":"http://councils.g0v.tw/api/councilors/776/","each_terms":[{"url":"http://councils.g0v.tw/api/councilors_terms/1652/","election_year":"1955","name":"蔡金鐘","gender":"","party":"","title":"議員","constituency":2,"county":"新北市","district":"三峽鎮、鶯歌鎮、樹林鎮","in_office":true,"contact_details":null,"term_start":"1955-01-16","term_end":{"date":"1958-02-20"},"education":"日據時代公學校高等科","experience":"煤礦公司職員、總經理\n樹林鎮第3屆鎮民代表\n臺北縣總工會理事長\n臺灣省自治協會臺北縣分會理事長\n臺北縣議會第3、5、6屆議員\n臺北縣議會第4屆副議長\n*民國55年1月4日歿","remark":null,"image":"http://www.ntp.gov.tw/UpFile/CouncilorFile/TTCC0049.jpg","links":[{"url":"http://www.ntp.gov.tw/content/history/history01-5-p.aspx?sid=49","note":"議會個人官網"}],"social_media":null,"platform":"","param":null,"councilor":"2ac02291a56142acbac0e305425d59f1"},{"url":"http://councils.g0v.tw/api/councilors_terms/1728/","election_year":"1958","name":"蔡金鐘","gender":"","party":"","title":"副議長","constituency":2,"county":"新北市","district":"三峽鎮、鶯歌鎮、樹林鎮","in_office":true,"contact_details":null,"term_start":"1958-02-21","term_end":{"date":"1961-02-20"},"education":"日據時代公學校高等科","experience":"煤礦公司職員、總經理\n樹林鎮第3屆鎮民代表\n臺北縣總工會理事長\n臺灣省自治協會臺北縣分會理事長\n臺北縣議會第3、5、6屆議員\n臺北縣議會第4屆副議長\n*民國55年1月4日歿","remark":null,"image":"http://www.ntp.gov.tw/UpFile/CouncilorFile/TTCC0049.jpg","links":[{"url":"http://www.ntp.gov.tw/content/history/history01-5-p.aspx?sid=49","note":"議會個人官網"}],"social_media":null,"platform":"","param":null,"councilor":"2ac02291a56142acbac0e305425d59f1"},{"url":"http://councils.g0v.tw/api/councilors_terms/1790/","election_year":"1961","name":"蔡金鐘","gender":"","party":"","title":"議員","constituency":2,"county":"新北市","district":"三峽鎮、鶯歌鎮、樹林鎮","in_office":true,"contact_details":null,"term_start":"1961-02-21","term_end":{"date":"1964-02-20"},"education":"日據時代公學校高等科","experience":"煤礦公司職員、總經理\n樹林鎮第3屆鎮民代表\n臺北縣總工會理事長\n臺灣省自治協會臺北縣分會理事長\n臺北縣議會第3、5、6屆議員\n臺北縣議會第4屆副議長\n*民國55年1月4日歿","remark":null,"image":"http://www.ntp.gov.tw/UpFile/CouncilorFile/TTCC0049.jpg","links":[{"url":"http://www.ntp.gov.tw/content/history/history01-5-p.aspx?sid=49","note":"議會個人官網"}],"social_media":null,"platform":"","param":null,"councilor":"2ac02291a56142acbac0e305425d59f1"},{"url":"http://councils.g0v.tw/api/councilors_terms/1850/","election_year":"1964","name":"蔡金鐘","gender":"","party":"","title":"議員","constituency":2,"county":"新北市","district":"樹林鎮、鶯歌鎮、三峽鎮","in_office":true,"contact_details":null,"term_start":"1964-02-21","term_end":{"date":"1968-02-20"},"education":"日據時代公學校高等科","experience":"煤礦公司職員、總經理\n樹林鎮第3屆鎮民代表\n臺北縣總工會理事長\n臺灣省自治協會臺北縣分會理事長\n臺北縣議會第3、5、6屆議員\n臺北縣議會第4屆副議長\n*民國55年1月4日歿","remark":null,"image":"http://www.ntp.gov.tw/UpFile/CouncilorFile/TTCC0049.jpg","links":[{"url":"http://www.ntp.gov.tw/content/history/history01-5-p.aspx?sid=49","note":"議會個人官網"}],"social_media":null,"platform":"","param":null,"councilor":"2ac02291a56142acbac0e305425d59f1"},{"url":"http://councils.g0v.tw/api/councilors_terms/1426/","election_year":"1946","name":"蔡金鐘","gender":"","party":"","title":"議員","constituency":null,"county":"新北市","district":"","in_office":true,"contact_details":null,"term_start":"1946-04-15","term_end":{"date":"1950-12-31"},"education":"日據時代公學校高等科","experience":"煤礦公司職員、總經理\n樹林鎮第3屆鎮民代表\n臺北縣總工會理事長\n臺灣省自治協會臺北縣分會理事長\n臺北縣議會第3、5、6屆議員\n臺北縣議會第4屆副議長\n*民國55年1月4日歿","remark":null,"image":"http://www.ntp.gov.tw/UpFile/CouncilorFile/TTCC0049.jpg","links":[{"url":"http://www.ntp.gov.tw/content/history/history01-5-p.aspx?sid=49","note":"議會個人官網"}],"social_media":null,"platform":"","param":null,"councilor":"2ac02291a56142acbac0e305425d59f1"}],"uid":"2ac02291a56142acbac0e305425d59f1","name":"蔡金鐘","birth":null,"former_names":"","identifiers":["蔡金鐘"]},{"url":"http://councils.g0v.tw/api/councilors/777/","each_terms":[{"url":"http://councils.g0v.tw/api/councilors_terms/1427/","election_year":"1946","name":"陳義方","gender":"","party":"","title":"議員","constituency":null,"county":"新北市","district":"","in_office":true,"contact_details":null,"term_start":"1946-04-15","term_end":{"date":"1950-12-31"},"education":"日語學校畢業。","experience":"莊協議會議員","remark":null,"image":"http://www.ntp.gov.tw/UpFile/CouncilorFile/TTCC0048.jpg","links":[{"url":"http://www.ntp.gov.tw/content/history/history01-5-p.aspx?sid=48","note":"議會個人官網"}],"social_media":null,"platform":"","param":null,"councilor":"7bbcf84f85c04bb68ecaeeeb3df068bd"}],"uid":"7bbcf84f85c04bb68ecaeeeb3df068bd","name":"陳義方","birth":null,"former_names":"","identifiers":["陳義方"]},{"url":"http://councils.g0v.tw/api/councilors/779/","each_terms":[{"url":"http://councils.g0v.tw/api/councilors_terms/1429/","election_year":"1946","name":"曹賜固","gender":"","party":"","title":"議員","constituency":null,"county":"新北市","district":"","in_office":true,"contact_details":null,"term_start":"1946-04-15","term_end":{"date":"1950-12-31"},"education":"八芝蘭公學第19屆畢9.3-\n臺灣總府臺北師範14.3-\n日本岩手醫專畢業24.3-\n民國25年10月開業，士林診所。","experience":"臺灣省醫師公會監事\n陽明山醫師公會理事長\n陽明山黨部紀律委員\n陽明山信用合作社籌備委員，理事\n陽明山管理局顧問","remark":null,"image":"http://www.ntp.gov.tw/UpFile/CouncilorFile/TTCC0046.jpg","links":[{"url":"http://www.ntp.gov.tw/content/history/history01-5-p.aspx?sid=46","note":"議會個人官網"}],"social_media":null,"platform":"","param":null,"councilor":"2949f90b112f4843a66ec93ea0aa8b59"}],"uid":"2949f90b112f4843a66ec93ea0aa8b59","name":"曹賜固","birth":null,"former_names":"","identifiers":["曹賜固"]}]}