{"count":1904,"next":"http://councils.g0v.tw/api/councilors/?page=71","previous":"http://councils.g0v.tw/api/councilors/?page=69","results":[{"url":"http://councils.g0v.tw/api/councilors/929/","each_terms":[{"url":"http://councils.g0v.tw/api/councilors_terms/1664/","election_year":"1958","name":"周毅","gender":"","party":"","title":"議員","constituency":9,"county":"新北市","district":"新店鎮、景美鎮、木柵鄉、深坑鄉、石碇鄉、坪林鄉","in_office":true,"contact_details":null,"term_start":"1958-02-21","term_end":{"date":"1961-02-20"},"education":"中央陸軍軍官學校政治科\n革命實踐研究院3期","experience":"婦女指導委員會戰地服務大隊第六隊隊長\n重慶衛戍總司令部婦女習藝所少校所長\n青年遠征軍二○四師女青年軍中校大隊長\n苗栗農業職業學校\n臺北縣立文山中學教員\n臺北縣議會第4屆議員","remark":null,"image":"http://www.ntp.gov.tw/UpFile/CouncilorFile/TTCC0476.jpg","links":[{"url":"http://www.ntp.gov.tw/content/history/history01-5-p.aspx?sid=224","note":"議會個人官網"}],"social_media":null,"platform":"","param":null,"councilor":"9182b711f992472096191a8e8c475ba0"}],"uid":"9182b711f992472096191a8e8c475ba0","name":"周毅","birth":null,"former_names":"","identifiers":["周毅"]},{"url":"http://councils.g0v.tw/api/councilors/1111/","each_terms":[{"url":"http://councils.g0v.tw/api/councilors_terms/2037/","election_year":"2009","name":"陳來賜","gender":"","party":"中國國民黨","title":"議員","constituency":13,"county":"宜蘭縣","district":"平地原住民","in_office":true,"contact_details":[{"type":"address","value":"羅東鎮天祥路353號","label":"服務處所"},{"type":"voice","value":"9898461","label":"服務處所電話"}],"term_start":"2009-12-25","term_end":{"date":"2014-12-25"},"education":"花蓮縣水產漁業學校畢業","experience":"宜蘭縣議會第十七屆議員。\n一、宜蘭縣三星鄉原住民族發展協進會理事長。\n二、宜蘭縣原住民族總頭目。\n三、中華民國原住民族福利暨權益促進會第一屆理事長。\n四、行政院退除役官兵榮工事業部技士。\n五、台北縣原住民族總頭目。\n六、行政院原住民社會團體非營利組織課程結業。","remark":null,"image":"http://www.ilcc.gov.tw/pictures/people/A1734.JPG","links":[{"url":"http://www.ilcc.gov.tw/Html/H_05/H_0501.asp?GoOut=&pic=13&clique=KMT&User_id=A1734","note":"議會個人官網"}],"social_media":null,"platform":"一、爭取宜蘭縣原住民族活動中心（聚會所）可做為培養教育、文化、交流\n平台的場所或保存原住民之傳承歷史文物等。\n二、爭取原住民子女就學獎學金，以資鼓勵子女有向上努力學習的機會，與\n一般人區隔分別計算。\n三、爭取原住民在政府公共領域內之事物上有優先分配就業保障的機會。\n四、在教育、文化、社團法人等活動方面能單獨編列預算，俾提昇原住民社\n經地位與尊嚴。\n五、提振原住民族族語在宜蘭縣普及化，以增進競爭就學的機會。\n六、爭取宜蘭縣原住民族有納保意外險的制度，以維持生活安全的保障。\n七、成立原住民族事業合作社（農、漁、土木、運輸）等，將自己努力的商\n品自己銷售或在政府公共工程優先參與，以增加就業率提升，不要經過\n另一通路，完全自立，以免被剝削。\n八、原住民族在宜蘭縣境內從事農業購買器具能優惠補助，以利增進在地生\n產力。另漁業方面購買船隻、修護、保養等方面能受到政府重視與補貼\n政策。","param":{"bills_role_statistics":{"total":135,"priproposer":3,"sponsor":3,"cosponsor":132},"diversity":{"中國國民黨":0.6768410045755582,"民主進步黨":0.23606007745307392,"無黨籍":0.0870989179713676},"bills_party_diversity":[{"party":"中國國民黨","ratio":0.60084388185654},{"party":"民主進步黨","ratio":0.2911392405063291},{"party":"無黨籍","ratio":0.1080168776371308}]},"councilor":"ba34578ce68b4806af2a102d10447e22"}],"uid":"ba34578ce68b4806af2a102d10447e22","name":"陳來賜","birth":null,"former_names":"","identifiers":["陳來賜"]},{"url":"http://councils.g0v.tw/api/councilors/536/","each_terms":[{"url":"http://councils.g0v.tw/api/councilors_terms/919/","election_year":"1977","name":"王登貴","gender":"","party":"","title":"議員","constituency":3,"county":"新北市","district":"三重市、新莊鎮、泰山鄉、五股鄉、蘆洲鄉、林口鄉","in_office":true,"contact_details":null,"term_start":"1977-12-30","term_end":{"date":"1982-02-28"},"education":"林口國小畢業\n新莊初中畢業\n格致高商","experience":"臺北縣林口鄉民代表會副主席\n調解委員會主席\n救國團委員會常委\n林口國際獅子會會長\n中崙開發公司負責人\n貴發交通公司負責人\n國際獅子會三○○Ｂ區第二專區主席\n新會發展委員會主席、助理監督\n臺北縣議會第9、10屆縣議員","remark":null,"image":"http://www.ntp.gov.tw/UpFile/CouncilorFile/TTCC0938.jpg","links":[{"url":"http://www.ntp.gov.tw/content/history/history01-5-p.aspx?sid=345","note":"議會個人官網"}],"social_media":null,"platform":"","param":null,"councilor":"77574c3e06e14deeb5646ac2d075e67b"},{"url":"http://councils.g0v.tw/api/councilors_terms/1038/","election_year":"1982","name":"王登貴","gender":"","party":"","title":"議員","constituency":5,"county":"新北市","district":"新莊市、泰山鄉、五股鄉、林口鄉","in_office":true,"contact_details":null,"term_start":"1982-03-01","term_end":{"date":"1986-02-28"},"education":"林口國小畢業\n新莊初中畢業\n格致高商","experience":"臺北縣林口鄉民代表會副主席\n調解委員會主席\n救國團委員會常委\n林口國際獅子會會長\n中崙開發公司負責人\n貴發交通公司負責人\n國際獅子會三○○Ｂ區第二專區主席\n新會發展委員會主席、助理監督\n臺北縣議會第9、10屆縣議員","remark":null,"image":"http://www.ntp.gov.tw/UpFile/CouncilorFile/TTCC0938.jpg","links":[{"url":"http://www.ntp.gov.tw/content/history/history01-5-p.aspx?sid=345","note":"議會個人官網"}],"social_media":null,"platform":"","param":null,"councilor":"77574c3e06e14deeb5646ac2d075e67b"}],"uid":"77574c3e06e14deeb5646ac2d075e67b","name":"王登貴","birth":null,"former_names":"","identifiers":["王登貴"]},{"url":"http://councils.g0v.tw/api/councilors/537/","each_terms":[{"url":"http://councils.g0v.tw/api/councilors_terms/925/","election_year":"1977","name":"陳余寶珠","gender":"","party":"","title":"議員","constituency":3,"county":"新北市","district":"三重市、新莊鎮、泰山鄉、五股鄉、蘆洲鄉、林口鄉","in_office":true,"contact_details":null,"term_start":"1977-12-30","term_end":{"date":"1982-02-28"},"education":"東海中學畢業","experience":"五股鄉第8屆鄉民代表\n第9、10屆代表會副主席\n五股鄉調解委員\n兵役協會常委\n婦女會理事\n臺北縣議會第9屆議員","remark":null,"image":"http://www.ntp.gov.tw/UpFile/CouncilorFile/TTCC0937.jpg","links":[{"url":"http://www.ntp.gov.tw/content/history/history01-5-p.aspx?sid=344","note":"議會個人官網"}],"social_media":null,"platform":"","param":null,"councilor":"482548792cdb4f79a640b7deb68e2ab3"}],"uid":"482548792cdb4f79a640b7deb68e2ab3","name":"陳余寶珠","birth":null,"former_names":"","identifiers":["陳余寳珠","陳余寶珠"]},{"url":"http://councils.g0v.tw/api/councilors/1385/","each_terms":[{"url":"http://councils.g0v.tw/api/councilors_terms/2311/","election_year":"2009","name":"黃正男","gender":"男","party":"民主進步黨","title":"","constituency":2,"county":"嘉義市","district":"西區","in_office":true,"contact_details":[{"type":"address","value":"嘉義市西區香湖里6鄰文化路550號","label":"通訊處"},{"type":"voice","value":"05-2326776　　","label":"電話"}],"term_start":"2009-12-25","term_end":{"date":"2014-12-25"},"education":"吳鳳技術學院二專部國貿科畢業。","experience":"現任：嘉義市議會議員、民進黨嘉義市黨部主任委員、嘉義市雲林同鄉會理事長、中華民國柔道總會常務理事\n曾任：2008年謝長廷競選總統嘉義市競選總幹事、民進黨第八屆中央執行委員、民進黨全國主委聯誼會會長、嘉義縣第九、十屆縣議員、嘉義市議會第一、二、三、四、五、六屆議員，民進黨嘉義市黨部第六、七、九、十屆主任委員","remark":null,"image":"http://www.cycc.gov.tw/files/b/%E9%BB%83%E6%AD%A3%E7%94%B7%281%29.jpg","links":[{"url":"http://www.cycc.gov.tw/form1/index-2.asp?m=99&m1=4&m2=15&mode=2&id=15","note":"議會個人官網"}],"social_media":null,"platform":"一、配合市府爭取中央資源，有效投入社區建設，推動社會福利措施，滿足眾人需求\n二、督促市府開闢道路時應設置公共管線共同管道，提高管理效率與防災，維護道路、市容觀瞻\n三、督促市府全面規設無障礙設施空間，為身障者謀求最高福祉\n四、嚴格監督市政品質與實質成效，杜絕預算、資源浪費，全力為市庫把關\n五、促衛生單位落實各項預期功能，以確保市民醫療、照護品質\n六、關懷照顧老、弱、婦、幼，督促政府落實各項福利及相關政策措施\n七、促市府爭取高科技進駐、設廠，振興農工商業，開發旅遊休憩、風景區，增進觀光旅遊業，以突破幅員狹小，發展受限之瓶頸\n八、改善各國中小學教學設施，有效率降低中輟生，加強推展社會、家庭「多元型態中介教育」措施，全面提升市民生活文教素質\n九、爭取提高警消人員加勤費及獎勵金，充實器材設備\n十、督促改善「BRT」市區段行車作業系統","param":{"bills_role_statistics":{"total":9,"priproposer":0,"sponsor":0,"cosponsor":9},"diversity":{"中國國民黨":0.30516651104886394,"民主進步黨":0.37835875090777044,"臺灣團結聯盟":0.11235605353252409,"無黨籍":0.20411868451084134}},"councilor":"570616ff5f00485ebc7749d516d450d2"}],"uid":"570616ff5f00485ebc7749d516d450d2","name":"黃正男","birth":null,"former_names":"","identifiers":["黄正男","黃正男"]},{"url":"http://councils.g0v.tw/api/councilors/580/","each_terms":[{"url":"http://councils.g0v.tw/api/councilors_terms/991/","election_year":"1986","name":"李文彬","gender":"","party":"","title":"議員","constituency":4,"county":"新北市","district":"三重市、蘆洲鄉","in_office":true,"contact_details":null,"term_start":"1986-03-01","term_end":{"date":"1990-02-28"},"education":"蘆洲國小\n大同中學\n省立建國中學\n國立中興大學企業管理系畢業","experience":"蘆洲第8、9屆鄉長\n蘆洲後備軍人輔導中心主任\n臺北縣議會第11屆議員","remark":null,"image":"http://www.ntp.gov.tw/UpFile/CouncilorFile/TTCC1134.jpg","links":[{"url":"http://www.ntp.gov.tw/content/history/history01-5-p.aspx?sid=400","note":"議會個人官網"}],"social_media":null,"platform":"","param":null,"councilor":"a3dd47ab34ba4a928db06e672450fdf9"}],"uid":"a3dd47ab34ba4a928db06e672450fdf9","name":"李文彬","birth":null,"former_names":"","identifiers":["李文彬","李文彬"]},{"url":"http://councils.g0v.tw/api/councilors/953/","each_terms":[{"url":"http://councils.g0v.tw/api/councilors_terms/1723/","election_year":"1958","name":"林見銓","gender":"","party":"","title":"議員","constituency":2,"county":"新北市","district":"三峽鎮、鶯歌鎮、樹林鎮","in_office":true,"contact_details":null,"term_start":"1958-02-21","term_end":{"date":"1961-02-20"},"education":"日據時代國校畢業","experience":"里長\n警民協會三峽支部理事\n臺北縣議會第4屆議員","remark":null,"image":"http://www.ntp.gov.tw/UpFile/CouncilorFile/TTCC0417.jpg","links":[{"url":"http://www.ntp.gov.tw/content/history/history01-5-p.aspx?sid=193","note":"議會個人官網"}],"social_media":null,"platform":"","param":null,"councilor":"b8ad364a23db44d08c4335e964f0586b"}],"uid":"b8ad364a23db44d08c4335e964f0586b","name":"林見銓","birth":null,"former_names":"","identifiers":["林見銓","林見銓"]},{"url":"http://councils.g0v.tw/api/councilors/954/","each_terms":[{"url":"http://councils.g0v.tw/api/councilors_terms/1724/","election_year":"1958","name":"陳進來","gender":"","party":"","title":"議員","constituency":2,"county":"新北市","district":"三峽鎮、鶯歌鎮、樹林鎮","in_office":true,"contact_details":null,"term_start":"1958-02-21","term_end":{"date":"1961-02-20"},"education":"國校畢業","experience":"三峽鎮第4、5屆鎮民代表\n臺北縣議會第4屆議員","remark":null,"image":"http://www.ntp.gov.tw/UpFile/CouncilorFile/TTCC0416.jpg","links":[{"url":"http://www.ntp.gov.tw/content/history/history01-5-p.aspx?sid=192","note":"議會個人官網"}],"social_media":null,"platform":"","param":null,"councilor":"2f515737fbb14a03a025debe3c74b4ba"}],"uid":"2f515737fbb14a03a025debe3c74b4ba","name":"陳進來","birth":null,"former_names":"","identifiers":["陳進來"]},{"url":"http://councils.g0v.tw/api/councilors/960/","each_terms":[{"url":"http://councils.g0v.tw/api/councilors_terms/1745/","election_year":"1961","name":"劉宗開","gender":"","party":"","title":"議員","constituency":9,"county":"新北市","district":"新店鎮、景美鎮、木柵鄉、深坑鄉、石碇鄉、坪林鄉","in_office":true,"contact_details":null,"term_start":"1961-02-21","term_end":{"date":"1964-02-20"},"education":"臺北夜間中學\n臺灣總督府警察官、司獄官練習所畢業","experience":"新店街協議會員\n信用購買販賣利用組合長\n新店鎮民代表\n民眾服務站理事長\n租佃及調解委員會委員\n臺北縣農會評議委員\n兵役協會新店分會主任委員\n臺灣省?公農田水利會會員代表\n臺北縣議會第5屆議員","remark":null,"image":"http://www.ntp.gov.tw/UpFile/CouncilorFile/TTCC0558.jpg","links":[{"url":"http://www.ntp.gov.tw/content/history/history01-5-p.aspx?sid=246","note":"議會個人官網"}],"social_media":null,"platform":"","param":null,"councilor":"33c7b15b93f84b529c94f599161a9b4b"}],"uid":"33c7b15b93f84b529c94f599161a9b4b","name":"劉宗開","birth":null,"former_names":"","identifiers":["劉宗開","劉宗開"]},{"url":"http://councils.g0v.tw/api/councilors/961/","each_terms":[{"url":"http://councils.g0v.tw/api/councilors_terms/1747/","election_year":"1961","name":"孫拔吾","gender":"","party":"","title":"議員","constituency":9,"county":"新北市","district":"新店鎮、景美鎮、木柵鄉、深坑鄉、石碇鄉、坪林鄉","in_office":true,"contact_details":null,"term_start":"1961-02-21","term_end":{"date":"1964-02-20"},"education":"上海法學院畢業\n中訓團黨政班結業\n中訓團軍法班結業","experience":"甘肅省政府視察室主任\n中央警校駐蘭州特訓班教官\n國防部第1區軍法執行部少將副主任兼檢察處長\n國防部軍法局少將處（組）長\n國防部軍法局辦公室主任\n國防部少將高參\n臺灣鋁業公司顧問\n臺北縣議會第5屆議員","remark":null,"image":"http://www.ntp.gov.tw/UpFile/CouncilorFile/TTCC0556.jpg","links":[{"url":"http://www.ntp.gov.tw/content/history/history01-5-p.aspx?sid=245","note":"議會個人官網"}],"social_media":null,"platform":"","param":null,"councilor":"d2ba8182dc1347878e5f73cf095f88b3"}],"uid":"d2ba8182dc1347878e5f73cf095f88b3","name":"孫拔吾","birth":null,"former_names":"","identifiers":["孫拔吾"]}]}