{"count":1904,"next":"http://councils.g0v.tw/api/councilors/?page=74","previous":"http://councils.g0v.tw/api/councilors/?page=72","results":[{"url":"http://councils.g0v.tw/api/councilors/1121/","each_terms":[{"url":"http://councils.g0v.tw/api/councilors_terms/2981/","election_year":"2014","name":"游祥德","gender":"男","party":"民主進步黨","title":"議員","constituency":8,"county":"宜蘭縣","district":"冬山","in_office":true,"contact_details":[{"type":"voice","value":"9591027","label":"服務處所電話"},{"type":"address","value":"冬山鄉冬山路1段767號","label":"服務處所"}],"term_start":"2014-12-25","term_end":{"date":"2018-12-25"},"education":"羅商高職","experience":"農、造林工、信大水泥、台灣水泥員工、冬山國中、小家長會長、冬山國小遷\n校委員會召集人、教育基金會董事長、宜蘭縣民防大隊顧問、冬山鄉第十三、\n十四屆鄉民代表、十五屆副主席、宜蘭縣議會第十四、十五、十六、十七屆議\n員，歷屆民進黨提名候選人冬山鄉總負責人。","remark":null,"image":"http://www.ilcc.gov.tw/pictures/people/A1824.JPG","links":[{"url":"http://www.ilcc.gov.tw/Html/H_05/H_0501.asp?GoOut=&pic=8&clique=DDP&User_id=A1824","note":"議會個人官網"}],"social_media":null,"platform":"一、鄉內易淹水地區繼續爭取抽水站。\n二、爭取都市計畫下水道興建。\n三、鄉道義成路、梅花路、梅林路、富農路等道路爭取拓寬及老舊橋樑爭取改\n建。\n四、適時反應勞工心聲、關懷弱勢、社會福利人性化。\n五、社團及社區經費補助合理化。\n六、順安都市計畫、羅東擴大都市計畫、梅花湖風景區等配合縣發展目標適時\n檢討。\n七、擴大冬山火車站周邊都市計畫繁榮地方。\n八、農業發展提高競爭力，政府應加強輔導行銷、輔導有機及無毒農業生產。\n九、非都市土地一般農業區申請建照應免附搭排同意書，以符實際。\n十、大進、中山地區灌溉用水爭取縣府補助抽水站、免受乾旱災害。\n十一、加速風景區公共設施興建，持續爭取冬山森林公園經費興建。\n十二、爭取廣興地區都計畫可繁榮地方，改善假日交通壅塞問題。","param":{"attendance_statistics":{"absent":5,"total":262},"bills_role_statistics":{"total":89,"priproposer":2,"sponsor":3,"cosponsor":86},"bills_party_diversity":[{"party":"民主進步黨","ratio":0.5241264559068219},{"party":"中國國民黨","ratio":0.23544093178036607},{"party":"在野問政聯盟","ratio":0.12312811980033278},{"party":"無黨籍","ratio":0.11730449251247921}]},"councilor":"ff378d7e36f248a6aa5654c39e8e51c7"},{"url":"http://councils.g0v.tw/api/councilors_terms/2047/","election_year":"2009","name":"游祥德","gender":"","party":"民主進步黨","title":"議員","constituency":8,"county":"宜蘭縣","district":"冬山","in_office":true,"contact_details":[{"type":"address","value":"冬山鄉義成路一段367號","label":"服務處所"},{"type":"voice","value":"9591027","label":"服務處所電話"}],"term_start":"2009-12-25","term_end":{"date":"2014-12-25"},"education":"羅商高職畢業","experience":"宜蘭縣議會第十七屆議員。\n農、造林工、信大、台泥員工\n社會經歷：\n太和社區理事長、冬山國中、小家長會長、冬山國小遷校委員會加集人\n教育基金會董事長、開山宮管理委員會主任委員、宜蘭縣民防大隊顧問\n政治經歷：\n歷任政治前輩助選員、冬山鄉第十三、十四屆鄉民代表、第十五屆副主席、\n宜蘭縣議會第十四、十五、十六屆議員","remark":null,"image":"http://www.ilcc.gov.tw/pictures/people/A1723.JPG","links":[{"url":"http://www.ilcc.gov.tw/Html/H_05/H_0501.asp?GoOut=&pic=8&clique=DDP&User_id=A1723","note":"議會個人官網"}],"social_media":null,"platform":"一、徹底解決鄉內淹水問題。\n二、爭取都市計劃下水道興建。\n三、高速公路側車道延伸至香中路。\n四、鄉道義成、梅花、梅林、富農等道路拓寬爭取。\n五、老舊橋梁義成橋、茄苳橋改建。\n六、落實丸山史前博物館興建。\n七、適時反應勞工、弱勢族群的心聲。\n八、88水災後，全面檢討治山防洪功能及爭取經費加固整治。\n九、爭取自來水普及化。\n十、社區、社團經費補助合理化。\n十一、社會救助人性化。\n十二、適時反應冬山順安及擴大羅東都市計劃、鄉民的建設及梅花湖風景特\n定區檢討。\n十三、爭取鄉內主要道路及社區電力地下化。\n十四、繼續爭取鄉內風景區開發及加速森林公園興建。","param":{"bills_role_statistics":{"total":112,"priproposer":7,"sponsor":11,"cosponsor":101},"diversity":{"中國國民黨":0.33132880966214323,"民主進步黨":0.48829334535216923,"無黨籍":0.18037784498568793},"bills_party_diversity":[{"party":"民主進步黨","ratio":0.4829222011385199},{"party":"中國國民黨","ratio":0.349146110056926},{"party":"無黨籍","ratio":0.16793168880455409}]},"councilor":"ff378d7e36f248a6aa5654c39e8e51c7"}],"uid":"ff378d7e36f248a6aa5654c39e8e51c7","name":"游祥德","birth":null,"former_names":"","identifiers":["游祥德"]},{"url":"http://councils.g0v.tw/api/councilors/1116/","each_terms":[{"url":"http://councils.g0v.tw/api/councilors_terms/2042/","election_year":"2009","name":"陳鴻禧","gender":"","party":"中國國民黨","title":"議員","constituency":6,"county":"宜蘭縣","district":"羅東","in_office":true,"contact_details":[{"type":"address","value":"羅東鎮光武街53號","label":"服務處所"},{"type":"voice","value":"9513077","label":"服務處所電話"},{"type":"email","value":"chen.chs@msa.hinet.net","label":"E-mail"}],"term_start":"2009-12-25","term_end":{"date":"2014-12-25"},"education":"復興工專二年制土木科畢","experience":"宜蘭縣議會第十七屆議員。\n第十六屆宜蘭縣議員。\n第十六、十七屆羅東鎮民代表。\n北成社區發展協會總幹事。\n北成社區守望相助隊隊長。\n宜蘭縣建築爭議事件評審委員。\n羅東游泳會理事長。\n宜蘭縣水上安全救生協會理事長。\n中原大學工地主任班結業。\n中央大學品管工程師班結業。","remark":null,"image":"http://www.ilcc.gov.tw/pictures/people/A1715.JPG","links":[{"url":"http://www.ilcc.gov.tw/Html/H_05/H_0501.asp?GoOut=&pic=6&clique=KMT&User_id=A1715","note":"議會個人官網"}],"social_media":null,"platform":"一、敦促第二文化中心設置地下停車場。\n二、爭取羅東運動公園內設置大型體育館。\n三、敦促歪仔歪排水系統導入羅東溪，以免造成市區淹水。\n四、敦促政府持續推動精緻農業。\n五、解決羅東市區及新群地區淹水問題，全力促成、打那岸圳整治及月眉截\n水溝，水閘門及抽水站設置。\n六、督促縣府早日完成羅東鎮周邊保護區、工業區開發案、竹林都市計劃案\n及東區都市計劃開發案。\n七、因應北宜高通車後，以個人專業知識，督促擴建增設之各項公共建設工\n程品質。\n八、竭誠為民喉舌，便民利民，為弱勢族群爭取應有福利，充分反應民意。","param":{"bills_role_statistics":{"total":191,"priproposer":12,"sponsor":18,"cosponsor":173},"diversity":{"中國國民黨":0.6663192370224916,"民主進步黨":0.2250863445140415,"無黨籍":0.10859441846346654},"bills_party_diversity":[{"party":"中國國民黨","ratio":0.6217127444369521},{"party":"民主進步黨","ratio":0.2609575185434929},{"party":"無黨籍","ratio":0.11732973701955496}]},"councilor":"c426c58700334c0c8218f0e25cee3ec5"},{"url":"http://councils.g0v.tw/api/councilors_terms/2982/","election_year":"2014","name":"陳鴻禧","gender":"男","party":"中國國民黨","title":"議員","constituency":6,"county":"宜蘭縣","district":"羅東","in_office":true,"contact_details":[{"type":"email","value":"175999@gmail.com","label":"E-mail"},{"type":"voice","value":"9513077","label":"服務處所電話"},{"type":"address","value":"羅東鎮光武街53號","label":"服務處所"}],"term_start":"2014-12-25","term_end":{"date":"2018-12-25"},"education":"佛光大學公共事務研究所","experience":"1.第十六、十七屆羅東鎮民代表。\n2.第十六、十七屆宜蘭縣議員。\n3.北成社區發展協會總幹事。\n4.北成社區巡守隊隊長。\n5.宜蘭縣水上救生協會理事長。\n6.宜蘭縣羅東游泳會理事長。\n7.宜蘭縣青溪協會理事長。\n8.愛健康全人會理事長。\n9.宜蘭縣體育會常務理事。\n10.宜蘭縣體育會帆船委員會主委。","remark":null,"image":"http://www.ilcc.gov.tw/pictures/people/A1820.JPG","links":[{"url":"http://www.ilcc.gov.tw/Html/H_05/H_0501.asp?GoOut=&pic=6&clique=KMT&User_id=A1820","note":"議會個人官網"}],"social_media":null,"platform":"一、把關縣政：督策建設品質、嚴審財政預算。\n二、竭誠服務：為弱勢發聲、為鄉民解困。","param":{"attendance_statistics":{"absent":1,"total":262},"bills_role_statistics":{"total":184,"priproposer":30,"sponsor":30,"cosponsor":154},"bills_party_diversity":[{"party":"中國國民黨","ratio":0.4123767798466594},{"party":"民主進步黨","ratio":0.3099671412924425},{"party":"在野問政聯盟","ratio":0.16374589266155531},{"party":"無黨籍","ratio":0.11391018619934283}]},"councilor":"c426c58700334c0c8218f0e25cee3ec5"}],"uid":"c426c58700334c0c8218f0e25cee3ec5","name":"陳鴻禧","birth":null,"former_names":"","identifiers":["陳鴻禧"]},{"url":"http://councils.g0v.tw/api/councilors/1722/","each_terms":[{"url":"http://councils.g0v.tw/api/councilors_terms/2853/","election_year":"2014","name":"羅貴星","gender":"男","party":"民主進步黨","title":"議員","constituency":2,"county":"苗栗縣","district":"三義鄉、銅鑼鄉、西湖鄉","in_office":true,"contact_details":[{"type":"address","value":"360苗栗縣苗栗市玉華里玉清路351號","label":"服務處"},{"type":"voice","value":"037-875568","label":"連絡電話"}],"term_start":"2015-09-16","term_end":{"date":"2018-12-25"},"education":"國立勤益科技大學碩士","experience":"現任:  ※三義鄉鄉民代表  ※三義鄉農會理事  ※苗栗縣三義鄉水美商圈產業發展協會理事長  ※台灣身心障礙服務研究發展協會理事  ※苗栗縣客家文化發展協會理事  ※苗栗縣體育總會跆拳道委員會副主任委員  ※三義鄉義消、義警、民防、老人會、後憲顧問※三義鄉大圳面福德祠副主任委員  曾任:  ※三義鄉觀光文化發展協會理事長","remark":null,"image":"http://www.mcc.gov.tw/admin/upload/small_twgov_img_201511220014051.jpg","links":[{"url":"http://www.mcc.gov.tw/imgtxt_list.php?menu=2568&typeid=2580&typeid2=2600","note":"議會個人官網"}],"social_media":null,"platform":"","param":{"bills_role_statistics":{"total":55,"priproposer":31,"sponsor":32,"cosponsor":23},"bills_party_diversity":[{"party":"民主進步黨","ratio":0.6710526315789473},{"party":"中國國民黨","ratio":0.17763157894736842},{"party":"無黨籍","ratio":0.1513157894736842}]},"councilor":"93b724cce24146958a68f1c1e8142184"}],"uid":"93b724cce24146958a68f1c1e8142184","name":"羅貴星","birth":null,"former_names":"","identifiers":["羅貴星"]},{"url":"http://councils.g0v.tw/api/councilors/564/","each_terms":[{"url":"http://councils.g0v.tw/api/councilors_terms/973/","election_year":"1986","name":"林松","gender":"","party":"","title":"議員","constituency":6,"county":"新北市","district":"淡水鎮、八里鄉、三芝鄉、石門鄉","in_office":true,"contact_details":null,"term_start":"1986-03-01","term_end":{"date":"1990-02-28"},"education":"淡水國小畢業\n稻江商職高級部畢","experience":"淡水一信副總經理\n大屯高爾夫球場總經理\n縣黨部文宣委員\n區黨部委員\n民眾服務社常務理事\n省立淡水工商家長會長\n淡水國小\n淡水國中家長會長\n淡水鎮兵役協會委員\n淡水青年反共救國團委員\n後備軍人輔導員\n淡水及臺北市大同青年商會顧問\n淡水國際獅子會秘書\n常務理事\n淡水梅花保齡球俱樂部創會會長\n淡水一信附設一信幼稚園董事\n臺北縣兵役協會委員\n臺北縣議會第11屆議員","remark":null,"image":"http://www.ntp.gov.tw/UpFile/CouncilorFile/TTCC1152.jpg","links":[{"url":"http://www.ntp.gov.tw/content/history/history01-5-p.aspx?sid=408","note":"議會個人官網"}],"social_media":null,"platform":"","param":null,"councilor":"317372c9b61d4c49b1a186df4a9189e9"}],"uid":"317372c9b61d4c49b1a186df4a9189e9","name":"林松","birth":null,"former_names":"","identifiers":["林松","林松"]},{"url":"http://councils.g0v.tw/api/councilors/582/","each_terms":[{"url":"http://councils.g0v.tw/api/councilors_terms/994/","election_year":"1986","name":"陳汝淮","gender":"","party":"","title":"議員","constituency":3,"county":"新北市","district":"樹林鎮、鶯歌鎮、三峽鎮","in_office":true,"contact_details":null,"term_start":"1986-03-01","term_end":{"date":"1990-02-28"},"education":"樹林國小\n開南商工職校高級部建築科畢\n臺北工業職業學校技士技副研究班結業\n考試院31年特考建築工程及格技副\n考試院交通人員高員技術類檢覆及格\n交通部戰地幹部班6期","experience":"臺北縣議會第11、12屆議員\n鐵路局工務處工程司\n樹林大同國小家長會長3屆\n樹林陳姓宗親會會長\n樹林慈恩宮管理委員會主委\n世界陳姓宗親總會主席團\n樹林鎮彭厝社區理事長2屆\n民國98年4月30日歿","remark":null,"image":"http://www.ntp.gov.tw/UpFile/CouncilorFile/TTCC1131.jpg","links":[{"url":"http://www.ntp.gov.tw/content/history/history01-5-p.aspx?sid=398","note":"議會個人官網"}],"social_media":null,"platform":"","param":null,"councilor":"984be965ee9e463a9fc6975d058c5c56"},{"url":"http://councils.g0v.tw/api/councilors_terms/1121/","election_year":"1990","name":"陳汝淮","gender":"","party":"","title":"議員","constituency":4,"county":"新北市","district":"樹林鎮、鶯歌鎮、三峽鎮、土城鄉","in_office":true,"contact_details":null,"term_start":"1990-03-01","term_end":{"date":"1994-02-28"},"education":"樹林國小\n開南商工職校高級部建築科畢\n臺北工業職業學校技士技副研究班結業\n考試院31年特考建築工程及格技副\n考試院交通人員高員技術類檢覆及格\n交通部戰地幹部班6期","experience":"臺北縣議會第11、12屆議員\n鐵路局工務處工程司\n樹林大同國小家長會長3屆\n樹林陳姓宗親會會長\n樹林慈恩宮管理委員會主委\n世界陳姓宗親總會主席團\n樹林鎮彭厝社區理事長2屆\n民國98年4月30日歿","remark":null,"image":"http://www.ntp.gov.tw/UpFile/CouncilorFile/TTCC1131.jpg","links":[{"url":"http://www.ntp.gov.tw/content/history/history01-5-p.aspx?sid=398","note":"議會個人官網"}],"social_media":null,"platform":"","param":null,"councilor":"984be965ee9e463a9fc6975d058c5c56"}],"uid":"984be965ee9e463a9fc6975d058c5c56","name":"陳汝淮","birth":null,"former_names":"","identifiers":["陳汝淮"]},{"url":"http://councils.g0v.tw/api/councilors/583/","each_terms":[{"url":"http://councils.g0v.tw/api/councilors_terms/996/","election_year":"1986","name":"陳竣德","gender":"","party":"","title":"議員","constituency":3,"county":"新北市","district":"樹林鎮、鶯歌鎮、三峽鎮","in_office":true,"contact_details":null,"term_start":"1986-03-01","term_end":{"date":"1990-02-28"},"education":"南開高工職業學校畢\n憲兵學校士官班19期結業","experience":"中國國民黨臺北縣第7區黨部委員\n救國團三峽團委會委員\n三峽鎮後備軍人輔導中心顧問\n臺北縣後備憲兵聯絡中心顧問\n三峽鎮長福嚴清水祖師廟董事\n協豐窯業股份有限公司業務經理\n臺北縣議會第11屆議員","remark":null,"image":"http://www.ntp.gov.tw/UpFile/CouncilorFile/TTCC1130.jpg","links":[{"url":"http://www.ntp.gov.tw/content/history/history01-5-p.aspx?sid=397","note":"議會個人官網"}],"social_media":null,"platform":"","param":null,"councilor":"109e4239f7cb45469633b60cbc70db62"}],"uid":"109e4239f7cb45469633b60cbc70db62","name":"陳竣德","birth":null,"former_names":"","identifiers":["陳竣德"]},{"url":"http://councils.g0v.tw/api/councilors/585/","each_terms":[{"url":"http://councils.g0v.tw/api/councilors_terms/1305/","election_year":"2002","name":"陳信義","gender":"","party":"","title":"議員","constituency":5,"county":"新北市","district":"三重市、蘆洲市","in_office":true,"contact_details":null,"term_start":"2002-03-01","term_end":{"date":"2006-02-28"},"education":"東海中學高中部畢業","experience":"臺北縣議會第11、14、15屆議員","remark":null,"image":"http://www.ntp.gov.tw/UpFile/CouncilorFile/TTCC1133.jpg","links":[{"url":"http://www.ntp.gov.tw/content/history/history01-5-p.aspx?sid=399","note":"議會個人官網"}],"social_media":null,"platform":"","param":null,"councilor":"60585951d91546208cde938e7110283d"},{"url":"http://councils.g0v.tw/api/councilors_terms/998/","election_year":"1986","name":"陳信義","gender":"","party":"","title":"議員","constituency":4,"county":"新北市","district":"三重市、蘆洲鄉","in_office":true,"contact_details":null,"term_start":"1986-03-01","term_end":{"date":"1990-02-28"},"education":"東海中學高中部畢業","experience":"臺北縣議會第11、14、15屆議員","remark":null,"image":"http://www.ntp.gov.tw/UpFile/CouncilorFile/TTCC1133.jpg","links":[{"url":"http://www.ntp.gov.tw/content/history/history01-5-p.aspx?sid=399","note":"議會個人官網"}],"social_media":null,"platform":"","param":null,"councilor":"60585951d91546208cde938e7110283d"},{"url":"http://councils.g0v.tw/api/councilors_terms/1245/","election_year":"1998","name":"陳信義","gender":"","party":"","title":"議員","constituency":5,"county":"新北市","district":"三重市、蘆洲市","in_office":true,"contact_details":null,"term_start":"1998-03-01","term_end":{"date":"2002-02-28"},"education":"東海中學高中部畢業","experience":"臺北縣議會第11、14、15屆議員","remark":null,"image":"http://www.ntp.gov.tw/UpFile/CouncilorFile/TTCC1133.jpg","links":[{"url":"http://www.ntp.gov.tw/content/history/history01-5-p.aspx?sid=399","note":"議會個人官網"}],"social_media":null,"platform":"","param":null,"councilor":"60585951d91546208cde938e7110283d"}],"uid":"60585951d91546208cde938e7110283d","name":"陳信義","birth":null,"former_names":"","identifiers":["陳信義"]},{"url":"http://councils.g0v.tw/api/councilors/586/","each_terms":[{"url":"http://councils.g0v.tw/api/councilors_terms/999/","election_year":"1986","name":"江敏行","gender":"","party":"","title":"議員","constituency":2,"county":"新北市","district":"中和市、永和市","in_office":true,"contact_details":null,"term_start":"1986-03-01","term_end":{"date":"1990-02-28"},"education":"中和國校\n勵行中學初中部\n開南工商高級部\n後備軍人幹部訓練班68期結業","experience":"田園運草工人\n雜貨店店員\n中和農會雇員\n中和市後備軍人輔導中心輔導組長\n吉豐工業城負責人\n臺北縣議會第10、11、12屆議員","remark":null,"image":"http://www.ntp.gov.tw/UpFile/CouncilorFile/TTCC1020.jpg","links":[{"url":"http://www.ntp.gov.tw/content/history/history01-5-p.aspx?sid=364","note":"議會個人官網"}],"social_media":null,"platform":"","param":null,"councilor":"32a361e724ef4379b3a41eb297110e2b"},{"url":"http://councils.g0v.tw/api/councilors_terms/1065/","election_year":"1982","name":"江敏行","gender":"","party":"","title":"議員","constituency":2,"county":"新北市","district":"中和市、永和市","in_office":true,"contact_details":null,"term_start":"1982-03-01","term_end":{"date":"1986-02-28"},"education":"中和國校\n勵行中學初中部\n開南工商高級部\n後備軍人幹部訓練班68期結業","experience":"田園運草工人\n雜貨店店員\n中和農會雇員\n中和市後備軍人輔導中心輔導組長\n吉豐工業城負責人\n臺北縣議會第10、11、12屆議員","remark":null,"image":"http://www.ntp.gov.tw/UpFile/CouncilorFile/TTCC1020.jpg","links":[{"url":"http://www.ntp.gov.tw/content/history/history01-5-p.aspx?sid=364","note":"議會個人官網"}],"social_media":null,"platform":"","param":null,"councilor":"32a361e724ef4379b3a41eb297110e2b"},{"url":"http://councils.g0v.tw/api/councilors_terms/1137/","election_year":"1990","name":"江敏行","gender":"","party":"","title":"議員","constituency":2,"county":"新北市","district":"中和市","in_office":true,"contact_details":null,"term_start":"1990-03-01","term_end":{"date":"1994-02-28"},"education":"中和國校\n勵行中學初中部\n開南工商高級部\n後備軍人幹部訓練班68期結業","experience":"田園運草工人\n雜貨店店員\n中和農會雇員\n中和市後備軍人輔導中心輔導組長\n吉豐工業城負責人\n臺北縣議會第10、11、12屆議員","remark":null,"image":"http://www.ntp.gov.tw/UpFile/CouncilorFile/TTCC1020.jpg","links":[{"url":"http://www.ntp.gov.tw/content/history/history01-5-p.aspx?sid=364","note":"議會個人官網"}],"social_media":null,"platform":"","param":null,"councilor":"32a361e724ef4379b3a41eb297110e2b"}],"uid":"32a361e724ef4379b3a41eb297110e2b","name":"江敏行","birth":null,"former_names":"","identifiers":["江敏行"]},{"url":"http://councils.g0v.tw/api/councilors/587/","each_terms":[{"url":"http://councils.g0v.tw/api/councilors_terms/1000/","election_year":"1986","name":"鍾康治","gender":"","party":"","title":"議員","constituency":2,"county":"新北市","district":"中和市、永和市","in_office":true,"contact_details":null,"term_start":"1986-03-01","term_end":{"date":"1990-02-28"},"education":"畢業於軍法學校法律系\n政戰學校正規班104期、後幹班99期","experience":"海軍軍法官\n軍事檢察官\n公設辯護人\n海軍陸戰隊軍法教官\n黃復興黨部支區委員小組長\n臺北縣勞資評斷委員\n觀護協會理事\n永和民防副大隊長\n榮民服務處法律顧問\n盲者心聲聽友善心會負責人\n臺北縣議會第10、11屆議員","remark":null,"image":"http://www.ntp.gov.tw/UpFile/CouncilorFile/TTCC1017.jpg","links":[{"url":"http://www.ntp.gov.tw/content/history/history01-5-p.aspx?sid=362","note":"議會個人官網"}],"social_media":null,"platform":"","param":null,"councilor":"05a618194f3e4ce594ebab1f1e78a55c"},{"url":"http://councils.g0v.tw/api/councilors_terms/1069/","election_year":"1982","name":"鍾康治","gender":"","party":"","title":"議員","constituency":2,"county":"新北市","district":"中和市、永和市","in_office":true,"contact_details":null,"term_start":"1982-03-01","term_end":{"date":"1986-02-28"},"education":"畢業於軍法學校法律系\n政戰學校正規班104期、後幹班99期","experience":"海軍軍法官\n軍事檢察官\n公設辯護人\n海軍陸戰隊軍法教官\n黃復興黨部支區委員小組長\n臺北縣勞資評斷委員\n觀護協會理事\n永和民防副大隊長\n榮民服務處法律顧問\n盲者心聲聽友善心會負責人\n臺北縣議會第10、11屆議員","remark":null,"image":"http://www.ntp.gov.tw/UpFile/CouncilorFile/TTCC1017.jpg","links":[{"url":"http://www.ntp.gov.tw/content/history/history01-5-p.aspx?sid=362","note":"議會個人官網"}],"social_media":null,"platform":"","param":null,"councilor":"05a618194f3e4ce594ebab1f1e78a55c"}],"uid":"05a618194f3e4ce594ebab1f1e78a55c","name":"鍾康治","birth":null,"former_names":"","identifiers":["鍾康治"]},{"url":"http://councils.g0v.tw/api/councilors/588/","each_terms":[{"url":"http://councils.g0v.tw/api/councilors_terms/1064/","election_year":"1982","name":"林永耀","gender":"","party":"","title":"議員","constituency":2,"county":"新北市","district":"中和市、永和市","in_office":true,"contact_details":null,"term_start":"1982-03-01","term_end":{"date":"1986-02-28"},"education":"中國工商企業管理科","experience":"中和市第1屆市民代表\n臺北縣議會第10、11屆議員\n建設公司總經理","remark":null,"image":"http://www.ntp.gov.tw/UpFile/CouncilorFile/TTCC1022.jpg","links":[{"url":"http://www.ntp.gov.tw/content/history/history01-5-p.aspx?sid=366","note":"議會個人官網"}],"social_media":null,"platform":"","param":null,"councilor":"899b874d87364d8a97f97d200198232f"},{"url":"http://councils.g0v.tw/api/councilors_terms/1001/","election_year":"1986","name":"林永耀","gender":"","party":"","title":"議員","constituency":2,"county":"新北市","district":"中和市、永和市","in_office":true,"contact_details":null,"term_start":"1986-03-01","term_end":{"date":"1990-02-28"},"education":"中國工商企業管理科","experience":"中和市第1屆市民代表\n臺北縣議會第10、11屆議員\n建設公司總經理","remark":null,"image":"http://www.ntp.gov.tw/UpFile/CouncilorFile/TTCC1022.jpg","links":[{"url":"http://www.ntp.gov.tw/content/history/history01-5-p.aspx?sid=366","note":"議會個人官網"}],"social_media":null,"platform":"","param":null,"councilor":"899b874d87364d8a97f97d200198232f"}],"uid":"899b874d87364d8a97f97d200198232f","name":"林永耀","birth":null,"former_names":"","identifiers":["林永耀","林永耀"]}]}