{"count":1904,"next":"http://councils.g0v.tw/api/councilors/?page=75","previous":"http://councils.g0v.tw/api/councilors/?page=73","results":[{"url":"http://councils.g0v.tw/api/councilors/589/","each_terms":[{"url":"http://councils.g0v.tw/api/councilors_terms/1002/","election_year":"1986","name":"劉逢雄","gender":"","party":"","title":"議員","constituency":2,"county":"新北市","district":"中和市、永和市","in_office":true,"contact_details":null,"term_start":"1986-03-01","term_end":{"date":"1990-02-28"},"education":"大同工業職業學校","experience":"國語時報副社長\n永和鎮民代表、市民代表、調解委員\n秀朗社區理事長\n永和國際同濟會創會會長\n兵役協會常務委員\n市黨部考紀委員\n分部常委\n臺北縣議會第10、11屆議員","remark":null,"image":"http://www.ntp.gov.tw/UpFile/CouncilorFile/TTCC1024.jpg","links":[{"url":"http://www.ntp.gov.tw/content/history/history01-5-p.aspx?sid=368","note":"議會個人官網"}],"social_media":null,"platform":"","param":null,"councilor":"521c3539f3d545d1a7297c205c298de4"},{"url":"http://councils.g0v.tw/api/councilors_terms/1061/","election_year":"1982","name":"劉逢雄","gender":"","party":"","title":"議員","constituency":2,"county":"新北市","district":"中和市、永和市","in_office":true,"contact_details":null,"term_start":"1982-03-01","term_end":{"date":"1986-02-28"},"education":"大同工業職業學校","experience":"國語時報副社長\n永和鎮民代表、市民代表、調解委員\n秀朗社區理事長\n永和國際同濟會創會會長\n兵役協會常務委員\n市黨部考紀委員\n分部常委\n臺北縣議會第10、11屆議員","remark":null,"image":"http://www.ntp.gov.tw/UpFile/CouncilorFile/TTCC1024.jpg","links":[{"url":"http://www.ntp.gov.tw/content/history/history01-5-p.aspx?sid=368","note":"議會個人官網"}],"social_media":null,"platform":"","param":null,"councilor":"521c3539f3d545d1a7297c205c298de4"}],"uid":"521c3539f3d545d1a7297c205c298de4","name":"劉逢雄","birth":null,"former_names":"","identifiers":["劉逢雄","劉逢雄"]},{"url":"http://councils.g0v.tw/api/councilors/872/","each_terms":[{"url":"http://councils.g0v.tw/api/councilors_terms/1543/","election_year":"1953","name":"朱福春","gender":"","party":"","title":"議員","constituency":7,"county":"新北市","district":"瑞芳鎮、貢寮鄉、雙溪鄉、平溪鄉","in_office":true,"contact_details":null,"term_start":"1953-01-16","term_end":{"date":"1955-01-15"},"education":"成淵中學肄業\n革命研究院分院第4期結業","experience":"瑞芳鎮民代表會主席\n瑞芳鎮農會總幹事\n縣商會常務理事\n縣議會第3屆副議長\n省縣市選監委員會監察小組委員\n臺北縣議會第2、5、6屆議員\n臺北縣議會第3屆副議長\n*民國69年歿","remark":null,"image":"http://www.ntp.gov.tw/UpFile/CouncilorFile/TTCC0251.jpg","links":[{"url":"http://www.ntp.gov.tw/content/history/history01-5-p.aspx?sid=148","note":"議會個人官網"}],"social_media":null,"platform":"","param":null,"councilor":"cbf93fe5bb6947b5908eb863743c9b83"},{"url":"http://councils.g0v.tw/api/councilors_terms/1608/","election_year":"1955","name":"朱福春","gender":"","party":"","title":"副議長","constituency":7,"county":"新北市","district":"瑞芳鎮、貢寮鄉、雙溪鄉、平溪鄉","in_office":true,"contact_details":null,"term_start":"1955-01-16","term_end":{"date":"1958-02-20"},"education":"成淵中學肄業\n革命研究院分院第4期結業","experience":"瑞芳鎮民代表會主席\n瑞芳鎮農會總幹事\n縣商會常務理事\n縣議會第3屆副議長\n省縣市選監委員會監察小組委員\n臺北縣議會第2、5、6屆議員\n臺北縣議會第3屆副議長\n*民國69年歿","remark":null,"image":"http://www.ntp.gov.tw/UpFile/CouncilorFile/TTCC0251.jpg","links":[{"url":"http://www.ntp.gov.tw/content/history/history01-5-p.aspx?sid=148","note":"議會個人官網"}],"social_media":null,"platform":"","param":null,"councilor":"cbf93fe5bb6947b5908eb863743c9b83"},{"url":"http://councils.g0v.tw/api/councilors_terms/1756/","election_year":"1961","name":"朱福春","gender":"","party":"","title":"議員","constituency":7,"county":"新北市","district":"瑞芳鎮、貢寮鄉、雙溪鄉、平溪鄉","in_office":true,"contact_details":null,"term_start":"1961-02-21","term_end":{"date":"1964-02-20"},"education":"成淵中學肄業\n革命研究院分院第4期結業","experience":"瑞芳鎮民代表會主席\n瑞芳鎮農會總幹事\n縣商會常務理事\n縣議會第3屆副議長\n省縣市選監委員會監察小組委員\n臺北縣議會第2、5、6屆議員\n臺北縣議會第3屆副議長\n*民國69年歿","remark":null,"image":"http://www.ntp.gov.tw/UpFile/CouncilorFile/TTCC0251.jpg","links":[{"url":"http://www.ntp.gov.tw/content/history/history01-5-p.aspx?sid=148","note":"議會個人官網"}],"social_media":null,"platform":"","param":null,"councilor":"cbf93fe5bb6947b5908eb863743c9b83"},{"url":"http://councils.g0v.tw/api/councilors_terms/1815/","election_year":"1964","name":"朱福春","gender":"","party":"","title":"議員","constituency":8,"county":"新北市","district":"瑞芳鎮、雙溪鄉、貢寮鄉、平溪鄉","in_office":true,"contact_details":null,"term_start":"1964-02-21","term_end":{"date":"1968-02-20"},"education":"成淵中學肄業\n革命研究院分院第4期結業","experience":"瑞芳鎮民代表會主席\n瑞芳鎮農會總幹事\n縣商會常務理事\n縣議會第3屆副議長\n省縣市選監委員會監察小組委員\n臺北縣議會第2、5、6屆議員\n臺北縣議會第3屆副議長\n*民國69年歿","remark":null,"image":"http://www.ntp.gov.tw/UpFile/CouncilorFile/TTCC0251.jpg","links":[{"url":"http://www.ntp.gov.tw/content/history/history01-5-p.aspx?sid=148","note":"議會個人官網"}],"social_media":null,"platform":"","param":null,"councilor":"cbf93fe5bb6947b5908eb863743c9b83"}],"uid":"cbf93fe5bb6947b5908eb863743c9b83","name":"朱福春","birth":null,"former_names":"","identifiers":["朱福春","朱褔春"]},{"url":"http://councils.g0v.tw/api/councilors/873/","each_terms":[{"url":"http://councils.g0v.tw/api/councilors_terms/1546/","election_year":"1953","name":"李天助","gender":"","party":"","title":"議員","constituency":7,"county":"新北市","district":"瑞芳鎮、貢寮鄉、雙溪鄉、平溪鄉","in_office":true,"contact_details":null,"term_start":"1953-01-16","term_end":{"date":"1955-01-15"},"education":"瑞芳金瓜石初中畢業\n臺灣書房漢文研讀6年","experience":"瑞芳鎮基山里長聯誼會主席\n瑞芳分局警民協會理事\n中臺文化社社長\n臺北縣兵役協會委員\n宏福礦業股份有限公司董事長\n臺北縣議會第2、3、4屆議員","remark":null,"image":"http://www.ntp.gov.tw/UpFile/CouncilorFile/TTCC0248.jpg","links":[{"url":"http://www.ntp.gov.tw/content/history/history01-5-p.aspx?sid=147","note":"議會個人官網"}],"social_media":null,"platform":"","param":null,"councilor":"92b9597f22b343db9e953850aa66cf00"},{"url":"http://councils.g0v.tw/api/councilors_terms/1609/","election_year":"1955","name":"李天助","gender":"","party":"","title":"議員","constituency":7,"county":"新北市","district":"瑞芳鎮、貢寮鄉、雙溪鄉、平溪鄉","in_office":true,"contact_details":null,"term_start":"1955-01-16","term_end":{"date":"1958-02-20"},"education":"瑞芳金瓜石初中畢業\n臺灣書房漢文研讀6年","experience":"瑞芳鎮基山里長聯誼會主席\n瑞芳分局警民協會理事\n中臺文化社社長\n臺北縣兵役協會委員\n宏福礦業股份有限公司董事長\n臺北縣議會第2、3、4屆議員","remark":null,"image":"http://www.ntp.gov.tw/UpFile/CouncilorFile/TTCC0248.jpg","links":[{"url":"http://www.ntp.gov.tw/content/history/history01-5-p.aspx?sid=147","note":"議會個人官網"}],"social_media":null,"platform":"","param":null,"councilor":"92b9597f22b343db9e953850aa66cf00"},{"url":"http://councils.g0v.tw/api/councilors_terms/1674/","election_year":"1958","name":"李天助","gender":"","party":"","title":"議員","constituency":7,"county":"新北市","district":"瑞芳鎮、貢寮鄉、雙溪鄉、平溪鄉","in_office":true,"contact_details":null,"term_start":"1958-02-21","term_end":{"date":"1961-02-20"},"education":"瑞芳金瓜石初中畢業\n臺灣書房漢文研讀6年","experience":"瑞芳鎮基山里長聯誼會主席\n瑞芳分局警民協會理事\n中臺文化社社長\n臺北縣兵役協會委員\n宏福礦業股份有限公司董事長\n臺北縣議會第2、3、4屆議員","remark":null,"image":"http://www.ntp.gov.tw/UpFile/CouncilorFile/TTCC0248.jpg","links":[{"url":"http://www.ntp.gov.tw/content/history/history01-5-p.aspx?sid=147","note":"議會個人官網"}],"social_media":null,"platform":"","param":null,"councilor":"92b9597f22b343db9e953850aa66cf00"}],"uid":"92b9597f22b343db9e953850aa66cf00","name":"李天助","birth":null,"former_names":"","identifiers":["李天助","李天助"]},{"url":"http://councils.g0v.tw/api/councilors/887/","each_terms":[{"url":"http://councils.g0v.tw/api/councilors_terms/1569/","election_year":"1953","name":"陳培樹","gender":"","party":"","title":"議員","constituency":3,"county":"新北市","district":"新莊鎮、泰山鄉、三重鎮、五股鄉、蘆洲鄉、林口鄉","in_office":true,"contact_details":null,"term_start":"1953-01-16","term_end":{"date":"1955-01-15"},"education":"北市二中畢業","experience":"里長\n鎮民代表\n義勇警察隊副隊長\n公賣局淡水配銷會經理\n臺北縣議會第2屆議員","remark":null,"image":"http://www.ntp.gov.tw/UpFile/CouncilorFile/TTCC0225.jpg","links":[{"url":"http://www.ntp.gov.tw/content/history/history01-5-p.aspx?sid=133","note":"議會個人官網"}],"social_media":null,"platform":"","param":null,"councilor":"5f1d4606e0e447fea8ec43b0d2707a15"}],"uid":"5f1d4606e0e447fea8ec43b0d2707a15","name":"陳培樹","birth":null,"former_names":"","identifiers":["陳培樹"]},{"url":"http://councils.g0v.tw/api/councilors/888/","each_terms":[{"url":"http://councils.g0v.tw/api/councilors_terms/1570/","election_year":"1953","name":"李連麗卿","gender":"","party":"","title":"議員","constituency":3,"county":"新北市","district":"新莊鎮、泰山鄉、三重鎮、五股鄉、蘆洲鄉、林口鄉","in_office":true,"contact_details":null,"term_start":"1953-01-16","term_end":{"date":"1955-01-15"},"education":"日據時代之臺北靜修高等女學校畢","experience":"教員\n臺北市白鳥合唱團副團長\n臺北縣議會第2屆議員\n*民國79年5月18日歿","remark":null,"image":"http://www.ntp.gov.tw/UpFile/CouncilorFile/TTCC0223.jpg","links":[{"url":"http://www.ntp.gov.tw/content/history/history01-5-p.aspx?sid=131","note":"議會個人官網"}],"social_media":null,"platform":"","param":null,"councilor":"fb43d1bb91674e6d98c83a59ee5dc5da"}],"uid":"fb43d1bb91674e6d98c83a59ee5dc5da","name":"李連麗卿","birth":null,"former_names":"","identifiers":["李連麗卿","李連麗卿","李連麗卿","李連麗卿"]},{"url":"http://councils.g0v.tw/api/councilors/889/","each_terms":[{"url":"http://councils.g0v.tw/api/councilors_terms/1633/","election_year":"1955","name":"葉麻油","gender":"","party":"","title":"議員","constituency":3,"county":"新北市","district":"新莊鎮、泰山鄉、三重鎮、五股鄉、蘆洲鄉、林口鄉","in_office":true,"contact_details":null,"term_start":"1955-01-16","term_end":{"date":"1958-02-20"},"education":"第三高女畢業","experience":"教員\n幼稚園主任\n鎮公所戶籍幹事\n臺北縣議會第2、3屆議員\n*民國55年歿","remark":null,"image":"http://www.ntp.gov.tw/UpFile/CouncilorFile/TTCC0224.jpg","links":[{"url":"http://www.ntp.gov.tw/content/history/history01-5-p.aspx?sid=132","note":"議會個人官網"}],"social_media":null,"platform":"","param":null,"councilor":"6321120cd0984b9b8ce8ee6b4ca63d80"},{"url":"http://councils.g0v.tw/api/councilors_terms/1571/","election_year":"1953","name":"葉麻油","gender":"","party":"","title":"議員","constituency":3,"county":"新北市","district":"新莊鎮、泰山鄉、三重鎮、五股鄉、蘆洲鄉、林口鄉","in_office":true,"contact_details":null,"term_start":"1953-01-16","term_end":{"date":"1955-01-15"},"education":"第三高女畢業","experience":"教員\n幼稚園主任\n鎮公所戶籍幹事\n臺北縣議會第2、3屆議員\n*民國55年歿","remark":null,"image":"http://www.ntp.gov.tw/UpFile/CouncilorFile/TTCC0224.jpg","links":[{"url":"http://www.ntp.gov.tw/content/history/history01-5-p.aspx?sid=132","note":"議會個人官網"}],"social_media":null,"platform":"","param":null,"councilor":"6321120cd0984b9b8ce8ee6b4ca63d80"}],"uid":"6321120cd0984b9b8ce8ee6b4ca63d80","name":"葉麻油","birth":null,"former_names":"","identifiers":["葉麻油"]},{"url":"http://councils.g0v.tw/api/councilors/495/","each_terms":[{"url":"http://councils.g0v.tw/api/councilors_terms/841/","election_year":"1973","name":"邱明政","gender":"","party":"","title":"議員","constituency":1,"county":"新北市","district":"板橋市、中和鄉、永和鎮、土城鄉","in_office":true,"contact_details":null,"term_start":"1973-05-01","term_end":{"date":"1977-12-29"},"education":"省立臺北商業學校高商畢業\n革命實踐研究院黨政建設研究班\n後幹班結業","experience":"金環球開發股份有限公司董事長\n板信商業銀行永久顧問\n臺北縣家扶中心家扶委員會主任委員\n國立台北商業技術學院校友會常務理事\n財團法人台北縣文化基金會董事\n財團法人大觀書社基金會董事\n板橋信用合作社理事主席\n臺北縣合作社聯合社理事主席\n臺北縣合作事業協會理事長\n海山證券股份有限公司常務董事\n海山有線電視股份有限公司常務董事\n臺北縣議會第七、八屆議員","remark":null,"image":"http://www.ntp.gov.tw/UpFile/CouncilorFile/TTCC0711.jpg","links":[{"url":"http://www.ntp.gov.tw/content/history/history01-5-p.aspx?sid=280","note":"議會個人官網"}],"social_media":null,"platform":"","param":null,"councilor":"0e5ccb75b5b84c24a59edce53736317d"},{"url":"http://councils.g0v.tw/api/councilors_terms/890/","election_year":"1968","name":"邱明政","gender":"","party":"","title":"議員","constituency":1,"county":"新北市","district":"板橋鎮、中和鄉、永和鎮、土城鄉","in_office":true,"contact_details":null,"term_start":"1968-02-21","term_end":{"date":"1973-04-30"},"education":"省立臺北商業學校高商畢業\n革命實踐研究院黨政建設研究班\n後幹班結業","experience":"金環球開發股份有限公司董事長\n板信商業銀行永久顧問\n臺北縣家扶中心家扶委員會主任委員\n國立台北商業技術學院校友會常務理事\n財團法人台北縣文化基金會董事\n財團法人大觀書社基金會董事\n板橋信用合作社理事主席\n臺北縣合作社聯合社理事主席\n臺北縣合作事業協會理事長\n海山證券股份有限公司常務董事\n海山有線電視股份有限公司常務董事\n臺北縣議會第七、八屆議員","remark":null,"image":"http://www.ntp.gov.tw/UpFile/CouncilorFile/TTCC0711.jpg","links":[{"url":"http://www.ntp.gov.tw/content/history/history01-5-p.aspx?sid=280","note":"議會個人官網"}],"social_media":null,"platform":"","param":null,"councilor":"0e5ccb75b5b84c24a59edce53736317d"}],"uid":"0e5ccb75b5b84c24a59edce53736317d","name":"邱明政","birth":null,"former_names":"","identifiers":["邱明政"]},{"url":"http://councils.g0v.tw/api/councilors/496/","each_terms":[{"url":"http://councils.g0v.tw/api/councilors_terms/842/","election_year":"1973","name":"曾隆一","gender":"","party":"","title":"議員","constituency":1,"county":"新北市","district":"板橋市、中和鄉、永和鎮、土城鄉","in_office":true,"contact_details":null,"term_start":"1973-05-01","term_end":{"date":"1977-12-29"},"education":"板橋國校畢\n省立臺北成功中學初中部\n高中部畢\n國立政治大學畢業\n陸軍步兵學校結業\n軍管區後幹班結業\n革命實踐研究院結業","experience":"板橋海山國中教員\n板橋市建設促進委員會委員\n板橋市後備軍人輔導組輔導員\n板橋市棒球委員會主委\n板橋市國際青商會首任會長\n臺北縣議會第8、9屆議員","remark":null,"image":"http://www.ntp.gov.tw/UpFile/CouncilorFile/TTCC0801.jpg","links":[{"url":"http://www.ntp.gov.tw/content/history/history01-5-p.aspx?sid=298","note":"議會個人官網"}],"social_media":null,"platform":"","param":null,"councilor":"172cb189d78d48efa1f81e7f980834eb"},{"url":"http://councils.g0v.tw/api/councilors_terms/955/","election_year":"1977","name":"曾隆一","gender":"","party":"","title":"議員","constituency":1,"county":"新北市","district":"板橋市、中和鄉、永和鎮、土城鄉","in_office":true,"contact_details":null,"term_start":"1977-12-30","term_end":{"date":"1982-02-28"},"education":"板橋國校畢\n省立臺北成功中學初中部\n高中部畢\n國立政治大學畢業\n陸軍步兵學校結業\n軍管區後幹班結業\n革命實踐研究院結業","experience":"板橋海山國中教員\n板橋市建設促進委員會委員\n板橋市後備軍人輔導組輔導員\n板橋市棒球委員會主委\n板橋市國際青商會首任會長\n臺北縣議會第8、9屆議員","remark":null,"image":"http://www.ntp.gov.tw/UpFile/CouncilorFile/TTCC0801.jpg","links":[{"url":"http://www.ntp.gov.tw/content/history/history01-5-p.aspx?sid=298","note":"議會個人官網"}],"social_media":null,"platform":"","param":null,"councilor":"172cb189d78d48efa1f81e7f980834eb"}],"uid":"172cb189d78d48efa1f81e7f980834eb","name":"曾隆一","birth":null,"former_names":"","identifiers":["曽隆一","曾隆一"]},{"url":"http://councils.g0v.tw/api/councilors/1301/","each_terms":[{"url":"http://councils.g0v.tw/api/councilors_terms/2227/","election_year":"2009","name":"黃志學","gender":"男","party":"中國國民黨","title":"議員","constituency":5,"county":"南投縣","district":"埔里鎮、國姓鄉、仁愛鄉","in_office":true,"contact_details":[{"type":"address","value":"埔里鎮泰安里民族三街45號","label":"通訊處"}],"term_start":"2009-12-25","term_end":{"date":"2014-12-25"},"education":"政大行專","experience":"立法委員吳敦義埔里服務處主任、\n中國國民黨埔里鎮黨部常務委員、\n南投縣議會第13、14屆議員、\n南投縣消防局第二大隊大隊長、\n南投縣元極舞委員會副主任委員、\n南投縣太極拳協會理事長、\n南投縣殘障協會顧問、\n埔里鎮西門里鎮安宮顧問、\n埔里鎮泰安里泰安宮顧問","remark":null,"image":"http://www.ntcc.gov.tw/images/n3_5_6.jpg","links":null,"social_media":null,"platform":"一 建請交通部日月潭國家風景區管理處，擴大營運至整個埔里鎮以利發展觀光。\n二 協助地方產業、農產品廣告、行銷並積極開發埔里特色之名產。\n三 促使政府在埔里固定地點展覽花卉、樹石、結合地方農特產、提昇埔里為全國知名之花都大鎮美譽。\n四 重視全民教育理念，終身學習，廣設讀書會注重品德教育，找回正義核心價值。\n五 繼續推動各里成立守望相助隊、環保義工隊、協助地方治安、維護環境整潔並提昇隊員之權益。\n六 推廣休閒教育、促進青少年身心健康發展、闢建青少年活動場所。\n七 重視志工權益推廣志工運動並提高志工素質，期使各機關更能發揮效能。\n八 建請政府編列預算廣推全民運動在社區、學校成立發展各項運動之班別，如元極舞、太極拳、氣功養生、瑜珈有氧運動、土風舞、排舞等使全民健康快樂。","param":{"bills_role_statistics":{"total":86,"priproposer":14,"sponsor":14,"cosponsor":72},"suggestions_piles":[{"count":9,"tokens":"國中|國小","sum":836000,"label":"國中、國小"},{"count":7,"tokens":"警察局|分局","sum":768000,"label":"警察局"},{"count":4,"tokens":"消防局|消防隊|分隊|中隊","sum":344000,"label":"消防局"},{"count":1,"tokens":"辦公室|辦公處","sum":100000,"label":"辦公室"},{"count":0,"tokens":"協會|學會|商會|公會|協進會|促進會|研習會|婦聯會|婦女會|體育會|同心會|農會|早起會|健身會|宗親會|功德會|商業會|長青會|民眾服務社|聯盟","sum":0,"label":"協會"},{"count":0,"tokens":"廟|宮","sum":0,"label":"廟"}],"suggestions_associations":[{"count":0,"sum":0,"label":"社區發展協會"},{"count":0,"sum":0,"label":"學會"},{"count":0,"sum":0,"label":"商會"},{"count":0,"sum":0,"label":"公會"},{"count":0,"sum":0,"label":"協進會"},{"count":0,"sum":0,"label":"促進會"},{"count":0,"sum":0,"label":"研習會"},{"count":0,"sum":0,"label":"婦聯會"},{"count":0,"sum":0,"label":"婦女會"},{"count":0,"sum":0,"label":"體育會"},{"count":0,"sum":0,"label":"同心會"},{"count":0,"sum":0,"label":"農會"},{"count":0,"sum":0,"label":"早起會"},{"count":0,"sum":0,"label":"健身會"},{"count":0,"sum":0,"label":"宗親會"},{"count":0,"sum":0,"label":"功德會"},{"count":0,"sum":0,"label":"商業會"},{"count":0,"sum":0,"label":"長青會"},{"count":0,"sum":0,"label":"民眾服務社"},{"count":0,"sum":0,"label":"聯盟"}],"diversity":{"中國國民黨":0.5802602436323365,"民主進步黨":0.032779623477297896,"無黨籍":0.38696013289036524},"suggestions_years":{"count":38,"sum":4391000,"years":[{"count":38,"sum":4391000,"suggest_year":"2014","small_purchase":32}]}},"councilor":"b52e9004adc34d33804c700141be48dc"}],"uid":"b52e9004adc34d33804c700141be48dc","name":"黃志學","birth":"1946-11-30","former_names":"","identifiers":["黃志學","黄志學"]},{"url":"http://councils.g0v.tw/api/councilors/1113/","each_terms":[{"url":"http://councils.g0v.tw/api/councilors_terms/2039/","election_year":"2009","name":"曹乾舜","gender":"","party":"中國國民黨","title":"議員","constituency":2,"county":"宜蘭縣","district":"頭城","in_office":true,"contact_details":[{"type":"address","value":"頭城鎮中崙里三和路361號","label":"服務處所"},{"type":"voice","value":"9774778","label":"服務處所電話"}],"term_start":"2009-12-25","term_end":{"date":"2014-12-25"},"education":"羅東高級中學畢業","experience":"宜蘭縣議會第十七屆議員。\n一、宜蘭縣議會第十五屆、第十六屆議員。\n二、頭城鎮民代表會第十四、十五、十六、十七屆代表。\n三、頭城民眾服務社理事長。\n四、頭城鎮中國國民黨黨部常委。\n五、二城國小家長會長。\n六、頭城國中家長會長。\n七、頭城體育會理事長。","remark":null,"image":"http://www.ilcc.gov.tw/pictures/people/A1708.JPG","links":[{"url":"http://www.ilcc.gov.tw/Html/H_05/H_0501.asp?GoOut=&pic=2&clique=KMT&User_id=A1708","note":"議會個人官網"}],"social_media":null,"platform":"一、監督縣政府施政，為全民爭取福利與權利，落實社會福利政策，照顧弱\n勢團體。\n二、監督縣政府，加強中小型建設及社區休閒活動之辦理，以提供民眾舒適\n的公共設施與品質。\n三、共同推動南墾丁，北頭城之願景。\n四、共同推動大都市計劃，以繁榮地方。\n五、共同推動北宜直線鐵路的設立。\n六、推動頭城山腳道路新線至烏石港以及竹安至烏石港的聯外道路。\n七、爭取頭城消防隊新廳舍的籌建。","param":{"bills_role_statistics":{"total":65,"priproposer":29,"sponsor":32,"cosponsor":33},"diversity":{"中國國民黨":0.7099283679283678,"民主進步黨":0.1933590461825756,"無黨籍":0.0967125858890565},"bills_party_diversity":[{"party":"中國國民黨","ratio":0.6201298701298701},{"party":"民主進步黨","ratio":0.26461038961038963},{"party":"無黨籍","ratio":0.11525974025974026}]},"councilor":"bbfef1a0cde44e0989591c1604e85a2c"}],"uid":"bbfef1a0cde44e0989591c1604e85a2c","name":"曹乾舜","birth":null,"former_names":"","identifiers":["曹乾舜"]}]}