{"count":1904,"next":"http://councils.g0v.tw/api/councilors/?page=76","previous":"http://councils.g0v.tw/api/councilors/?page=74","results":[{"url":"http://councils.g0v.tw/api/councilors/1114/","each_terms":[{"url":"http://councils.g0v.tw/api/councilors_terms/2040/","election_year":"2009","name":"張漢東","gender":"","party":"民主進步黨","title":"議員","constituency":4,"county":"宜蘭縣","district":"員山","in_office":true,"contact_details":[{"type":"address","value":"員山鄉金山西路243號","label":"服務處所"},{"type":"voice","value":"9359286","label":"服務處所電話"}],"term_start":"2009-12-25","term_end":{"date":"2014-12-25"},"education":"蘭陽技術學院土木科","experience":"宜蘭縣議會第十七屆議員。\n1.員山鄉民代表會第十五、十六、十七屆代表。\n2.張川田競選連任第六屆立法委員員山鄉後\n援會會長。\n3.員山鄉大湖國小基金會常務董事。\n4.員山鄉大湖國小第廿一、廿二、廿三屆家長\n會會長。\n5.宜蘭縣議會第16屆議員。","remark":null,"image":"http://www.ilcc.gov.tw/pictures/people/A1711.JPG","links":[{"url":"http://www.ilcc.gov.tw/Html/H_05/H_0501.asp?GoOut=&pic=4&clique=DDP&User_id=A1711","note":"議會個人官網"}],"social_media":null,"platform":"1.爭取一鄉一公共游泳,池有助於鄉健康。\n2.極力爭取五十溪儘快做整治。\n3.爭取大湖第二期、第三期重劃盡快施工。\n4.爭取員山都市計劃區內未完成八米及十米路計劃道路。\n5.配合中央及縣府將國際童玩公園位於再連段，儘速通過環評通過審查，早日施工。\n6.爭取決速道嵐峰路段，通至員山路段。","param":{"bills_role_statistics":{"total":124,"priproposer":1,"sponsor":1,"cosponsor":123},"diversity":{"中國國民黨":0.3529450441533775,"民主進步黨":0.451803272707685,"無黨籍":0.19525168313893784},"bills_party_diversity":[{"party":"民主進步黨","ratio":0.4645669291338583},{"party":"中國國民黨","ratio":0.357830271216098},{"party":"無黨籍","ratio":0.17760279965004375}]},"councilor":"65c6f620dbb94430abcd83816b26816e"}],"uid":"65c6f620dbb94430abcd83816b26816e","name":"張漢東","birth":null,"former_names":"","identifiers":["張漢東"]},{"url":"http://councils.g0v.tw/api/councilors/1120/","each_terms":[{"url":"http://councils.g0v.tw/api/councilors_terms/2046/","election_year":"2009","name":"謝志得","gender":"","party":"民主進步黨","title":"議員","constituency":6,"county":"宜蘭縣","district":"羅東","in_office":true,"contact_details":[{"type":"address","value":"羅東鎮中山西街21號","label":"服務處所"},{"type":"voice","value":"9558962","label":"服務處所電話"},{"type":"email","value":"elandader@yahoo.com.tw","label":"E-mail"}],"term_start":"2009-12-25","term_end":{"date":"2014-12-25"},"education":"政治大學政治系碩士","experience":"宜蘭縣議會第十七屆議員。\n美國喬治華盛頓大學政治與國際事務研究。\n蘇嘉全國會助理。\n游錫(方方土)政治助理。\n宜蘭縣議會第15、16屆議員。\n宜蘭縣鄉土文化研究學會總幹事。\n宜蘭縣議會民進黨團幹事長。\n民進黨宜蘭縣黨代表。\n民進黨全國黨代表。","remark":null,"image":"http://www.ilcc.gov.tw/pictures/people/A1719.JPG","links":[{"url":"http://www.ilcc.gov.tw/Html/H_05/H_0501.asp?GoOut=&pic=6&clique=DDP&User_id=A1719","note":"議會個人官網"}],"social_media":null,"platform":"從政以來，志得堅持以「專業政治工作者」自我期許。擔任議員8年以來，針\n對環保、治安、社福、勞工、教育、產業…等縣政議題深入而廣泛的提供建\n言。\n志得相信，「專業」不應該只是選舉期間爭取選票的口號，而是必須落實於\n對宜蘭縣政的全面省思與深入理解。從20年前在東海大學接觸政治學理論開\n始到攻讀博士學位，志得始終希望所學的政治學專業能用於服務鄉親，也期\n待鄉親繼續支持。面對這場激烈競爭的選舉，懇請您伸出援手全力相挺，志\n得會以最專業的問政與最熱忱的服務回報鄉親的支持。","param":{"bills_role_statistics":{"total":30,"priproposer":0,"sponsor":0,"cosponsor":30},"diversity":{"中國國民黨":0.3085866664199999,"民主進步黨":0.582179753797401,"無黨籍":0.10923357978259943},"bills_party_diversity":[{"party":"民主進步黨","ratio":0.5121951219512195},{"party":"中國國民黨","ratio":0.35501355013550134},{"party":"無黨籍","ratio":0.13279132791327913}]},"councilor":"d431196e976f481ab449645eff4083d8"}],"uid":"d431196e976f481ab449645eff4083d8","name":"謝志得","birth":null,"former_names":"","identifiers":["謝志得"]},{"url":"http://councils.g0v.tw/api/councilors/1125/","each_terms":[{"url":"http://councils.g0v.tw/api/councilors_terms/2051/","election_year":"2009","name":"陳金麟","gender":"","party":"中國國民黨","title":"議員","constituency":10,"county":"宜蘭縣","district":"蘇澳","in_office":true,"contact_details":[{"type":"address","value":"蘇澳鎮中山路一段258號","label":"服務處所"},{"type":"voice","value":"9965660","label":"服務處所電話"},{"type":"email","value":"a1632@ilcc.gov.tw","label":"E-mail"}],"term_start":"2009-12-25","term_end":{"date":"2014-12-25"},"education":"台北商專銀保科畢業","experience":"宜蘭縣議會第十七屆議員。\n宜蘭縣議會國民黨黨團書記長。\n宜蘭縣新聞記者公會第24、25屆理事長。\n宜蘭縣第12、13、14、15、16屆縣議員。\n南華大學推廣教育管理科研究所學分班。","remark":null,"image":"http://www.ilcc.gov.tw/pictures/people/A1729.JPG","links":[{"url":"http://www.ilcc.gov.tw/Html/H_05/H_0501.asp?GoOut=&pic=10&clique=KMT&User_id=A1729","note":"議會個人官網"}],"social_media":null,"platform":"由於時代在變，環境亦在變，金麟更深深體會當前民代的素質理當提昇，為\n了追求良好的問政品質及服務績效，以克盡代議士之責，金麟始終認為時下\n民代除了確實作到「站會講」、「坐會寫」，同時更要作到「好央叫」、\n「央有路」，如此才是真正的民代，而不負選民所託。金麟20年來擔任縣議\n員的表現，絕對值得大家信賴，懇請鄉親繼續惠予支持。","param":{"bills_role_statistics":{"total":126,"priproposer":2,"sponsor":3,"cosponsor":123},"diversity":{"中國國民黨":0.7360163215615249,"民主進步黨":0.18465921347086856,"無黨籍":0.07932446496760624},"bills_party_diversity":[{"party":"中國國民黨","ratio":0.657088122605364},{"party":"民主進步黨","ratio":0.24042145593869732},{"party":"無黨籍","ratio":0.1024904214559387}]},"councilor":"759da3848474461e9cad3e8c5b9d1d1c"}],"uid":"759da3848474461e9cad3e8c5b9d1d1c","name":"陳金麟","birth":null,"former_names":"","identifiers":["陳金麟"]},{"url":"http://councils.g0v.tw/api/councilors/1130/","each_terms":[{"url":"http://councils.g0v.tw/api/councilors_terms/2056/","election_year":"2009","name":"阮厚爵","gender":"男","party":"","title":"議員","constituency":3,"county":"彰化縣","district":"伸港鄉、線西鄉、和美鎮","in_office":true,"contact_details":[{"type":"phone","value":"04-7567979 ","label":"電話"},{"type":"fax","value":"04-7576803","label":"傳真"},{"type":"email","value":"m7567979@yahoo.com.tw","label":"電子信箱"},{"type":"address","value":"彰化縣和美鎮山犁里仁昌路111-1號","label":"通訊處"}],"term_start":"2009-12-25","term_end":{"date":"2014-12-25"},"education":"和美鎮大嘉國民小學\n縣立和美國民中學\t\n台中私立嶺東高級中學\n國立台中技術學院附設空中進修學院副學士","experience":"彰化縣第16屆議員\n彰化縣救難協會第二中隊榮譽中隊長\n彰化縣義消總隊和美中隊顧問團副團長\n救國團和美鎮團委會會長\n和美國中校友會常務理事\n和美分局警友站顧問\n彰化縣統一早泳會會長\n交通義勇警大隊副大隊長\n彰化縣議會第17屆議員","remark":null,"image":"http://www.chcc.gov.tw/UpFile/CouncilorPhoto/3006.jpg","links":[{"url":"http://www.chcc.gov.tw/content/list/list01_01.aspx?sid=20","note":"議會個人官網"}],"social_media":null,"platform":"督促縣府提高行政效率，加強服務品質\n提升教育品質，關懷學童安全\n推展社區服務工作，促進社區文康及各項活動之發展\n配合婦女團體舉辦各項活動，保障婦女權益、提升婦女地位\n爭取經費增設村里老人休閒中心、建設村里道路\n成立基層服務處深入各村里瞭解民需，解決民困、反應民意\n加強警力配備，消弭犯罪維護治安","param":{"bills_role_statistics":{"total":15,"priproposer":0,"sponsor":0,"cosponsor":15},"diversity":{"":1.0},"bills_party_diversity":[{"party":"","ratio":1.0}]},"councilor":"15b56151a4514c119589963a29a6d677"}],"uid":"15b56151a4514c119589963a29a6d677","name":"阮厚爵","birth":"1970-11-06","former_names":"","identifiers":["阮厚爵"]},{"url":"http://councils.g0v.tw/api/councilors/1135/","each_terms":[{"url":"http://councils.g0v.tw/api/councilors_terms/2061/","election_year":"2009","name":"梁禎祥","gender":"男","party":"","title":"議員","constituency":2,"county":"彰化縣","district":"鹿港鎮、福興鄉、秀水鄉","in_office":true,"contact_details":[{"type":"phone","value":"04-7680725","label":"電話"},{"type":"fax","value":"04-7680726 ","label":"傳真"},{"type":"email","value":"taiwan.lumiel@msa.hinet.net\t","label":"電子信箱"},{"type":"address","value":"彰化縣秀水鄉埔崙村民生街769號","label":"通訊處"}],"term_start":"2009-12-25","term_end":{"date":"2014-12-25"},"education":"高中畢業\n東海大學法律進修\n凱達格蘭學校結業","experience":"彰化縣議會第十三、十四、十五、十六屆議員\n彰化縣議會民進黨黨團召集人\n民進黨彰化縣黨部第九、十屆主任委員\n民進黨第七屆立法委員全國不分區候補\n翁金珠縣長競選連任總部副主委\n陳水扁競選總統彰化縣競選總部副總幹事\n立委及任務型國代選舉民進黨彰化縣聯合競選總幹事\n謝長廷、蘇貞昌競選正副總統彰化縣競選總部總幹事\n秀水鄉惠來社區理事長\n育民國小、秀水國中家長會長\n福興、秀光、甘霖慈善會永久會員\n社團法人彰化縣啟智協進會顧問\n喜樂身心靈障礙者福利促進協會顧問\n彰化縣議會第17屆議員","remark":null,"image":"http://www.chcc.gov.tw/UpFile/CouncilorPhoto/2005.jpg","links":[{"url":"http://www.chcc.gov.tw/content/list/list01_01.aspx?sid=15","note":"議會個人官網"}],"social_media":null,"platform":"積極爭取地方建設，力求城鄉均衡發展\n誓做專業議員，監督縣政，嚴防貪瀆，以服務人民為職志\n督促農政單位，做好農、漁、牧產銷制度及提高農業補償\n結合中央民代，堅拒承認中國學歷，以保障青年學生就業權益\n貫徹民進黨主張，一切以臺灣人民福祉為依歸\n堅持農村再生條例，須有完善配套措施，以防財團炒作土地，影響農民權益及農村發展\n建請政府結合國防、民防、心防，以防外力破壞國家社會安全\n建請由點、線擴至全面綠、美化，以提升縣民生活品質\n杜絕「黑」．「金」．「毒」的蔓衍，建立健康，和諧的社會\n力爭各社區充實軟硬體設施，提供鄉親優質的休閒空間","param":{"bills_role_statistics":{"total":73,"priproposer":3,"sponsor":4,"cosponsor":69},"diversity":{"":1.0},"bills_party_diversity":[{"party":"","ratio":1.0}]},"councilor":"a835f7d1de574bd5ae2d55d0dbb0471d"}],"uid":"a835f7d1de574bd5ae2d55d0dbb0471d","name":"梁禎祥","birth":"1947-01-06","former_names":"","identifiers":["梁禎祥"]},{"url":"http://councils.g0v.tw/api/councilors/1020/","each_terms":[{"url":"http://councils.g0v.tw/api/councilors_terms/1945/","election_year":"2010","name":"楊麗玉","gender":"女","party":"民主進步黨","title":"議員","constituency":4,"county":"臺南市","district":"下營、六甲、麻豆、官田區","in_office":true,"contact_details":[{"type":"email","value":"yang_li_yu_tw@yahoo.com.tw","label":"電子信箱"},{"type":"voice","value":"5722081","label":"電話"},{"type":"fax","value":"5727197","label":"傳真"},{"type":"address","value":"72148台南市麻豆區新生南路672號","label":"通訊處"}],"term_start":"2010-12-25","term_end":{"date":"2014-12-25"},"education":"國立中正大學政治研究所碩士\n逢甲大學國貿系畢","experience":"現任第一屆直轄市臺南市議會議員。\n臺南縣第13、15、16屆縣議員　\n民進黨黨團總召集人\n教育小組召集人\n曾文溪廣播電台主持人FM89.9(時間每星期日下午5-7時)","remark":"","image":"http://www.tncc.gov.tw/warehouse/200000/%E6%A5%8A%E9%BA%97%E7%8E%89.bmp","links":[{"url":"http://www.tncc.gov.tw/tnccp/ccp_01a.asp?CName=%B7%A8%C4R%A5%C9","note":"議會個人官網"},{"url":"http://www.facebook.com/yang.li.yu.tw","note":"個人網站"}],"social_media":null,"platform":"督促政府儘快完成曾文溪及將軍溪的整治，徹底杜絕水患\n儘早規劃麻豆口工業區成為南科的衛星工業城，延續科技發展動能，提供就業機會，帶動曾文區經濟發展\n推動打造總爺藝文中心及麻豆古港文化園區為大台南藝文特區\n設立公立育嬰中心，訓練專業保母，減輕年輕人負擔\n社區關懷中心和行動醫院要持續推動","param":{"suggestions_years":{"count":19,"sum":7882000,"years":[{"count":19,"sum":7882000,"suggest_year":"2014","small_purchase":6}]},"diversity":{"中國國民黨":0.1918492471551849,"民主進步黨":0.7625691556022449,"無黨籍":0.04558159724256993},"bills_role_statistics":{"total":124,"priproposer":53,"sponsor":54,"cosponsor":70},"suggestions_associations":[{"count":0,"sum":0,"label":"社區發展協會"},{"count":0,"sum":0,"label":"學會"},{"count":0,"sum":0,"label":"商會"},{"count":0,"sum":0,"label":"公會"},{"count":0,"sum":0,"label":"協進會"},{"count":0,"sum":0,"label":"促進會"},{"count":0,"sum":0,"label":"研習會"},{"count":0,"sum":0,"label":"婦聯會"},{"count":0,"sum":0,"label":"婦女會"},{"count":0,"sum":0,"label":"體育會"},{"count":0,"sum":0,"label":"同心會"},{"count":0,"sum":0,"label":"農會"},{"count":0,"sum":0,"label":"早起會"},{"count":0,"sum":0,"label":"健身會"},{"count":0,"sum":0,"label":"宗親會"},{"count":0,"sum":0,"label":"功德會"},{"count":0,"sum":0,"label":"商業會"},{"count":0,"sum":0,"label":"長青會"},{"count":0,"sum":0,"label":"民眾服務社"},{"count":0,"sum":0,"label":"聯盟"}],"bills_party_diversity":[{"party":"民主進步黨","ratio":0.7363344051446945},{"party":"中國國民黨","ratio":0.16505894962486603},{"party":"無黨籍","ratio":0.09860664523043944}],"suggestions_piles":[{"count":1,"tokens":"國中|國小","sum":51000,"label":"國中、國小"},{"count":1,"tokens":"廟|宮","sum":39000,"label":"廟"},{"count":0,"tokens":"協會|學會|商會|公會|協進會|促進會|研習會|婦聯會|婦女會|體育會|同心會|農會|早起會|健身會|宗親會|功德會|商業會|長青會|民眾服務社|聯盟","sum":0,"label":"協會"},{"count":0,"tokens":"辦公室|辦公處","sum":0,"label":"辦公室"},{"count":0,"tokens":"警察局|分局","sum":0,"label":"警察局"},{"count":0,"tokens":"消防局|消防隊|分隊|中隊","sum":0,"label":"消防局"}]},"councilor":"394c6e8625a647a49b8c173f5ce8842e"}],"uid":"394c6e8625a647a49b8c173f5ce8842e","name":"楊麗玉","birth":"1958-08-13","former_names":"","identifiers":["楊麗玉","楊麗玉"]},{"url":"http://councils.g0v.tw/api/councilors/1025/","each_terms":[{"url":"http://councils.g0v.tw/api/councilors_terms/1950/","election_year":"2010","name":"李文俊","gender":"男","party":"中國國民黨","title":"議員","constituency":6,"county":"臺南市","district":"善化、安定區","in_office":true,"contact_details":[{"type":"email","value":"kc797520@yahoo.com.tw","label":"電子信箱"},{"type":"voice","value":"5851026","label":"電話"},{"type":"fax","value":"5853692","label":"傳真"},{"type":"address","value":"74151台南市善化區興華路229號","label":"通訊處"}],"term_start":"2010-12-25","term_end":{"date":"2014-12-25"},"education":"小新國小\n善化國中\n新榮工商\n遠東科技大學畢業。","experience":"現任大台南市議會第1屆議員\n善化鎮鎮長\n小新第十三、十四屆里長\n善化鎮農會第十一屆理事\n善化鎮農會第十三屆代表\n臺灣省農會第十二、十三屆理事\n臺灣省農會第十四屆監事\n臺灣省農會第十五屆理事\n善化鎮民代表會第十六、十七屆主席\n農業幹部班","remark":"","image":"http://www.tncc.gov.tw/warehouse/200000/%E6%9D%8E%E6%96%87%E4%BF%8A.bmp","links":[{"url":"http://www.tncc.gov.tw/tnccp/ccp_01a.asp?CName=%A7%F5%A4%E5%ABT","note":"議會個人官網"},{"url":"http://www.facebook.com/shanhua.liwenjun","note":"個人網站"}],"social_media":null,"platform":"全力爭取辦理全民意外保險，成立急難救助基金\n認真打拼，爭取市政府行政中心設置在南科特定區，帶動地方繁榮\n積極推動國中、小學，學生營養午餐免費，爭取補助婦女生育津貼，每胎獎勵兩萬元，65歲以上長輩，免費裝置假牙\n加強推動兒童、少年、婦女及老人福利工作\n解決淹水災害，降低洪災損失，全力爭取補助區域排水，中小排水水利工程，保障人民生命財產安全\n推動勞工福利，保障勞工權益，促進就業服務\n結合在地文化資源，培養社區人才，推動社區總體營造，提昇人民生活品質\n加強督促治安工作，推動家戶聯防，預防犯罪，充實社區巡守隊各項裝備，提高義消民防福利措施，建構安全和諧生活環境\n積極推動賡續辦理善化鎮東勢寮親水公園景觀二期工程\n賡續督促善化站北鐵路平交道興建工程，如期順利完工，解決交通瓶頸，提昇行車安全","param":{"suggestions_years":{"count":17,"sum":17350000,"years":[{"count":17,"sum":17350000,"suggest_year":"2014","small_purchase":1}]},"diversity":{"中國國民黨":0.6292788920858667,"民主進步黨":0.17433019461056734,"無黨籍":0.1963909133035655},"bills_role_statistics":{"total":102,"priproposer":3,"sponsor":4,"cosponsor":98},"suggestions_associations":[{"count":0,"sum":0,"label":"社區發展協會"},{"count":0,"sum":0,"label":"學會"},{"count":0,"sum":0,"label":"商會"},{"count":0,"sum":0,"label":"公會"},{"count":0,"sum":0,"label":"協進會"},{"count":0,"sum":0,"label":"促進會"},{"count":0,"sum":0,"label":"研習會"},{"count":0,"sum":0,"label":"婦聯會"},{"count":0,"sum":0,"label":"婦女會"},{"count":0,"sum":0,"label":"體育會"},{"count":0,"sum":0,"label":"同心會"},{"count":0,"sum":0,"label":"農會"},{"count":0,"sum":0,"label":"早起會"},{"count":0,"sum":0,"label":"健身會"},{"count":0,"sum":0,"label":"宗親會"},{"count":0,"sum":0,"label":"功德會"},{"count":0,"sum":0,"label":"商業會"},{"count":0,"sum":0,"label":"長青會"},{"count":0,"sum":0,"label":"民眾服務社"},{"count":0,"sum":0,"label":"聯盟"}],"bills_party_diversity":[{"party":"中國國民黨","ratio":0.603085553997195},{"party":"民主進步黨","ratio":0.20897615708274894},{"party":"無黨籍","ratio":0.1879382889200561}],"suggestions_piles":[{"count":1,"tokens":"國中|國小","sum":1950000,"label":"國中、國小"},{"count":0,"tokens":"協會|學會|商會|公會|協進會|促進會|研習會|婦聯會|婦女會|體育會|同心會|農會|早起會|健身會|宗親會|功德會|商業會|長青會|民眾服務社|聯盟","sum":0,"label":"協會"},{"count":0,"tokens":"辦公室|辦公處","sum":0,"label":"辦公室"},{"count":0,"tokens":"廟|宮","sum":0,"label":"廟"},{"count":0,"tokens":"警察局|分局","sum":0,"label":"警察局"},{"count":0,"tokens":"消防局|消防隊|分隊|中隊","sum":0,"label":"消防局"}]},"councilor":"266bcb5ef3444c24a7509a2e7fa03afb"}],"uid":"266bcb5ef3444c24a7509a2e7fa03afb","name":"李文俊","birth":"1959-01-09","former_names":"","identifiers":["李文俊","李文俊"]},{"url":"http://councils.g0v.tw/api/councilors/1029/","each_terms":[{"url":"http://councils.g0v.tw/api/councilors_terms/1954/","election_year":"2010","name":"郭國文","gender":"男","party":"民主進步黨","title":"議員","constituency":9,"county":"臺南市","district":"新市、永康區","in_office":true,"contact_details":[{"type":"email","value":"gogowin2010@gmail.com","label":"電子信箱"},{"type":"voice","value":"2053009","label":"電話"},{"type":"fax","value":"2051193","label":"傳真"},{"type":"address","value":"71087台南市永康區永大路2段29號","label":"通訊處"}],"term_start":"2010-12-25","term_end":{"date":"2014-12-25"},"education":"國立成功大學政治經濟研究所博士生\n國立臺灣大學國家發展研究所法學碩士","experience":"現任大台南市議會第1屆議員\n台南縣政府行政管理處處長；\n任務型國民大會代表；\n民主進步黨台南縣黨部主任委員；\n民進黨中執委；\n南瀛文化協會創會理事長；\n牽手護台灣總策劃；\n永康青商會副秘書長；\n社區大學創校校長；\n全國產業總工會秘書長；\n勞陣秘書長","remark":"","image":"http://www.tncc.gov.tw/warehouse/200000/%E9%83%AD%E5%9C%8B%E6%96%87.bmp","links":[{"url":"http://www.tncc.gov.tw/tnccp/ccp_01a.asp?CName=%B3%A2%B0%EA%A4%E5","note":"議會個人官網"},{"url":"http://www.facebook.com/kwkuo0311","note":"個人網站"}],"social_media":null,"platform":"採購在地化、就業在籍化、減低失業率\n打造國際級城市的市政服務，建置「1999服務專線」\n完善交通網，啟動便利城市\n持續監督國道一號大灣交流道的興建工程品質和進度\n推動增建鹽水溪堤岸高架快速道路，連結新市、永康、南科\n推動台南鐵路地下化延伸永康、新市\n推動交通設施資訊E化，建置大台南市交通行控中心\n語言為文化之本，內外兼顧的教育創新\n鄉土語言教育向下扎根至幼稚園，建立評鑑制\n提升大台南市外語競爭力，政府補助英語教育，推動幼稚園外語課程\n持續推動社區大學各項多元課程，讓教學資源更均勻分佈，縮小城鄉的差距，提高市民的公民素養\n啟動福利城市、照顧所有市民\n老年生活不用憂：65歲以上老年人免費裝假牙\n生兒育女不用愁：針對年收入百萬以下家庭，提供育嬰津貼\n弱勢族群不用慌：推動低收入市民至公立醫院看診免掛號費\n打造環保綠能大台南\n交通號誌與社區路燈全面運用LED燈號，提高燈號亮度，減低鹵素路燈的高額電費和維修成本\n公務機關率先使用節能產品，並建置太陽能或風力發電設備\n用文化超越台南，躍升為國際大都\n推動永康、新市觀光資源連結台江國家公園，三崁店舊糖廠、鄭成功遺址，形成歷史遺跡文化總覽\n加強文化資產清查，保存珍貴資產，為台灣歷史作見証，並透過創意文化包裝與行銷，帶動文化經濟\n積極推動產業創意轉型，將具地方特色的農業、產業，搭配濃厚文化背景提昇價值","param":{"suggestions_years":{"count":19,"sum":12938563,"years":[{"count":19,"sum":12938563,"suggest_year":"2014","small_purchase":0}]},"diversity":{"中國國民黨":0.14840416633035006,"民主進步黨":0.7939237614223836,"無黨籍":0.05767207224726589},"bills_role_statistics":{"total":129,"priproposer":70,"sponsor":72,"cosponsor":57},"suggestions_associations":[{"count":0,"sum":0,"label":"社區發展協會"},{"count":0,"sum":0,"label":"學會"},{"count":0,"sum":0,"label":"商會"},{"count":0,"sum":0,"label":"公會"},{"count":0,"sum":0,"label":"協進會"},{"count":0,"sum":0,"label":"促進會"},{"count":0,"sum":0,"label":"研習會"},{"count":0,"sum":0,"label":"婦聯會"},{"count":0,"sum":0,"label":"婦女會"},{"count":0,"sum":0,"label":"體育會"},{"count":0,"sum":0,"label":"同心會"},{"count":0,"sum":0,"label":"農會"},{"count":0,"sum":0,"label":"早起會"},{"count":0,"sum":0,"label":"健身會"},{"count":0,"sum":0,"label":"宗親會"},{"count":0,"sum":0,"label":"功德會"},{"count":0,"sum":0,"label":"商業會"},{"count":0,"sum":0,"label":"長青會"},{"count":0,"sum":0,"label":"民眾服務社"},{"count":0,"sum":0,"label":"聯盟"}],"bills_party_diversity":[{"party":"民主進步黨","ratio":0.7082452431289641},{"party":"中國國民黨","ratio":0.1849894291754757},{"party":"無黨籍","ratio":0.10676532769556026}],"suggestions_piles":[{"count":4,"tokens":"廟|宮","sum":2810000,"label":"廟"},{"count":0,"tokens":"協會|學會|商會|公會|協進會|促進會|研習會|婦聯會|婦女會|體育會|同心會|農會|早起會|健身會|宗親會|功德會|商業會|長青會|民眾服務社|聯盟","sum":0,"label":"協會"},{"count":0,"tokens":"辦公室|辦公處","sum":0,"label":"辦公室"},{"count":0,"tokens":"警察局|分局","sum":0,"label":"警察局"},{"count":0,"tokens":"消防局|消防隊|分隊|中隊","sum":0,"label":"消防局"},{"count":0,"tokens":"國中|國小","sum":0,"label":"國中、國小"}]},"councilor":"540d3292259d4e75b5e8e8bbf550f363"},{"url":"http://councils.g0v.tw/api/councilors_terms/12051/","election_year":"2014","name":"郭國文","gender":"男","party":"民主進步黨","title":null,"constituency":9,"county":"臺南市","district":"新市、永康區","in_office":false,"contact_details":null,"term_start":"2014-12-25","term_end":{"date":"2016-05-19","judicial_links":"","reason":"請辭，就任勞動部政務次長","ref":"","replacement":""},"education":null,"experience":null,"remark":null,"image":"","links":null,"social_media":null,"platform":"","param":{"suggestions_years":{"count":17,"sum":34739000,"years":[{"count":11,"sum":29037000,"suggest_year":"2015","small_purchase":1},{"count":6,"sum":5702000,"suggest_year":"2016","small_purchase":0}]},"bills_role_statistics":{"total":24,"priproposer":4,"sponsor":4,"cosponsor":20},"attendance_statistics":{"absent":53,"total":197},"suggestions_associations":[{"count":0,"sum":0,"label":"社區發展協會"},{"count":0,"sum":0,"label":"學會"},{"count":0,"sum":0,"label":"商會"},{"count":0,"sum":0,"label":"公會"},{"count":0,"sum":0,"label":"協進會"},{"count":0,"sum":0,"label":"促進會"},{"count":0,"sum":0,"label":"研習會"},{"count":0,"sum":0,"label":"婦聯會"},{"count":0,"sum":0,"label":"婦女會"},{"count":0,"sum":0,"label":"體育會"},{"count":0,"sum":0,"label":"同心會"},{"count":0,"sum":0,"label":"農會"},{"count":0,"sum":0,"label":"早起會"},{"count":0,"sum":0,"label":"健身會"},{"count":0,"sum":0,"label":"宗親會"},{"count":0,"sum":0,"label":"功德會"},{"count":0,"sum":0,"label":"商業會"},{"count":0,"sum":0,"label":"長青會"},{"count":0,"sum":0,"label":"民眾服務社"},{"count":0,"sum":0,"label":"聯盟"}],"bills_party_diversity":[{"party":"民主進步黨","ratio":0.8811188811188811},{"party":"無黨籍","ratio":0.07692307692307693},{"party":"中國國民黨","ratio":0.027972027972027972},{"party":"臺灣團結聯盟","ratio":0.013986013986013986}],"suggestions_piles":[{"count":5,"tokens":"廟|宮","sum":4317000,"label":"廟"},{"count":0,"tokens":"協會|學會|商會|公會|協進會|促進會|研習會|婦聯會|婦女會|體育會|同心會|農會|早起會|健身會|宗親會|功德會|商業會|長青會|民眾服務社|聯盟","sum":0,"label":"協會"},{"count":0,"tokens":"辦公室|辦公處","sum":0,"label":"辦公室"},{"count":0,"tokens":"警察局|分局","sum":0,"label":"警察局"},{"count":0,"tokens":"消防局|消防隊|分隊|中隊","sum":0,"label":"消防局"},{"count":0,"tokens":"國中|國小","sum":0,"label":"國中、國小"}]},"councilor":"540d3292259d4e75b5e8e8bbf550f363"}],"uid":"540d3292259d4e75b5e8e8bbf550f363","name":"郭國文","birth":"1967-03-11","former_names":"","identifiers":["郭國文"]},{"url":"http://councils.g0v.tw/api/councilors/1033/","each_terms":[{"url":"http://councils.g0v.tw/api/councilors_terms/1958/","election_year":"2010","name":"施重男","gender":"男","party":"無黨籍","title":"議員","constituency":9,"county":"臺南市","district":"新市、永康區","in_office":true,"contact_details":[{"type":"email","value":false,"label":"電子信箱"},{"type":"voice","value":"2735665","label":"電話"},{"type":"fax","value":"2718920","label":"傳真"},{"type":"address","value":"71048台南市永康區大灣1街80號","label":"通訊處"}],"term_start":"2010-12-25","term_end":{"date":"2014-12-25"},"education":"大灣中學畢業","experience":"現任大台南市議會第1屆議員\n永康市第十二、 十三、十四屆市民代 表、第十三屆市民代 表會副主席。台南縣 第十三、十四、十五 屆縣議員。永康市第 十八屆兵役協會主任 委員。大灣義消顧問 團長。大灣國中第二 屆家長會長。第十三 屆縣長選舉陳唐山先 生永康市後援會顧 問。第六屆立法委員 選舉陳唐山先生永康 市後援會顧問。民進 黨徵召永康市第5屆 市長候選人。","remark":"","image":"http://www.tncc.gov.tw/warehouse/200000/%E6%96%BD%E9%87%8D%E7%94%B7.bmp","links":[{"url":"http://www.tncc.gov.tw/tnccp/ccp_01a.asp?CName=%ACI%AD%AB%A8k","note":"議會個人官網"}],"social_media":null,"platform":"爭取延伸高鐵(新化-善化)、國道1線(永康-安定)兩面側道,以改善永康、新 市地區聯外交通\n督促30米大灣東路西段徵收後即行開闢,以改善大灣地區交通\n爭取建架台鐵(台南-新市)鐵路高架或地下化,促使鐵道兩邊土地平衡開發\n爭取新闢鹽水溪南堤外環道路,以疏解台一線交通\n爭取開闢國光五街(崑山國小前)經復華地區,貫通永大路至中華路\n爭取開闢忠孝路、復國一路南段貫穿裕農路,以疏解南向人車\n爭取開闢大橋國中-鹽行道路及已規畫未開發主要道路\n督促永康等大中排水系統拓寬疏濬護堤改善工程儘速進行,以防水患\n爭取中華科大邊24公頃滯洪池迅速建造,增設抽水站,以杜絕永康地區水患\n爭取轄區內積水地段及疏排不良地區之系統改善\n爭取永康市超過年限未徵收之公設用地變更用途,歸還地主\n爭取鹽行永安路與仁愛街污水處理廠變更為公園用地\n爭取二王公墓用地規畫為大台南運動藝術公園,將大台南建造為運動藝術文化古都\n爭取永康公園整建為模型史蹟公園,成為觀光休閒新景點\n爭取道路巷口廣設監視示警監控等設備,增置社區巡守組織防衛設備,確保居家安寧\n爭取增設老人關懷中心之設備\n爭取生育、托育、教育及中低收入戶新生兒優惠補助\n爭取失業勞工、身心障礙、低收入戶等救助及就學就業輔助","param":{"suggestions_years":{"count":13,"sum":9665240,"years":[{"count":13,"sum":9665240,"suggest_year":"2014","small_purchase":1}]},"diversity":{"中國國民黨":0.4376375636444095,"民主進步黨":0.2397359749363087,"無黨籍":0.32262646141928175},"bills_role_statistics":{"total":91,"priproposer":13,"sponsor":14,"cosponsor":77},"suggestions_associations":[{"count":0,"sum":0,"label":"社區發展協會"},{"count":0,"sum":0,"label":"學會"},{"count":0,"sum":0,"label":"商會"},{"count":0,"sum":0,"label":"公會"},{"count":0,"sum":0,"label":"協進會"},{"count":0,"sum":0,"label":"促進會"},{"count":0,"sum":0,"label":"研習會"},{"count":0,"sum":0,"label":"婦聯會"},{"count":0,"sum":0,"label":"婦女會"},{"count":0,"sum":0,"label":"體育會"},{"count":0,"sum":0,"label":"同心會"},{"count":0,"sum":0,"label":"農會"},{"count":0,"sum":0,"label":"早起會"},{"count":0,"sum":0,"label":"健身會"},{"count":0,"sum":0,"label":"宗親會"},{"count":0,"sum":0,"label":"功德會"},{"count":0,"sum":0,"label":"商業會"},{"count":0,"sum":0,"label":"長青會"},{"count":0,"sum":0,"label":"民眾服務社"},{"count":0,"sum":0,"label":"聯盟"}],"bills_party_diversity":[{"party":"民主進步黨","ratio":0.3637440758293839},{"party":"中國國民黨","ratio":0.36255924170616116},{"party":"無黨籍","ratio":0.273696682464455}],"suggestions_piles":[{"count":1,"tokens":"廟|宮","sum":1000000,"label":"廟"},{"count":0,"tokens":"協會|學會|商會|公會|協進會|促進會|研習會|婦聯會|婦女會|體育會|同心會|農會|早起會|健身會|宗親會|功德會|商業會|長青會|民眾服務社|聯盟","sum":0,"label":"協會"},{"count":0,"tokens":"辦公室|辦公處","sum":0,"label":"辦公室"},{"count":0,"tokens":"警察局|分局","sum":0,"label":"警察局"},{"count":0,"tokens":"消防局|消防隊|分隊|中隊","sum":0,"label":"消防局"},{"count":0,"tokens":"國中|國小","sum":0,"label":"國中、國小"}]},"councilor":"d6087f37640c453f84531225bfce7562"}],"uid":"d6087f37640c453f84531225bfce7562","name":"施重男","birth":"1943-07-24","former_names":"","identifiers":["施重男"]},{"url":"http://councils.g0v.tw/api/councilors/623/","each_terms":[{"url":"http://councils.g0v.tw/api/councilors_terms/1091/","election_year":"1990","name":"曾正和","gender":"","party":"","title":"議員","constituency":10,"county":"新北市","district":"新店市、深坑鄉、石碇鄉、坪林鄉、烏來鄉","in_office":true,"contact_details":null,"term_start":"1990-03-01","term_end":{"date":"1994-02-28"},"education":"安坑國民小學、文山國中、東海高中、\n空軍機械學校航機科。","experience":"新店市日興里第一、二屆里長，新店市里長聯誼會會長，台北縣議會第十二、十三屆議員，新店市第六、七屆市長，台北縣議會第十六屆議員。","remark":null,"image":"http://www.ntp.gov.tw/UpFile/CouncilorFile/TTCC1261.jpg","links":[{"url":"http://www.ntp.gov.tw/content/history/history01-5-p.aspx?sid=446","note":"議會個人官網"}],"social_media":null,"platform":"","param":null,"councilor":"7400f1c79692432d9760791c1e8c981f"},{"url":"http://councils.g0v.tw/api/councilors_terms/1152/","election_year":"1994","name":"曾正和","gender":"","party":"","title":"議員","constituency":10,"county":"新北市","district":"新店鎮、深坑鄉、石碇鄉、坪林鄉、烏來鄉","in_office":true,"contact_details":null,"term_start":"1994-03-01","term_end":{"date":"1998-02-28"},"education":"安坑國民小學、文山國中、東海高中、\n空軍機械學校航機科。","experience":"新店市日興里第一、二屆里長，新店市里長聯誼會會長，台北縣議會第十二、十三屆議員，新店市第六、七屆市長，台北縣議會第十六屆議員。","remark":null,"image":"http://www.ntp.gov.tw/UpFile/CouncilorFile/TTCC1261.jpg","links":[{"url":"http://www.ntp.gov.tw/content/history/history01-5-p.aspx?sid=446","note":"議會個人官網"}],"social_media":null,"platform":"","param":null,"councilor":"7400f1c79692432d9760791c1e8c981f"},{"url":"http://councils.g0v.tw/api/councilors_terms/1345/","election_year":"2006","name":"曾正和","gender":"","party":"","title":"議員","constituency":10,"county":"新北市","district":"新店市、深坑鄉、石碇鄉、坪林鄉、烏來鄉","in_office":true,"contact_details":null,"term_start":"2006-03-01","term_end":{"date":"2010-12-24"},"education":"安坑國民小學、文山國中、東海高中、\n空軍機械學校航機科。","experience":"新店市日興里第一、二屆里長，新店市里長聯誼會會長，台北縣議會第十二、十三屆議員，新店市第六、七屆市長，台北縣議會第十六屆議員。","remark":null,"image":"http://www.ntp.gov.tw/UpFile/CouncilorFile/TTCC1261.jpg","links":[{"url":"http://www.ntp.gov.tw/content/history/history01-5-p.aspx?sid=446","note":"議會個人官網"}],"social_media":null,"platform":"","param":null,"councilor":"7400f1c79692432d9760791c1e8c981f"}],"uid":"7400f1c79692432d9760791c1e8c981f","name":"曾正和","birth":null,"former_names":"","identifiers":["曽正和","曾正和"]}]}