{"count":1904,"next":"http://councils.g0v.tw/api/councilors/?page=79","previous":"http://councils.g0v.tw/api/councilors/?page=77","results":[{"url":"http://councils.g0v.tw/api/councilors/1149/","each_terms":[{"url":"http://councils.g0v.tw/api/councilors_terms/2075/","election_year":"2009","name":"洪宗熠","gender":"男","party":"","title":"議員","constituency":8,"county":"彰化縣","district":"芳苑鄉、二林鎮、大城鄉、竹塘鄉","in_office":true,"contact_details":[{"type":"phone","value":"04-8952118","label":"電話"},{"type":"fax","value":"04-8952126","label":"傳真"},{"type":"email","value":"erhlinyi@yam.com","label":"電子信箱"},{"type":"address","value":"彰化縣二林鎮豐田里二溪路一段207號","label":"通訊處"}],"term_start":"2009-12-25","term_end":{"date":"2014-12-25"},"education":"縣立二林國小畢\n縣立二林國中畢\n私立精誠高中畢\n國立中興大學公共行政系法學士畢\n國立彰化師範大學管理學碩士","experience":"彰化縣議會第15、16屆議員\n立法委員翁金珠助理、立法委員沈富雄助理\n民進黨彰化縣黨部第10屆評委會召集人\n民進黨彰化縣議會黨團2011總召集人\n2008國際青商會二林分會長\n2009國際青商會彰化縣執行長\n彰化縣議會第17屆議員","remark":null,"image":"http://www.chcc.gov.tw/UpFile/CouncilorPhoto/8005.jpg","links":[{"url":"http://www.chcc.gov.tw/content/list/list01_01.aspx?sid=47","note":"議會個人官網"}],"social_media":null,"platform":"督促政府嚴格執行防治環境污染問題，確保人民生活環境品質\n督促政府儘速興建西濱快速道路、東西向快速公路、濁水溪堤岸快速道路，改善地方交通\n督促政府儘速改善沿海地區地層下陷問題，保障人民生命、財產安全\n督促政府重視弱勢族群權益，增加老人、婦女、兒童、身心障礙者、中低收入戶之相關福利\n推動整合地區休閒遊憩資源，活絡地方產業發展\n推動社區總體營造，凝聚社區意識，改善社區生活品質\n推動地方文化再造活動，提昇地區文化水準\n推動全民體育運動，充實社區運動休閒場所，增進民眾身心健康\n堅持參政理想：選舉不買賣、當選設立全民服務處、擔任專業專職民意代表、服務選民不收費、爭取建設不指定包商不拿回扣、嚴格監督縣政\n爭取設立大學院校，提昇地方教育水準","param":{"bills_role_statistics":{"total":47,"priproposer":1,"sponsor":1,"cosponsor":46},"diversity":{"":1.0},"bills_party_diversity":[{"party":"","ratio":1.0}]},"councilor":"0173d2ae30704013a01c8fe808a872f5"},{"url":"http://councils.g0v.tw/api/councilors_terms/11644/","election_year":"2014","name":"洪宗熠","gender":"男","party":"民主進步黨","title":null,"constituency":8,"county":"彰化縣","district":"芳苑鄉、二林鎮、大城鄉、竹塘鄉","in_office":false,"contact_details":null,"term_start":"2014-12-25","term_end":{"date":"2016-01-31","judicial_links":"","reason":"請辭，就任立委","ref":"","replacement":""},"education":null,"experience":null,"remark":null,"image":"","links":null,"social_media":null,"platform":"","param":{"bills_role_statistics":{"total":2,"priproposer":0,"sponsor":0,"cosponsor":2},"bills_party_diversity":[{"party":"民主進步黨","ratio":0.7894736842105263},{"party":"無黨籍","ratio":0.10526315789473684},{"party":"中國國民黨","ratio":0.10526315789473684}]},"councilor":"0173d2ae30704013a01c8fe808a872f5"}],"uid":"0173d2ae30704013a01c8fe808a872f5","name":"洪宗熠","birth":"1969-01-27","former_names":"","identifiers":["洪宗熠"]},{"url":"http://councils.g0v.tw/api/councilors/1155/","each_terms":[{"url":"http://councils.g0v.tw/api/councilors_terms/2081/","election_year":"2009","name":"蕭延青","gender":"男","party":"","title":"議員","constituency":6,"county":"彰化縣","district":"社頭鄉、田中鎮、二水鄉","in_office":true,"contact_details":[{"type":"phone","value":"04-8733335","label":"電話"},{"type":"fax","value":"04-8722666","label":"傳真"},{"type":"email","value":"eli0213@hotmail.com","label":"電子信箱"},{"type":"address","value":"彰化縣社頭鄉仁雅村社斗路一段401號","label":"通訊處"}],"term_start":"2009-12-25","term_end":{"date":"2014-12-25"},"education":"朝興國小\n社頭國中\n文興綜合高中\n嶺東科技大學\n美國中央華盛頓大學語言先修","experience":"國語週刊課長\n昇財麗禧酒店採購\n員林國際青年商會會員\n蕭色賢慈善協會理事長\n立委蕭景田服務處助理\n彰化縣單車協會委員\n二水青工會副會長\n社頭鄉民眾服務站理事長\n彰化縣蕭氏宗親會監事\n彰化縣議會第17屆議員","remark":null,"image":"http://www.chcc.gov.tw/UpFile/CouncilorPhoto/6001.jpg","links":[{"url":"http://www.chcc.gov.tw/content/list/list01_01.aspx?sid=42","note":"議會個人官網"}],"social_media":null,"platform":"整合田中、二水、社頭之地方特色，串連發展無煙囪觀光休閒產業\n傾聽民意，落實為民服務，發揮民意監督之責，善盡制衡縣府之效\n爭取地方建設，提昇教育及生活品質，推動人才留鄉計畫加速推動並監督高鐵彰化縣社頭田中站之興建\n以年輕角度，創新思維，活化地方發展，推動縣政改革\n反映地方需求，配合中央民意代表爭取補助，落實基層建設，整治及改善排水","param":{"bills_role_statistics":{"total":4,"priproposer":0,"sponsor":0,"cosponsor":4},"diversity":{"":1.0},"bills_party_diversity":[{"party":"","ratio":1.0}]},"councilor":"e607013a05bb42bbb345bfa2b0e585d7"}],"uid":"e607013a05bb42bbb345bfa2b0e585d7","name":"蕭延青","birth":"1982-02-13","former_names":"","identifiers":["蕭延青"]},{"url":"http://councils.g0v.tw/api/councilors/1156/","each_terms":[{"url":"http://councils.g0v.tw/api/councilors_terms/2082/","election_year":"2009","name":"洪麗娜","gender":"女","party":"","title":"議員","constituency":6,"county":"彰化縣","district":"社頭鄉、田中鎮、二水鄉","in_office":true,"contact_details":[{"type":"phone","value":"","label":"電話"},{"type":"fax","value":"04-8752518","label":"傳真"},{"type":"email","value":"zoe651009@yahoo.com","label":"電子信箱"},{"type":"address","value":"彰化縣田中鎮中路里興工路555號","label":"通訊處"}],"term_start":"2009-12-25","term_end":{"date":"2014-12-25"},"education":"台北市立體育學院畢業","experience":"彰化縣議會第15、16屆議員\n彰化縣青溪婦聯會主任委員\n臺北市立大理女中教師\n彰化縣婦女會常務理事\n慈恩國際獅子會會長\n田中青溪婦聯會主任委員\n田中區工商婦聯會會長\n彰化縣脊髓損傷重建協會顧問\n彰化縣家扶中心田中區副主任委員\n田中義消防火宣導隊分隊長\n彰化縣議會第17屆議員","remark":null,"image":"http://www.chcc.gov.tw/UpFile/CouncilorPhoto/N2011551695.jpg","links":[{"url":"http://www.chcc.gov.tw/content/list/list01_01.aspx?sid=41","note":"議會個人官網"}],"social_media":null,"platform":"嚴格監督公共工程品質，反映民意，擔任縣府與鄉親的溝通橋樑\n積極推動社區總體營造，將二水鄉不受污染的宜居環境，以依山傍水之優勢，創造出先進國家嚮往的longstay之鄉\n監督縣府建立生態保育及環境維護並重的農業發展條件\n督促縣府協助傳統產業升級，振興經濟，讓鄉親有充分就業機會，並積極推動社頭社石段織襪專區之設立與開發，以造福地方\n建構關懷的社會，使鄉親擁有安全的生活環境，並提倡家庭價值重建，督促縣府社福單位，成立綿密的社會安全網，使社會正義得以發揮\n促請縣府加強社頭、田中、二水長青自行車道整治與維護，藉由八卦山脈地理優勢，強化南彰化自行車運動能見度，以提倡全民運動風氣\n爭取山腳路（縣一三七號道）沿線野溪整治，並促請縣府改善山腳路沿線過水路面，以消弭水患\n加速督促縣府儘速辦理高鐵特定區都市計畫案，使高鐵站區暨週邊公共設施開發，能於最短期間內完成\n加強監督縣府對婦幼團體，弱勢族群之照顧與扶助，並強化對婦女婚姻暴力之庇護","param":{"bills_role_statistics":{"total":36,"priproposer":4,"sponsor":4,"cosponsor":32},"diversity":{"":1.0},"bills_party_diversity":[{"party":"","ratio":1.0}]},"councilor":"843b1cd709054d9f9967f731a150d6b8"}],"uid":"843b1cd709054d9f9967f731a150d6b8","name":"洪麗娜","birth":"1955-10-16","former_names":"","identifiers":["洪麗娜","洪麗娜"]},{"url":"http://councils.g0v.tw/api/councilors/456/","each_terms":[{"url":"http://councils.g0v.tw/api/councilors_terms/802/","election_year":"1973","name":"高石獅","gender":"","party":"","title":"議員","constituency":6,"county":"新北市","district":"汐止鎮、萬里鄉、金山鄉","in_office":true,"contact_details":null,"term_start":"1973-05-01","term_end":{"date":"1977-12-29"},"education":"台北州七星郡汐止公學校高等科","experience":"里長\n汐止鎮鎮民代表會第2、3、4、6、7屆主席\n汐止鎮警民協會理事長\n汐止鎮都市計畫委員\n臺北縣議會第6、8、9屆議員\n汐止仁愛基金會會長","remark":null,"image":"http://www.ntp.gov.tw/UpFile/CouncilorFile/TTCC0639.jpg","links":[{"url":"http://www.ntp.gov.tw/content/history/history01-5-p.aspx?sid=266","note":"議會個人官網"}],"social_media":null,"platform":"","param":null,"councilor":"45afb2e17112439cb192d421ae4085ac"},{"url":"http://councils.g0v.tw/api/councilors_terms/913/","election_year":"1977","name":"高石獅","gender":"","party":"","title":"議員","constituency":5,"county":"新北市","district":"汐止鎮、萬里鄉、金山鄉","in_office":true,"contact_details":null,"term_start":"1977-12-30","term_end":{"date":"1982-02-28"},"education":"台北州七星郡汐止公學校高等科","experience":"里長\n汐止鎮鎮民代表會第2、3、4、6、7屆主席\n汐止鎮警民協會理事長\n汐止鎮都市計畫委員\n臺北縣議會第6、8、9屆議員\n汐止仁愛基金會會長","remark":null,"image":"http://www.ntp.gov.tw/UpFile/CouncilorFile/TTCC0639.jpg","links":[{"url":"http://www.ntp.gov.tw/content/history/history01-5-p.aspx?sid=266","note":"議會個人官網"}],"social_media":null,"platform":"","param":null,"councilor":"45afb2e17112439cb192d421ae4085ac"},{"url":"http://councils.g0v.tw/api/councilors_terms/1833/","election_year":"1964","name":"高石獅","gender":"","party":"","title":"議員","constituency":6,"county":"新北市","district":"內湖鄉、南港鎮、汐止鎮、萬里鄉、金山鄉","in_office":true,"contact_details":null,"term_start":"1964-02-21","term_end":{"date":"1968-02-20"},"education":"台北州七星郡汐止公學校高等科","experience":"里長\n汐止鎮鎮民代表會第2、3、4、6、7屆主席\n汐止鎮警民協會理事長\n汐止鎮都市計畫委員\n臺北縣議會第6、8、9屆議員\n汐止仁愛基金會會長","remark":null,"image":"http://www.ntp.gov.tw/UpFile/CouncilorFile/TTCC0639.jpg","links":[{"url":"http://www.ntp.gov.tw/content/history/history01-5-p.aspx?sid=266","note":"議會個人官網"}],"social_media":null,"platform":"","param":null,"councilor":"45afb2e17112439cb192d421ae4085ac"}],"uid":"45afb2e17112439cb192d421ae4085ac","name":"高石獅","birth":null,"former_names":"","identifiers":["高石獅"]},{"url":"http://councils.g0v.tw/api/councilors/91/","each_terms":[{"url":"http://councils.g0v.tw/api/councilors_terms/95/","election_year":"2010","name":"黃平洋","gender":"男","party":"中國國民黨","title":"議員","constituency":1,"county":"臺北市","district":"北投區、士林區","in_office":true,"contact_details":[{"type":"email","value":"tcc9902@tcc.gov.tw","label":"電子信箱"},{"type":"voice","value":"2875678927297708#6009、6109","label":"電話"},{"type":"fax","value":"23459148","label":"傳真"},{"type":"address","value":"台北市仁愛路4段507號609室","label":"通訊處"}],"term_start":"2010-12-25","term_end":{"date":"2014-12-25"},"education":"輔仁大學文學士、台北中華中學、花蓮美崙國中、高雄鼓岩國小","experience":"2003開設「黃平洋鐵道便當」連鎖店、1990中華職棒勝投王、1988中正杯成棒賽獲「最佳投手獎」、1987中華成棒亞錦賽「最有價值球員」、1981中華青棒奪得世界青棒冠軍、1978榮工青少棒奪得世界青少棒冠軍","remark":"","image":"http://www.tcc.gov.tw/../upload/photo/Ping-Yang_Huang.jpg","links":[{"url":"http://www.tcc.gov.tw/Councilor_Content.aspx?s=1036","note":"議會個人官網"},{"url":"http://tcc9902.tcc.gov.tw","note":"個人網站"}],"social_media":null,"platform":"1.興建觀光纜車，加強溫泉利用，開發新北投文化資產，規劃國際級二日遊休閒旅遊聖地。\n2.整理傳統市場，發展觀光夜市，帶來人潮促進地方繁榮，讓北投夜市成為國際級夜市景點。\n3.推動捷運站間免費社區接駁小巴，並發展社子、天母、石牌環狀輕軌捷運。\n4.結合士林、北投民間社團，開發懷舊與創新生態旅遊景點。\n5.積極開發關渡平原、洲美、社子島。\n6.廣設老人日照中心，解決上班族家中老人照護問題。\n7.增加學校體育經費，設立重點體育學校、培養優秀體育選手。\n8.爭取政府編列預算，補助社區體育活動，推廣休閒運動。","param":{"bills_role_statistics":{"total":58,"priproposer":1,"sponsor":58,"cosponsor":0},"votes_decision_statistics":{"abstain":0,"disagree":42,"not_voting":14,"total":60,"agree":4,"conflict":0},"diversity":{"臺灣團結聯盟":0.02130476402830108,"親民黨":0.027146072424821168,"無黨籍":0.013143790826141791,"中國國民黨":0.6761761843114955,"新黨":0.024438906868871145,"民主進步黨":0.23779028154036924},"suggestions_years":{"count":140,"sum":166876167,"years":[{"count":8,"sum":3484000,"suggest_year":"2011","small_purchase":1},{"count":22,"sum":12667000,"suggest_year":"2012","small_purchase":6},{"count":51,"sum":43932667,"suggest_year":"2013","small_purchase":4},{"count":59,"sum":106792500,"suggest_year":"2014","small_purchase":3}]},"attendance_statistics":{"absent":0,"total":131},"suggestions_associations":[{"count":0,"sum":0,"label":"社區發展協會"},{"count":0,"sum":0,"label":"學會"},{"count":0,"sum":0,"label":"商會"},{"count":0,"sum":0,"label":"公會"},{"count":0,"sum":0,"label":"協進會"},{"count":0,"sum":0,"label":"促進會"},{"count":0,"sum":0,"label":"研習會"},{"count":0,"sum":0,"label":"婦聯會"},{"count":0,"sum":0,"label":"婦女會"},{"count":0,"sum":0,"label":"體育會"},{"count":0,"sum":0,"label":"同心會"},{"count":0,"sum":0,"label":"農會"},{"count":0,"sum":0,"label":"早起會"},{"count":0,"sum":0,"label":"健身會"},{"count":0,"sum":0,"label":"宗親會"},{"count":0,"sum":0,"label":"功德會"},{"count":0,"sum":0,"label":"商業會"},{"count":0,"sum":0,"label":"長青會"},{"count":0,"sum":0,"label":"民眾服務社"},{"count":0,"sum":0,"label":"聯盟"}],"bills_party_diversity":[{"party":"中國國民黨","ratio":0.6550412175015853},{"party":"民主進步黨","ratio":0.2568167406467977},{"party":"新黨","ratio":0.027266962587190868},{"party":"親民黨","ratio":0.02599873176918199},{"party":"無黨籍","ratio":0.017755231452124286},{"party":"臺灣團結聯盟","ratio":0.017121116043119847}],"suggestions_piles":[{"count":2,"tokens":"消防局|消防隊|分隊|中隊","sum":2998000,"label":"消防局"},{"count":2,"tokens":"國中|國小","sum":988000,"label":"國中、國小"},{"count":1,"tokens":"廟|宮","sum":699667,"label":"廟"},{"count":0,"tokens":"協會|學會|商會|公會|協進會|促進會|研習會|婦聯會|婦女會|體育會|同心會|農會|早起會|健身會|宗親會|功德會|商業會|長青會|民眾服務社|聯盟","sum":0,"label":"協會"},{"count":0,"tokens":"辦公室|辦公處","sum":0,"label":"辦公室"},{"count":0,"tokens":"警察局|分局","sum":0,"label":"警察局"}]},"councilor":"b318a34db2e74e98ae5d83153035e686"}],"uid":"b318a34db2e74e98ae5d83153035e686","name":"黃平洋","birth":"1962-11-13","former_names":"","identifiers":["黄平洋","黃平洋"]},{"url":"http://councils.g0v.tw/api/councilors/677/","each_terms":[{"url":"http://councils.g0v.tw/api/councilors_terms/1337/","election_year":"2002","name":"蕭貫譽","gender":"","party":"","title":"議員","constituency":1,"county":"新北市","district":"板橋市","in_office":true,"contact_details":null,"term_start":"2002-03-01","term_end":{"date":"2006-02-28"},"education":"東海高中畢業","experience":"臺北縣議會第16屆議員\n現任台聯黨中央委員\n台北縣第13、15屆議員\n台聯黨發言人\n文化大學社會工作師學分班","remark":null,"image":"http://www.ntp.gov.tw/UpFile/CouncilorFile/TTCC1309.jpg","links":[{"url":"http://www.ntp.gov.tw/content/history/history01-5-p.aspx?sid=452","note":"議會個人官網"}],"social_media":null,"platform":"","param":null,"councilor":"6ab018e822fb494e8b253339cbb00e41"},{"url":"http://councils.g0v.tw/api/councilors_terms/1205/","election_year":"1994","name":"蕭貫譽","gender":"","party":"","title":"議員","constituency":1,"county":"新北市","district":"板橋市","in_office":true,"contact_details":null,"term_start":"1994-03-01","term_end":{"date":"1998-02-28"},"education":"東海高中畢業","experience":"臺北縣議會第16屆議員\n現任台聯黨中央委員\n台北縣第13、15屆議員\n台聯黨發言人\n文化大學社會工作師學分班","remark":null,"image":"http://www.ntp.gov.tw/UpFile/CouncilorFile/TTCC1309.jpg","links":[{"url":"http://www.ntp.gov.tw/content/history/history01-5-p.aspx?sid=452","note":"議會個人官網"}],"social_media":null,"platform":"","param":null,"councilor":"6ab018e822fb494e8b253339cbb00e41"},{"url":"http://councils.g0v.tw/api/councilors_terms/1402/","election_year":"2006","name":"蕭貫譽","gender":"","party":"","title":"議員","constituency":1,"county":"新北市","district":"板橋市","in_office":true,"contact_details":null,"term_start":"2006-03-01","term_end":{"date":"2010-12-24"},"education":"東海高中畢業","experience":"臺北縣議會第16屆議員\n現任台聯黨中央委員\n台北縣第13、15屆議員\n台聯黨發言人\n文化大學社會工作師學分班","remark":null,"image":"http://www.ntp.gov.tw/UpFile/CouncilorFile/TTCC1309.jpg","links":[{"url":"http://www.ntp.gov.tw/content/history/history01-5-p.aspx?sid=452","note":"議會個人官網"}],"social_media":null,"platform":"","param":null,"councilor":"6ab018e822fb494e8b253339cbb00e41"}],"uid":"6ab018e822fb494e8b253339cbb00e41","name":"蕭貫譽","birth":null,"former_names":"","identifiers":["蕭貫譽"]},{"url":"http://councils.g0v.tw/api/councilors/1532/","each_terms":[{"url":"http://councils.g0v.tw/api/councilors_terms/2458/","election_year":"2009","name":"曹爾章","gender":"男","party":"中國國民黨","title":"","constituency":1,"county":"連江縣","district":"南竿鄉","in_office":true,"contact_details":[{"type":"address","value":"連江縣南竿鄉復興村67號","label":"通訊處"},{"type":"voice","value":"0836-25758、0919-280269","label":"電話"}],"term_start":"2009-12-25","term_end":{"date":"2014-12-25"},"education":null,"experience":"1. 連江縣政府建設局約僱人員\n2. 南竿鄉公所約僱人員\n3. 牛角社區發展協會總幹事\n4. 牛角社區發展協會理事長\n5. 馬祖區漁會會員代表\n4. 南竿鄉鄉民代表會代表\n7. 連江縣體育會羽球委員會主任委員\n8. 連江縣體育會角力委員會主任委員","remark":null,"image":"http://www.mtcc.gov.tw/representative/ChauEurChang.jpg","links":[{"url":"http://www.mtcc.gov.tw/cu_representative2.htm","note":"議會個人官網"}],"social_media":null,"platform":"強力把關縣府「新台馬輪」購建事務，以符合抗浪、便捷、舒適、耐久與美觀等基本需求。\n要求縣府針對駐軍銳減、「後小三通時期」所面臨的發展困境，提出產業有效振興方案。\n督促重新建構「觀光立縣」執行藍圖，汰除舊有制約與束縛，強化政府各部門及民間社團的互動與聯繫。\n呼籲深化全縣遊憩特色，邁向適性及多元化發展，活化文化內涵，增進觀光豐富性。\n監督馬祖酒廠整體營運，改進制度與人事缺失，強化產銷能力，提升地區財政盈餘。\n針對地區年輕族群就業困難，要求縣府設置青年輔導組織，定期安排青年增能課程與就業輔導措施。\n因應當前少子化及學校減班問題，要求縣府有效善用教育人力資源，以符合地區文教整體發展。\n關切地區生育、托育等衍生問題，減輕年輕家長負擔，要求縣府提出相關獎勵及輔導機制。\n督促聚落保存政策及社區輔導機制進行通盤性檢視，符合各社區發展特性，有效提升社區營造效能。\n保障縣民行的權益，要求縣府確實做到一次性路面「齊挖齊補」、管線共構及清潔養護，減少相關問題發生。","param":null,"councilor":"0825cdc4819c4bd792ec26705eb73fe0"}],"uid":"0825cdc4819c4bd792ec26705eb73fe0","name":"曹爾章","birth":null,"former_names":"","identifiers":["曹爾章"]},{"url":"http://councils.g0v.tw/api/councilors/1533/","each_terms":[{"url":"http://councils.g0v.tw/api/councilors_terms/2459/","election_year":"2009","name":"林惠萍","gender":"女","party":"中國國民黨","title":"","constituency":1,"county":"連江縣","district":"南竿鄉","in_office":true,"contact_details":[{"type":"address","value":"連江縣南竿鄉介壽村106-3號5樓","label":"通訊處"},{"type":"voice","value":"0836-26976、0937-505850","label":"電話"}],"term_start":"2009-12-25","term_end":{"date":"2014-12-25"},"education":null,"experience":"1. 御信營造有限公司會計\n2. 中正國中小家長委員會副會長","remark":null,"image":"http://www.mtcc.gov.tw/representative/LinWheiPing.jpg","links":[{"url":"http://www.mtcc.gov.tw/cu_representative1.htm","note":"議會個人官網"}],"social_media":null,"platform":"1. 發展具地方特色產業，活絡經濟。\n2. 大福建生活圈連結，福建居民來馬自由行。\n3. 監督馬酒產銷系統化，積極開拓國際市場創造盈餘。\n1. 規劃休閒碼頭，發展觀光爭取商機。\n2. 藝術置入公共空間，讓藝術與生活引發更多的互動。\n3. 增編社教預算補助各社團，倡導正當休閒活動。\n1. 設立幼兒專屬活動空間及青少年休閒場所。\n2. 培養學生國際觀，爭取海外交流補助。\n3. 落實照顧學生政策，比照金門爭取學生交通費補貼。\n1. 組織愛心志工定期關懷老人及弱勢團體。\n2. 擔任弱勢團體代言人，爭取預算充裕編列。\n3. 縣內福利政策，改按人發放；並協助新住民融入馬祖。","param":null,"councilor":"b8495b8f4c3848f3833e9b619a2f7fb5"}],"uid":"b8495b8f4c3848f3833e9b619a2f7fb5","name":"林惠萍","birth":null,"former_names":"","identifiers":["林惠萍","林惠萍"]},{"url":"http://councils.g0v.tw/api/councilors/1536/","each_terms":[{"url":"http://councils.g0v.tw/api/councilors_terms/2462/","election_year":"2009","name":"黃秋","gender":"女","party":"無黨籍","title":"","constituency":1,"county":"臺東縣","district":"台東市、綠島鄉、蘭嶼鄉","in_office":true,"contact_details":[{"type":"voice","value":"089-321840","label":"電話"},{"type":"email","value":"480817@taitungcc.gov.tw","label":"E-mail"},{"type":"address","value":"台東市開封街751號","label":"地址"}],"term_start":"2009-12-25","term_end":{"date":"2014-12-25"},"education":"一、國立澎湖海事學校。\n二、臺灣觀光經營管理專科學校。\n三、國立臺北商業技術學院附設空中進修學院畢業。","experience":"一、臺東縣第十三、十四、十五、十六屆縣議員。\n二、臺東市市民代表。\n三、臺東縣體育會理事長。\n四、臺東縣體育會木球委員會主任委員。\n五、臺東國際青商會特友會主席。\n六、臺東縣生命線協會理事。\n七、臺東縣寶桑慈善會顧問。","remark":null,"image":"http://www.taitungcc.gov.tw/ourteam/images/01_name10_pic001.jpg","links":[{"url":"http://www.taitungcc.gov.tw/ourteam/02ourteam_detail10.html","note":"議會個人官網"}],"social_media":null,"platform":"一、重視環保、節能減碳。\n二、專業為民喉舌、強勢反映基層民意。\n三、嚴格監督縣政、為民看緊荷包。\n四、重視學子教育、維護教師權益。\n五、爭取婦女福利、為女性權益發聲。\n六、爭取老人福利、照顧中低百姓。\n七、提昇醫療品質、敦促政府重視全民保健。","param":{"suggestions_years":{"count":62,"sum":6164000,"years":[{"count":27,"sum":3190000,"suggest_year":"2012","small_purchase":22},{"count":15,"sum":1340000,"suggest_year":"2013","small_purchase":15},{"count":20,"sum":1634000,"suggest_year":"2014","small_purchase":20}]},"suggestions_associations":[{"count":1,"sum":94000,"label":"社區發展協會"},{"count":0,"sum":0,"label":"學會"},{"count":0,"sum":0,"label":"商會"},{"count":0,"sum":0,"label":"公會"},{"count":0,"sum":0,"label":"協進會"},{"count":0,"sum":0,"label":"促進會"},{"count":0,"sum":0,"label":"研習會"},{"count":0,"sum":0,"label":"婦聯會"},{"count":0,"sum":0,"label":"婦女會"},{"count":0,"sum":0,"label":"體育會"},{"count":0,"sum":0,"label":"同心會"},{"count":0,"sum":0,"label":"農會"},{"count":0,"sum":0,"label":"早起會"},{"count":0,"sum":0,"label":"健身會"},{"count":0,"sum":0,"label":"宗親會"},{"count":0,"sum":0,"label":"功德會"},{"count":0,"sum":0,"label":"商業會"},{"count":0,"sum":0,"label":"長青會"},{"count":0,"sum":0,"label":"民眾服務社"},{"count":0,"sum":0,"label":"聯盟"}],"suggestions_piles":[{"count":31,"tokens":"國中|國小","sum":3591000,"label":"國中、國小"},{"count":7,"tokens":"警察局|分局","sum":485000,"label":"警察局"},{"count":4,"tokens":"辦公室|辦公處","sum":399000,"label":"辦公室"},{"count":2,"tokens":"協會|學會|商會|公會|協進會|促進會|研習會|婦聯會|婦女會|體育會|同心會|農會|早起會|健身會|宗親會|功德會|商業會|長青會|民眾服務社|聯盟","sum":186000,"label":"協會"},{"count":0,"tokens":"廟|宮","sum":0,"label":"廟"},{"count":0,"tokens":"消防局|消防隊|分隊|中隊","sum":0,"label":"消防局"}],"bills_party_diversity":null},"councilor":"bd5436e60de84a3ea56fc21af231a4a2"},{"url":"http://councils.g0v.tw/api/councilors_terms/12082/","election_year":"2014","name":"黃秋","gender":"女","party":"無黨籍","title":null,"constituency":1,"county":"臺東縣","district":"臺東市、蘭嶼鄉","in_office":false,"contact_details":null,"term_start":"2014-12-25","term_end":{"date":"2015-03-04","judicial_links":"","reason":"當選無效","ref":"http://gazette.nat.gov.tw/EG_FileManager/eguploadpub/eg021059/ch02/type3/gov15/num3/OEg.pdf","replacement":"王飛龍"},"education":null,"experience":null,"remark":null,"image":"","links":null,"social_media":null,"platform":"","param":{"bills_role_statistics":{"total":4,"priproposer":0,"sponsor":0,"cosponsor":4},"suggestions_years":{"count":6,"sum":699000,"years":[{"count":6,"sum":699000,"suggest_year":"2015","small_purchase":5}]},"suggestions_associations":[{"count":0,"sum":0,"label":"社區發展協會"},{"count":0,"sum":0,"label":"學會"},{"count":0,"sum":0,"label":"商會"},{"count":0,"sum":0,"label":"公會"},{"count":0,"sum":0,"label":"協進會"},{"count":0,"sum":0,"label":"促進會"},{"count":0,"sum":0,"label":"研習會"},{"count":0,"sum":0,"label":"婦聯會"},{"count":0,"sum":0,"label":"婦女會"},{"count":0,"sum":0,"label":"體育會"},{"count":0,"sum":0,"label":"同心會"},{"count":0,"sum":0,"label":"農會"},{"count":0,"sum":0,"label":"早起會"},{"count":0,"sum":0,"label":"健身會"},{"count":0,"sum":0,"label":"宗親會"},{"count":0,"sum":0,"label":"功德會"},{"count":0,"sum":0,"label":"商業會"},{"count":0,"sum":0,"label":"長青會"},{"count":0,"sum":0,"label":"民眾服務社"},{"count":0,"sum":0,"label":"聯盟"}],"suggestions_piles":[{"count":3,"tokens":"國中|國小","sum":299000,"label":"國中、國小"},{"count":1,"tokens":"警察局|分局","sum":100000,"label":"警察局"},{"count":0,"tokens":"協會|學會|商會|公會|協進會|促進會|研習會|婦聯會|婦女會|體育會|同心會|農會|早起會|健身會|宗親會|功德會|商業會|長青會|民眾服務社|聯盟","sum":0,"label":"協會"},{"count":0,"tokens":"辦公室|辦公處","sum":0,"label":"辦公室"},{"count":0,"tokens":"廟|宮","sum":0,"label":"廟"},{"count":0,"tokens":"消防局|消防隊|分隊|中隊","sum":0,"label":"消防局"}],"bills_party_diversity":[{"party":"無黨籍","ratio":0.5},{"party":"中國國民黨","ratio":0.36363636363636365},{"party":"民主進步黨","ratio":0.13636363636363635}]},"councilor":"bd5436e60de84a3ea56fc21af231a4a2"}],"uid":"bd5436e60de84a3ea56fc21af231a4a2","name":"黃秋","birth":null,"former_names":"","identifiers":["黃秋","黄秋"]},{"url":"http://councils.g0v.tw/api/councilors/1540/","each_terms":[{"url":"http://councils.g0v.tw/api/councilors_terms/2466/","election_year":"2009","name":"張清忠","gender":"男","party":"中國國民黨","title":"","constituency":2,"county":"臺東縣","district":"卑南鄉、延平鄉","in_office":true,"contact_details":[{"type":"voice","value":"089-320266","label":"電話"},{"type":"address","value":"台東市新生路337號","label":"地址"}],"term_start":"2009-12-25","term_end":{"date":"2014-12-25"},"education":"一、太平國小畢。\n二、縣立第二初中畢。\n三、公東高工畢。\n四、二專學歷鑑定考試及格。","experience":"一、臺東縣議會第十三、十四屆議員。\n二、卑南鄉第十四、十五屆鄉長。\n三、臺東縣青溪協會常務監事。\n四、臺東縣體育會常務理事。\n五、臺南旅東同鄉會理事。\n六、卑南後備軍人輔導中心主任。","remark":null,"image":"http://www.taitungcc.gov.tw/ourteam/images/02_name02_pic001.jpg","links":[{"url":"http://www.taitungcc.gov.tw/ourteam/03ourteam_detail02.html","note":"議會個人官網"}],"social_media":null,"platform":"一、督促政府加強水利工程經費編列，落實水士保持，確保人民生命財產安全。\n二、督促政府落實社會福利政策，照顧榮民(眷)、老人、婦幼、身心殘障者等…弱勢團體。\n三、整合縣內觀光資源，透過「社區總體營照」方式，推動休閒產業，帶動地方繁營。\n四、整合地區特色之農、漁、牧產品，積極辦理各項農特產展售，並與農業單位推動外銷，以提高農漁民收益。\n五、協助農路產業道路闢建，以利農產品運送。\n六、持續推動卑南鄉「鄉街計劃」以有效利用土地，規劃卑南鄉發展之願景。","param":{"suggestions_years":{"count":72,"sum":6719000,"years":[{"count":23,"sum":2088000,"suggest_year":"2012","small_purchase":20},{"count":18,"sum":2121000,"suggest_year":"2013","small_purchase":13},{"count":31,"sum":2510000,"suggest_year":"2014","small_purchase":27}]},"suggestions_associations":[{"count":2,"sum":114000,"label":"民眾服務社"},{"count":1,"sum":96000,"label":"社區發展協會"},{"count":2,"sum":60000,"label":"農會"},{"count":0,"sum":0,"label":"學會"},{"count":0,"sum":0,"label":"商會"},{"count":0,"sum":0,"label":"公會"},{"count":0,"sum":0,"label":"協進會"},{"count":0,"sum":0,"label":"促進會"},{"count":0,"sum":0,"label":"研習會"},{"count":0,"sum":0,"label":"婦聯會"},{"count":0,"sum":0,"label":"婦女會"},{"count":0,"sum":0,"label":"體育會"},{"count":0,"sum":0,"label":"同心會"},{"count":0,"sum":0,"label":"早起會"},{"count":0,"sum":0,"label":"健身會"},{"count":0,"sum":0,"label":"宗親會"},{"count":0,"sum":0,"label":"功德會"},{"count":0,"sum":0,"label":"商業會"},{"count":0,"sum":0,"label":"長青會"},{"count":0,"sum":0,"label":"聯盟"}],"suggestions_piles":[{"count":21,"tokens":"國中|國小","sum":1807000,"label":"國中、國小"},{"count":9,"tokens":"協會|學會|商會|公會|協進會|促進會|研習會|婦聯會|婦女會|體育會|同心會|農會|早起會|健身會|宗親會|功德會|商業會|長青會|民眾服務社|聯盟","sum":428000,"label":"協會"},{"count":5,"tokens":"警察局|分局","sum":303000,"label":"警察局"},{"count":2,"tokens":"辦公室|辦公處","sum":173000,"label":"辦公室"},{"count":1,"tokens":"消防局|消防隊|分隊|中隊","sum":49000,"label":"消防局"},{"count":0,"tokens":"廟|宮","sum":0,"label":"廟"}],"bills_party_diversity":null},"councilor":"b36cd6dbd4064150a5e7d79f8edd4dc8"}],"uid":"b36cd6dbd4064150a5e7d79f8edd4dc8","name":"張清忠","birth":null,"former_names":"","identifiers":["張清忠"]}]}