{"count":1904,"next":"http://councils.g0v.tw/api/councilors/?page=80","previous":"http://councils.g0v.tw/api/councilors/?page=78","results":[{"url":"http://councils.g0v.tw/api/councilors/1542/","each_terms":[{"url":"http://councils.g0v.tw/api/councilors_terms/2468/","election_year":"2009","name":"李振源","gender":"男","party":"無黨藉","title":"","constituency":4,"county":"臺東縣","district":"關山鎮、鹿野鄉、池上鄉、海端鄉","in_office":true,"contact_details":[{"type":"voice","value":"089-811187","label":"電話"},{"type":"email","value":"490824@taitungcc.gov.tw","label":"E-mail"},{"type":"address","value":"台東縣池上鄉錦園村新開園2里49號","label":"地址"}],"term_start":"2009-12-25","term_end":{"date":"2014-12-25"},"education":"一、國立花蓮高工畢業。\n二、中國市政專科學校畢業。","experience":"一、台東縣兵役協會常務委員。\n二、台東縣農會顧問。\n三、國際同際會關山會長。\n四、家扶基金會關山區主委。\n五、池上鄉農會理事、理事長。\n六、台動縣議會財政小組召集人。\n七、台東縣議會十三、十四、十五、十六屆議員。","remark":null,"image":"http://www.taitungcc.gov.tw/ourteam/images/04_name02_pic001.jpg","links":[{"url":"http://www.taitungcc.gov.tw/ourteam/05ourteam_detail02.html","note":"議會個人官網"}],"social_media":null,"platform":"一、堅持理念、專業問政、為民喉舌。\n二、以民意為依歸、縣民優先、監督縣府。\n三、隨時吩咐、全力以赴。","param":{"suggestions_years":{"count":50,"sum":4917000,"years":[{"count":15,"sum":1728000,"suggest_year":"2012","small_purchase":9},{"count":16,"sum":1341000,"suggest_year":"2013","small_purchase":15},{"count":19,"sum":1848000,"suggest_year":"2014","small_purchase":17}]},"suggestions_associations":[{"count":5,"sum":1090000,"label":"農會"},{"count":8,"sum":534000,"label":"社區發展協會"},{"count":0,"sum":0,"label":"學會"},{"count":0,"sum":0,"label":"商會"},{"count":0,"sum":0,"label":"公會"},{"count":0,"sum":0,"label":"協進會"},{"count":0,"sum":0,"label":"促進會"},{"count":0,"sum":0,"label":"研習會"},{"count":0,"sum":0,"label":"婦聯會"},{"count":0,"sum":0,"label":"婦女會"},{"count":0,"sum":0,"label":"體育會"},{"count":0,"sum":0,"label":"同心會"},{"count":0,"sum":0,"label":"早起會"},{"count":0,"sum":0,"label":"健身會"},{"count":0,"sum":0,"label":"宗親會"},{"count":0,"sum":0,"label":"功德會"},{"count":0,"sum":0,"label":"商業會"},{"count":0,"sum":0,"label":"長青會"},{"count":0,"sum":0,"label":"民眾服務社"},{"count":0,"sum":0,"label":"聯盟"}],"suggestions_piles":[{"count":19,"tokens":"協會|學會|商會|公會|協進會|促進會|研習會|婦聯會|婦女會|體育會|同心會|農會|早起會|健身會|宗親會|功德會|商業會|長青會|民眾服務社|聯盟","sum":1996000,"label":"協會"},{"count":8,"tokens":"消防局|消防隊|分隊|中隊","sum":755000,"label":"消防局"},{"count":5,"tokens":"警察局|分局","sum":481000,"label":"警察局"},{"count":5,"tokens":"辦公室|辦公處","sum":356000,"label":"辦公室"},{"count":1,"tokens":"國中|國小","sum":50000,"label":"國中、國小"},{"count":0,"tokens":"廟|宮","sum":0,"label":"廟"}],"bills_party_diversity":null},"councilor":"362e026965db40edbd57d1b3c286048f"}],"uid":"362e026965db40edbd57d1b3c286048f","name":"李振源","birth":null,"former_names":"","identifiers":["李振源","李振源"]},{"url":"http://councils.g0v.tw/api/councilors/1543/","each_terms":[{"url":"http://councils.g0v.tw/api/councilors_terms/2469/","election_year":"2009","name":"李錦慧","gender":"男","party":"中國國民黨","title":"","constituency":5,"county":"臺東縣","district":"大武鄉、達仁鄉、金峰鄉、太麻里鄉","in_office":true,"contact_details":[{"type":"voice","value":"089-781346","label":"電話"},{"type":"email","value":"440711@taitungcc.gov.tw","label":"E-mail"},{"type":"address","value":"台東縣太麻里鄉太麻里街56號","label":"地址"}],"term_start":"2009-12-25","term_end":{"date":"2014-12-25"},"education":"一、苗裡縣私立仁德醫護專科學校~藥學科畢。\n二、國立台東大學公共行政碩士班(進修中)。","experience":"一、民國79年~83年台東縣太麻里鄉民代表。\n二、民國83年~94年台東縣議會第十三~十五屆議員。\n三、民國95年第十六屆台東縣議會議長。","remark":null,"image":"http://www.taitungcc.gov.tw/ourteam/images/05_name01_pic001.jpg","links":[{"url":"http://www.taitungcc.gov.tw/ourteam/06ourteam_detail01.html","note":"議會個人官網"}],"social_media":null,"platform":"台東要發展主軸在於交通、觀光及深層海水產業三方面。過去一直積極推動，未來仍會持續努力，\n已達真善美境界。以下僅提出幾點努力方向：\n一、推動往返大高屏都會區之台九線南迴公路拓寬為四線道、台二十六線南田到屏東旭海的海岸線觀光道路之\n闢建及極力爭取鐵路電氣化工程。\n二、推動蘇花高速公路之星艦及國道五號花東高速公路及北迴鐵路花東線之電氣化及雙軌化。\n三、推動大陸觀光客來台東旅遊及本縣農特產品銷往大陸，增加收益。\n四、推動台東深層海水產業園區開發計畫並結合國家物種原庫及低溫利用及多目標技術研發模廠，\n開創台東的產業遠景以增加產值及就業人口。\n五、督促政府加速莫拉克風災重建工作並積極改善災民之生活。\n六、台東縣河川之本、太麻里、金鋒、大武等等堤防採深基礎鋼筋混凝土工法施工，溪流潰堤不再發生。","param":{"suggestions_years":{"count":73,"sum":96789000,"years":[{"count":35,"sum":3367000,"suggest_year":"2012","small_purchase":32},{"count":18,"sum":1803000,"suggest_year":"2013","small_purchase":17},{"count":20,"sum":91619000,"suggest_year":"2014","small_purchase":18}]},"suggestions_associations":[{"count":3,"sum":90170000,"label":"農會"},{"count":2,"sum":130000,"label":"社區發展協會"},{"count":1,"sum":95000,"label":"商業會"},{"count":1,"sum":92000,"label":"體育會"},{"count":0,"sum":0,"label":"學會"},{"count":0,"sum":0,"label":"商會"},{"count":0,"sum":0,"label":"公會"},{"count":0,"sum":0,"label":"協進會"},{"count":0,"sum":0,"label":"促進會"},{"count":0,"sum":0,"label":"研習會"},{"count":0,"sum":0,"label":"婦聯會"},{"count":0,"sum":0,"label":"婦女會"},{"count":0,"sum":0,"label":"同心會"},{"count":0,"sum":0,"label":"早起會"},{"count":0,"sum":0,"label":"健身會"},{"count":0,"sum":0,"label":"宗親會"},{"count":0,"sum":0,"label":"功德會"},{"count":0,"sum":0,"label":"長青會"},{"count":0,"sum":0,"label":"民眾服務社"},{"count":0,"sum":0,"label":"聯盟"}],"suggestions_piles":[{"count":7,"tokens":"協會|學會|商會|公會|協進會|促進會|研習會|婦聯會|婦女會|體育會|同心會|農會|早起會|健身會|宗親會|功德會|商業會|長青會|民眾服務社|聯盟","sum":90487000,"label":"協會"},{"count":6,"tokens":"國中|國小","sum":700000,"label":"國中、國小"},{"count":5,"tokens":"警察局|分局","sum":437000,"label":"警察局"},{"count":6,"tokens":"消防局|消防隊|分隊|中隊","sum":413000,"label":"消防局"},{"count":5,"tokens":"辦公室|辦公處","sum":410000,"label":"辦公室"},{"count":3,"tokens":"廟|宮","sum":199000,"label":"廟"}],"bills_party_diversity":null},"councilor":"38bc6a973c0544078c0a4acfebaf8fc9"}],"uid":"38bc6a973c0544078c0a4acfebaf8fc9","name":"李錦慧","birth":null,"former_names":"","identifiers":["李錦慧","李錦慧"]},{"url":"http://councils.g0v.tw/api/councilors/1544/","each_terms":[{"url":"http://councils.g0v.tw/api/councilors_terms/2470/","election_year":"2009","name":"王清堅","gender":"男","party":"無黨籍","title":"","constituency":6,"county":"臺東縣","district":"平地原住民（臺東市）","in_office":true,"contact_details":[{"type":"voice","value":"089-226611","label":"電話"},{"type":"email","value":"410308@taitungcc.gov.tw","label":"E-mail"},{"type":"address","value":"台東市興盛路211號","label":"地址"}],"term_start":"2009-12-25","term_end":{"date":"2014-12-25"},"education":"一、臺東縣立新生國小畢業。\n二、省立臺東初高農畢業。\n三、臺灣警察專科學校畢業。\n四、中央警官學校巡官14期。","experience":"一、警校教育班長。\n二、大安警衛室參謀。\n三、警政署警正科員。\n四、臺東縣警察局局員。\n五、臺東縣十四、十五屆縣議員。\n六、現任縣議員。","remark":null,"image":"http://www.taitungcc.gov.tw/ourteam/images/06_name03_pic001.jpg","links":[{"url":"http://www.taitungcc.gov.tw/ourteam/07ourteam_detail03.html","note":"議會個人官網"}],"social_media":null,"platform":"一、嚴格監督縣政。\n二、加強為民服務爭取原住民權益及福利。\n三、持續推動原住民文化傳承工作。\n四、維續爭取原住民擴大就業方案。\n五、爭取各部落經建方案。","param":{"suggestions_years":{"count":39,"sum":6623000,"years":[{"count":17,"sum":3626000,"suggest_year":"2012","small_purchase":11},{"count":12,"sum":2047000,"suggest_year":"2013","small_purchase":9},{"count":10,"sum":950000,"suggest_year":"2014","small_purchase":10}]},"suggestions_associations":[{"count":2,"sum":77000,"label":"社區發展協會"},{"count":0,"sum":0,"label":"學會"},{"count":0,"sum":0,"label":"商會"},{"count":0,"sum":0,"label":"公會"},{"count":0,"sum":0,"label":"協進會"},{"count":0,"sum":0,"label":"促進會"},{"count":0,"sum":0,"label":"研習會"},{"count":0,"sum":0,"label":"婦聯會"},{"count":0,"sum":0,"label":"婦女會"},{"count":0,"sum":0,"label":"體育會"},{"count":0,"sum":0,"label":"同心會"},{"count":0,"sum":0,"label":"農會"},{"count":0,"sum":0,"label":"早起會"},{"count":0,"sum":0,"label":"健身會"},{"count":0,"sum":0,"label":"宗親會"},{"count":0,"sum":0,"label":"功德會"},{"count":0,"sum":0,"label":"商業會"},{"count":0,"sum":0,"label":"長青會"},{"count":0,"sum":0,"label":"民眾服務社"},{"count":0,"sum":0,"label":"聯盟"}],"suggestions_piles":[{"count":17,"tokens":"國中|國小","sum":3706000,"label":"國中、國小"},{"count":2,"tokens":"消防局|消防隊|分隊|中隊","sum":198000,"label":"消防局"},{"count":1,"tokens":"辦公室|辦公處","sum":99000,"label":"辦公室"},{"count":2,"tokens":"協會|學會|商會|公會|協進會|促進會|研習會|婦聯會|婦女會|體育會|同心會|農會|早起會|健身會|宗親會|功德會|商業會|長青會|民眾服務社|聯盟","sum":77000,"label":"協會"},{"count":0,"tokens":"廟|宮","sum":0,"label":"廟"},{"count":0,"tokens":"警察局|分局","sum":0,"label":"警察局"}],"bills_party_diversity":null},"councilor":"08bcb3d0a44549ea8d9b229e29098ba1"},{"url":"http://councils.g0v.tw/api/councilors_terms/12075/","election_year":"2014","name":"王清堅","gender":"男","party":"中國國民黨","title":null,"constituency":7,"county":"臺東縣","district":"居住臺東市之平地原住民","in_office":false,"contact_details":null,"term_start":"2014-12-25","term_end":{"date":"2015-03-04","judicial_links":"","reason":"當選無效","ref":"http://gazette.nat.gov.tw/EG_FileManager/eguploadpub/eg021059/ch02/type3/gov15/num3/OEg.pdf","replacement":"方賢仁"},"education":null,"experience":null,"remark":null,"image":"","links":null,"social_media":null,"platform":"","param":{"bills_role_statistics":{"total":1,"priproposer":1,"sponsor":1,"cosponsor":0},"suggestions_years":{"count":5,"sum":498000,"years":[{"count":5,"sum":498000,"suggest_year":"2015","small_purchase":5}]},"suggestions_associations":[{"count":0,"sum":0,"label":"社區發展協會"},{"count":0,"sum":0,"label":"學會"},{"count":0,"sum":0,"label":"商會"},{"count":0,"sum":0,"label":"公會"},{"count":0,"sum":0,"label":"協進會"},{"count":0,"sum":0,"label":"促進會"},{"count":0,"sum":0,"label":"研習會"},{"count":0,"sum":0,"label":"婦聯會"},{"count":0,"sum":0,"label":"婦女會"},{"count":0,"sum":0,"label":"體育會"},{"count":0,"sum":0,"label":"同心會"},{"count":0,"sum":0,"label":"農會"},{"count":0,"sum":0,"label":"早起會"},{"count":0,"sum":0,"label":"健身會"},{"count":0,"sum":0,"label":"宗親會"},{"count":0,"sum":0,"label":"功德會"},{"count":0,"sum":0,"label":"商業會"},{"count":0,"sum":0,"label":"長青會"},{"count":0,"sum":0,"label":"民眾服務社"},{"count":0,"sum":0,"label":"聯盟"}],"suggestions_piles":[{"count":4,"tokens":"國中|國小","sum":399000,"label":"國中、國小"},{"count":1,"tokens":"消防局|消防隊|分隊|中隊","sum":99000,"label":"消防局"},{"count":0,"tokens":"協會|學會|商會|公會|協進會|促進會|研習會|婦聯會|婦女會|體育會|同心會|農會|早起會|健身會|宗親會|功德會|商業會|長青會|民眾服務社|聯盟","sum":0,"label":"協會"},{"count":0,"tokens":"辦公室|辦公處","sum":0,"label":"辦公室"},{"count":0,"tokens":"廟|宮","sum":0,"label":"廟"},{"count":0,"tokens":"警察局|分局","sum":0,"label":"警察局"}],"bills_party_diversity":[{"party":"中國國民黨","ratio":1.0}]},"councilor":"08bcb3d0a44549ea8d9b229e29098ba1"}],"uid":"08bcb3d0a44549ea8d9b229e29098ba1","name":"王清堅","birth":null,"former_names":"","identifiers":["王清堅"]},{"url":"http://councils.g0v.tw/api/councilors/1601/","each_terms":[],"uid":"02aa4dde6ff444f4906c9ab588aee4f3","name":"賴源順","birth":null,"former_names":"","identifiers":["賴源順","頼源順"]},{"url":"http://councils.g0v.tw/api/councilors/1604/","each_terms":[{"url":"http://councils.g0v.tw/api/councilors_terms/2530/","election_year":"2009","name":"林金量","gender":"","party":"中國國民黨","title":"","constituency":null,"county":"金門縣","district":"","in_office":true,"contact_details":[{"type":"address","value":"金門縣烈嶼鄉林湖村東林52號","label":"地址"},{"type":"voice","value":"（082）362982","label":"電話"}],"term_start":"2009-12-25","term_end":{"date":"2014-12-25"},"education":"銘傳大學公共事務學碩士\n國立空中大學公共行政學系畢業\n空專行政管理科畢業\n省立中壢高中畢業\n烈嶼國中畢業\n卓環國小畢業\n烈嶼鄉第八、九任鄉長\n金門縣政府秘書\n金門縣臨時議會議員\n金門縣政諮詢代表會代表\n卓環國小代課教師\n中國國民黨烈嶼區主委\n國民黨14、15、18全會黨代表\n金門縣生存遊戲運動協會理事長\n金門縣林氏宗親會理事長\n金門縣議會策進聯盟總召集人","experience":"烈嶼鄉第八、九任鄉長\n金門縣政府秘書\n金門縣臨時議會議員\n金門縣政諮詢代表會代表\n卓環國小代課教師\n中國國民黨烈嶼區主委\n國民黨14、15、18全會黨代表\n金門縣生存遊戲運動協會理事長\n金門縣林氏宗親會理事長\n金門縣議會策進聯盟總召集人","remark":null,"image":"http://www.kmcc.gov.tw/images/men/m_18.jpg","links":[{"url":"http://www.kmcc.gov.tw/men/05-018.htm","note":"議會個人官網"}],"social_media":null,"platform":"一切問政秉持「金門優先、縣民第一」。\n監督縣府落實社會福利政策，照顧縣民。\n建請縣府重視地區農、漁、牧、工、商業發展並補助或輔導，以提高其收入。\n監督縣府確實重視醫療與交通民生問題。\n監督縣府確實盡速興建金烈大橋。\n堅持「清廉、服務、勤快、專業」為工作原則。","param":{"suggestions_years":{"count":7,"sum":9250000,"years":[{"count":4,"sum":3250000,"suggest_year":"2012","small_purchase":0},{"count":1,"sum":3000000,"suggest_year":"2013","small_purchase":0},{"count":2,"sum":3000000,"suggest_year":"2014","small_purchase":0}]},"suggestions_associations":[{"count":0,"sum":0,"label":"社區發展協會"},{"count":0,"sum":0,"label":"學會"},{"count":0,"sum":0,"label":"商會"},{"count":0,"sum":0,"label":"公會"},{"count":0,"sum":0,"label":"協進會"},{"count":0,"sum":0,"label":"促進會"},{"count":0,"sum":0,"label":"研習會"},{"count":0,"sum":0,"label":"婦聯會"},{"count":0,"sum":0,"label":"婦女會"},{"count":0,"sum":0,"label":"體育會"},{"count":0,"sum":0,"label":"同心會"},{"count":0,"sum":0,"label":"農會"},{"count":0,"sum":0,"label":"早起會"},{"count":0,"sum":0,"label":"健身會"},{"count":0,"sum":0,"label":"宗親會"},{"count":0,"sum":0,"label":"功德會"},{"count":0,"sum":0,"label":"商業會"},{"count":0,"sum":0,"label":"長青會"},{"count":0,"sum":0,"label":"民眾服務社"},{"count":0,"sum":0,"label":"聯盟"}],"suggestions_piles":[{"count":1,"tokens":"辦公室|辦公處","sum":3000000,"label":"辦公室"},{"count":0,"tokens":"協會|學會|商會|公會|協進會|促進會|研習會|婦聯會|婦女會|體育會|同心會|農會|早起會|健身會|宗親會|功德會|商業會|長青會|民眾服務社|聯盟","sum":0,"label":"協會"},{"count":0,"tokens":"廟|宮","sum":0,"label":"廟"},{"count":0,"tokens":"警察局|分局","sum":0,"label":"警察局"},{"count":0,"tokens":"消防局|消防隊|分隊|中隊","sum":0,"label":"消防局"},{"count":0,"tokens":"國中|國小","sum":0,"label":"國中、國小"}]},"councilor":"93a7750e04624fa28b5521a9e81ad01c"}],"uid":"93a7750e04624fa28b5521a9e81ad01c","name":"林金量","birth":null,"former_names":"","identifiers":["林金量","林金量"]},{"url":"http://councils.g0v.tw/api/councilors/1605/","each_terms":[{"url":"http://councils.g0v.tw/api/councilors_terms/2531/","election_year":"2009","name":"王再生","gender":"","party":"無黨籍","title":"","constituency":null,"county":"金門縣","district":"","in_office":true,"contact_details":[{"type":"address","value":"金門縣金湖鎮山谿橋5號","label":"地址"},{"type":"voice","value":"（082）332496","label":"電話"}],"term_start":"2009-12-25","term_end":{"date":"2014-12-25"},"education":"革命實踐研究院結業\n金門縣第一、三、四屆議員","experience":"金門縣第一、三、四屆議員","remark":null,"image":"http://www.kmcc.gov.tw/images/men/m_17.jpg","links":[{"url":"http://www.kmcc.gov.tw/men/05-017.htm","note":"議會個人官網"}],"social_media":null,"platform":"推動金嶝大橋、金烈大橋、金廈大橋建設發展。\n推動福利政策照顧全民及弱勢團體。\n加強港埠建設，改善航安，落實兩岸大、小三通經濟發展，以利和平共享。\n全面檢討都市計劃，加強道路網路拓建，以利招商引資，改善全民經濟，增加就業機會。\n落實金酒產銷，創造營利分享全民，推動、監督金酒樹立企業形象與發展。\n加強地方建設，改善城鄉差距，力求推動重大建設與科技園區，創造產業升級與就業機會及經濟發展。\n落實發展觀光，開發商務休閒區，提升觀光景點之建設，改善服務品質。\n全面檢討自然村規劃與建設發展，以利地盡其用，提升經濟發展與繁榮。\n建立兩岸和平發展經貿示範區。\n戶籍遷入金門後，一年實際居住金門累計達184天者，即可享有家戶配酒之權益，不用再等三年。","param":{"suggestions_years":{"count":12,"sum":7988435,"years":[{"count":5,"sum":2999000,"suggest_year":"2012","small_purchase":0},{"count":4,"sum":2990000,"suggest_year":"2013","small_purchase":0},{"count":3,"sum":1999435,"suggest_year":"2014","small_purchase":0}]},"suggestions_associations":[{"count":0,"sum":0,"label":"社區發展協會"},{"count":0,"sum":0,"label":"學會"},{"count":0,"sum":0,"label":"商會"},{"count":0,"sum":0,"label":"公會"},{"count":0,"sum":0,"label":"協進會"},{"count":0,"sum":0,"label":"促進會"},{"count":0,"sum":0,"label":"研習會"},{"count":0,"sum":0,"label":"婦聯會"},{"count":0,"sum":0,"label":"婦女會"},{"count":0,"sum":0,"label":"體育會"},{"count":0,"sum":0,"label":"同心會"},{"count":0,"sum":0,"label":"農會"},{"count":0,"sum":0,"label":"早起會"},{"count":0,"sum":0,"label":"健身會"},{"count":0,"sum":0,"label":"宗親會"},{"count":0,"sum":0,"label":"功德會"},{"count":0,"sum":0,"label":"商業會"},{"count":0,"sum":0,"label":"長青會"},{"count":0,"sum":0,"label":"民眾服務社"},{"count":0,"sum":0,"label":"聯盟"}],"suggestions_piles":[{"count":4,"tokens":"國中|國小","sum":2709435,"label":"國中、國小"},{"count":0,"tokens":"協會|學會|商會|公會|協進會|促進會|研習會|婦聯會|婦女會|體育會|同心會|農會|早起會|健身會|宗親會|功德會|商業會|長青會|民眾服務社|聯盟","sum":0,"label":"協會"},{"count":0,"tokens":"辦公室|辦公處","sum":0,"label":"辦公室"},{"count":0,"tokens":"廟|宮","sum":0,"label":"廟"},{"count":0,"tokens":"警察局|分局","sum":0,"label":"警察局"},{"count":0,"tokens":"消防局|消防隊|分隊|中隊","sum":0,"label":"消防局"}]},"councilor":"130cf171eaf84d83a13583483d9f08a0"}],"uid":"130cf171eaf84d83a13583483d9f08a0","name":"王再生","birth":null,"former_names":"","identifiers":["王再生"]},{"url":"http://councils.g0v.tw/api/councilors/1304/","each_terms":[{"url":"http://councils.g0v.tw/api/councilors_terms/2230/","election_year":"2009","name":"陳國雄","gender":"男","party":"無黨籍","title":"議員","constituency":7,"county":"南投縣","district":"山地原住民","in_office":true,"contact_details":[{"type":"address","value":"仁愛鄉春陽村源泉巷14之1號 /埔里鎮同春三街42號","label":"通訊處"}],"term_start":"2009-12-25","term_end":{"date":"2014-12-25"},"education":"大漢技術學院企管系","experience":"國民黨仁愛鄉黨部常委、\n國民黨南投縣黨部委員、\n國民黨第17屆全國黨代表、\n春陽儲蓄互助社監事霧社合作農場場長、\n仁愛鄉第13屆代表、\n仁愛鄉第14屆代表會副主席、\n南投縣第1 3 屆縣議員、\n仁愛鄉第13屆鄉長。\n大漢技術學院企管系。","remark":null,"image":"http://www.ntcc.gov.tw/images/n3_7_1.jpg","links":null,"social_media":null,"platform":"一 讓原住民“交通更便利”\n1強烈建議規劃開通紅香溫泉至翠巒部落替代道路。\n2推動規劃眉原部落至發祥瑞岩部落道路之開通\n3建議提昇投71線銜接投83線、投89線改為省道 \n4建議將台14線（溫泉至盧山部落）及投69線拓寬為雙向道。\n5全面檢視仁愛鄉橋樑之結構。\n二讓原住民“就業有保障”\n1堅持原住民地區縣屬機構人員（衛生所、警察局、學校）應優先進用原住民籍同胞。\n2建議縣府辦理多元就業計畫創造原鄉更多就業機會。\n3建議縣府辦理原鄉專屬原住民職訓計畫。\n4建議原鄉工程進用原住民同胞。\n三讓原住民“生活更快樂”\n1加強社區安全規劃。\n2積極推動瑞岩遷村及翠巒遷村案。\n3建議縣府規劃仁愛鄉納入自來水公司供水規劃及督促加速辦理河川疏浚及治山防洪工作。\n4保障原住民學生就學之權益。\n5建議增設盧山、力行、萬豐、互助消防小隊。\n四讓原住民“環境更美麗”\n1協助社區部落爭取重點部落及特色部落之規劃。\n2持續建議縣府加強社區部落環境改善工作。\n3建議縣府辦理社區部落綠美化及環境空間營造。\n五讓原住民“經濟更繁榮”\n1監督縣府應儘速執行災害復建工程。\n2建議縣府輔導產銷班、手工藝工作室協助建立行銷通路。\n3建立仁愛鄉產業品牌制度，強力推銷仁愛鄉之農特產品。\n4建議將造林獎金提高以滿足造林戶之生活需要。\n六您的小事就是國雄的大事；對於您委託的事，相信國雄、國雄會努力為您完成。","param":{"bills_role_statistics":{"total":105,"priproposer":42,"sponsor":42,"cosponsor":63},"suggestions_piles":[{"count":11,"tokens":"國中|國小","sum":1052000,"label":"國中、國小"},{"count":0,"tokens":"協會|學會|商會|公會|協進會|促進會|研習會|婦聯會|婦女會|體育會|同心會|農會|早起會|健身會|宗親會|功德會|商業會|長青會|民眾服務社|聯盟","sum":0,"label":"協會"},{"count":0,"tokens":"辦公室|辦公處","sum":0,"label":"辦公室"},{"count":0,"tokens":"廟|宮","sum":0,"label":"廟"},{"count":0,"tokens":"警察局|分局","sum":0,"label":"警察局"},{"count":0,"tokens":"消防局|消防隊|分隊|中隊","sum":0,"label":"消防局"}],"suggestions_associations":[{"count":0,"sum":0,"label":"社區發展協會"},{"count":0,"sum":0,"label":"學會"},{"count":0,"sum":0,"label":"商會"},{"count":0,"sum":0,"label":"公會"},{"count":0,"sum":0,"label":"協進會"},{"count":0,"sum":0,"label":"促進會"},{"count":0,"sum":0,"label":"研習會"},{"count":0,"sum":0,"label":"婦聯會"},{"count":0,"sum":0,"label":"婦女會"},{"count":0,"sum":0,"label":"體育會"},{"count":0,"sum":0,"label":"同心會"},{"count":0,"sum":0,"label":"農會"},{"count":0,"sum":0,"label":"早起會"},{"count":0,"sum":0,"label":"健身會"},{"count":0,"sum":0,"label":"宗親會"},{"count":0,"sum":0,"label":"功德會"},{"count":0,"sum":0,"label":"商業會"},{"count":0,"sum":0,"label":"長青會"},{"count":0,"sum":0,"label":"民眾服務社"},{"count":0,"sum":0,"label":"聯盟"}],"diversity":{"中國國民黨":0.5355555555555552,"民主進步黨":0.02253968253968254,"無黨籍":0.4419047619047622},"suggestions_years":{"count":12,"sum":2052000,"years":[{"count":12,"sum":2052000,"suggest_year":"2014","small_purchase":11}]}},"councilor":"c990bb4cbe264f15abc424184669e2a9"}],"uid":"c990bb4cbe264f15abc424184669e2a9","name":"陳國雄","birth":"1960-02-03","former_names":"","identifiers":["陳國雄"]},{"url":"http://councils.g0v.tw/api/councilors/1306/","each_terms":[{"url":"http://councils.g0v.tw/api/councilors_terms/2232/","election_year":"2009","name":"林志華","gender":"","party":"中國國民黨","title":"議員","constituency":2,"county":"新竹縣","district":"湖口鄉","in_office":true,"contact_details":[{"type":"email","value":"a17011@hcc.gov.tw","label":"E-mail"}],"term_start":"2009-12-25","term_end":{"date":"2014-12-25"},"education":"美國聖瑪麗大學碩士\n世界新聞專科學校","experience":"新竹縣林姓宗親會湖口分會理事長\n新竹縣青年志工服務協會總會長\n湖口鄉新工、湖口義消、警友會顧問\n義警中隊顧問團團長\n民防中隊顧問團副團長\n中國國民黨新竹縣黨部副主任委員\n新竹縣新湖獅子會會長\n湖口鄉民眾服務社理事長\n新湖國小家長會副會長。","remark":null,"image":"http://www.hcc.gov.tw/03councilor/photo/IMG_0318s.jpg","links":[{"url":"http://www.hcc.gov.tw/03councilor/view.asp?id=56","note":"議會個人官網"},{"url":"http://www.hcc.gov.tw/blog/style03/04list.asp?ald_id=56","note":"個人網站"}],"social_media":null,"platform":"用心監督縣政、誠心服務鄉親、熱心關懷地方建設。\n配合鄉政、向縣政府及中央爭取更多經費。\n重視本土文化、鼓勵原創精神，多元族群融和。\n提升湖口鄉國際觀、競爭力。\n台灣邁入老年化社會，老年人口增加，促進老年人的關懷及基層照護政策。\n保障婦女權益、兩性平等共治。\n推動優質社區營造。提昇教育及人文素質發展。\n重視全球暖化問題、嚮應綠色生活。","param":{"suggestions_years":{"count":2,"sum":105000,"years":[{"count":2,"sum":105000,"suggest_year":"2014","small_purchase":2}]},"diversity":{"":0.0426268749298213,"中國國民黨":0.714255059963746,"民主進步黨":0.02620324623061377,"勞動黨":0.03229798548922861,"無黨籍":0.18461683338659055},"bills_role_statistics":{"total":105,"priproposer":12,"sponsor":14,"cosponsor":91},"suggestions_associations":[{"count":0,"sum":0,"label":"社區發展協會"},{"count":0,"sum":0,"label":"學會"},{"count":0,"sum":0,"label":"商會"},{"count":0,"sum":0,"label":"公會"},{"count":0,"sum":0,"label":"協進會"},{"count":0,"sum":0,"label":"促進會"},{"count":0,"sum":0,"label":"研習會"},{"count":0,"sum":0,"label":"婦聯會"},{"count":0,"sum":0,"label":"婦女會"},{"count":0,"sum":0,"label":"體育會"},{"count":0,"sum":0,"label":"同心會"},{"count":0,"sum":0,"label":"農會"},{"count":0,"sum":0,"label":"早起會"},{"count":0,"sum":0,"label":"健身會"},{"count":0,"sum":0,"label":"宗親會"},{"count":0,"sum":0,"label":"功德會"},{"count":0,"sum":0,"label":"商業會"},{"count":0,"sum":0,"label":"長青會"},{"count":0,"sum":0,"label":"民眾服務社"},{"count":0,"sum":0,"label":"聯盟"}],"bills_party_diversity":[{"party":"中國國民黨","ratio":0.7429111531190926},{"party":"無黨籍","ratio":0.15689981096408318},{"party":"勞動黨","ratio":0.03969754253308128},{"party":"","ratio":0.03780718336483932},{"party":"民主進步黨","ratio":0.022684310018903593}],"suggestions_piles":[{"count":0,"tokens":"協會|學會|商會|公會|協進會|促進會|研習會|婦聯會|婦女會|體育會|同心會|農會|早起會|健身會|宗親會|功德會|商業會|長青會|民眾服務社|聯盟","sum":0,"label":"協會"},{"count":0,"tokens":"辦公室|辦公處","sum":0,"label":"辦公室"},{"count":0,"tokens":"廟|宮","sum":0,"label":"廟"},{"count":0,"tokens":"警察局|分局","sum":0,"label":"警察局"},{"count":0,"tokens":"消防局|消防隊|分隊|中隊","sum":0,"label":"消防局"},{"count":0,"tokens":"國中|國小","sum":0,"label":"國中、國小"}]},"councilor":"8865473090ef483d9b30784abbe253e2"}],"uid":"8865473090ef483d9b30784abbe253e2","name":"林志華","birth":null,"former_names":"","identifiers":["林志華","林志華"]},{"url":"http://councils.g0v.tw/api/councilors/1312/","each_terms":[{"url":"http://councils.g0v.tw/api/councilors_terms/2238/","election_year":"2009","name":"何淦銘","gender":"","party":"無黨籍","title":"議員","constituency":1,"county":"新竹縣","district":"竹北市","in_office":true,"contact_details":[{"type":"address","value":"新竹縣竹北市中華路401-1號","label":"住址"},{"type":"voice","value":"0920935385","label":"電話"},{"type":"email","value":"kanming_ho@yahoo.com.tw","label":"E-mail"}],"term_start":"2009-12-25","term_end":{"date":"2014-12-25"},"education":"建華國中\n東亞法商函授學校企業管理科","experience":"東元醫院前副院長\n新竹縣、市警友會總幹事\n新竹縣消友會第一分會會長\n工程資訊協會創會長\n新興同濟會會長\n竹北市水電聯誼會顧問\n竹北市何姓宗親會理事長\n新竹捐血中心顧問\n旺旺流浪動物協會總幹事\n竹北佳佳桌球協會顧問","remark":null,"image":"http://www.hcc.gov.tw/03councilor/photo/%E5%A4%A7%E9%A0%AD%E7%85%A7.jpg","links":[{"url":"http://www.hcc.gov.tw/03councilor/view.asp?id=48","note":"議會個人官網"},{"url":"http://www.wretch.cc/blog/Hokanming","note":"個人網站"}],"social_media":null,"platform":"","param":{"bills_role_statistics":{"total":61,"priproposer":15,"sponsor":15,"cosponsor":46},"diversity":{"":0.027250318174975714,"中國國民黨":0.4362098737852857,"民主進步黨":0.03602899123038868,"勞動黨":0.08015307015754977,"無黨籍":0.4203577466518003},"bills_party_diversity":[{"party":"中國國民黨","ratio":0.5014245014245015},{"party":"無黨籍","ratio":0.37606837606837606},{"party":"勞動黨","ratio":0.05982905982905983},{"party":"","ratio":0.03133903133903134},{"party":"民主進步黨","ratio":0.03133903133903134}]},"councilor":"9264952c6a2245ab9e43d80607d1e0a2"}],"uid":"9264952c6a2245ab9e43d80607d1e0a2","name":"何淦銘","birth":null,"former_names":"","identifiers":["何淦銘"]},{"url":"http://councils.g0v.tw/api/councilors/951/","each_terms":[{"url":"http://councils.g0v.tw/api/councilors_terms/1719/","election_year":"1958","name":"李樔槦","gender":"","party":"","title":"議員","constituency":3,"county":"新北市","district":"新莊鎮、泰山鄉、三重鎮、五股鄉、林口鄉、蘆洲鄉","in_office":true,"contact_details":null,"term_start":"1958-02-21","term_end":{"date":"1961-02-20"},"education":"臺北州宜蘭農林學校\n臺北師範學校","experience":"泰山國校、新莊農校及明志國中教師\n泰山鄉第1屆鄉民代表\n第4屆鄉民代表主席\n泰山鄉體育會理事長\n臺北縣警民協會理事\n泰山鄉民防團副團長\n臺北縣議會第4、5屆議員\n財團法人泰山巖顧問\n臺北縣義勇警察大隊督導","remark":null,"image":"http://www.ntp.gov.tw/UpFile/CouncilorFile/TTCC0421.jpg","links":[{"url":"http://www.ntp.gov.tw/content/history/history01-5-p.aspx?sid=195","note":"議會個人官網"}],"social_media":null,"platform":"","param":null,"councilor":"cda7479765864236ad39773d934cabfe"},{"url":"http://councils.g0v.tw/api/councilors_terms/1781/","election_year":"1961","name":"李樔槦","gender":"","party":"","title":"議員","constituency":3,"county":"新北市","district":"新莊鎮、泰山鄉、三重鎮、五股鄉、蘆洲鄉、林口鄉","in_office":true,"contact_details":null,"term_start":"1961-02-21","term_end":{"date":"1964-02-20"},"education":"臺北州宜蘭農林學校\n臺北師範學校","experience":"泰山國校、新莊農校及明志國中教師\n泰山鄉第1屆鄉民代表\n第4屆鄉民代表主席\n泰山鄉體育會理事長\n臺北縣警民協會理事\n泰山鄉民防團副團長\n臺北縣議會第4、5屆議員\n財團法人泰山巖顧問\n臺北縣義勇警察大隊督導","remark":null,"image":"http://www.ntp.gov.tw/UpFile/CouncilorFile/TTCC0421.jpg","links":[{"url":"http://www.ntp.gov.tw/content/history/history01-5-p.aspx?sid=195","note":"議會個人官網"}],"social_media":null,"platform":"","param":null,"councilor":"cda7479765864236ad39773d934cabfe"}],"uid":"cda7479765864236ad39773d934cabfe","name":"李樔槦","birth":null,"former_names":"","identifiers":["李樔槦","李樔槦"]}]}