{"count":1904,"next":"http://councils.g0v.tw/api/councilors/?page=9","previous":"http://councils.g0v.tw/api/councilors/?page=7","results":[{"url":"http://councils.g0v.tw/api/councilors/780/","each_terms":[{"url":"http://councils.g0v.tw/api/councilors_terms/1430/","election_year":"1946","name":"藍文","gender":"","party":"","title":"議員","constituency":null,"county":"新北市","district":"","in_office":true,"contact_details":null,"term_start":"1946-04-15","term_end":{"date":"1950-12-31"},"education":"淡水聖道書院畢業。","experience":"街莊協議會員\n農會理事長\n合作社理事主席\n*嗣分內湖鄉為南港鎮仍繼任","remark":null,"image":"http://www.ntp.gov.tw/UpFile/CouncilorFile/TTCC0045.jpg","links":[{"url":"http://www.ntp.gov.tw/content/history/history01-5-p.aspx?sid=45","note":"議會個人官網"}],"social_media":null,"platform":"","param":null,"councilor":"5f94921173b949159188ef907600e091"}],"uid":"5f94921173b949159188ef907600e091","name":"藍文","birth":null,"former_names":"","identifiers":["藍文"]},{"url":"http://councils.g0v.tw/api/councilors/83/","each_terms":[{"url":"http://councils.g0v.tw/api/councilors_terms/147/","election_year":"2006","name":"賴素如","gender":"女","party":"中國國民黨","title":"議員","constituency":null,"county":"臺北市","district":"","in_office":true,"contact_details":null,"term_start":"2006-12-25","term_end":{"date":"2010-12-25"},"education":"石牌國小、明德國中、北一女中、輔仁大學法律系畢業、中國文化大學法學碩士、中國文化大學法學博士。","experience":"律師、第八、九屆台北市議員、中國國民黨中央委員暨文傳會文宣部主任、中國文化大學法律系助理教授、北台灣科技學院財經法律系助理教授、士林暨北投社區大學講師、台北市啦啦隊委員會主任委員、北投區調解委員。","remark":"","image":"http://www.tcc.gov.tw/../upload/photo/%E8%B3%B4%E7%B4%A0%E5%A6%82.jpg","links":[{"url":"http://www.tcc.gov.tw/Councilor_Content_All.aspx?s=2296&d=640323&n=%E8%B3%B4%E7%B4%A0%E5%A6%82","note":"議會個人官網"}],"social_media":null,"platform":"","param":null,"councilor":"ed46ba38874143de9d1383ddf7821d05"},{"url":"http://councils.g0v.tw/api/councilors_terms/199/","election_year":"2002","name":"賴素如","gender":"女","party":"中國國民黨","title":"議員","constituency":null,"county":"臺北市","district":"","in_office":true,"contact_details":null,"term_start":"2002-12-25","term_end":{"date":"2006-12-25"},"education":"石牌國小、明德國中、北一女中、輔仁大學法律系畢業、中國文化大學法學碩士、中國文化大學法學博士候選人、高考律師及格。","experience":"社教館家庭教育中心榮譽輔導員、北投區公所法律諮詢義務律師、北投、士林區民眾服務社法律諮詢義務律師、北投區調解委員十一年、北投扶輪社、中國文化大學講師、士林社區大學講師、北投社區大學講師、光武技術學院講師、臺北市直轄市議會第八屆議員。","remark":"","image":"http://www.tcc.gov.tw/../upload/photo/%E8%B3%B4%E7%B4%A0%E5%A6%8217.bmp","links":[{"url":"http://www.tcc.gov.tw/Councilor_Content_All.aspx?s=2178&d=640323&n=%E8%B3%B4%E7%B4%A0%E5%A6%82","note":"議會個人官網"}],"social_media":null,"platform":"","param":null,"councilor":"ed46ba38874143de9d1383ddf7821d05"},{"url":"http://councils.g0v.tw/api/councilors_terms/253/","election_year":"1998","name":"賴素如","gender":"女","party":"中國國民黨","title":"議員","constituency":null,"county":"臺北市","district":"","in_office":true,"contact_details":null,"term_start":"1998-12-25","term_end":{"date":"2002-12-25"},"education":"石牌國小、明德國中、北一女中、輔仁大學法律系畢業、中國文化大學法學碩士。","experience":"律師高考及格、社教館家庭教育中心榮譽輔導員、生活英語教室班主任、北投區調解委員、私立光武工商專科學校講師、北投區公所法律諮詢義務律師、北投、士林區民眾服務社法律諮詢義務律師、陽明山同濟會理事、賴素如律師事務所負責人","remark":"","image":"http://www.tcc.gov.tw/../upload/photo/%E8%B3%B4%E7%B4%A0%E5%A6%8216.jpg","links":[{"url":"http://www.tcc.gov.tw/Councilor_Content_All.aspx?s=1667&d=640323&n=%E8%B3%B4%E7%B4%A0%E5%A6%82","note":"議會個人官網"}],"social_media":null,"platform":"","param":null,"councilor":"ed46ba38874143de9d1383ddf7821d05"},{"url":"http://councils.g0v.tw/api/councilors_terms/87/","election_year":"2010","name":"賴素如","gender":"女","party":"中國國民黨","title":"議員","constituency":1,"county":"臺北市","district":"北投區、士林區","in_office":true,"contact_details":[{"type":"email","value":"tcc8703@tcc.gov.tw","label":"電子信箱"},{"type":"voice","value":"28278080(服務處)27297708#7044、7144","label":"電話"},{"type":"fax","value":"28201836、23459135","label":"傳真"},{"type":"address","value":"台北市北投區石牌路1段25號","label":"通訊處"}],"term_start":"2010-12-25","term_end":{"date":"2014-12-25"},"education":"中國文化大學法學博士、中國文化大學法學碩士、輔仁大學法學士、北一女中、明德國中、石牌國小","experience":"臺北市第八、九、十屆市議員；總統府法律顧問；國家文化總會副祕書長；國民黨中常委；國民黨文傳會副主委兼文宣部主任；馬蕭競選總部法律諮詢中心負責人；馬蕭政權移交小組執行秘書；文化大學兼任助理教授；文化大學校友總會副理事長；輔仁大學校友會常務理事。","remark":"","image":"http://www.tcc.gov.tw/../upload/photo/%E8%B3%B4%E7%B4%A0%E5%A6%82112.jpg","links":[{"url":"http://www.tcc.gov.tw/Councilor_Content.aspx?s=1028","note":"議會個人官網"},{"url":"http://facebook.com/sweetlai0323","note":"個人網站"}],"social_media":null,"platform":"一、爭取北投第四公墓變更地目為公園，並全力要求生態公園早日完成。\n二、針對關渡平原、石牌地區、北投士林科技園區、社子島等地區，因細部開發計畫尚未確定，造成民眾權益受損，要求市府儘速提出區段徵收補償自治條例，保障民眾權益。\n三、加速北投纜車早日完工及北投觀光溫泉之開發，帶動觀光人潮，讓北投溫泉成為國際化觀光溫泉。\n四、加強天母商圈整體規劃，重現繁榮天母，提升交通及停車機能，確保鄰近居民生活品質。\n五、加速社子島捷運路網的規劃及開發，有效解決社子島對外交通問題。\n六、為改善北市都市景觀，提升市民生活品質，全力推動老舊建物更新補助，對屋齡二十年以上建物進行外牆美化、增設無障礙設施及環境綠美化工程時，由政府補助全額規畫費用及百分之四十五工程款。\n七、全力推動品格教育，養成學子健全品德；積極舉辦青少年法治教育研習營，落實法治教育向下紮根。\n八、保障老人、婦幼及身心障礙者之安全與福利，加強公共場所各項福利設施之設置。\n九、整合政府與民間資源，加強對低收入戶、獨居老人等弱勢族群之生活照顧。\n十、加強『學校社區化』之落實，使學校發展與地方特色得以充分結合。\n十一、加速建置治安及交通監視器系統，協助警察勤務，保障人民安全。\n十二、積極規劃河川堤防空地綠美化，加強藍色公路行銷及推展，確實做好疏濬清淤工作，創造台北河岸新風貌。","param":{"bills_role_statistics":{"total":31,"priproposer":2,"sponsor":31,"cosponsor":0},"votes_decision_statistics":{"abstain":1,"disagree":31,"not_voting":25,"total":60,"agree":3,"conflict":1},"diversity":{"臺灣團結聯盟":0.02440586828281255,"親民黨":0.026719002458543962,"無黨籍":0.023734839096229334,"中國國民黨":0.613101805996589,"新黨":0.03042380766383002,"民主進步黨":0.2816146765019951},"suggestions_years":{"count":6,"sum":3407000,"years":[{"count":1,"sum":1328000,"suggest_year":"2011","small_purchase":0},{"count":1,"sum":500000,"suggest_year":"2012","small_purchase":0},{"count":1,"sum":10000,"suggest_year":"2013","small_purchase":1},{"count":3,"sum":1569000,"suggest_year":"2014","small_purchase":0}]},"attendance_statistics":{"absent":5,"total":131},"suggestions_associations":[{"count":0,"sum":0,"label":"社區發展協會"},{"count":0,"sum":0,"label":"學會"},{"count":0,"sum":0,"label":"商會"},{"count":0,"sum":0,"label":"公會"},{"count":0,"sum":0,"label":"協進會"},{"count":0,"sum":0,"label":"促進會"},{"count":0,"sum":0,"label":"研習會"},{"count":0,"sum":0,"label":"婦聯會"},{"count":0,"sum":0,"label":"婦女會"},{"count":0,"sum":0,"label":"體育會"},{"count":0,"sum":0,"label":"同心會"},{"count":0,"sum":0,"label":"農會"},{"count":0,"sum":0,"label":"早起會"},{"count":0,"sum":0,"label":"健身會"},{"count":0,"sum":0,"label":"宗親會"},{"count":0,"sum":0,"label":"功德會"},{"count":0,"sum":0,"label":"商業會"},{"count":0,"sum":0,"label":"長青會"},{"count":0,"sum":0,"label":"民眾服務社"},{"count":0,"sum":0,"label":"聯盟"}],"bills_party_diversity":[{"party":"中國國民黨","ratio":0.614314115308151},{"party":"民主進步黨","ratio":0.28926441351888665},{"party":"新黨","ratio":0.0268389662027833},{"party":"無黨籍","ratio":0.02485089463220676},{"party":"親民黨","ratio":0.02385685884691849},{"party":"臺灣團結聯盟","ratio":0.020874751491053677}],"suggestions_piles":[{"count":0,"tokens":"協會|學會|商會|公會|協進會|促進會|研習會|婦聯會|婦女會|體育會|同心會|農會|早起會|健身會|宗親會|功德會|商業會|長青會|民眾服務社|聯盟","sum":0,"label":"協會"},{"count":0,"tokens":"辦公室|辦公處","sum":0,"label":"辦公室"},{"count":0,"tokens":"廟|宮","sum":0,"label":"廟"},{"count":0,"tokens":"警察局|分局","sum":0,"label":"警察局"},{"count":0,"tokens":"消防局|消防隊|分隊|中隊","sum":0,"label":"消防局"},{"count":0,"tokens":"國中|國小","sum":0,"label":"國中、國小"}]},"councilor":"ed46ba38874143de9d1383ddf7821d05"}],"uid":"ed46ba38874143de9d1383ddf7821d05","name":"賴素如","birth":"1964-03-23","former_names":"","identifiers":["賴素如","頼素如"]},{"url":"http://councils.g0v.tw/api/councilors/617/","each_terms":[{"url":"http://councils.g0v.tw/api/councilors_terms/1079/","election_year":"1982","name":"鄭登文","gender":"","party":"","title":"議員","constituency":1,"county":"新北市","district":"板橋市、土城鄉","in_office":true,"contact_details":null,"term_start":"1982-03-01","term_end":{"date":"1986-02-28"},"education":"中國文化大學地政專修班進修","experience":"保家裕建設有限公司常務董事\n臺北縣苗栗同鄉會理事長\n少年輔導會榮譽委員\n建築爭議委員會委員\n板橋市皇星宮管理委員會主任委員\n臺北縣橄欖球會委員、主委、常委及理事\n棒球委員會委員、主委、常委及理事\n板橋市潛泳會委員、主委、常委及理事\n中華民國棒球協會委員、主委、常委及理事\n冠泰建設董事長\n民昇汽車商行負責人\n臺北縣議會第10屆議員","remark":null,"image":"http://www.ntp.gov.tw/UpFile/CouncilorFile/TTCC1006.jpg","links":[{"url":"http://www.ntp.gov.tw/content/history/history01-5-p.aspx?sid=354","note":"議會個人官網"}],"social_media":null,"platform":"","param":null,"councilor":"5137d739b69a463ca1933eefc3854e1f"}],"uid":"5137d739b69a463ca1933eefc3854e1f","name":"鄭登文","birth":null,"former_names":"","identifiers":["鄭登文"]},{"url":"http://councils.g0v.tw/api/councilors/664/","each_terms":[{"url":"http://councils.g0v.tw/api/councilors_terms/1180/","election_year":"1994","name":"林海瑞","gender":"","party":"","title":"議員","constituency":5,"county":"新北市","district":"三重市、蘆洲鄉","in_office":true,"contact_details":null,"term_start":"1994-03-01","term_end":{"date":"1998-02-28"},"education":"臺北縣立光榮國中","experience":"三重市市民代表\n台北縣立五華國小第二,三屆家長會會長\n","remark":null,"image":"http://www.ntp.gov.tw/UpFile/CouncilorFile/TTCC1334.jpg","links":[{"url":"http://www.ntp.gov.tw/content/history/history01-5-p.aspx?sid=566","note":"議會個人官網"}],"social_media":null,"platform":"","param":null,"councilor":"f88d235ce19b4395b76bdff4a858bfb8"}],"uid":"f88d235ce19b4395b76bdff4a858bfb8","name":"林海瑞","birth":null,"former_names":"","identifiers":["林海瑞","林海瑞"]},{"url":"http://councils.g0v.tw/api/councilors/734/","each_terms":[{"url":"http://councils.g0v.tw/api/councilors_terms/1359/","election_year":"2006","name":"李國書","gender":"","party":"","title":"議員","constituency":6,"county":"新北市","district":"新莊市、泰山鄉、五股鄉、林口鄉","in_office":true,"contact_details":null,"term_start":"2006-03-01","term_end":{"date":"2010-12-24"},"education":"泰山國小\n醒吾中學\n省立新莊高中","experience":"臺北縣議會第16屆議員\n政大行政專科班\n哈佛大學政經領袖班\n台北縣議員\n泰山鄉長\n代表會主席\n李氏宗親會理事\n社區總體營造協\n會榮譽理事長\n雲林同鄉會顧問\n大新莊區家長會長聯誼會顧問\n泰山國小家長會長\n泰山高中校友會長\n五股鄉國中小學家長會顧問\n發明商品促進協會顧問\n新莊治安大隊顧問\n佛光會顧問\n後備輔導中心主任\n義消分隊長","remark":null,"image":"http://www.ntp.gov.tw/UpFile/CouncilorFile/TTCC1646.jpg","links":[{"url":"http://www.ntp.gov.tw/content/history/history01-5-p.aspx?sid=544","note":"議會個人官網"}],"social_media":null,"platform":"","param":null,"councilor":"203f2ba2550f43f69f1261c6dc3f8537"}],"uid":"203f2ba2550f43f69f1261c6dc3f8537","name":"李國書","birth":null,"former_names":"","identifiers":["李國書","李國書"]},{"url":"http://councils.g0v.tw/api/councilors/1191/","each_terms":[{"url":"http://councils.g0v.tw/api/councilors_terms/2117/","election_year":"2009","name":"李麗珠","gender":"","party":"","title":"議員","constituency":2,"county":"桃園縣","district":"龜山鄉","in_office":true,"contact_details":[{"type":"email","value":"tycca018@tycc.gov.tw","label":"EMAIL"},{"type":"address","value":"龜山鄉大崗村新興一街61巷1弄35號","label":"服務處"},{"type":"voice","value":"328-2871","label":"電話"},{"type":"fax","value":"328-0182","label":"傳真"}],"term_start":"2009-12-25","term_end":{"date":"2014-12-25"},"education":"靜修女中商業科\n開南大學企業與創業管理系","experience":"桃園縣議員\n龜山鄉第16屆鄉民代表\n中國國民黨17、18全黨代表\n桃園縣脊髓損傷能發展中心董事\n桃園縣志願服務協會理事\n龜山鄉李氏宗親常務理事\n龜山鄉婦女會第20屆理事長\n龜山分局婦女志工中隊長\n龜山分局交通愛心小天使隊長\n林口長庚醫院社會志願工作隊志工\n龜山農會家政、四健會義務指導員\n龜山鄉高齡者志工","remark":null,"image":"http://www.tycc.gov.tw/file%5Cperson%5Capp%5Ca634641659869554308%E6%9D%8E%E9%BA%97%E7%8F%A0%E8%AD%B0%E5%93%A1.jpg","links":[{"url":"http://www.tycc.gov.tw/page.aspx?wtp=1&wnd=204&id=46","note":"議會個人官網"},{"url":"http://https://www.facebook.com/iabc.iabc","note":"臉書"}],"social_media":null,"platform":"一、加速推動林口都市開發計劃，以建立龜山完善都市發展，並爭取保護區適度開放以\n消民怨。\n二、建請林口特定區內之30米以上之計劃道路為商業區。\n三、全力儘速闢建龜山鄉大坪頂地區，樂善村通往新莊之聯外道路。\n四、全力爭取設立公立高中，以均衡發展龜山教育及嘉惠學子升學管道，並加強充實中\n小學校設施更新。\n五、全力協助建立社區警民聯防系統，以提高有效防制犯罪並確保治安維護，加強婦幼\n安全。","param":null,"councilor":"0721cec59623412b8ea35dca662190c2"}],"uid":"0721cec59623412b8ea35dca662190c2","name":"李麗珠","birth":null,"former_names":"","identifiers":["李麗珠","李麗珠","李麗珠","李麗珠"]},{"url":"http://councils.g0v.tw/api/councilors/1196/","each_terms":[{"url":"http://councils.g0v.tw/api/councilors_terms/2122/","election_year":"2009","name":"許森能","gender":"","party":"","title":"議員","constituency":2,"county":"桃園縣","district":"龜山鄉","in_office":true,"contact_details":[{"type":"address","value":"自強東路152號","label":"服務處"},{"type":"voice","value":"03-3192377","label":"電話"},{"type":"address","value":"萬壽路一段340號","label":"服務處"},{"type":"voice","value":"02-82001127","label":"電話"}],"term_start":"2009-12-25","term_end":{"date":"2014-12-25"},"education":"國立體育大學","experience":"龍華科技大學學分班\n龜山鄉民代表會第17、18屆代表\n迴龍義消分隊長\n迴龍國中小學第3、4屆家長會長\n龜山扶輪社2007~2008社長\n桃園縣龜山鄉機動救援協會第4、5屆理事長\n龜山鄉體育會自行車委員會主任委員\n龍華社區發展協會第1、2屆常務理事\n嘉義同鄉會副理事長\n常務理事、龜山分會主任委員\n龍華社區發展協會第3屆理事長\n龜山義消中隊副中隊長\n迴龍警友站榮譽顧問\n龜山鄉住戶管理促進會副會長\n桃園東方扶輪社創社秘書","remark":null,"image":"http://www.tycc.gov.tw/file%5Cperson%5Capp%5Ca634641660074226668%E8%A8%B1%E6%A3%AE%E8%83%BD%E8%AD%B0%E5%93%A1.jpg","links":[{"url":"http://www.tycc.gov.tw/page.aspx?wtp=1&wnd=204&id=45","note":"議會個人官網"},{"url":"http://www.facebook.com/?ref=logo#!/profile.php?id=100001481402999","note":"臉書"}],"social_media":null,"platform":"","param":null,"councilor":"f751ba0862c5406f87c9a715b6be3388"}],"uid":"f751ba0862c5406f87c9a715b6be3388","name":"許森能","birth":null,"former_names":"","identifiers":["許森能"]},{"url":"http://councils.g0v.tw/api/councilors/160/","each_terms":[{"url":"http://councils.g0v.tw/api/councilors_terms/248/","election_year":"1998","name":"魏憶龍","gender":"男","party":"無黨籍","title":"議員","constituency":null,"county":"臺北市","district":"","in_office":false,"contact_details":null,"term_start":"1998-12-25","term_end":{"date":"2002-12-25","reason":"其後退出新黨為無黨籍議員"},"education":"省立嘉義高級中學、中興大學法學士、台灣大學法學碩士","experience":"新黨發起人。臺北市直轄市議會第七屆議員。醫事法律學會監事。傑人會理、監事。交通大學、文化大學、淡江大學講師。聯合報產業工會法律顧問。臺北市公車產業工會法律顧問。樹仁殘障福利事業基金會董事。理運國際法律事務所主持律師。","remark":"其後退出新黨為無黨籍議員","image":"http://www.tcc.gov.tw/../upload/photo/%E9%AD%8F%E6%86%B6%E9%BE%8D16.bmp","links":[{"url":"http://www.tcc.gov.tw/Councilor_Content_All.aspx?s=1357&d=581207&n=%E9%AD%8F%E6%86%B6%E9%BE%8D","note":"議會個人官網"}],"social_media":null,"platform":"","param":null,"councilor":"d4f924efb65147c9adeedf98253c38cd"},{"url":"http://councils.g0v.tw/api/councilors_terms/298/","election_year":"1994","name":"魏憶龍","gender":"男","party":"新黨","title":"議員","constituency":null,"county":"臺北市","district":"","in_office":true,"contact_details":null,"term_start":"1994-12-25","term_end":{"date":"1998-12-25"},"education":"崇文國小、南興國中、省立嘉義高中、中興大學法律系、臺灣大學法律研究所碩士","experience":"理運國際法律事務所律師。醫事法律學會監事。新黨發起人。交通大學講師、文化大學講師、淡江大學講師。樹仁殘障福利事業基金會董事。殘障才藝發展協會顧問。聯合報產業工會暨臺北公車管理處產業工會義務法律顧問。社會運動協會法制長。","remark":"","image":"http://www.tcc.gov.tw/../upload/photo/%E9%AD%8F%E6%86%B6%E9%BE%8D15.jpg","links":[{"url":"http://www.tcc.gov.tw/Councilor_Content_All.aspx?s=1495&d=581207&n=%E9%AD%8F%E6%86%B6%E9%BE%8D","note":"議會個人官網"}],"social_media":null,"platform":"","param":null,"councilor":"d4f924efb65147c9adeedf98253c38cd"}],"uid":"d4f924efb65147c9adeedf98253c38cd","name":"魏憶龍","birth":"1958-12-07","former_names":"","identifiers":["魏憶龍"]},{"url":"http://councils.g0v.tw/api/councilors/380/","each_terms":[{"url":"http://councils.g0v.tw/api/councilors_terms/718/","election_year":"2010","name":"林義迪","gender":"","party":"中國國民黨","title":"議員","constituency":1,"county":"高雄市","district":"桃源區、那瑪夏區、甲仙區、六龜區、杉林區、內門區、旗山區、美濃區、茂林區","in_office":true,"contact_details":[{"type":"voice","value":"6621688","label":"傳真"},{"type":"fax","value":"6623087","label":"傳真"},{"type":"email","value":"lin.iti1568@yahoo.com.tw","label":"電子信箱"},{"type":"address","value":"高雄市旗山區大德里19鄰復新街32號","label":"通訊處"}],"term_start":"2010-12-25","term_end":{"date":"2014-12-25"},"education":"高美醫專二專","experience":"立法委員鍾紹和服務處旗山區主任\n旗山鎮大德里第15.16.17屆里長\n高雄縣縫紉商業同業公會理事長\n三農官、興南宮委員\n旗山天后宮副主任委員\n高雄縣旗山鎮長、高雄市旗山區長","remark":null,"image":"http://www.kcc.gov.tw/Upload/PeriodMembers/0701071.jpg","links":[{"url":"http://www.kcc.gov.tw/PeriodMembers/Introduction.aspx?KeyID=1736","note":"議會個人官網"}],"social_media":null,"platform":"一、五心級的服務:\n用心勤走基層、貼心服務到家、關心地方產業、耐心聽取民意、盡心監督市政。\n二、開展農產行銷通路:\n監督市府開發農特產行銷通路，打造多元的產、展、運、銷直營中心，提高農民收益、增加利潤。\n三、觀光產業國際化:\n旗美好山好水結合地方文化特色，透過觀光產業動線整合及策略聯盟，發展大高雄國際觀光路線，創造就業機會，鼓勵青年返鄉服務，振興地方產業經濟發展。\n四、爭取防洪設施與經費:\n增設大型抽水站與整合區域排水，積極有效疏濬及整治旗美地區河川沿線，防範水患、土石流侵害家園。\n五、全方位的社服政策及照護服務:\n從生育、保育、教養、教育、就業、就學及老年照護服務，檢視並監督市府規劃全方位的社會福利政策，為弱勢發聲、為基層請命。\n六、落實社區營造、創造樂活新旗美:\n為社區爭取各項環境改造及文化營造經費，改善生活機能，提升居住品質，縮短城鄉差距，減少人口外移，打造新旗美樂活城市。\n七、設置環保高科技園區:\n爭取旗美地區設立環保高科技之產業園區，增加在地就業機會並繁榮地方。","param":{"bills_role_statistics":{"total":133,"priproposer":9,"sponsor":9,"cosponsor":124},"votes_decision_statistics":{"abstain":0,"disagree":0,"not_voting":0,"total":3,"agree":3,"conflict":0},"diversity":{"中國國民黨":0.8778735632183905,"民主進步黨":0.05747126436781607,"親民黨":0.010057471264367814,"無黨籍":0.05459770114942527},"suggestions_years":{"count":51,"sum":20431504,"years":[{"count":18,"sum":4299000,"suggest_year":"2012","small_purchase":8},{"count":23,"sum":10902504,"suggest_year":"2013","small_purchase":3},{"count":10,"sum":5230000,"suggest_year":"2014","small_purchase":8}]},"attendance_statistics":{"absent":0,"total":392},"suggestions_associations":[{"count":11,"sum":635000,"label":"社區發展協會"},{"count":0,"sum":0,"label":"學會"},{"count":0,"sum":0,"label":"商會"},{"count":0,"sum":0,"label":"公會"},{"count":0,"sum":0,"label":"協進會"},{"count":0,"sum":0,"label":"促進會"},{"count":0,"sum":0,"label":"研習會"},{"count":0,"sum":0,"label":"婦聯會"},{"count":0,"sum":0,"label":"婦女會"},{"count":0,"sum":0,"label":"體育會"},{"count":0,"sum":0,"label":"同心會"},{"count":0,"sum":0,"label":"農會"},{"count":0,"sum":0,"label":"早起會"},{"count":0,"sum":0,"label":"健身會"},{"count":0,"sum":0,"label":"宗親會"},{"count":0,"sum":0,"label":"功德會"},{"count":0,"sum":0,"label":"商業會"},{"count":0,"sum":0,"label":"長青會"},{"count":0,"sum":0,"label":"民眾服務社"},{"count":0,"sum":0,"label":"聯盟"}],"bills_party_diversity":[{"party":"中國國民黨","ratio":0.8792756539235412},{"party":"民主進步黨","ratio":0.05432595573440644},{"party":"無黨籍","ratio":0.052313883299798795},{"party":"親民黨","ratio":0.014084507042253521}],"suggestions_piles":[{"count":11,"tokens":"協會|學會|商會|公會|協進會|促進會|研習會|婦聯會|婦女會|體育會|同心會|農會|早起會|健身會|宗親會|功德會|商業會|長青會|民眾服務社|聯盟","sum":635000,"label":"協會"},{"count":5,"tokens":"警察局|分局","sum":298000,"label":"警察局"},{"count":0,"tokens":"辦公室|辦公處","sum":0,"label":"辦公室"},{"count":2,"tokens":"廟|宮","sum":0,"label":"廟"},{"count":0,"tokens":"消防局|消防隊|分隊|中隊","sum":0,"label":"消防局"},{"count":0,"tokens":"國中|國小","sum":0,"label":"國中、國小"}]},"councilor":"4ed9d23b1ce44057a3218c345c4a4e88"}],"uid":"4ed9d23b1ce44057a3218c345c4a4e88","name":"林義迪","birth":null,"former_names":"","identifiers":["林義迪","林義迪"]},{"url":"http://councils.g0v.tw/api/councilors/1178/","each_terms":[{"url":"http://councils.g0v.tw/api/councilors_terms/2104/","election_year":"2009","name":"洪國治","gender":"","party":"","title":"議員","constituency":13,"county":"桃園縣","district":"平地原住民","in_office":true,"contact_details":[{"type":"email","value":"tycca073@tycc.gov.tw","label":"EMAIL"},{"type":"address","value":"大溪鎮埔頂路二段118號","label":"服務處"},{"type":"voice","value":"03-3896645~6","label":"電話"},{"type":"fax","value":"03-3909585","label":"傳真"}],"term_start":"2009-12-25","term_end":{"date":"2014-12-25"},"education":"大溪僑愛國小\n仁和國中內壢國中\n桃園縣私立新興工商\n逢甲大學經營管理碩士班畢業","experience":"桃園縣議會第14、15、16屆議員\n桃園縣體育會棒球委員會主任委員\n大溪鎮民代表會第十五屆代表\n大溪鎮調解會委員\n行政院原住民族基本法推動會第一屆委員\n桃園縣原住民教育審議委員\n大溪瑞興國宅管理委員會主委\n淡江大學結業","remark":null,"image":"http://www.tycc.gov.tw/file%5Cperson%5Capp%5Ca634641653370582893%E6%B4%AA%E5%9C%8B%E6%B2%BB%E8%AD%B0%E5%93%A1.jpg","links":[{"url":"http://www.tycc.gov.tw/page.aspx?wtp=1&wnd=204&id=88","note":"議會個人官網"},{"url":"http://www.facebook.com/maro.karu#!/maro.karu?sk=info","note":"臉書"}],"social_media":null,"platform":"一、民族自治\n1、監督政府依據原住民族基本法尊重原住民自治及自決權\n2、研定都市原住民事務發展自治條例，建構都會區原住民行政體系\n3、爭取各鄉鎮市公所成立原住民行政課並應聘任原住民籍者專責辦理原住民事務\n4、持續爭取興建各鄉鎮原住民集會所\n5、爭取於大漢溪新生地設立原住民生活園區\n二、工作保障\n1、敦促政府落實自由貿易港區管理條例依法進用原住民於場區服務\n2、爭取機場捷運、桃園航空城等公共工程提供原住民就業機會，保障工作權\n3、持續督促政府辦理訓用合一職業訓練及加強輔導原住民企業\n4、推動原住民勞工組織，促進團結\n三、教育發展\n1、持續督促政府落實執行原住民族教育及族語教育常態教學\n2、爭取寬列原住民教育發展預算並增加各項獎補助措施\n3、督促政府重視體育運動發展並廣設棒、壘球場地\n四、文化深耕\n1、積極推動原住民文化會館成為文化產業銷售推廣中心\n2、持續督促政府重視原住民文化傳承並加強推動傳統技藝及歌舞訓練提升文化素質\n3、持續爭取原住民族各項民俗祭儀活動預算復振本土文化\n五、居住與生活\n1、強烈要求政府持續擴大原住民租屋補助政策解決居住問題\n2、督促政府針對都會區原住民聚落社區編列社區營造及設施改善預算以維持都會聚落\n六、社會福利\n1、促請政府重視老人安養問題在各鄉鎮成立老人關懷服務站，關心老人生活\n2、督促政府建立原住民老人長照機制以照顧貧困老人\n3、加強原住民婦幼服務及親子教育活動爭取增加家政推廣相關預算","param":null,"councilor":"9d687a65e9654a3d99f0e18a98bc3e21"}],"uid":"9d687a65e9654a3d99f0e18a98bc3e21","name":"洪國治","birth":null,"former_names":"","identifiers":["洪國治"]}]}