{"count":1904,"next":"http://councils.g0v.tw/api/councilors/?page=83","previous":"http://councils.g0v.tw/api/councilors/?page=81","results":[{"url":"http://councils.g0v.tw/api/councilors/1318/","each_terms":[{"url":"http://councils.g0v.tw/api/councilors_terms/11798/","election_year":"2014","name":"黃永傳","gender":"男","party":"中國國民黨","title":null,"constituency":2,"county":"新竹縣","district":"湖口鄉","in_office":false,"contact_details":null,"term_start":"2014-12-25","term_end":{"date":"2016-01-06","judicial_links":"","reason":"當選無效","ref":"http://www.cec.gov.tw/central/cms/bulletin/1399","replacement":"甄克堅"},"education":null,"experience":null,"remark":null,"image":"","links":null,"social_media":null,"platform":"","param":{"bills_role_statistics":{"total":3,"priproposer":3,"sponsor":3,"cosponsor":0},"suggestions_years":{"count":113,"sum":1651946,"years":[{"count":113,"sum":1651946,"suggest_year":"2015","small_purchase":113}]},"suggestions_associations":[{"count":21,"sum":260000,"label":"社區發展協會"},{"count":5,"sum":120000,"label":"促進會"},{"count":6,"sum":80000,"label":"宗親會"},{"count":2,"sum":30000,"label":"協進會"},{"count":1,"sum":30000,"label":"民眾服務社"},{"count":1,"sum":10000,"label":"商會"},{"count":1,"sum":10000,"label":"婦女會"},{"count":1,"sum":10000,"label":"聯盟"},{"count":0,"sum":0,"label":"學會"},{"count":0,"sum":0,"label":"公會"},{"count":0,"sum":0,"label":"研習會"},{"count":0,"sum":0,"label":"婦聯會"},{"count":0,"sum":0,"label":"體育會"},{"count":0,"sum":0,"label":"同心會"},{"count":0,"sum":0,"label":"農會"},{"count":0,"sum":0,"label":"早起會"},{"count":0,"sum":0,"label":"健身會"},{"count":0,"sum":0,"label":"功德會"},{"count":0,"sum":0,"label":"商業會"},{"count":0,"sum":0,"label":"長青會"}],"suggestions_piles":[{"count":88,"tokens":"協會|學會|商會|公會|協進會|促進會|研習會|婦聯會|婦女會|體育會|同心會|農會|早起會|健身會|宗親會|功德會|商業會|長青會|民眾服務社|聯盟","sum":1230000,"label":"協會"},{"count":5,"tokens":"消防局|消防隊|分隊|中隊","sum":100000,"label":"消防局"},{"count":0,"tokens":"辦公室|辦公處","sum":0,"label":"辦公室"},{"count":0,"tokens":"廟|宮","sum":0,"label":"廟"},{"count":0,"tokens":"警察局|分局","sum":0,"label":"警察局"},{"count":0,"tokens":"國中|國小","sum":0,"label":"國中、國小"}],"bills_party_diversity":[{"party":"中國國民黨","ratio":1.0}]},"councilor":"6dac61f5c2c044faa58f8b4bd791d663"},{"url":"http://councils.g0v.tw/api/councilors_terms/2244/","election_year":"2009","name":"黃永傳","gender":"","party":"中國國民黨","title":"議員","constituency":2,"county":"新竹縣","district":"湖口鄉","in_office":true,"contact_details":[{"type":"email","value":"a17016@hcc.gov.tw","label":"E-mail"}],"term_start":"2009-12-25","term_end":{"date":"2014-12-25"},"education":"高中畢業","experience":"湖口鄉鄉民代表\n新快昇藥房負責人\n湖口鄉長青促進會理事\n湖口鄉太極拳協會理事長\n湖口鄉元極舞協會理事長\n新竹縣江夏堂黃姓宗親會理事長\n湖口鄉仁勢村15、16、17屆村長\n湖口鄉仁勢社區第1、2屆理事長\n新竹縣後備憲兵湖口區主任","remark":null,"image":"http://www.hcc.gov.tw/03councilor/photo/IMG_0282s.jpg","links":[{"url":"http://www.hcc.gov.tw/03councilor/view.asp?id=59","note":"議會個人官網"},{"url":"http://www.hcc.gov.tw/blog/style03/04list.asp?ald_id=59","note":"個人網站"}],"social_media":null,"platform":"依法善盡民代職責。\n積極用心誠懇實在服務。\n全力支持本縣福利政策。\n全力配合縣政工作之推行。\n爭取建設湖口鄉為觀光、文化、科技重鎮。\n爭取湖口鄉各項軟硬體之建設、促進地方繁榮。\n協助建設湖口鄉為亮麗、先進、美好的新興都市。","param":{"suggestions_years":{"count":2,"sum":60000,"years":[{"count":2,"sum":60000,"suggest_year":"2014","small_purchase":2}]},"diversity":{"":0.021056229089470087,"中國國民黨":0.7821571741472542,"民主進步黨":0.014468934262196446,"勞動黨":0.01998684836563686,"無黨籍":0.16233081413544176},"bills_role_statistics":{"total":87,"priproposer":23,"sponsor":25,"cosponsor":62},"suggestions_associations":[{"count":0,"sum":0,"label":"社區發展協會"},{"count":0,"sum":0,"label":"學會"},{"count":0,"sum":0,"label":"商會"},{"count":0,"sum":0,"label":"公會"},{"count":0,"sum":0,"label":"協進會"},{"count":0,"sum":0,"label":"促進會"},{"count":0,"sum":0,"label":"研習會"},{"count":0,"sum":0,"label":"婦聯會"},{"count":0,"sum":0,"label":"婦女會"},{"count":0,"sum":0,"label":"體育會"},{"count":0,"sum":0,"label":"同心會"},{"count":0,"sum":0,"label":"農會"},{"count":0,"sum":0,"label":"早起會"},{"count":0,"sum":0,"label":"健身會"},{"count":0,"sum":0,"label":"宗親會"},{"count":0,"sum":0,"label":"功德會"},{"count":0,"sum":0,"label":"商業會"},{"count":0,"sum":0,"label":"長青會"},{"count":0,"sum":0,"label":"民眾服務社"},{"count":0,"sum":0,"label":"聯盟"}],"bills_party_diversity":[{"party":"中國國民黨","ratio":0.7407407407407407},{"party":"無黨籍","ratio":0.19675925925925927},{"party":"民主進步黨","ratio":0.027777777777777776},{"party":"勞動黨","ratio":0.020833333333333332},{"party":"","ratio":0.013888888888888888}],"suggestions_piles":[{"count":0,"tokens":"協會|學會|商會|公會|協進會|促進會|研習會|婦聯會|婦女會|體育會|同心會|農會|早起會|健身會|宗親會|功德會|商業會|長青會|民眾服務社|聯盟","sum":0,"label":"協會"},{"count":0,"tokens":"辦公室|辦公處","sum":0,"label":"辦公室"},{"count":0,"tokens":"廟|宮","sum":0,"label":"廟"},{"count":0,"tokens":"警察局|分局","sum":0,"label":"警察局"},{"count":0,"tokens":"消防局|消防隊|分隊|中隊","sum":0,"label":"消防局"},{"count":0,"tokens":"國中|國小","sum":0,"label":"國中、國小"}]},"councilor":"6dac61f5c2c044faa58f8b4bd791d663"}],"uid":"6dac61f5c2c044faa58f8b4bd791d663","name":"黃永傳","birth":null,"former_names":"","identifiers":["黃永傳","黄永傳"]},{"url":"http://councils.g0v.tw/api/councilors/1319/","each_terms":[{"url":"http://councils.g0v.tw/api/councilors_terms/2245/","election_year":"2009","name":"吳菊花","gender":"","party":"中國國民黨","title":"議員","constituency":2,"county":"新竹縣","district":"湖口鄉","in_office":true,"contact_details":[{"type":"email","value":"a16012@hcc.gov.tw","label":"E-mail"}],"term_start":"2009-12-25","term_end":{"date":"2014-12-25"},"education":"嘉義縣梅山國小\n梅山國中\n省立（斗六）家商\n中國科技大學附設專科進修學校","experience":null,"remark":null,"image":"http://www.hcc.gov.tw/03councilor/photo/IMG_0333s.jpg","links":[{"url":"http://www.hcc.gov.tw/03councilor/view.asp?id=58","note":"議會個人官網"},{"url":"http://www.hcc.gov.tw/blog/style03/04list.asp?ald_id=58","note":"個人網站"}],"social_media":null,"platform":"為民喉舌，積極反應民意；督促縣府以縣民福祉為第一，做好興革事項，便民措施，增進人民生活機能，促進地方繁榮發展。\n嚴格把守縣府預算、決算，均衡區域發展，積極爭取經費建設便利、美麗的大湖口。\n督促縣府，加強保障婦幼安全，及改善社會治安，提倡善良風氣。\n督促縣府繼續發放老人年金。\n積極督促縣府，做好各項福利政策。","param":{"bills_role_statistics":{"total":69,"priproposer":2,"sponsor":4,"cosponsor":65},"diversity":{"":0.030752580752580756,"中國國民黨":0.5877314829133716,"民主進步黨":0.12828863954321307,"勞動黨":0.029290100203764706,"無黨籍":0.22393719658706984},"bills_party_diversity":[{"party":"中國國民黨","ratio":0.5741239892183289},{"party":"無黨籍","ratio":0.2722371967654987},{"party":"民主進步黨","ratio":0.09973045822102426},{"party":"勞動黨","ratio":0.03773584905660377},{"party":"","ratio":0.016172506738544475}]},"councilor":"265679245d3a4546a4901f36356f7e11"},{"url":"http://councils.g0v.tw/api/councilors_terms/11800/","election_year":"2014","name":"吳菊花","gender":"女","party":"中國國民黨","title":null,"constituency":2,"county":"新竹縣","district":"湖口鄉","in_office":false,"contact_details":null,"term_start":"2014-12-25","term_end":{"date":"2016-01-27","judicial_links":"","reason":"當選無效","ref":"","replacement":""},"education":null,"experience":null,"remark":null,"image":"","links":null,"social_media":null,"platform":"","param":{"bills_role_statistics":{"total":9,"priproposer":0,"sponsor":0,"cosponsor":9},"suggestions_years":{"count":163,"sum":2373790,"years":[{"count":134,"sum":1633790,"suggest_year":"2015","small_purchase":134},{"count":29,"sum":740000,"suggest_year":"2016","small_purchase":28}]},"suggestions_associations":[{"count":41,"sum":475000,"label":"社區發展協會"},{"count":14,"sum":150000,"label":"宗親會"},{"count":2,"sum":20000,"label":"促進會"},{"count":2,"sum":20000,"label":"聯盟"},{"count":1,"sum":10000,"label":"協進會"},{"count":1,"sum":10000,"label":"婦女會"},{"count":0,"sum":0,"label":"學會"},{"count":0,"sum":0,"label":"商會"},{"count":0,"sum":0,"label":"公會"},{"count":0,"sum":0,"label":"研習會"},{"count":0,"sum":0,"label":"婦聯會"},{"count":0,"sum":0,"label":"體育會"},{"count":0,"sum":0,"label":"同心會"},{"count":0,"sum":0,"label":"農會"},{"count":0,"sum":0,"label":"早起會"},{"count":0,"sum":0,"label":"健身會"},{"count":0,"sum":0,"label":"功德會"},{"count":0,"sum":0,"label":"商業會"},{"count":0,"sum":0,"label":"長青會"},{"count":0,"sum":0,"label":"民眾服務社"}],"suggestions_piles":[{"count":141,"tokens":"協會|學會|商會|公會|協進會|促進會|研習會|婦聯會|婦女會|體育會|同心會|農會|早起會|健身會|宗親會|功德會|商業會|長青會|民眾服務社|聯盟","sum":1610000,"label":"協會"},{"count":7,"tokens":"消防局|消防隊|分隊|中隊","sum":95000,"label":"消防局"},{"count":1,"tokens":"廟|宮","sum":10000,"label":"廟"},{"count":1,"tokens":"國中|國小","sum":10000,"label":"國中、國小"},{"count":0,"tokens":"辦公室|辦公處","sum":0,"label":"辦公室"},{"count":0,"tokens":"警察局|分局","sum":0,"label":"警察局"}],"bills_party_diversity":[{"party":"中國國民黨","ratio":0.8367346938775511},{"party":"無黨籍","ratio":0.08163265306122448},{"party":"綠黨","ratio":0.061224489795918366},{"party":"民主進步黨","ratio":0.02040816326530612}]},"councilor":"265679245d3a4546a4901f36356f7e11"}],"uid":"265679245d3a4546a4901f36356f7e11","name":"吳菊花","birth":null,"former_names":"","identifiers":["吳菊花"]},{"url":"http://councils.g0v.tw/api/councilors/1323/","each_terms":[{"url":"http://councils.g0v.tw/api/councilors_terms/2249/","election_year":"2009","name":"曾安勝","gender":"","party":"中國國民黨","title":"議員","constituency":12,"county":"新竹縣","district":"尖石區","in_office":true,"contact_details":[{"type":"email","value":"a17037@hcc.gov.tw","label":"E-mail"}],"term_start":"2009-12-25","term_end":{"date":"2014-12-25"},"education":"一、尖石國小畢業。\n二、初中畢業。","experience":"一、曾任新竹縣議會議員。\n二、曾任尖石鄉民代表會主席。\n三、曾任尖石鄉調解委員會主席。\n四、曾任尖石鄉儲蓄互助社理事主席。","remark":null,"image":"http://www.hcc.gov.tw/03councilor/photo/%E8%AD%B0%E5%93%A1%20%E6%9B%BE%E5%AE%89%E5%8B%9D%281%29.jpg","links":[{"url":"http://www.hcc.gov.tw/03councilor/view.asp?id=79","note":"議會個人官網"},{"url":"http://www.hcc.gov.tw/blog/style03/04list.asp?ald_id=79","note":"個人網站"}],"social_media":null,"platform":"","param":{"suggestions_years":{"count":3,"sum":118000,"years":[{"count":3,"sum":118000,"suggest_year":"2014","small_purchase":3}]},"diversity":{"":0.026143945870303605,"中國國民黨":0.783425375232451,"民主進步黨":0.012207181517556115,"勞動黨":0.029985087542474097,"無黨籍":0.14823840983721603},"bills_role_statistics":{"total":133,"priproposer":64,"sponsor":64,"cosponsor":69},"suggestions_associations":[{"count":1,"sum":80000,"label":"社區發展協會"},{"count":0,"sum":0,"label":"學會"},{"count":0,"sum":0,"label":"商會"},{"count":0,"sum":0,"label":"公會"},{"count":0,"sum":0,"label":"協進會"},{"count":0,"sum":0,"label":"促進會"},{"count":0,"sum":0,"label":"研習會"},{"count":0,"sum":0,"label":"婦聯會"},{"count":0,"sum":0,"label":"婦女會"},{"count":0,"sum":0,"label":"體育會"},{"count":0,"sum":0,"label":"同心會"},{"count":0,"sum":0,"label":"農會"},{"count":0,"sum":0,"label":"早起會"},{"count":0,"sum":0,"label":"健身會"},{"count":0,"sum":0,"label":"宗親會"},{"count":0,"sum":0,"label":"功德會"},{"count":0,"sum":0,"label":"商業會"},{"count":0,"sum":0,"label":"長青會"},{"count":0,"sum":0,"label":"民眾服務社"},{"count":0,"sum":0,"label":"聯盟"}],"bills_party_diversity":[{"party":"中國國民黨","ratio":0.7611111111111111},{"party":"無黨籍","ratio":0.1685185185185185},{"party":"勞動黨","ratio":0.04259259259259259},{"party":"","ratio":0.018518518518518517},{"party":"民主進步黨","ratio":0.009259259259259259}],"suggestions_piles":[{"count":1,"tokens":"協會|學會|商會|公會|協進會|促進會|研習會|婦聯會|婦女會|體育會|同心會|農會|早起會|健身會|宗親會|功德會|商業會|長青會|民眾服務社|聯盟","sum":80000,"label":"協會"},{"count":0,"tokens":"辦公室|辦公處","sum":0,"label":"辦公室"},{"count":0,"tokens":"廟|宮","sum":0,"label":"廟"},{"count":0,"tokens":"警察局|分局","sum":0,"label":"警察局"},{"count":0,"tokens":"消防局|消防隊|分隊|中隊","sum":0,"label":"消防局"},{"count":0,"tokens":"國中|國小","sum":0,"label":"國中、國小"}]},"councilor":"94142a5c21354f4794ab33af73d7caef"}],"uid":"94142a5c21354f4794ab33af73d7caef","name":"曾安勝","birth":null,"former_names":"","identifiers":["曽安勝","曾安勝"]},{"url":"http://councils.g0v.tw/api/councilors/770/","each_terms":[{"url":"http://councils.g0v.tw/api/councilors_terms/1420/","election_year":"1946","name":"李銀和","gender":"","party":"","title":"議員","constituency":null,"county":"新北市","district":"","in_office":true,"contact_details":null,"term_start":"1946-04-15","term_end":{"date":"1950-12-31"},"education":"","experience":"*補林儀賓缺，旋辭？","remark":null,"image":"http://www.ntp.gov.tw/UpFile/CouncilorFile/TTCC0060.jpg","links":[{"url":"http://www.ntp.gov.tw/content/history/history01-5-p.aspx?sid=60","note":"議會個人官網"}],"social_media":null,"platform":"","param":null,"councilor":"d3423c5be76c4540ab76fdbfa7d3e1c6"}],"uid":"d3423c5be76c4540ab76fdbfa7d3e1c6","name":"李銀和","birth":null,"former_names":"","identifiers":["李銀和","李銀和"]},{"url":"http://councils.g0v.tw/api/councilors/771/","each_terms":[{"url":"http://councils.g0v.tw/api/councilors_terms/1421/","election_year":"1946","name":"江天賜","gender":"","party":"","title":"議員","constituency":null,"county":"新北市","district":"","in_office":true,"contact_details":null,"term_start":"1946-04-15","term_end":{"date":"1950-12-31"},"education":"高級小學畢業。","experience":"冬山庄協議會員\n冬山鄉民代表會主席","remark":null,"image":"http://www.ntp.gov.tw/UpFile/CouncilorFile/TTCC0054.jpg","links":[{"url":"http://www.ntp.gov.tw/content/history/history01-5-p.aspx?sid=54","note":"議會個人官網"}],"social_media":null,"platform":"","param":null,"councilor":"64ada2ab84514391a0b457d07d0eccde"}],"uid":"64ada2ab84514391a0b457d07d0eccde","name":"江天賜","birth":null,"former_names":"","identifiers":["江天賜"]},{"url":"http://councils.g0v.tw/api/councilors/772/","each_terms":[{"url":"http://councils.g0v.tw/api/councilors_terms/1422/","election_year":"1946","name":"劉傳旺","gender":"","party":"","title":"議員","constituency":null,"county":"新北市","district":"","in_office":true,"contact_details":null,"term_start":"1946-04-15","term_end":{"date":"1950-12-31"},"education":"公學校畢業。","experience":"蘇澳街協議會員\n臺北縣人民自由保障委員會常務委員\n國民黨蘇澳區執行委員\n農會及漁會理事長","remark":null,"image":"http://www.ntp.gov.tw/UpFile/CouncilorFile/TTCC0053.jpg","links":[{"url":"http://www.ntp.gov.tw/content/history/history01-5-p.aspx?sid=53","note":"議會個人官網"}],"social_media":null,"platform":"","param":null,"councilor":"278de82ff98b4e8199552bbab79af207"}],"uid":"278de82ff98b4e8199552bbab79af207","name":"劉傳旺","birth":null,"former_names":"","identifiers":["劉傳旺","劉傳旺"]},{"url":"http://councils.g0v.tw/api/councilors/349/","each_terms":[{"url":"http://councils.g0v.tw/api/councilors_terms/11897/","election_year":"2014","name":"張廖萬堅","gender":"男","party":"民主進步黨","title":null,"constituency":6,"county":"臺中市","district":"西屯區","in_office":false,"contact_details":null,"term_start":"2014-12-25","term_end":{"date":"2016-01-31","judicial_links":"","reason":"請辭，就任立委","ref":"","replacement":""},"education":null,"experience":null,"remark":null,"image":"","links":null,"social_media":null,"platform":"","param":{"bills_role_statistics":{"total":67,"priproposer":16,"sponsor":43,"cosponsor":24},"suggestions_years":{"count":42,"sum":17944476,"years":[{"count":42,"sum":17944476,"suggest_year":"2015","small_purchase":12}]},"suggestions_associations":[{"count":0,"sum":0,"label":"社區發展協會"},{"count":0,"sum":0,"label":"學會"},{"count":0,"sum":0,"label":"商會"},{"count":0,"sum":0,"label":"公會"},{"count":0,"sum":0,"label":"協進會"},{"count":0,"sum":0,"label":"促進會"},{"count":0,"sum":0,"label":"研習會"},{"count":0,"sum":0,"label":"婦聯會"},{"count":0,"sum":0,"label":"婦女會"},{"count":0,"sum":0,"label":"體育會"},{"count":0,"sum":0,"label":"同心會"},{"count":0,"sum":0,"label":"農會"},{"count":0,"sum":0,"label":"早起會"},{"count":0,"sum":0,"label":"健身會"},{"count":0,"sum":0,"label":"宗親會"},{"count":0,"sum":0,"label":"功德會"},{"count":0,"sum":0,"label":"商業會"},{"count":0,"sum":0,"label":"長青會"},{"count":0,"sum":0,"label":"民眾服務社"},{"count":0,"sum":0,"label":"聯盟"}],"suggestions_piles":[{"count":1,"tokens":"國中|國小","sum":110000,"label":"國中、國小"},{"count":0,"tokens":"協會|學會|商會|公會|協進會|促進會|研習會|婦聯會|婦女會|體育會|同心會|農會|早起會|健身會|宗親會|功德會|商業會|長青會|民眾服務社|聯盟","sum":0,"label":"協會"},{"count":0,"tokens":"辦公室|辦公處","sum":0,"label":"辦公室"},{"count":0,"tokens":"廟|宮","sum":0,"label":"廟"},{"count":0,"tokens":"警察局|分局","sum":0,"label":"警察局"},{"count":0,"tokens":"消防局|消防隊|分隊|中隊","sum":0,"label":"消防局"}],"bills_party_diversity":[{"party":"民主進步黨","ratio":0.8544520547945206},{"party":"中國國民黨","ratio":0.1113013698630137},{"party":"無黨籍","ratio":0.0273972602739726},{"party":"親民黨","ratio":0.00684931506849315}]},"councilor":"b3b14a4bb0c74df6bb28f0fff9452750"},{"url":"http://councils.g0v.tw/api/councilors_terms/687/","election_year":"2010","name":"張廖萬堅","gender":"","party":"民主進步黨","title":"議員","constituency":6,"county":"臺中市","district":"西屯區","in_office":true,"contact_details":[{"type":"address","value":"臺中市西屯區至善路52號","label":"服務處地址"},{"type":"voice","value":"04-2708-8883","label":"服務處電話"},{"type":"fax","value":"04-2708-9803","label":"服務處傳真"},{"type":"email","value":"wanchien0209@gmail.com","label":"e-mail"}],"term_start":"2010-12-25","term_end":{"date":"2014-12-25"},"education":"台中一中\n輔仁大學大眾傳播系新聞組","experience":"東吳大學政治學研究所碩士班\n自立晚報、台灣日報記者、採訪主任\n台中民主有線電視台新聞部經理\n台中一中校友會理事\n台中市圍棋協會理事長\n台中市棒委會副主委\n台中市議會教育小組召集人\n民主進步黨台中市黨部主任委員","remark":null,"image":"http://www.tccc.gov.tw/mediafile/1837/editor_model/237/pic/025.bmp","links":[{"url":"http://www.tccc.gov.tw/editor_model/u_editor_v1.asp?id=%7B31F1CD88-DA90-4F20-BE6A-786D68B976DD%7D","note":"議會個人官網"}],"social_media":null,"platform":"督促儘速完成筏子溪全段整治計畫，開闢河岸親子公園及自行車步道。\n中科特定區、水湳經貿園區、鎮南等重大土地開發案不可黑箱作業，以保障業主權益，促進地方繁榮。\n強力監督北屯文心捷運興建計畫，防止「台北柵湖」事件台中上演。\n爭取惠來遺址公園興建博物館，並結合藝文展演功能，成立屯區文化心。\n爭取儘速打通福林路，疏解中科聯外道路上、下班交通壅塞現象，保障福科國中學區上、下學交通安全。\n因應少子化，爭取未徵收開闢學校預定地，透過都市計畫程序，與業主協商取得部分用地，興建社區圖書館、運動中心、親子公園等文教休閒設施。\n提升國中、小學員額編制，並優先落實輔導老師專任化，以專業輔導特殊青少年個案，防止校園「少年殺手」悲劇重演。\n推動各級學校重點運動項目長期培訓計畫，廣聘專任教練，培訓基層優秀運動員，為國爭光。\n督促十二期重劃儘速完成公園綠地等公共設施，並寬列西苑高中校舍改建計畫。\n加強督促警紀，落實警力社區化，提昇見警率，並持續爭取廣設監視器，防範治安死角。\n面對高齡化社會，妥善利用學校軟體資源，開辦銀髮族社區學園及社區托老中心。\n爭取身心障礙弱勢就業權益，落實公益彩券盈餘專款使用，全面改善全市無障礙空間。爭取擴大行銷逢甲商圈，納入慶和街等周邊範圍，闢建大型立體停車場及商圈接駁車。","param":{"suggestions_years":{"count":24,"sum":23552527,"years":[{"count":24,"sum":23552527,"suggest_year":"2014","small_purchase":7}]},"diversity":{"中國國民黨":0.16746035170896648,"民主進步黨":0.7620915248611119,"臺灣團結聯盟":0.025165626320305477,"親民黨":0.00371388424451701,"無黨籍":0.04156861286510087},"bills_role_statistics":{"total":73,"priproposer":39,"sponsor":65,"cosponsor":8},"suggestions_associations":[{"count":0,"sum":0,"label":"社區發展協會"},{"count":0,"sum":0,"label":"學會"},{"count":0,"sum":0,"label":"商會"},{"count":0,"sum":0,"label":"公會"},{"count":0,"sum":0,"label":"協進會"},{"count":0,"sum":0,"label":"促進會"},{"count":0,"sum":0,"label":"研習會"},{"count":0,"sum":0,"label":"婦聯會"},{"count":0,"sum":0,"label":"婦女會"},{"count":0,"sum":0,"label":"體育會"},{"count":0,"sum":0,"label":"同心會"},{"count":0,"sum":0,"label":"農會"},{"count":0,"sum":0,"label":"早起會"},{"count":0,"sum":0,"label":"健身會"},{"count":0,"sum":0,"label":"宗親會"},{"count":0,"sum":0,"label":"功德會"},{"count":0,"sum":0,"label":"商業會"},{"count":0,"sum":0,"label":"長青會"},{"count":0,"sum":0,"label":"民眾服務社"},{"count":0,"sum":0,"label":"聯盟"}],"bills_party_diversity":[{"party":"民主進步黨","ratio":0.7674772036474165},{"party":"中國國民黨","ratio":0.18541033434650456},{"party":"無黨籍","ratio":0.041033434650455926},{"party":"臺灣團結聯盟","ratio":0.004559270516717325},{"party":"親民黨","ratio":0.001519756838905775}],"suggestions_piles":[{"count":1,"tokens":"國中|國小","sum":21000,"label":"國中、國小"},{"count":0,"tokens":"協會|學會|商會|公會|協進會|促進會|研習會|婦聯會|婦女會|體育會|同心會|農會|早起會|健身會|宗親會|功德會|商業會|長青會|民眾服務社|聯盟","sum":0,"label":"協會"},{"count":0,"tokens":"辦公室|辦公處","sum":0,"label":"辦公室"},{"count":0,"tokens":"廟|宮","sum":0,"label":"廟"},{"count":0,"tokens":"警察局|分局","sum":0,"label":"警察局"},{"count":0,"tokens":"消防局|消防隊|分隊|中隊","sum":0,"label":"消防局"}]},"councilor":"b3b14a4bb0c74df6bb28f0fff9452750"}],"uid":"b3b14a4bb0c74df6bb28f0fff9452750","name":"張廖萬堅","birth":null,"former_names":"","identifiers":["張廖萬堅"]},{"url":"http://councils.g0v.tw/api/councilors/352/","each_terms":[{"url":"http://councils.g0v.tw/api/councilors_terms/690/","election_year":"2010","name":"許水彬","gender":"","party":"民主進步黨","title":"議員","constituency":5,"county":"臺中市","district":"神岡區、大雅區、潭子區","in_office":true,"contact_details":[{"type":"address","value":"臺中市大雅區中清路四段269-6號","label":"服務處地址"},{"type":"voice","value":"04-2566-7020","label":"服務處電話"},{"type":"fax","value":"04-2566-5776","label":"服務處傳真"},{"type":"email","value":"sou.chang@msa.hinet.net","label":"e-mail"}],"term_start":"2010-12-25","term_end":{"date":"2014-12-25"},"education":"大明國小\n大雅國中\n省立沙工\n南亞工專畢業","experience":"天一染織廠技工\n民興紡織公司主管\n享昌實業有限公司負責人\n台中縣議會第十五屆十六屆議員","remark":null,"image":"http://www.tccc.gov.tw/mediafile/1837/editor_model/233/pic/022.bmp","links":[{"url":"http://www.tccc.gov.tw/editor_model/u_editor_v1.asp?id=%7B2986162A-B10C-4098-9EED-432D1406606F%7D","note":"議會個人官網"}],"social_media":null,"platform":"配合民主進步黨中央黨部政策推行之事項努力完成。\n做好選區潭子、神岡、大雅選民的區公所、村里的劃分需求達成目標。\n完成潭雅神的住宅土地重劃，讓人民獲得最大分配利益。\n讓市區的主要道路一定要開通到神岡大甲溪旁。\n市區公車在數個月內通往偏遠需要的地方，方便通勤。\n讓現有的公園預定地及早建設完成。\n讓道路能平坦路平常在。不要有隨意挖路工程。\n使地方低漥地區不再有水災發生。\n貫穿高速公路的縣市養護道路皆能通行消防車。\n符合民眾的需求和陳情案件馬上處理，設法完成。","param":{"suggestions_years":{"count":8,"sum":4794693,"years":[{"count":8,"sum":4794693,"suggest_year":"2014","small_purchase":0}]},"diversity":{"中國國民黨":0.15756610890773526,"民主進步黨":0.7809194273045981,"臺灣團結聯盟":0.015942429757940822,"親民黨":0.002114016237454329,"無黨籍":0.04345801779227176},"bills_role_statistics":{"total":107,"priproposer":7,"sponsor":8,"cosponsor":99},"suggestions_associations":[{"count":0,"sum":0,"label":"社區發展協會"},{"count":0,"sum":0,"label":"學會"},{"count":0,"sum":0,"label":"商會"},{"count":0,"sum":0,"label":"公會"},{"count":0,"sum":0,"label":"協進會"},{"count":0,"sum":0,"label":"促進會"},{"count":0,"sum":0,"label":"研習會"},{"count":0,"sum":0,"label":"婦聯會"},{"count":0,"sum":0,"label":"婦女會"},{"count":0,"sum":0,"label":"體育會"},{"count":0,"sum":0,"label":"同心會"},{"count":0,"sum":0,"label":"農會"},{"count":0,"sum":0,"label":"早起會"},{"count":0,"sum":0,"label":"健身會"},{"count":0,"sum":0,"label":"宗親會"},{"count":0,"sum":0,"label":"功德會"},{"count":0,"sum":0,"label":"商業會"},{"count":0,"sum":0,"label":"長青會"},{"count":0,"sum":0,"label":"民眾服務社"},{"count":0,"sum":0,"label":"聯盟"}],"bills_party_diversity":[{"party":"民主進步黨","ratio":0.7876960193003619},{"party":"中國國民黨","ratio":0.14957780458383596},{"party":"無黨籍","ratio":0.04945717732207479},{"party":"臺灣團結聯盟","ratio":0.009650180940892641},{"party":"親民黨","ratio":0.0036188178528347406}],"suggestions_piles":[{"count":0,"tokens":"協會|學會|商會|公會|協進會|促進會|研習會|婦聯會|婦女會|體育會|同心會|農會|早起會|健身會|宗親會|功德會|商業會|長青會|民眾服務社|聯盟","sum":0,"label":"協會"},{"count":0,"tokens":"辦公室|辦公處","sum":0,"label":"辦公室"},{"count":0,"tokens":"廟|宮","sum":0,"label":"廟"},{"count":0,"tokens":"警察局|分局","sum":0,"label":"警察局"},{"count":0,"tokens":"消防局|消防隊|分隊|中隊","sum":0,"label":"消防局"},{"count":0,"tokens":"國中|國小","sum":0,"label":"國中、國小"}]},"councilor":"e0b2ce52095b4a3c8ab7878badb5f198"}],"uid":"e0b2ce52095b4a3c8ab7878badb5f198","name":"許水彬","birth":null,"former_names":"","identifiers":["許水彬"]},{"url":"http://councils.g0v.tw/api/councilors/355/","each_terms":[{"url":"http://councils.g0v.tw/api/councilors_terms/693/","election_year":"2010","name":"廖述鎮","gender":"","party":"民主進步黨","title":"議員","constituency":5,"county":"臺中市","district":"神岡區、大雅區、潭子區","in_office":true,"contact_details":[{"type":"address","value":"臺中市大雅區三和里建興路217號","label":"服務處地址"},{"type":"voice","value":"04-2567-4339","label":"服務處電話"},{"type":"fax","value":"04-2569-3368","label":"服務處傳真"},{"type":"email","value":"gov909@gmail.com","label":"e-mail"}],"term_start":"2010-12-25","term_end":{"date":"2014-12-25"},"education":"三和國小\n大雅初中\n新民高級中學\n勤益大學肆業","experience":"日本玉山台灣研究班\n美國聖地牙哥大學人力資源研究班\n民進黨台中縣黨部創黨黨員、民進黨全國黨員代表\n大雅鄉農會十二、十三、十四、十五、十六屆代表\n台中縣議員14、15、16屆(民進黨團幹事長、黨團召集人)","remark":null,"image":"","links":[{"url":"http://www.tccc.gov.tw/editor_model/u_editor_v1.asp?id=%7BDAC18679-100B-4707-93F9-0E0ACDE7D0B8%7D","note":"議會個人官網"}],"social_media":null,"platform":"專業議員，勤跑基層，傾聽、反應民意，清廉問政。\n為弱勢發聲，爭取應該有的公平與福利。\n縣市合併，確保潭子、大雅、神岡地理位置之優勢，極力爭取交通網路建設。\n促使潭子加工區、中科園區、豐洲工業區產業相互連結，帶動潭子、大雅、神岡就業機會及景氣復甦。\n主張由市政府全面供應中小學免費營養午餐，及提高弱勢家庭孩童就學的教育補助。\n為鄉親繼續爭取農路、水路改善工程。\n勞工就業與勞資關係問題要妥善處理及積極為中小企業發展，請政府必須重視。","param":{"suggestions_years":{"count":9,"sum":1590000,"years":[{"count":9,"sum":1590000,"suggest_year":"2014","small_purchase":4}]},"diversity":{"中國國民黨":0.14478641405029113,"民主進步黨":0.7797472289507641,"臺灣團結聯盟":0.02769065496920422,"親民黨":0.0024554694317540167,"無黨籍":0.04532023259798664},"bills_role_statistics":{"total":33,"priproposer":0,"sponsor":7,"cosponsor":26},"suggestions_associations":[{"count":0,"sum":0,"label":"社區發展協會"},{"count":0,"sum":0,"label":"學會"},{"count":0,"sum":0,"label":"商會"},{"count":0,"sum":0,"label":"公會"},{"count":0,"sum":0,"label":"協進會"},{"count":0,"sum":0,"label":"促進會"},{"count":0,"sum":0,"label":"研習會"},{"count":0,"sum":0,"label":"婦聯會"},{"count":0,"sum":0,"label":"婦女會"},{"count":0,"sum":0,"label":"體育會"},{"count":0,"sum":0,"label":"同心會"},{"count":0,"sum":0,"label":"農會"},{"count":0,"sum":0,"label":"早起會"},{"count":0,"sum":0,"label":"健身會"},{"count":0,"sum":0,"label":"宗親會"},{"count":0,"sum":0,"label":"功德會"},{"count":0,"sum":0,"label":"商業會"},{"count":0,"sum":0,"label":"長青會"},{"count":0,"sum":0,"label":"民眾服務社"},{"count":0,"sum":0,"label":"聯盟"}],"bills_party_diversity":[{"party":"民主進步黨","ratio":0.6650485436893204},{"party":"中國國民黨","ratio":0.2669902912621359},{"party":"無黨籍","ratio":0.05339805825242718},{"party":"臺灣團結聯盟","ratio":0.009708737864077669},{"party":"親民黨","ratio":0.0048543689320388345}],"suggestions_piles":[{"count":0,"tokens":"協會|學會|商會|公會|協進會|促進會|研習會|婦聯會|婦女會|體育會|同心會|農會|早起會|健身會|宗親會|功德會|商業會|長青會|民眾服務社|聯盟","sum":0,"label":"協會"},{"count":0,"tokens":"辦公室|辦公處","sum":0,"label":"辦公室"},{"count":0,"tokens":"廟|宮","sum":0,"label":"廟"},{"count":0,"tokens":"警察局|分局","sum":0,"label":"警察局"},{"count":0,"tokens":"消防局|消防隊|分隊|中隊","sum":0,"label":"消防局"},{"count":0,"tokens":"國中|國小","sum":0,"label":"國中、國小"}]},"councilor":"5b716c98f4ba4415be21f79b3985c969"}],"uid":"5b716c98f4ba4415be21f79b3985c969","name":"廖述鎮","birth":null,"former_names":"","identifiers":["廖述鎭","廖述鎮"]},{"url":"http://councils.g0v.tw/api/councilors/1431/","each_terms":[{"url":"http://councils.g0v.tw/api/councilors_terms/2357/","election_year":"2009","name":"張素蘭","gender":"","party":"中國國民黨","title":"","constituency":5,"county":"雲林縣","district":"臺西鄉、麥寮鄉、四湖鄉、東勢鄉","in_office":true,"contact_details":[{"type":"voice","lines[i]":"電話","value":"05-7875526"},{"type":"fax","lines[i]":"傳真","value":"05-7875218"},{"type":"address","lines[i]":"通訊處","value":"四湖鄉四湖村中山東路2-13號"},{"type":"email","lines[i]":"電子信箱","value":"ming2323@cn15.tinp.net.tw"}],"term_start":"2009-12-25","term_end":{"date":"2014-12-25"},"education":"三重國小、明志國中、宗聖商工。","experience":"四湖鄉婦女會理事長、四湖鄉民代表會12.13屆副主席、14.15屆主席、婦聯青溪雲林支會主委、雲林縣14.15.16屆縣議員。","remark":null,"image":"http://www.ylcc.gov.tw/images/5-6.jpg","links":[{"url":"http://www.ylcc.gov.tw/index.php?inner=member_precinct5","note":"議會個人官網"}],"social_media":null,"platform":"","param":{"bills_role_statistics":{"total":1,"priproposer":1,"sponsor":1,"cosponsor":0},"suggestions_piles":[{"count":12,"tokens":"國中|國小","sum":2147393,"label":"國中、國小"},{"count":1,"tokens":"警察局|分局","sum":180000,"label":"警察局"},{"count":0,"tokens":"協會|學會|商會|公會|協進會|促進會|研習會|婦聯會|婦女會|體育會|同心會|農會|早起會|健身會|宗親會|功德會|商業會|長青會|民眾服務社|聯盟","sum":0,"label":"協會"},{"count":0,"tokens":"辦公室|辦公處","sum":0,"label":"辦公室"},{"count":0,"tokens":"廟|宮","sum":0,"label":"廟"},{"count":0,"tokens":"消防局|消防隊|分隊|中隊","sum":0,"label":"消防局"}],"suggestions_associations":[{"count":0,"sum":0,"label":"社區發展協會"},{"count":0,"sum":0,"label":"學會"},{"count":0,"sum":0,"label":"商會"},{"count":0,"sum":0,"label":"公會"},{"count":0,"sum":0,"label":"協進會"},{"count":0,"sum":0,"label":"促進會"},{"count":0,"sum":0,"label":"研習會"},{"count":0,"sum":0,"label":"婦聯會"},{"count":0,"sum":0,"label":"婦女會"},{"count":0,"sum":0,"label":"體育會"},{"count":0,"sum":0,"label":"同心會"},{"count":0,"sum":0,"label":"農會"},{"count":0,"sum":0,"label":"早起會"},{"count":0,"sum":0,"label":"健身會"},{"count":0,"sum":0,"label":"宗親會"},{"count":0,"sum":0,"label":"功德會"},{"count":0,"sum":0,"label":"商業會"},{"count":0,"sum":0,"label":"長青會"},{"count":0,"sum":0,"label":"民眾服務社"},{"count":0,"sum":0,"label":"聯盟"}],"diversity":{"":0.0,"中國國民黨":1.0,"民主進步黨":0.0,"臺灣團結聯盟":0.0,"無黨籍":0.0},"suggestions_years":{"count":15,"sum":6497393,"years":[{"count":2,"sum":4170000,"suggest_year":"2011","small_purchase":0},{"count":2,"sum":278000,"suggest_year":"2012","small_purchase":1},{"count":11,"sum":2049393,"suggest_year":"2014","small_purchase":1}]}},"councilor":"e93593a3678f43d383b6e3777497e2c8"}],"uid":"e93593a3678f43d383b6e3777497e2c8","name":"張素蘭","birth":null,"former_names":"","identifiers":["張素蘭"]}]}