{"count":1904,"next":"http://councils.g0v.tw/api/councilors/?page=84","previous":"http://councils.g0v.tw/api/councilors/?page=82","results":[{"url":"http://councils.g0v.tw/api/councilors/875/","each_terms":[{"url":"http://councils.g0v.tw/api/councilors_terms/1551/","election_year":"1953","name":"何潤","gender":"","party":"","title":"議員","constituency":6,"county":"新北市","district":"北投鎮、士林鎮","in_office":true,"contact_details":null,"term_start":"1953-01-16","term_end":{"date":"1955-01-15"},"education":"遼寧省立女師","experience":"臺北縣議會第2屆議員\n中、小學教員\n陽明山管理局婦女會理事長","remark":null,"image":"http://www.ntp.gov.tw/UpFile/CouncilorFile/TTCC0243.jpg","links":[{"url":"http://www.ntp.gov.tw/content/history/history01-5-p.aspx?sid=145","note":"議會個人官網"}],"social_media":null,"platform":"","param":null,"councilor":"85c272968eac4fb4a09df826d0ba8227"}],"uid":"85c272968eac4fb4a09df826d0ba8227","name":"何潤","birth":null,"former_names":"","identifiers":["何潤"]},{"url":"http://councils.g0v.tw/api/councilors/876/","each_terms":[{"url":"http://councils.g0v.tw/api/councilors_terms/1552/","election_year":"1953","name":"金新華","gender":"","party":"","title":"議員","constituency":6,"county":"新北市","district":"北投鎮、士林鎮","in_office":true,"contact_details":null,"term_start":"1953-01-16","term_end":{"date":"1955-01-15"},"education":"私立君毅高中畢業","experience":"陽明山婦女會運動委員會委員\n婦女會理事長\n臺北縣議會第2屆議員","remark":null,"image":"http://www.ntp.gov.tw/UpFile/CouncilorFile/TTCC0242.jpg","links":[{"url":"http://www.ntp.gov.tw/content/history/history01-5-p.aspx?sid=144","note":"議會個人官網"}],"social_media":null,"platform":"","param":null,"councilor":"6c99185903454ec0976dcfe1a05642d9"}],"uid":"6c99185903454ec0976dcfe1a05642d9","name":"金新華","birth":null,"former_names":"","identifiers":["金新華"]},{"url":"http://councils.g0v.tw/api/councilors/877/","each_terms":[{"url":"http://councils.g0v.tw/api/councilors_terms/1554/","election_year":"1953","name":"何金塗","gender":"","party":"","title":"議員","constituency":6,"county":"新北市","district":"北投鎮、士林鎮","in_office":true,"contact_details":null,"term_start":"1953-01-16","term_end":{"date":"1955-01-15"},"education":"日本早稻田大學法科校外生畢業","experience":"臺北區合會公司\n經濟快報社主任秘書\n臺北縣議會第2至5屆議員","remark":null,"image":"http://www.ntp.gov.tw/UpFile/CouncilorFile/TTCC0240.jpg","links":[{"url":"http://www.ntp.gov.tw/content/history/history01-5-p.aspx?sid=143","note":"議會個人官網"}],"social_media":null,"platform":"","param":null,"councilor":"85d12e1c6c7d4abd8ea36c0233f59d80"},{"url":"http://councils.g0v.tw/api/councilors_terms/1615/","election_year":"1955","name":"何金塗","gender":"","party":"","title":"議員","constituency":6,"county":"新北市","district":"北投鎮、士林鎮","in_office":true,"contact_details":null,"term_start":"1955-01-16","term_end":{"date":"1958-02-20"},"education":"日本早稻田大學法科校外生畢業","experience":"臺北區合會公司\n經濟快報社主任秘書\n臺北縣議會第2至5屆議員","remark":null,"image":"http://www.ntp.gov.tw/UpFile/CouncilorFile/TTCC0240.jpg","links":[{"url":"http://www.ntp.gov.tw/content/history/history01-5-p.aspx?sid=143","note":"議會個人官網"}],"social_media":null,"platform":"","param":null,"councilor":"85d12e1c6c7d4abd8ea36c0233f59d80"},{"url":"http://councils.g0v.tw/api/councilors_terms/1685/","election_year":"1958","name":"何金塗","gender":"","party":"","title":"議員","constituency":6,"county":"新北市","district":"北投鎮、士林鎮","in_office":true,"contact_details":null,"term_start":"1958-02-21","term_end":{"date":"1961-02-20"},"education":"日本早稻田大學法科校外生畢業","experience":"臺北區合會公司\n經濟快報社主任秘書\n臺北縣議會第2至5屆議員","remark":null,"image":"http://www.ntp.gov.tw/UpFile/CouncilorFile/TTCC0240.jpg","links":[{"url":"http://www.ntp.gov.tw/content/history/history01-5-p.aspx?sid=143","note":"議會個人官網"}],"social_media":null,"platform":"","param":null,"councilor":"85d12e1c6c7d4abd8ea36c0233f59d80"},{"url":"http://councils.g0v.tw/api/councilors_terms/1759/","election_year":"1961","name":"何金塗","gender":"","party":"","title":"議員","constituency":6,"county":"新北市","district":"北投鎮、士林鎮","in_office":true,"contact_details":null,"term_start":"1961-02-21","term_end":{"date":"1964-02-20"},"education":"日本早稻田大學法科校外生畢業","experience":"臺北區合會公司\n經濟快報社主任秘書\n臺北縣議會第2至5屆議員","remark":null,"image":"http://www.ntp.gov.tw/UpFile/CouncilorFile/TTCC0240.jpg","links":[{"url":"http://www.ntp.gov.tw/content/history/history01-5-p.aspx?sid=143","note":"議會個人官網"}],"social_media":null,"platform":"","param":null,"councilor":"85d12e1c6c7d4abd8ea36c0233f59d80"}],"uid":"85d12e1c6c7d4abd8ea36c0233f59d80","name":"何金塗","birth":null,"former_names":"","identifiers":["何金塗"]},{"url":"http://councils.g0v.tw/api/councilors/514/","each_terms":[{"url":"http://councils.g0v.tw/api/councilors_terms/864/","election_year":"1968","name":"謝再傳","gender":"","party":"","title":"議員","constituency":4,"county":"新北市","district":"三重市","in_office":true,"contact_details":null,"term_start":"1968-02-21","term_end":{"date":"1973-04-30"},"education":"新莊中學畢\n泰北中學高中部畢業","experience":"勝和貿易股份有限公司董事長\n勝利化工廠廠長\n富民企業有限公司常務董事\n臺北縣議會第6、7屆議員\n民國97年9月3日歿","remark":null,"image":"http://www.ntp.gov.tw/UpFile/CouncilorFile/TTCC0621.jpg","links":[{"url":"http://www.ntp.gov.tw/content/history/history01-5-p.aspx?sid=259","note":"議會個人官網"}],"social_media":null,"platform":"","param":null,"councilor":"91abf380611f439889b5da3a51a551ea"},{"url":"http://councils.g0v.tw/api/councilors_terms/1842/","election_year":"1964","name":"謝再傳","gender":"","party":"","title":"議員","constituency":4,"county":"新北市","district":"三重市","in_office":true,"contact_details":null,"term_start":"1964-02-21","term_end":{"date":"1968-02-20"},"education":"新莊中學畢\n泰北中學高中部畢業","experience":"勝和貿易股份有限公司董事長\n勝利化工廠廠長\n富民企業有限公司常務董事\n臺北縣議會第6、7屆議員\n民國97年9月3日歿","remark":null,"image":"http://www.ntp.gov.tw/UpFile/CouncilorFile/TTCC0621.jpg","links":[{"url":"http://www.ntp.gov.tw/content/history/history01-5-p.aspx?sid=259","note":"議會個人官網"}],"social_media":null,"platform":"","param":null,"councilor":"91abf380611f439889b5da3a51a551ea"}],"uid":"91abf380611f439889b5da3a51a551ea","name":"謝再傳","birth":null,"former_names":"","identifiers":["謝再傳"]},{"url":"http://councils.g0v.tw/api/councilors/515/","each_terms":[{"url":"http://councils.g0v.tw/api/councilors_terms/867/","election_year":"1968","name":"吳忠","gender":"","party":"","title":"議員","constituency":4,"county":"新北市","district":"三重市","in_office":true,"contact_details":null,"term_start":"1968-02-21","term_end":{"date":"1973-04-30"},"education":"清福商職\n臺大夜間部法律系修業一年\n革命實踐研究院24期","experience":"三重市民代表\n三重市秘書\n三重市幹事\n三重區黨部常委\n臺北縣義警大隊副大隊長\n臺北縣議會第6、7、9屆議員\n福州文化基金會主任委員\n民國94年11月28日歿","remark":null,"image":"http://www.ntp.gov.tw/UpFile/CouncilorFile/TTCC0622.jpg","links":[{"url":"http://www.ntp.gov.tw/content/history/history01-5-p.aspx?sid=260","note":"議會個人官網"}],"social_media":null,"platform":"","param":null,"councilor":"2df10c9cec3d4c81bbae131fd1aaa5af"},{"url":"http://councils.g0v.tw/api/councilors_terms/921/","election_year":"1977","name":"吳忠","gender":"","party":"","title":"議員","constituency":3,"county":"新北市","district":"三重市、新莊鎮、泰山鄉、五股鄉、蘆洲鄉、林口鄉","in_office":true,"contact_details":null,"term_start":"1977-12-30","term_end":{"date":"1982-02-28"},"education":"清福商職\n臺大夜間部法律系修業一年\n革命實踐研究院24期","experience":"三重市民代表\n三重市秘書\n三重市幹事\n三重區黨部常委\n臺北縣義警大隊副大隊長\n臺北縣議會第6、7、9屆議員\n福州文化基金會主任委員\n民國94年11月28日歿","remark":null,"image":"http://www.ntp.gov.tw/UpFile/CouncilorFile/TTCC0622.jpg","links":[{"url":"http://www.ntp.gov.tw/content/history/history01-5-p.aspx?sid=260","note":"議會個人官網"}],"social_media":null,"platform":"","param":null,"councilor":"2df10c9cec3d4c81bbae131fd1aaa5af"},{"url":"http://councils.g0v.tw/api/councilors_terms/1843/","election_year":"1964","name":"吳忠","gender":"","party":"","title":"議員","constituency":4,"county":"新北市","district":"三重市","in_office":true,"contact_details":null,"term_start":"1964-02-21","term_end":{"date":"1968-02-20"},"education":"清福商職\n臺大夜間部法律系修業一年\n革命實踐研究院24期","experience":"三重市民代表\n三重市秘書\n三重市幹事\n三重區黨部常委\n臺北縣義警大隊副大隊長\n臺北縣議會第6、7、9屆議員\n福州文化基金會主任委員\n民國94年11月28日歿","remark":null,"image":"http://www.ntp.gov.tw/UpFile/CouncilorFile/TTCC0622.jpg","links":[{"url":"http://www.ntp.gov.tw/content/history/history01-5-p.aspx?sid=260","note":"議會個人官網"}],"social_media":null,"platform":"","param":null,"councilor":"2df10c9cec3d4c81bbae131fd1aaa5af"}],"uid":"2df10c9cec3d4c81bbae131fd1aaa5af","name":"吳忠","birth":null,"former_names":"","identifiers":["吳忠"]},{"url":"http://councils.g0v.tw/api/councilors/860/","each_terms":[{"url":"http://councils.g0v.tw/api/councilors_terms/1521/","election_year":"1951","name":"陳大江","gender":"","party":"","title":"議員","constituency":2,"county":"新北市","district":"三峽鎮、鶯歌鎮、樹林鎮","in_office":true,"contact_details":null,"term_start":"1951-01-04","term_end":{"date":"1953-01-05"},"education":"臺北第二中學","experience":"峽鎮第1、2屆鎮民代表\n成福煤礦總經理\n臺北汽車客運公司常務監察人\n華南產物保險公司常務董事\n*民國94年歿","remark":null,"image":"http://www.ntp.gov.tw/UpFile/CouncilorFile/TTCC0112.jpg","links":[{"url":"http://www.ntp.gov.tw/content/history/history01-5-p.aspx?sid=79","note":"議會個人官網"}],"social_media":null,"platform":"","param":null,"councilor":"a08f934cae6e4f1d8edb25bb223763ed"}],"uid":"a08f934cae6e4f1d8edb25bb223763ed","name":"陳大江","birth":null,"former_names":"","identifiers":["陳大江"]},{"url":"http://councils.g0v.tw/api/councilors/1930/","each_terms":[{"url":"http://councils.g0v.tw/api/councilors_terms/3414/","election_year":"2014","name":"鄭雙銓","gender":"男","party":"中國國民黨","title":"議員","constituency":2,"county":"屏東縣","district":"里港鄉、高樹鄉、九如鄉、鹽埔鄉、長治鄉、麟洛鄉","in_office":true,"contact_details":[{"type":"voice","value":"08-7936728","label":"電話"},{"type":"address","value":"屏東縣鹽埔鄉新二村維新路68巷2號","label":"聯絡處"}],"term_start":"2014-12-25","term_end":{"date":"2018-12-25"},"education":null,"experience":null,"remark":null,"image":"http://www.ptcc.gov.tw/upload/upimage/29640f6c-b155-430c-32fb-981213770c58-S.jpg","links":[{"url":"http://www.ptcc.gov.tw/?Page=PersionalDetail&Guid=29640f6c-b155-430c-32fb-981213770c58","note":"議會個人官網"}],"social_media":null,"platform":"小檔案\n出生：1962年\n經歷：鹽埔鄉第15、16屆鄉長\n台灣矢崎公司課長，工會理、監事，\n勞資、福利委員\n新二社區發展協會總幹事\n鹽埔後備軍人輔導中心主任、秘書\n鹽埔國中家長會長\n屏東縣青溪總會長\n鄭議員為本屆生力軍。未進議會之前擔任兩屆鹽埔鄉鄉長，在鄉長任內，讓鄉民「足感心」的是爭取完成「新南華大橋」；爭取補助新建鄉內首座納骨堂-鹽埔鄉生命紀念館，讓往生鄉民能長眠故鄉；結合學校辦理多元教育課程與社團、免費課後輔導等，提高學生學習興趣，並透過行政方式提供優渥的獎學金，鼓勵國小應屆畢業生「留鄉升學」。\n本屆鄭議員問政的目標：\n一、嚴格監督縣政府行政、社福、經建效能。\n二、監督縣政府建設、強化南、北平衡。\n三、督促輔導農業升級，輔植優良農業，防止剝削、提高農民收益。\n四、督促成立自由貿易園區，創造多元就業、催促鹽埔交流道及周邊道路興辦，規劃屏北運動、休閒廣場促進地方發展。\n五、加強零歲至學齡教育、倡辦老人日托、弱勢族群社會福利照護增進社會祥和，強化治安、婦孺安全，學子教育。\n六、落實兩性平等、新住民福利政策、提昇文化藝術素養。","param":{"bills_role_statistics":{"total":6,"priproposer":6,"sponsor":6,"cosponsor":0},"suggestions_years":{"count":250,"sum":11687000,"years":[{"count":114,"sum":5500000,"suggest_year":"2015","small_purchase":109},{"count":136,"sum":6187000,"suggest_year":"2016","small_purchase":134}]},"suggestions_associations":[{"count":93,"sum":2527000,"label":"社區發展協會"},{"count":18,"sum":470000,"label":"農會"},{"count":5,"sum":96000,"label":"民眾服務社"},{"count":3,"sum":60000,"label":"研習會"},{"count":3,"sum":60000,"label":"婦女會"},{"count":0,"sum":0,"label":"學會"},{"count":0,"sum":0,"label":"商會"},{"count":0,"sum":0,"label":"公會"},{"count":0,"sum":0,"label":"協進會"},{"count":0,"sum":0,"label":"促進會"},{"count":0,"sum":0,"label":"婦聯會"},{"count":0,"sum":0,"label":"體育會"},{"count":0,"sum":0,"label":"同心會"},{"count":0,"sum":0,"label":"早起會"},{"count":0,"sum":0,"label":"健身會"},{"count":0,"sum":0,"label":"宗親會"},{"count":0,"sum":0,"label":"功德會"},{"count":0,"sum":0,"label":"商業會"},{"count":0,"sum":0,"label":"長青會"},{"count":0,"sum":0,"label":"聯盟"}],"suggestions_piles":[{"count":169,"tokens":"協會|學會|商會|公會|協進會|促進會|研習會|婦聯會|婦女會|體育會|同心會|農會|早起會|健身會|宗親會|功德會|商業會|長青會|民眾服務社|聯盟","sum":4448000,"label":"協會"},{"count":7,"tokens":"廟|宮","sum":425000,"label":"廟"},{"count":7,"tokens":"消防局|消防隊|分隊|中隊","sum":249000,"label":"消防局"},{"count":12,"tokens":"國中|國小","sum":240000,"label":"國中、國小"},{"count":5,"tokens":"警察局|分局","sum":174000,"label":"警察局"},{"count":1,"tokens":"辦公室|辦公處","sum":85000,"label":"辦公室"}],"bills_party_diversity":[{"party":"中國國民黨","ratio":0.8571428571428571},{"party":"無黨籍","ratio":0.14285714285714285}]},"councilor":"ea74ceb893b54dedbd4f3e5c271a8c4c"}],"uid":"ea74ceb893b54dedbd4f3e5c271a8c4c","name":"鄭雙銓","birth":null,"former_names":"","identifiers":["鄭雙銓"]},{"url":"http://councils.g0v.tw/api/councilors/1483/","each_terms":[{"url":"http://councils.g0v.tw/api/councilors_terms/2409/","election_year":"2009","name":"江維屏","gender":"男","party":"無黨籍","title":"","constituency":2,"county":"屏東縣","district":"里港鄉、高樹鄉、九如鄉、鹽埔鄉、長治鄉、麟洛鄉","in_office":true,"contact_details":[{"type":"address","value":"屏東縣鹽埔鄉90741新二村彭厝路98-1號","label":"通訊處"},{"type":"voice","value":"08-7931676","label":"電話"}],"term_start":"2009-12-25","term_end":{"date":"2014-12-25"},"education":null,"experience":null,"remark":null,"image":"http://www.ptcc.gov.tw/upload/upimage/4fbc771b-c1d2-3e75-07f7-fd5a0b82d5b4-S.jpg","links":[{"url":"http://www.ptcc.gov.tw/?Page=PersionalDetail&Guid=b23b2bc7-7db2-f06a-6eb4-ec2404b110bd","note":"議會個人官網"}],"social_media":null,"platform":"一、誠懇實在、服務至上。\n二、認真打拼、監督縣政。\n三、爭取經費、建設地方。\n四、關懷基層、維護權益。","param":{"suggestions_years":{"count":426,"sum":21001000,"years":[{"count":110,"sum":5186000,"suggest_year":"2011","small_purchase":101},{"count":111,"sum":5497000,"suggest_year":"2012","small_purchase":104},{"count":94,"sum":4885000,"suggest_year":"2013","small_purchase":89},{"count":111,"sum":5433000,"suggest_year":"2014","small_purchase":106}]},"suggestions_associations":[{"count":136,"sum":3119000,"label":"社區發展協會"},{"count":27,"sum":1059000,"label":"農會"},{"count":7,"sum":300000,"label":"體育會"},{"count":9,"sum":286000,"label":"協進會"},{"count":5,"sum":240000,"label":"宗親會"},{"count":2,"sum":117000,"label":"學會"},{"count":2,"sum":110000,"label":"促進會"},{"count":5,"sum":100000,"label":"研習會"},{"count":1,"sum":20000,"label":"民眾服務社"},{"count":0,"sum":0,"label":"商會"},{"count":0,"sum":0,"label":"公會"},{"count":0,"sum":0,"label":"婦聯會"},{"count":0,"sum":0,"label":"婦女會"},{"count":0,"sum":0,"label":"同心會"},{"count":0,"sum":0,"label":"早起會"},{"count":0,"sum":0,"label":"健身會"},{"count":0,"sum":0,"label":"功德會"},{"count":0,"sum":0,"label":"商業會"},{"count":0,"sum":0,"label":"長青會"},{"count":0,"sum":0,"label":"聯盟"}],"suggestions_piles":[{"count":251,"tokens":"協會|學會|商會|公會|協進會|促進會|研習會|婦聯會|婦女會|體育會|同心會|農會|早起會|健身會|宗親會|功德會|商業會|長青會|民眾服務社|聯盟","sum":7283000,"label":"協會"},{"count":22,"tokens":"廟|宮","sum":1163000,"label":"廟"},{"count":25,"tokens":"消防局|消防隊|分隊|中隊","sum":1021000,"label":"消防局"},{"count":18,"tokens":"警察局|分局","sum":756000,"label":"警察局"},{"count":15,"tokens":"國中|國小","sum":330000,"label":"國中、國小"},{"count":1,"tokens":"辦公室|辦公處","sum":99000,"label":"辦公室"}]},"councilor":"36fcff9b2e634feca88a6f91d63645e0"},{"url":"http://councils.g0v.tw/api/councilors_terms/3415/","election_year":"2014","name":"江維屏","gender":"男","party":"民主進步黨","title":"議員","constituency":2,"county":"屏東縣","district":"里港鄉、高樹鄉、九如鄉、鹽埔鄉、長治鄉、麟洛鄉","in_office":true,"contact_details":[{"type":"voice","value":"08-7939998","label":"電話"},{"type":"address","value":"屏東縣鹽埔鄉新二村彭厝路98-1號","label":"聯絡處"}],"term_start":"2014-12-25","term_end":{"date":"2018-12-25"},"education":null,"experience":null,"remark":null,"image":"http://www.ptcc.gov.tw/upload/upimage/4660f358-d1be-af09-6ea5-bef194e5130d-S.jpg","links":[{"url":"http://www.ptcc.gov.tw/?Page=PersionalDetail&Guid=4660f358-d1be-af09-6ea5-bef194e5130d","note":"議會個人官網"}],"social_media":null,"platform":"小檔案\n出生：1964年\n經歷：屏東縣議會第17屆議員\n鹽埔鄉民代表會第15、16屆代表\n鹽埔鄉民代表會第16屆主席\n鹽埔鄉第14屆鄉長","param":{"suggestions_years":{"count":420,"sum":21887000,"years":[{"count":209,"sum":10734000,"suggest_year":"2015","small_purchase":200},{"count":211,"sum":11153000,"suggest_year":"2016","small_purchase":196}]},"suggestions_associations":[{"count":137,"sum":3880000,"label":"社區發展協會"},{"count":9,"sum":1496000,"label":"農會"},{"count":5,"sum":240000,"label":"宗親會"},{"count":5,"sum":130000,"label":"協進會"},{"count":3,"sum":128000,"label":"體育會"},{"count":2,"sum":100000,"label":"促進會"},{"count":4,"sum":80000,"label":"研習會"},{"count":3,"sum":60000,"label":"學會"},{"count":3,"sum":60000,"label":"聯盟"},{"count":1,"sum":20000,"label":"婦女會"},{"count":0,"sum":0,"label":"商會"},{"count":0,"sum":0,"label":"公會"},{"count":0,"sum":0,"label":"婦聯會"},{"count":0,"sum":0,"label":"同心會"},{"count":0,"sum":0,"label":"早起會"},{"count":0,"sum":0,"label":"健身會"},{"count":0,"sum":0,"label":"功德會"},{"count":0,"sum":0,"label":"商業會"},{"count":0,"sum":0,"label":"長青會"},{"count":0,"sum":0,"label":"民眾服務社"}],"suggestions_piles":[{"count":262,"tokens":"協會|學會|商會|公會|協進會|促進會|研習會|婦聯會|婦女會|體育會|同心會|農會|早起會|健身會|宗親會|功德會|商業會|長青會|民眾服務社|聯盟","sum":9044000,"label":"協會"},{"count":10,"tokens":"消防局|消防隊|分隊|中隊","sum":1132000,"label":"消防局"},{"count":15,"tokens":"警察局|分局","sum":1075000,"label":"警察局"},{"count":20,"tokens":"廟|宮","sum":930000,"label":"廟"},{"count":26,"tokens":"國中|國小","sum":590000,"label":"國中、國小"},{"count":2,"tokens":"辦公室|辦公處","sum":180000,"label":"辦公室"}],"bills_party_diversity":null},"councilor":"36fcff9b2e634feca88a6f91d63645e0"}],"uid":"36fcff9b2e634feca88a6f91d63645e0","name":"江維屏","birth":null,"former_names":"","identifiers":["江維屏"]},{"url":"http://councils.g0v.tw/api/councilors/1487/","each_terms":[{"url":"http://councils.g0v.tw/api/councilors_terms/2413/","election_year":"2009","name":"劉育豪","gender":"男","party":"民主進步黨","title":"","constituency":1,"county":"屏東縣","district":"屏東市","in_office":true,"contact_details":[{"type":"address","value":"屏東市公園路105號","label":"通訊處"},{"type":"voice","value":"08-7331234","label":"電話"}],"term_start":"2009-12-25","term_end":{"date":"2014-12-25"},"education":null,"experience":null,"remark":null,"image":"http://www.ptcc.gov.tw/upload/upimage/c1e34131-1f41-b8a8-28c1-14219e001114-S.jpg","links":[{"url":"http://www.ptcc.gov.tw/?Page=PersionalDetail&Guid=9adffd50-e61d-625f-bd0a-45ed9eb2a79a","note":"議會個人官網"}],"social_media":null,"platform":"曾任屏東市民代表，自謙中年才接觸政治，因此瘋狂學習，希望更貼切民意，跟得上政治的腳步，卻也發現政治不是一般民眾想像那麼黑暗，也有它的光明面，更需要社會大眾的參與，期許能做一位全職專業的民意代表。","param":{"suggestions_years":{"count":199,"sum":7616413,"years":[{"count":20,"sum":978000,"suggest_year":"2012","small_purchase":19},{"count":74,"sum":2719413,"suggest_year":"2013","small_purchase":72},{"count":105,"sum":3919000,"suggest_year":"2014","small_purchase":104}]},"suggestions_associations":[{"count":43,"sum":890000,"label":"社區發展協會"},{"count":2,"sum":110000,"label":"促進會"},{"count":3,"sum":70000,"label":"商會"},{"count":3,"sum":60000,"label":"協進會"},{"count":3,"sum":50000,"label":"宗親會"},{"count":2,"sum":40000,"label":"公會"},{"count":2,"sum":40000,"label":"研習會"},{"count":2,"sum":40000,"label":"體育會"},{"count":1,"sum":20000,"label":"農會"},{"count":0,"sum":0,"label":"學會"},{"count":0,"sum":0,"label":"婦聯會"},{"count":0,"sum":0,"label":"婦女會"},{"count":0,"sum":0,"label":"同心會"},{"count":0,"sum":0,"label":"早起會"},{"count":0,"sum":0,"label":"健身會"},{"count":0,"sum":0,"label":"功德會"},{"count":0,"sum":0,"label":"商業會"},{"count":0,"sum":0,"label":"長青會"},{"count":0,"sum":0,"label":"民眾服務社"},{"count":0,"sum":0,"label":"聯盟"}],"suggestions_piles":[{"count":117,"tokens":"協會|學會|商會|公會|協進會|促進會|研習會|婦聯會|婦女會|體育會|同心會|農會|早起會|健身會|宗親會|功德會|商業會|長青會|民眾服務社|聯盟","sum":3094000,"label":"協會"},{"count":38,"tokens":"國中|國小","sum":2846413,"label":"國中、國小"},{"count":21,"tokens":"廟|宮","sum":695000,"label":"廟"},{"count":1,"tokens":"警察局|分局","sum":20000,"label":"警察局"},{"count":1,"tokens":"消防局|消防隊|分隊|中隊","sum":20000,"label":"消防局"},{"count":0,"tokens":"辦公室|辦公處","sum":0,"label":"辦公室"}]},"councilor":"5d0a7f26d50a4a5c8c52225dfbfe5eae"},{"url":"http://councils.g0v.tw/api/councilors_terms/3421/","election_year":"2014","name":"劉育豪","gender":"男","party":"民主進步黨","title":"議員","constituency":1,"county":"屏東縣","district":"屏東市","in_office":true,"contact_details":[{"type":"voice","value":"08-7331234","label":"電話"},{"type":"address","value":"屏東市崇安街43號","label":"聯絡處"}],"term_start":"2014-12-25","term_end":{"date":"2018-12-25"},"education":null,"experience":null,"remark":null,"image":"http://www.ptcc.gov.tw/upload/upimage/39940578-47d0-c7fe-3737-37c0cb6778a3-S.jpg","links":[{"url":"http://www.ptcc.gov.tw/?Page=PersionalDetail&Guid=e772ec31-fa66-5356-1e66-33ab8e846233","note":"議會個人官網"}],"social_media":null,"platform":"小檔案\n出生：1967年\n經歷：屏東縣議會第17屆議員\n屏東市民代表會第16、17屆代表\n立法委員潘孟安服務處副主任\n大同高中家長會副會長\n仁愛國小家長會會長\n屏東科技大學EMBA聯誼會會長\n屏東國際青商會台灣之友會常務理事\n第17屆劉育豪以遞補成為議員，才經過一屆議員的歷練，劉議員問政力道十足，能切中問題核心，提出解決方案，足見他平時在縣政上做足功課，奠定本屆連任成功根基。\n屏東市是屏東縣政治經濟中心、首善之區，但經濟面卻不如其他都會區，劉議員希望屏東市能結合優質無障礙的生活環境與設置歷史性建築與特色休閒空間的規劃，成為樂活的城市。\n本屆劉議員問政的目標：\n一、推動鐵路高架化後的站前廣場週邊土地利用最佳化。\n二、督促政府公有土地的利用、活化與檢討。\n三、爭取大武營的遷建與利用。\n四、持續推廣萬年溪整治後的保育與維護。\n五、身為警察子弟，特別重視治安維護與交通安全。\n六、提倡公共藝術空間發展，營造藝術花園城市氛圍。\n七、注重縣政小細節（例如：排水溝暢通、道路鋪面平整等…）。\n八、Stand By You 永遠站在市民身邊。\n九、縣府、公所最佳橋梁。","param":{"bills_role_statistics":{"total":1,"priproposer":1,"sponsor":1,"cosponsor":0},"suggestions_years":{"count":202,"sum":7514000,"years":[{"count":110,"sum":3802000,"suggest_year":"2015","small_purchase":110},{"count":92,"sum":3712000,"suggest_year":"2016","small_purchase":90}]},"suggestions_associations":[{"count":23,"sum":480000,"label":"社區發展協會"},{"count":6,"sum":130000,"label":"協進會"},{"count":5,"sum":110000,"label":"體育會"},{"count":3,"sum":60000,"label":"公會"},{"count":2,"sum":40000,"label":"學會"},{"count":2,"sum":40000,"label":"宗親會"},{"count":1,"sum":20000,"label":"商會"},{"count":1,"sum":20000,"label":"研習會"},{"count":0,"sum":0,"label":"促進會"},{"count":0,"sum":0,"label":"婦聯會"},{"count":0,"sum":0,"label":"婦女會"},{"count":0,"sum":0,"label":"同心會"},{"count":0,"sum":0,"label":"農會"},{"count":0,"sum":0,"label":"早起會"},{"count":0,"sum":0,"label":"健身會"},{"count":0,"sum":0,"label":"功德會"},{"count":0,"sum":0,"label":"商業會"},{"count":0,"sum":0,"label":"長青會"},{"count":0,"sum":0,"label":"民眾服務社"},{"count":0,"sum":0,"label":"聯盟"}],"suggestions_piles":[{"count":105,"tokens":"協會|學會|商會|公會|協進會|促進會|研習會|婦聯會|婦女會|體育會|同心會|農會|早起會|健身會|宗親會|功德會|商業會|長青會|民眾服務社|聯盟","sum":2395000,"label":"協會"},{"count":19,"tokens":"國中|國小","sum":455000,"label":"國中、國小"},{"count":19,"tokens":"廟|宮","sum":425000,"label":"廟"},{"count":8,"tokens":"警察局|分局","sum":224000,"label":"警察局"},{"count":7,"tokens":"消防局|消防隊|分隊|中隊","sum":150000,"label":"消防局"},{"count":0,"tokens":"辦公室|辦公處","sum":0,"label":"辦公室"}],"bills_party_diversity":[{"party":"無黨籍","ratio":0.5},{"party":"民主進步黨","ratio":0.5}]},"councilor":"5d0a7f26d50a4a5c8c52225dfbfe5eae"}],"uid":"5d0a7f26d50a4a5c8c52225dfbfe5eae","name":"劉育豪","birth":null,"former_names":"","identifiers":["劉育豪","劉育豪"]},{"url":"http://councils.g0v.tw/api/councilors/1934/","each_terms":[{"url":"http://councils.g0v.tw/api/councilors_terms/3422/","election_year":"2014","name":"張平原","gender":"男","party":"無黨籍","title":"議員","constituency":1,"county":"屏東縣","district":"屏東市","in_office":true,"contact_details":[{"type":"voice","value":"08-7656626","label":"電話"},{"type":"address","value":"屏東市忠孝路3-4號","label":"聯絡處"}],"term_start":"2014-12-25","term_end":{"date":"2018-12-25"},"education":null,"experience":null,"remark":null,"image":"http://www.ptcc.gov.tw/upload/upimage/c9a2a9a4-4583-b7f7-d37f-a237a29bc739-S.jpg","links":[{"url":"http://www.ptcc.gov.tw/?Page=PersionalDetail&Guid=f7882112-3859-3d28-3faa-5e8b3f89293f","note":"議會個人官網"}],"social_media":null,"platform":"小檔案\n出生：1965年\n經歷：屏東縣羽翼羽球協會理事長\n屏東縣體育會羽球委員會副主委\n屏東國際青商會顧問\n屏東欣欣獅子會員\n張議員是本屆生力軍，也是素人參政。\n政治對於張議員來說是全然陌生，因不滿許多地方建設因政治力的干預、箝制而延宕或無疾而終，民之所需竟只操控在少數人手中，所以他決定爭取監督縣政的發言權。\n本屆張議員問政的目標：\n一、監督要求政府落實社會福利預算，照顧各所屬弱勢團體。\n二、嚴格監督教育、文化、建設、環保、衛生、警政、農漁業等各部門之推動，以確保納稅義務人權益。\n三、持續推動精緻農業，創造屏東鄉村經濟活水，重視農村環境整潔與水利疏浚排水設施之整存規劃。\n四、促進設立老人醫療網及老人長期照護制度。推動社區幼兒托育及關懷據點，落實對老人與幼兒族群照顧。\n五、支持婦女政策，協助弱勢婦女在地創業，重視新移民婦女就業權益，加強弱勢族群之實質照顧。\n六、透過文化硬體的建設，帶動屏東文化創意產業的發展，厚植屏東地方藝文產業之發展。","param":{"suggestions_years":{"count":215,"sum":7900000,"years":[{"count":109,"sum":3880000,"suggest_year":"2015","small_purchase":106},{"count":106,"sum":4020000,"suggest_year":"2016","small_purchase":103}]},"suggestions_associations":[{"count":48,"sum":1614000,"label":"社區發展協會"},{"count":6,"sum":170000,"label":"體育會"},{"count":3,"sum":135000,"label":"促進會"},{"count":6,"sum":120000,"label":"公會"},{"count":3,"sum":90000,"label":"協進會"},{"count":2,"sum":40000,"label":"商會"},{"count":1,"sum":20000,"label":"學會"},{"count":0,"sum":0,"label":"研習會"},{"count":0,"sum":0,"label":"婦聯會"},{"count":0,"sum":0,"label":"婦女會"},{"count":0,"sum":0,"label":"同心會"},{"count":0,"sum":0,"label":"農會"},{"count":0,"sum":0,"label":"早起會"},{"count":0,"sum":0,"label":"健身會"},{"count":0,"sum":0,"label":"宗親會"},{"count":0,"sum":0,"label":"功德會"},{"count":0,"sum":0,"label":"商業會"},{"count":0,"sum":0,"label":"長青會"},{"count":0,"sum":0,"label":"民眾服務社"},{"count":0,"sum":0,"label":"聯盟"}],"suggestions_piles":[{"count":142,"tokens":"協會|學會|商會|公會|協進會|促進會|研習會|婦聯會|婦女會|體育會|同心會|農會|早起會|健身會|宗親會|功德會|商業會|長青會|民眾服務社|聯盟","sum":4651000,"label":"協會"},{"count":20,"tokens":"廟|宮","sum":821000,"label":"廟"},{"count":14,"tokens":"警察局|分局","sum":493000,"label":"警察局"},{"count":12,"tokens":"消防局|消防隊|分隊|中隊","sum":380000,"label":"消防局"},{"count":12,"tokens":"國中|國小","sum":270000,"label":"國中、國小"},{"count":0,"tokens":"辦公室|辦公處","sum":0,"label":"辦公室"}],"bills_party_diversity":null},"councilor":"4ed80ad38cf34253b8e85ad23e62fe6a"}],"uid":"4ed80ad38cf34253b8e85ad23e62fe6a","name":"張平原","birth":null,"former_names":"","identifiers":["張平原"]}]}