{"count":1904,"next":"http://councils.g0v.tw/api/councilors/?page=90","previous":"http://councils.g0v.tw/api/councilors/?page=88","results":[{"url":"http://councils.g0v.tw/api/councilors/938/","each_terms":[{"url":"http://councils.g0v.tw/api/councilors_terms/1684/","election_year":"1958","name":"劉禮榕","gender":"","party":"","title":"議員","constituency":6,"county":"新北市","district":"北投鎮、士林鎮","in_office":true,"contact_details":null,"term_start":"1958-02-21","term_end":{"date":"1961-02-20"},"education":"臺北師範學校畢業\n臺灣省訓練團、革命實踐研究院","experience":"教員、主任、校長等職37年\n士林鎮民代表\n民眾服務站理事\n警民協會理事\n調解委員\n七星農田水利會代表\n臺北縣議會第4屆議員\n*民國80年歿","remark":null,"image":"http://www.ntp.gov.tw/UpFile/CouncilorFile/TTCC0456.jpg","links":[{"url":"http://www.ntp.gov.tw/content/history/history01-5-p.aspx?sid=215","note":"議會個人官網"}],"social_media":null,"platform":"","param":null,"councilor":"066b380a8eb844d59202169ae9827978"}],"uid":"066b380a8eb844d59202169ae9827978","name":"劉禮榕","birth":null,"former_names":"","identifiers":["劉禮榕","劉禮榕"]},{"url":"http://councils.g0v.tw/api/councilors/939/","each_terms":[{"url":"http://councils.g0v.tw/api/councilors_terms/1686/","election_year":"1958","name":"吳文仙","gender":"","party":"","title":"議員","constituency":6,"county":"新北市","district":"北投鎮、士林鎮","in_office":true,"contact_details":null,"term_start":"1958-02-21","term_end":{"date":"1961-02-20"},"education":"士林國校畢業","experience":"士林義警分隊長\n防護總隊士林副中隊長\n陽明山管理局商會理事長\n兵役協會主任委員\n陽明山信用合作社理事\n雜糧公會理事長\n文山記雜貨店經理\n臺北縣議會第4、5、6屆議員\n*民國54年歿","remark":null,"image":"http://www.ntp.gov.tw/UpFile/CouncilorFile/TTCC0454.jpg","links":[{"url":"http://www.ntp.gov.tw/content/history/history01-5-p.aspx?sid=214","note":"議會個人官網"}],"social_media":null,"platform":"","param":null,"councilor":"57b355373d9843b28e0d468b99874666"},{"url":"http://councils.g0v.tw/api/councilors_terms/1818/","election_year":"1964","name":"吳文仙","gender":"","party":"","title":"議員","constituency":7,"county":"新北市","district":"北投鎮、士林鎮","in_office":true,"contact_details":null,"term_start":"1964-02-21","term_end":{"date":"1968-02-20"},"education":"士林國校畢業","experience":"士林義警分隊長\n防護總隊士林副中隊長\n陽明山管理局商會理事長\n兵役協會主任委員\n陽明山信用合作社理事\n雜糧公會理事長\n文山記雜貨店經理\n臺北縣議會第4、5、6屆議員\n*民國54年歿","remark":null,"image":"http://www.ntp.gov.tw/UpFile/CouncilorFile/TTCC0454.jpg","links":[{"url":"http://www.ntp.gov.tw/content/history/history01-5-p.aspx?sid=214","note":"議會個人官網"}],"social_media":null,"platform":"","param":null,"councilor":"57b355373d9843b28e0d468b99874666"},{"url":"http://councils.g0v.tw/api/councilors_terms/1760/","election_year":"1961","name":"吳文仙","gender":"","party":"","title":"議員","constituency":6,"county":"新北市","district":"北投鎮、士林鎮","in_office":true,"contact_details":null,"term_start":"1961-02-21","term_end":{"date":"1964-02-20"},"education":"士林國校畢業","experience":"士林義警分隊長\n防護總隊士林副中隊長\n陽明山管理局商會理事長\n兵役協會主任委員\n陽明山信用合作社理事\n雜糧公會理事長\n文山記雜貨店經理\n臺北縣議會第4、5、6屆議員\n*民國54年歿","remark":null,"image":"http://www.ntp.gov.tw/UpFile/CouncilorFile/TTCC0454.jpg","links":[{"url":"http://www.ntp.gov.tw/content/history/history01-5-p.aspx?sid=214","note":"議會個人官網"}],"social_media":null,"platform":"","param":null,"councilor":"57b355373d9843b28e0d468b99874666"}],"uid":"57b355373d9843b28e0d468b99874666","name":"吳文仙","birth":null,"former_names":"","identifiers":["吳文仙"]},{"url":"http://councils.g0v.tw/api/councilors/940/","each_terms":[{"url":"http://councils.g0v.tw/api/councilors_terms/1689/","election_year":"1958","name":"田俊志","gender":"","party":"","title":"議員","constituency":6,"county":"新北市","district":"北投鎮、士林鎮","in_office":true,"contact_details":null,"term_start":"1958-02-21","term_end":{"date":"1961-02-20"},"education":"安徽省鳳陽師範學校\n革命實踐研究院婦訓班進修","experience":"北投國校教員\n陽明山復興崗文化幼稚園董事長\n陽明山軍眷手工藝生產合作社理事主席\n臺北縣議會第4屆議員","remark":null,"image":"http://www.ntp.gov.tw/UpFile/CouncilorFile/TTCC0450.jpg","links":[{"url":"http://www.ntp.gov.tw/content/history/history01-5-p.aspx?sid=213","note":"議會個人官網"}],"social_media":null,"platform":"","param":null,"councilor":"febbd6777ff147b880f85c19939e22ce"}],"uid":"febbd6777ff147b880f85c19939e22ce","name":"田俊志","birth":null,"former_names":"","identifiers":["田俊志"]},{"url":"http://councils.g0v.tw/api/councilors/945/","each_terms":[{"url":"http://councils.g0v.tw/api/councilors_terms/1698/","election_year":"1958","name":"林再和","gender":"","party":"","title":"議員","constituency":5,"county":"新北市","district":"汐止鎮、南港鎮、內湖鄉","in_office":true,"contact_details":null,"term_start":"1958-02-21","term_end":{"date":"1961-02-20"},"education":"開南工業學校畢業","experience":"土木技術員\n登基製磚工廠經理\n租佃委員會委員\n臺北縣議會第4屆議員","remark":null,"image":"http://www.ntp.gov.tw/UpFile/CouncilorFile/TTCC0442.jpg","links":[{"url":"http://www.ntp.gov.tw/content/history/history01-5-p.aspx?sid=208","note":"議會個人官網"}],"social_media":null,"platform":"","param":null,"councilor":"10f608bfe7af40a9b4123cb9e390f3f2"}],"uid":"10f608bfe7af40a9b4123cb9e390f3f2","name":"林再和","birth":null,"former_names":"","identifiers":["林再和","林再和"]},{"url":"http://councils.g0v.tw/api/councilors/966/","each_terms":[{"url":"http://councils.g0v.tw/api/councilors_terms/1768/","election_year":"1961","name":"闕山坑","gender":"","party":"","title":"議員","constituency":5,"county":"新北市","district":"汐止鎮、南港鎮、內湖鄉","in_office":true,"contact_details":null,"term_start":"1961-02-21","term_end":{"date":"1964-02-20"},"education":"高中畢業","experience":"內湖庄雇員、書記、業務主任、會計等職20餘年\n南港鎮長連任4屆\n臺北縣議會第5屆議員","remark":null,"image":"http://www.ntp.gov.tw/UpFile/CouncilorFile/TTCC0535.jpg","links":[{"url":"http://www.ntp.gov.tw/content/history/history01-5-p.aspx?sid=237","note":"議會個人官網"}],"social_media":null,"platform":"","param":null,"councilor":"620dd3d898b84355937510a83ea0b5e5"}],"uid":"620dd3d898b84355937510a83ea0b5e5","name":"闕山坑","birth":null,"former_names":"","identifiers":["闕山坑"]},{"url":"http://councils.g0v.tw/api/councilors/552/","each_terms":[{"url":"http://councils.g0v.tw/api/councilors_terms/947/","election_year":"1977","name":"胡本田","gender":"","party":"","title":"議員","constituency":1,"county":"新北市","district":"板橋市、中和鄉、永和鎮、土城鄉","in_office":true,"contact_details":null,"term_start":"1977-12-30","term_end":{"date":"1982-02-28"},"education":"臺北縣土城國小畢業\n省立板橋中學畢業\n省立臺北師範畢業\n淡江大學公共行政系畢業\n革命實踐研究院黨政建設班結業\n後幹班７１期結業","experience":"國校教師、訓導主任\n救國團鄉鎮團委會總幹事\n土城鄉後備軍人輔導中心秘書\n巨磐建設公司負責人\n臺北縣議會第9屆議員","remark":null,"image":"http://www.ntp.gov.tw/UpFile/CouncilorFile/TTCC0915.jpg","links":[{"url":"http://www.ntp.gov.tw/content/history/history01-5-p.aspx?sid=329","note":"議會個人官網"}],"social_media":null,"platform":"","param":null,"councilor":"0e0b05631c2a4a67b421c1ab70687460"}],"uid":"0e0b05631c2a4a67b421c1ab70687460","name":"胡本田","birth":null,"former_names":"","identifiers":["胡本田"]},{"url":"http://councils.g0v.tw/api/councilors/553/","each_terms":[{"url":"http://councils.g0v.tw/api/councilors_terms/950/","election_year":"1977","name":"黃聲鏞","gender":"","party":"","title":"議員","constituency":1,"county":"新北市","district":"板橋市、中和鄉、永和鎮、土城鄉","in_office":true,"contact_details":null,"term_start":"1977-12-30","term_end":{"date":"1982-02-28"},"education":"中興大學企管系畢業","experience":"臺北縣砂石同業公會常務監事\n臺灣省議會第7、8屆議員\n臺北縣商會\n體育會常務理事\n板橋市東區扶輪社創社社長\n臺北縣微笑協會會長\n臺北縣議會第9屆議員\n*民國92年12月歿","remark":null,"image":"http://www.ntp.gov.tw/UpFile/CouncilorFile/TTCC0911.jpg","links":[{"url":"http://www.ntp.gov.tw/content/history/history01-5-p.aspx?sid=328","note":"議會個人官網"}],"social_media":null,"platform":"","param":null,"councilor":"7d073ffd43384c3faea1c68fba0b00ca"}],"uid":"7d073ffd43384c3faea1c68fba0b00ca","name":"黃聲鏞","birth":null,"former_names":"","identifiers":["黃聲鏞","黄聲鏞"]},{"url":"http://councils.g0v.tw/api/councilors/554/","each_terms":[{"url":"http://councils.g0v.tw/api/councilors_terms/1082/","election_year":"1982","name":"陳明雄","gender":"","party":"","title":"議員","constituency":2,"county":"新北市","district":"中和市、永和市","in_office":true,"contact_details":null,"term_start":"1982-03-01","term_end":{"date":"1986-02-28"},"education":"力行高中畢業","experience":"臺祥建設公司\n益成礦業公司董事長\n三重市南區扶輪社創社社長\n臺北縣政府醫事審議委員會委員\n十年的義消中隊顧問\n高票當選為國民大會代表\n臺北縣議會第9、10、11、12屆議員","remark":null,"image":"http://www.ntp.gov.tw/UpFile/CouncilorFile/TTCC0906.jpg","links":[{"url":"http://www.ntp.gov.tw/content/history/history01-5-p.aspx?sid=327","note":"議會個人官網"}],"social_media":null,"platform":"","param":null,"councilor":"0db92c6838cd4e15949d5af32d0d7ca7"},{"url":"http://councils.g0v.tw/api/councilors_terms/956/","election_year":"1977","name":"陳明雄","gender":"","party":"","title":"議員","constituency":1,"county":"新北市","district":"板橋市、中和鄉、永和鎮、土城鄉","in_office":true,"contact_details":null,"term_start":"1977-12-30","term_end":{"date":"1982-02-28"},"education":"力行高中畢業","experience":"臺祥建設公司\n益成礦業公司董事長\n三重市南區扶輪社創社社長\n臺北縣政府醫事審議委員會委員\n十年的義消中隊顧問\n高票當選為國民大會代表\n臺北縣議會第9、10、11、12屆議員","remark":null,"image":"http://www.ntp.gov.tw/UpFile/CouncilorFile/TTCC0906.jpg","links":[{"url":"http://www.ntp.gov.tw/content/history/history01-5-p.aspx?sid=327","note":"議會個人官網"}],"social_media":null,"platform":"","param":null,"councilor":"0db92c6838cd4e15949d5af32d0d7ca7"},{"url":"http://councils.g0v.tw/api/councilors_terms/1019/","election_year":"1986","name":"陳明雄","gender":"","party":"","title":"議員","constituency":2,"county":"新北市","district":"中和市、永和市","in_office":true,"contact_details":null,"term_start":"1986-03-01","term_end":{"date":"1990-02-28"},"education":"力行高中畢業","experience":"臺祥建設公司\n益成礦業公司董事長\n三重市南區扶輪社創社社長\n臺北縣政府醫事審議委員會委員\n十年的義消中隊顧問\n高票當選為國民大會代表\n臺北縣議會第9、10、11、12屆議員","remark":null,"image":"http://www.ntp.gov.tw/UpFile/CouncilorFile/TTCC0906.jpg","links":[{"url":"http://www.ntp.gov.tw/content/history/history01-5-p.aspx?sid=327","note":"議會個人官網"}],"social_media":null,"platform":"","param":null,"councilor":"0db92c6838cd4e15949d5af32d0d7ca7"},{"url":"http://councils.g0v.tw/api/councilors_terms/1132/","election_year":"1990","name":"陳明雄","gender":"","party":"","title":"議員","constituency":3,"county":"新北市","district":"永和市","in_office":true,"contact_details":null,"term_start":"1990-03-01","term_end":{"date":"1994-02-28"},"education":"力行高中畢業","experience":"臺祥建設公司\n益成礦業公司董事長\n三重市南區扶輪社創社社長\n臺北縣政府醫事審議委員會委員\n十年的義消中隊顧問\n高票當選為國民大會代表\n臺北縣議會第9、10、11、12屆議員","remark":null,"image":"http://www.ntp.gov.tw/UpFile/CouncilorFile/TTCC0906.jpg","links":[{"url":"http://www.ntp.gov.tw/content/history/history01-5-p.aspx?sid=327","note":"議會個人官網"}],"social_media":null,"platform":"","param":null,"councilor":"0db92c6838cd4e15949d5af32d0d7ca7"}],"uid":"0db92c6838cd4e15949d5af32d0d7ca7","name":"陳明雄","birth":null,"former_names":"","identifiers":["陳明雄"]},{"url":"http://councils.g0v.tw/api/councilors/203/","each_terms":[{"url":"http://councils.g0v.tw/api/councilors_terms/456/","election_year":"1981","name":"潘維剛","gender":"女","party":"中國國民黨","title":"議員","constituency":null,"county":"臺北市","district":"","in_office":true,"contact_details":null,"term_start":"1981-12-25","term_end":{"date":"1985-12-25"},"education":"銘傳商專三年制畢業","experience":"銘傳學生活動中心總幹事、六十七年青年節慶祝活動籌委會執行委員、臺北市政府社會局主計員。","remark":"","image":"http://www.tcc.gov.tw/../upload/photo/%E6%BD%98%E7%B6%AD%E5%89%9B12.jpg","links":[{"url":"http://www.tcc.gov.tw/Councilor_Content_All.aspx?s=1761&d=570331&n=%E6%BD%98%E7%B6%AD%E5%89%9B","note":"議會個人官網"}],"social_media":null,"platform":"","param":null,"councilor":"1e857c562278468b985ea719d050e864"},{"url":"http://councils.g0v.tw/api/councilors_terms/356/","election_year":"1989","name":"潘維剛","gender":"女","party":"中國國民黨","title":"議員","constituency":null,"county":"臺北市","district":"","in_office":false,"contact_details":null,"term_start":"1989-12-25","term_end":{"date":"1993-01-31","reason":"82年1月31日當選第2屆立法委員，任內轉任國會議員。"},"education":"私立銘傳商業專科學校(三年制)會統科畢業、中國文化大學社工系肄業。","experience":"臺北市直轄市議會第四、五屆議員。","remark":"82年1月31日當選第2屆立法委員，任內轉任國會議員。","image":"http://www.tcc.gov.tw/../upload/photo/%E6%BD%98%E7%B6%AD%E5%89%9B14.jpg","links":[{"url":"http://www.tcc.gov.tw/Councilor_Content_All.aspx?s=1506&d=570331&n=%E6%BD%98%E7%B6%AD%E5%89%9B","note":"議會個人官網"}],"social_media":null,"platform":"","param":null,"councilor":"1e857c562278468b985ea719d050e864"},{"url":"http://councils.g0v.tw/api/councilors_terms/406/","election_year":"1985","name":"潘維剛","gender":"女","party":"中國國民黨","title":"議員","constituency":null,"county":"臺北市","district":"","in_office":true,"contact_details":null,"term_start":"1985-12-25","term_end":{"date":"1989-12-25"},"education":"私立銘傳商業專科學校會統科畢業、中國文化大學社工系、革命實踐研究院結業。","experience":"銘傳商專校友會會長、救國團中山區團委會常委、臺北市直轄市議會第四屆議員。","remark":"","image":"http://www.tcc.gov.tw/../upload/photo/%E6%BD%98%E7%B6%AD%E5%89%9B13.jpg","links":[{"url":"http://www.tcc.gov.tw/Councilor_Content_All.aspx?s=1465&d=570331&n=%E6%BD%98%E7%B6%AD%E5%89%9B","note":"議會個人官網"}],"social_media":null,"platform":"","param":null,"councilor":"1e857c562278468b985ea719d050e864"}],"uid":"1e857c562278468b985ea719d050e864","name":"潘維剛","birth":"1957-03-31","former_names":"","identifiers":["潘維剛"]},{"url":"http://councils.g0v.tw/api/councilors/686/","each_terms":[{"url":"http://councils.g0v.tw/api/councilors_terms/1223/","election_year":"1998","name":"李國芳","gender":"","party":"","title":"議員","constituency":8,"county":"新北市","district":"汐止鎮、金山鄉、萬里鄉","in_office":true,"contact_details":null,"term_start":"1998-03-01","term_end":{"date":"2002-02-28"},"education":"省立基隆水產職業學校高級部畢業","experience":"臺北縣議會第14屆議員\n金山鄉代表會第11屆主席\n金山鄉第9、11屆鄉長\n金山國際獅子會會長\n金山地區李姓宗親會會長\n臺北縣李姓宗親會常務理事\n臺北縣太極拳協會金山分會會長\n臺北縣救難協會顧問\n法鼓山人文社會學院顧問、義工\n財團法人臺灣省臺北縣金包里慈護宮董事\n民國96年1月31日歿","remark":null,"image":"http://www.ntp.gov.tw/UpFile/CouncilorFile/TTCC1456.jpg","links":[{"url":"http://www.ntp.gov.tw/content/history/history01-5-p.aspx?sid=497","note":"議會個人官網"}],"social_media":null,"platform":"","param":null,"councilor":"a30541f42a8c4e469214faf138ce3d83"}],"uid":"a30541f42a8c4e469214faf138ce3d83","name":"李國芳","birth":null,"former_names":"","identifiers":["李國芳","李國芳"]}]}