{"count":1904,"next":"http://councils.g0v.tw/api/councilors/?page=10","previous":"http://councils.g0v.tw/api/councilors/?page=8","results":[{"url":"http://councils.g0v.tw/api/councilors/904/","each_terms":[{"url":"http://councils.g0v.tw/api/councilors_terms/1667/","election_year":"1958","name":"鄭炎","gender":"","party":"","title":"議員","constituency":9,"county":"新北市","district":"新店鎮、景美鎮、木柵鄉、深坑鄉、石碇鄉、坪林鄉","in_office":true,"contact_details":null,"term_start":"1958-02-21","term_end":{"date":"1961-02-20"},"education":"廣東醫專畢業","experience":"軍醫院上校院長\n聯勤總部軍醫署上校副主任\n臺北縣議會第3、4屆議員","remark":null,"image":"http://www.ntp.gov.tw/UpFile/CouncilorFile/TTCC0361.jpg","links":[{"url":"http://www.ntp.gov.tw/content/history/history01-5-p.aspx?sid=181","note":"議會個人官網"}],"social_media":null,"platform":"","param":null,"councilor":"9c8c03ca338643a58c9537774c7fc49f"},{"url":"http://councils.g0v.tw/api/councilors_terms/1599/","election_year":"1955","name":"鄭炎","gender":"","party":"","title":"議員","constituency":9,"county":"新北市","district":"新店鎮、景美鎮、木柵鄉、深坑鄉、石碇鄉、坪林鄉","in_office":true,"contact_details":null,"term_start":"1955-01-16","term_end":{"date":"1958-02-20"},"education":"廣東醫專畢業","experience":"軍醫院上校院長\n聯勤總部軍醫署上校副主任\n臺北縣議會第3、4屆議員","remark":null,"image":"http://www.ntp.gov.tw/UpFile/CouncilorFile/TTCC0361.jpg","links":[{"url":"http://www.ntp.gov.tw/content/history/history01-5-p.aspx?sid=181","note":"議會個人官網"}],"social_media":null,"platform":"","param":null,"councilor":"9c8c03ca338643a58c9537774c7fc49f"}],"uid":"9c8c03ca338643a58c9537774c7fc49f","name":"鄭炎","birth":null,"former_names":"","identifiers":["鄭炎"]},{"url":"http://councils.g0v.tw/api/councilors/1764/","each_terms":[{"url":"http://councils.g0v.tw/api/councilors_terms/2970/","election_year":"2014","name":"黃定和","gender":"男","party":"中國國民黨","title":"議員","constituency":1,"county":"宜蘭縣","district":"宜蘭","in_office":true,"contact_details":[{"type":"email","value":"h706277@gmail.com","label":"E-mail"},{"type":"voice","value":"0938706277","label":"服務處所電話"},{"type":"address","value":"宜蘭市新興路155號","label":"服務處所"}],"term_start":"2014-12-25","term_end":{"date":"2018-12-25"},"education":"佛光大學公共事務研究所","experience":"1.宜蘭市市長。\n2.宜蘭市十六、十七屆市民代表。\n3.社團法人宜蘭縣勞工志願服務協會名譽理事長。\n4.國民黨宜蘭市黨部主任委員。\n5.救國團宜蘭縣團務指導委員會指導委員。\n6.宜蘭縣擎天協會理事長。\n7.宜蘭縣永稻育苗技術改良協進會顧問。\n8.宜蘭市農會會員代表聯誼會會長。\n9.宜蘭縣家長會長協會會員。","remark":null,"image":"http://www.ilcc.gov.tw/pictures/people/A1801.JPG","links":[{"url":"http://www.ilcc.gov.tw/Html/H_05/H_0501.asp?GoOut=&pic=1&clique=KMT&User_id=A1801","note":"議會個人官網"}],"social_media":null,"platform":"全力建設、宜蘭起飛　定和擔任兩屆宜蘭市長，八年九個月的任期，一步\n一腳印，清廉、忍真、打拼為民服務，全力投入宜蘭市的建設和發展，完成許\n多重大的建設、創辦大型的「宜蘭國際樂活節」活動，完成宜蘭市整體發展的\n階段性任務。定和深深瞭解宜蘭市未來建設的方向以及宜蘭市民最迫切的需\n求。定和秉持一貫的服務精神，參選宜蘭縣議會第十八屆議員，為咱宜蘭市爭\n取最大福利與建設。\n一、勞工：捍衛勞工權益、改善勞動環境、創造就業機會。\n二、治水：爭取市區排水及抽水站引水幹道改善工程。\n三、交通：加速宜蘭市道路開闢、鐵路高架、建立大眾運輸公車機泊系統、廣\n建地下停車場。\n四、都計：解編公共設施保留地還地於民、變更宜蘭河週邊都市計畫，提昇宜\n蘭河國際光遊憩功能、放寬容積率限制。\n五、市容：全面推廣「街道綠美化」運動。\n六、社福：提昇勞工、婦女、幼童、老人、身障同胞、低收入戶等弱勢團體福\n利。\n七、衛生：社區老人健檢、全面篩檢65歲以上老人慢性病罹患率。\n八、文化：提昇社區、廟宇、「宜蘭水燈節」活動經費補助、民俗匠師傳承列\n冊專案輔導。\n九、教育：提昇公立學校教學環境、開辦全縣免費學童營養午餐、學生助學貸\n款、推廣成人終身學習。\n十、治安：全面增設治安監視器、保障市民生命財產安全。\n十一、產業：加強城南基地招商、廣設產業形象館、設置全市區無死角行動寬\n頻網路，與一級城市同步。\n十二、觀光：落實推動舊城振興計畫、整合資源推廣宜蘭美食、觀光景點。","param":{"attendance_statistics":{"absent":0,"total":262},"bills_role_statistics":{"total":179,"priproposer":18,"sponsor":20,"cosponsor":159},"bills_party_diversity":[{"party":"中國國民黨","ratio":0.39418416801292405},{"party":"民主進步黨","ratio":0.33710285406569734},{"party":"在野問政聯盟","ratio":0.14970382337102853},{"party":"無黨籍","ratio":0.11900915455035002}]},"councilor":"f987ea6eaa9547d0bd9b3c0087e9b5ec"}],"uid":"f987ea6eaa9547d0bd9b3c0087e9b5ec","name":"黃定和","birth":null,"former_names":"","identifiers":["黄定和","黃定和"]},{"url":"http://councils.g0v.tw/api/councilors/1765/","each_terms":[{"url":"http://councils.g0v.tw/api/councilors_terms/2971/","election_year":"2014","name":"陳俊宇","gender":"男","party":"民主進步黨","title":"議員","constituency":4,"county":"宜蘭縣","district":"員山","in_office":true,"contact_details":[{"type":"email","value":"world168@kimo.com","label":"E-mail"},{"type":"voice","value":"9233168","label":"服務處所電話"},{"type":"address","value":"員山鄉員山路一段256號","label":"服務處所"}],"term_start":"2014-12-25","term_end":{"date":"2018-12-25"},"education":"佛光大學公共事務研究所","experience":"1.員山鄉民代表。\n2.員山鄉農會理事。\n3.員山國小家長會副會長。\n4.大湖國小教育基金會董事。\n5.大湖底休閒農業區發展協會常務理事。\n6.宜蘭縣青年公共事務協會監事。\n7.宜蘭縣水資源保護會委員。\n8.宜蘭縣社區服務志工協會理事。","remark":null,"image":"http://www.ilcc.gov.tw/pictures/people/A1812.JPG","links":[{"url":"http://www.ilcc.gov.tw/Html/H_05/H_0501.asp?GoOut=&pic=4&clique=DDP&User_id=A1812","note":"議會個人官網"}],"social_media":null,"platform":"一、爭取員山鄉惠民路(宜17線)道路拓寬工程，以疏導改善交通，建構便利交\n通網路。\n二、爭取闢建「山腳觀光道路尚德段新建工程」以銜接深洲大道-湖東至尚德段\n之交通路廊，並爭取員山鄉「內尚農地重劃」之推動，以改善農業生產環\n境。\n三、賡續推動「宜蘭河全線整治工程」後續將爭取「永金一號橋至永金二號\n橋」整治及河堤綠美化工程，以強化河岸休閒遊憩功能。\n四、推動設置「員山鄉農特產展銷加值物流園區」，提昇在地農特產附加價值\n及行銷平台，建置觀光工廠，提高本鄉就業人口。\n五、「宜13線(同心路段)及永金一號橋拓寬興建工程」，後續爭取工程建設經\n費，督責發包施工品質，敦促早日完成，以改善地方交通瓶頸。\n六、貫通員山公園後方防汛道路，連接台七線，爭取建設「替代型外環道\n路」，以疏解市區車流量，降低壅塞情形。\n七、推動「員山鄉都市計畫區整體發展及空間發展策略先期規劃」，以促進本\n鄉土地合理開發利用。\n八、爭取經費辦理員山鄉各風景區(望龍埤、雷公埤、螃蟹冒泡等)景觀再造及\n環境改善，以帶動地方觀光發展。\n九、「員山鄉公所聯合辦公大樓興建工程」，業已爭取內政部及縣府核定補\n助，後續配合公所爭取軟體及設備之經費，以提昇整體為民服務環境。\n十、推重「宜蘭縣童玩公園鴨母  雙園區計畫」，打造員山鄉觀光新亮點，發\n展精緻化的觀光產業鏈。","param":{"attendance_statistics":{"absent":3,"total":262},"bills_role_statistics":{"total":167,"priproposer":27,"sponsor":27,"cosponsor":140},"bills_party_diversity":[{"party":"民主進步黨","ratio":0.5838541666666667},{"party":"中國國民黨","ratio":0.17708333333333334},{"party":"無黨籍","ratio":0.1296875},{"party":"在野問政聯盟","ratio":0.109375}]},"councilor":"38bcbceb1ffd4ff5b8f0f2a32c1b174b"}],"uid":"38bcbceb1ffd4ff5b8f0f2a32c1b174b","name":"陳俊宇","birth":null,"former_names":"","identifiers":["陳俊宇"]},{"url":"http://councils.g0v.tw/api/councilors/1112/","each_terms":[{"url":"http://councils.g0v.tw/api/councilors_terms/2972/","election_year":"2014","name":"蔡文益","gender":"男","party":"中國國民黨","title":"議員","constituency":2,"county":"宜蘭縣","district":"頭城","in_office":true,"contact_details":[{"type":"voice","value":"9772901","label":"服務處所電話"},{"type":"address","value":"宜蘭縣頭城鎮開蘭路62號","label":"服務處所"}],"term_start":"2015-06-03","term_end":{"date":"2018-12-25"},"education":"佛光大學社會研究所碩士","experience":"1.頭城鎮民代表。\n2.宜蘭縣議會第16、17屆議員。\n3.頭城桌球委員會榮譽主委。\n4.頭城義警顧問團長。\n5.頭城青商會主委。\n6.頭城區漁會理事。\n7.頭城後備軍人輔導中心組長。\n8.頭城民防、義消分隊顧問。","remark":null,"image":"http://www.ilcc.gov.tw/pictures/people/A1835.JPG","links":[{"url":"http://www.ilcc.gov.tw/Html/H_05/H_0501.asp?GoOut=&pic=2&clique=KMT&User_id=A1835","note":"議會個人官網"}],"social_media":null,"platform":"一、交通便捷：假日塞車嚴重、應開闢東西向道路及烏一號道路連接高速公路\n交流道，以免二城段大塞車。\n二、農業政策：保障農民地主權益，反對濕地對農民危害及農地農用各項政策應\n做檢討，不致使農民損失。\n三、勞工權益：配合勞工爭取各項補助。\n四、弱勢關懷：提升老人照顧品質、並設長青食堂及幼兒教育、營養午餐的經費\n爭取。\n五、社區聯誼：舉辦社區活動、連絡鄉親情誼。\n六、農漁發展：配合爭取各項農漁補助款，提升農漁業精緻化、改善農漁民生\n計。\n七、建設起飛：頭城為開蘭第一城，應加速打造優質的頭城，讓城市更進步。\n八、強化治安：雪隧通車後，外來人口眾多、治安成隱憂，在鎮內重要路口設監\n視器，並成立社區巡守隊，爭取所需之各項經費。\n九、文化傳承：頭城文風鼎盛，推廣各項文化活動。\n十、開發觀光：引進多方觀光資源，結合本鎮特殊風光，增進本鎮觀光動脈。\n以上十點，並延續過去服務精神，認真打拼，完成鄉親所付託的責任。","param":{"attendance_statistics":{"absent":69,"total":204},"bills_role_statistics":{"total":28,"priproposer":3,"sponsor":3,"cosponsor":25},"bills_party_diversity":[{"party":"民主進步黨","ratio":0.39069767441860465},{"party":"中國國民黨","ratio":0.29767441860465116},{"party":"無黨籍","ratio":0.17209302325581396},{"party":"在野問政聯盟","ratio":0.13953488372093023}]},"councilor":"e5b40d8f2800406eac88ca4919e8f24d"},{"url":"http://councils.g0v.tw/api/councilors_terms/2038/","election_year":"2009","name":"蔡文益","gender":"","party":"中國國民黨","title":"議員","constituency":2,"county":"宜蘭縣","district":"頭城","in_office":true,"contact_details":[{"type":"address","value":"宜蘭縣議會","label":"服務處所"},{"type":"voice","value":"9251001","label":"服務處所電話"},{"type":"email","value":"kmt@ilcc.gov.tw","label":"E-mail"}],"term_start":"2009-12-25","term_end":{"date":"2014-12-25"},"education":"復興工商專科學校","experience":"宜蘭縣議會第十七屆議員。\n2.中國國民黨中央委員。\n3.救國團頭城團委會會長。\n4.頭城區漁會理事。\n5.頭城後備輔導中心組長。\n1.頭城鎮民代表。\n2.宜蘭縣青工會總會長。\n3.宜蘭縣青年團團長。\n4.頭城義警顧問團長。\n5.頭城民防顧問。\n6.頭城18式氣功顧問。\n7.民眾服務社機車班講師。\n8.佛光大學社會研究所。\n9.宜蘭縣議會第16屆議員。","remark":null,"image":"http://www.ilcc.gov.tw/pictures/people/A1707.JPG","links":[{"url":"http://www.ilcc.gov.tw/Html/H_05/H_0501.asp?GoOut=&pic=2&clique=KMT&User_id=A1707","note":"議會個人官網"}],"social_media":null,"platform":"一、強化治安打擊犯罪：在鎮內重要街道裝置監視器，成立社區巡守隊，與\n警方連線，形成區域治安防範。\n二、都市更新：儘速完成烏石港區段徵收實施及大洋都市計劃建置，改造頭\n城城市新風貌。\n三、建設起飛：頭城貴為宜蘭縣第一城，應當延續這幾年的開發速度，專案\n依地方人文、地理需求做規劃，打造優質的新頭城。\n四、社區聯誼：工商社會，要經常舉辦社區活動，促使街坊鄰居的連繫，增\n進地方和諧。\n五、交通便捷：配合爭取山腳道路、環鎮道路、鐵路高架、北宜直線鐵路及\n高速公路側車道完成。\n六、開發觀光：引進多方觀資源，結合本鎮特殊風光，如蘭雨節、頭城搶\n孤、頭城大熱鬧、頭城美食節等、建設出新的觀光城，進而活絡本鎮的\n經濟脈動。\n七、農漁政策：配合爭取各項農漁補助款，提升農漁產業精緻化，改善農漁\n民生計。\n八、改善經濟：配合各級政府招商，引進輕工業，致使地方繁榮，讓在地人\n才回流。\n以上八點並繼續成立選民服務中心，解決鄉親日常事務，以達到選民的付\n託。","param":{"bills_role_statistics":{"total":55,"priproposer":3,"sponsor":6,"cosponsor":49},"diversity":{"中國國民黨":0.528766452402816,"民主進步黨":0.35212090345780167,"無黨籍":0.11911264413938215},"bills_party_diversity":[{"party":"中國國民黨","ratio":0.496415770609319},{"party":"民主進步黨","ratio":0.3709677419354839},{"party":"無黨籍","ratio":0.13261648745519714}]},"councilor":"e5b40d8f2800406eac88ca4919e8f24d"}],"uid":"e5b40d8f2800406eac88ca4919e8f24d","name":"蔡文益","birth":null,"former_names":"","identifiers":["蔡文益"]},{"url":"http://councils.g0v.tw/api/councilors/1766/","each_terms":[{"url":"http://councils.g0v.tw/api/councilors_terms/2973/","election_year":"2014","name":"林金龍","gender":"男","party":"民主進步黨","title":"議員","constituency":2,"county":"宜蘭縣","district":"頭城","in_office":true,"contact_details":[{"type":"voice","value":"9782519","label":"服務處所電話"},{"type":"address","value":"頭城鎮新建里新興路284-1號","label":"服務處所"}],"term_start":"2014-12-25","term_end":{"date":"2018-12-25"},"education":"頭城國小","experience":"1.頭城鎮農會理事長。\n2.頭城鎮民代表會第18、19屆鎮民代表。","remark":null,"image":"http://www.ilcc.gov.tw/pictures/people/A1808.JPG","links":[{"url":"http://www.ilcc.gov.tw/Html/H_05/H_0501.asp?GoOut=&pic=2&clique=DDP&User_id=A1808","note":"議會個人官網"}],"social_media":null,"platform":"協助農漁發展：\n一、基本生產的權益照顧。\n二、農漁村風貌文化的行銷。\n三、爭取週邊相關公共設施的改善。\n監督重大建設：\n一、監督縣政、支持建設。\n二、協助縣府推動交通、水利、漁港、觀光、教育…等建設的進行。\n爭取弱勢福利：\n一、強化鄰里急難救助通報之服務和協助。\n二、爭取里、社區公共空間設施建置完善，塑造友善多元的環境。","param":{"attendance_statistics":{"absent":10,"total":262},"bills_role_statistics":{"total":67,"priproposer":2,"sponsor":3,"cosponsor":64},"bills_party_diversity":[{"party":"民主進步黨","ratio":0.514161220043573},{"party":"中國國民黨","ratio":0.23202614379084968},{"party":"無黨籍","ratio":0.16339869281045752},{"party":"在野問政聯盟","ratio":0.09041394335511982}]},"councilor":"0564c8f215e44082ab48aa83bc648edb"}],"uid":"0564c8f215e44082ab48aa83bc648edb","name":"林金龍","birth":null,"former_names":"","identifiers":["林金龍","林金龍"]},{"url":"http://councils.g0v.tw/api/councilors/1199/","each_terms":[{"url":"http://councils.g0v.tw/api/councilors_terms/2125/","election_year":"2009","name":"李訓求","gender":"","party":"","title":"議員","constituency":4,"county":"桃園縣","district":"蘆竹鄉","in_office":true,"contact_details":[{"type":"email","value":"tycca027@tycc.gov.tw","label":"EMAIL"},{"type":"address","value":"蘆竹鄉大竹路426之8號","label":"服務處"},{"type":"voice","value":"323-5624","label":"電話"}],"term_start":"2009-12-25","term_end":{"date":"2014-12-25"},"education":null,"experience":"現任:\n桃園縣體育會獨輪車委員會顧問\n蘆竹鄉愛加倍歌唱協會顧問\n蘆竹鄉李氏宗親會顧問\n桃園縣李氏宗親總會常務監事\n海山戶外活動協會顧問\n桃園縣議會無黨籍聯盟總召集人\n經歷:\n桃園縣議會第14、15屆議員\n蘆竹鄉社教文教基金會董事\n啟榮機械公司負責人\n蘆竹鄉李氏宗親會理事長\n蘆竹鄉慢速壘球委員會主任委員\n桃園縣退伍軍人協會理事\n蘆竹鄉退伍軍人協會副會長\n蘆竹鄉民防、義交、花卉、同濟、海山委員顧問","remark":null,"image":"http://www.tycc.gov.tw/file%5Cperson%5Capp%5Ca634834906749418562_MG_1758-2.jpg","links":[{"url":"http://www.tycc.gov.tw/page.aspx?wtp=1&wnd=204&id=54","note":"議會個人官網"},{"url":"http://https://www.facebook.com/profile.php?id=100008334763759","note":"臉書"}],"social_media":null,"platform":"","param":null,"councilor":"efc984a471434c2d80614bf116e74bdf"}],"uid":"efc984a471434c2d80614bf116e74bdf","name":"李訓求","birth":null,"former_names":"","identifiers":["李訓求","李訓求"]},{"url":"http://councils.g0v.tw/api/councilors/1205/","each_terms":[{"url":"http://councils.g0v.tw/api/councilors_terms/2131/","election_year":"2009","name":"梁新武","gender":"","party":"","title":"議員","constituency":7,"county":"桃園縣","district":"中壢市","in_office":true,"contact_details":[{"type":"address","value":"中壢市義民路二段145號","label":"服務處"},{"type":"voice","value":"461-5528","label":"電話"},{"type":"fax","value":"462-5918","label":"傳真"}],"term_start":"2009-12-25","term_end":{"date":"2014-12-25"},"education":"新坡國小\n中壢初中\n中壢高中\n文化大學政治系畢業","experience":"桃園縣議員\n民進黨桃園縣黨部執行長\n民進黨觀音鄉黨部主任委員\n民進黨桃園縣黨部執行委員、評議委員、\n全國黨代表\n中壢青商會、龍岡同濟會、壢青獅子會、\n工商交流協進會\n桃園縣梁姓宗親會理事長\n中壢高中校友會理事長、常務監事","remark":null,"image":"http://www.tycc.gov.tw/file%5Cperson%5Capp%5Ca634641657118021475%E6%A2%81%E6%96%B0%E6%AD%A6%E8%AD%B0%E5%93%A1.jpg","links":[{"url":"http://www.tycc.gov.tw/page.aspx?wtp=1&wnd=204&id=68","note":"議會個人官網"},{"url":"http://https://www.facebook.com/people/%E6%A2%81%E6%96%B0%E6%AD%A6/100006207361480","note":"臉書"}],"social_media":null,"platform":"一 悍衛敬老金制度化發放。\n二 配合中央徹底整治老街溪、新街溪，根除水患並美化。\n三 加速青埔新市鎮建設，同時連結中壢市區的整體發。\n四 大崙休閒精緻農業的完善規劃及落實執行。\n五 爭取中壢桃園間的鐵路儘速地下化或高架化。\n六 要求大中壢地區都市計劃儘速通盤檢討，加速地方建設。\n七 中山東路、龍岡路、普忠路、龍慈路儘速完成拓建。\n八 至善國小、仁愛國中儘速籌建完成。\n九 強化治安、落實環保、促進觀光、鼓勵投資、加速建設。","param":null,"councilor":"b4b096b0cf1a4afaaf2c9bf878d1714e"}],"uid":"b4b096b0cf1a4afaaf2c9bf878d1714e","name":"梁新武","birth":null,"former_names":"","identifiers":["梁新武"]},{"url":"http://councils.g0v.tw/api/councilors/1207/","each_terms":[{"url":"http://councils.g0v.tw/api/councilors_terms/2133/","election_year":"2009","name":"沐平波","gender":"","party":"","title":"議員","constituency":7,"county":"桃園縣","district":"中壢市","in_office":true,"contact_details":[{"type":"email","value":"tycca051@tycc.gov.tw","label":"EMAIL"},{"type":"address","value":"中壢市龍東路416號","label":"服務處"},{"type":"voice","value":"03-4566167","label":"電話"},{"type":"fax","value":"03-4665853","label":"傳真"}],"term_start":"2009-12-25","term_end":{"date":"2014-12-25"},"education":"健行工專電子工程科畢業\n清雲科技大學經營管理研究所碩士\n中原大學工業與系統工程學系博士班","experience":"【現任】\n桃園縣議會第17屆議員\n桃園縣議會國民黨團副書記長\n黃復興第8支黨部委員\n桃園縣婦聯分會顧問\n國民黨中壢市黨部委員\n桃園縣中壢市退伍軍人協會顧問\n桃園縣中壢市婦女會顧問\n中壢市民眾服務社顧問\n健行科技大學企管系兼任講師\n健行清雲校友會常務理事\n董楊童宗親會顧問\n安徽同鄉會常務理事\n【經歷】\n清雲科技大學企管系兼任講師\n健行工專人事主任\n健行工專專任教師\n美國東南大學研究助理\n桃園縣婦聯分會委員\n救國團真善美聯誼會委員\n桃園縣議會第15、16屆議員","remark":null,"image":"http://www.tycc.gov.tw/file%5Cperson%5Capp%5Ca634641657218173651%E6%B2%90%E5%B9%B3%E6%B3%A2%E8%AD%B0%E5%93%A1.jpg","links":[{"url":"http://www.tycc.gov.tw/page.aspx?wtp=1&wnd=204&id=66","note":"議會個人官網"},{"url":"http://www.facebook.com/penpo.mu","note":"臉書"}],"social_media":null,"platform":"關心婦幼安全，保障婦女權益。\n維護榮民權益，提昇國宅品質。\n保障勞工權益，促進勞資和諧，互利共榮。\n增設公立幼稚園，獎勵輔導續優私立幼稚園減輕家庭負擔。\n提高社會福利預算，照顧低收入及殘障同胞等弱勢族群。\n改善後站交通，促進後站繁榮。\n督促縣府，徹底解決缺水問題。\n加強環璄保護，改善民眾生活品質。\n維護治安環境，建構祥和社會。\n誠懇服務，認真建言，做一個專業的民意代表。","param":null,"councilor":"e1d515765efe45e8acd7fa7595770e15"}],"uid":"e1d515765efe45e8acd7fa7595770e15","name":"沐平波","birth":null,"former_names":"","identifiers":["沐平波"]},{"url":"http://councils.g0v.tw/api/councilors/507/","each_terms":[{"url":"http://councils.g0v.tw/api/councilors_terms/854/","election_year":"1968","name":"林玉生","gender":"","party":"","title":"議員","constituency":7,"county":"新北市","district":"瑞芳鎮、雙溪鄉、貢寮鄉、平溪鄉","in_office":true,"contact_details":null,"term_start":"1968-02-21","term_end":{"date":"1973-04-30"},"education":"十分國民學校畢業\n平溪高等科畢\n開南商工職校初中畢\n開南商工職校高商畢","experience":"大華煤礦常務董事\n石灼煤礦常務董事\n大華煤礦聯合員工福利社經理\n石灼煤煤礦聯合員工福利社經理\n遠東遊覽汽車公司常務監察\n遠東遊覽汽車公司總經理\n培基交通公司總經理\n富士大飯店董事長\n臺灣大理石礦常務董事\n臺北縣議會第7、9屆議員\n民國94年2月28日歿","remark":null,"image":"http://www.ntp.gov.tw/UpFile/CouncilorFile/TTCC0749.jpg","links":[{"url":"http://www.ntp.gov.tw/content/history/history01-5-p.aspx?sid=292","note":"議會個人官網"}],"social_media":null,"platform":"","param":null,"councilor":"5f7be072886b420596faf74983678ad5"},{"url":"http://councils.g0v.tw/api/councilors_terms/909/","election_year":"1977","name":"林玉生","gender":"","party":"","title":"議員","constituency":6,"county":"新北市","district":"瑞芳鎮、雙溪鄉、貢寮鄉、平溪鄉","in_office":true,"contact_details":null,"term_start":"1977-12-30","term_end":{"date":"1982-02-28"},"education":"十分國民學校畢業\n平溪高等科畢\n開南商工職校初中畢\n開南商工職校高商畢","experience":"大華煤礦常務董事\n石灼煤礦常務董事\n大華煤礦聯合員工福利社經理\n石灼煤煤礦聯合員工福利社經理\n遠東遊覽汽車公司常務監察\n遠東遊覽汽車公司總經理\n培基交通公司總經理\n富士大飯店董事長\n臺灣大理石礦常務董事\n臺北縣議會第7、9屆議員\n民國94年2月28日歿","remark":null,"image":"http://www.ntp.gov.tw/UpFile/CouncilorFile/TTCC0749.jpg","links":[{"url":"http://www.ntp.gov.tw/content/history/history01-5-p.aspx?sid=292","note":"議會個人官網"}],"social_media":null,"platform":"","param":null,"councilor":"5f7be072886b420596faf74983678ad5"}],"uid":"5f7be072886b420596faf74983678ad5","name":"林玉生","birth":null,"former_names":"","identifiers":["林玉生","林玉生"]},{"url":"http://councils.g0v.tw/api/councilors/432/","each_terms":[{"url":"http://councils.g0v.tw/api/councilors_terms/770/","election_year":"2010","name":"李鴻鈞","gender":"","party":"中國國民黨","title":"議員","constituency":1,"county":"高雄市","district":"桃源區、那瑪夏區、甲仙區、六龜區、杉林區、內門區、旗山區、美濃區、茂林區","in_office":false,"contact_details":[{"type":"voice","value":"6822000","label":"傳真"},{"type":"fax","value":"6821000","label":"傳真"},{"type":"address","value":"843美濃區中興路一段213號","label":"通訊處"}],"term_start":"2010-12-25","term_end":{"date":"2012-06-21","reason":""},"education":"國立臺南藝術大學碩士畢業","experience":"1.國民黨高雄縣黨部　副主任委員。\n2.高雄縣第十五、十六屆　議員。\n3.國民黨第十七屆黨代表　高雄縣召集人。\n4.高雄縣青年工作委員會　總會長。\n5.美濃鎮第十六屆鎮民代表會　代表。\n6.世界客屬總會　理事。","remark":"(已解職101.6.21)","image":"http://www.kcc.gov.tw/Upload/PeriodMembers/0701003.jpg","links":[{"url":"http://www.kcc.gov.tw/PeriodMembers/Introduction.aspx?KeyID=3","note":"議會個人官網"}],"social_media":null,"platform":"一、強化社福-加強老人日托福利措施，爭取身障者社福補助、保障弱勢權益。\n二、農業振興-建立特色農產品優勢，提升農經產值；開發行銷通路，振興農村。\n三、運動城市-爭取親水運動公園建設，營造青少年及民眾健康休閒運動，打造優質生活空間。\n四、藝文發展-爭取旗美區多功能展演廳，發展藝文活動，提升文化質量。\n五、深耕教育-督促市府重視教育多面向發展，拉近城鄉教育差距。\n六、健全醫療-督促政府重視旗美地區醫療品質，保障民眾就醫及救護的權益。\n七、文化觀光-發展藝文觀光，深耕在地文化，再創旗美地區觀光旅遊風華。\n八、安全交通-要求市府落實旗美區基礎建設、打造便利交通路網。\n九、重建災區-督促政府災後交通建設及流域整治，解決淹水問題及加速復建工程。\n十、關懷家園-持續關懷永久屋基地住民權益，加強各項建設、建立安全新家園。\n十一、優質服務-以熱忱、努力、誠信之一貫信念，為鄉親提供專業服務。","param":{"bills_role_statistics":{"total":28,"priproposer":27,"sponsor":27,"cosponsor":1},"diversity":{"中國國民黨":0.9404761904761905,"民主進步黨":0.03571428571428571,"親民黨":0.0,"無黨籍":0.023809523809523808},"suggestions_years":{"count":40,"sum":16693332,"years":[{"count":24,"sum":10427436,"suggest_year":"2011","small_purchase":10},{"count":16,"sum":6265896,"suggest_year":"2012","small_purchase":8}]},"attendance_statistics":{"absent":3,"total":157},"suggestions_associations":[{"count":3,"sum":200000,"label":"社區發展協會"},{"count":0,"sum":0,"label":"學會"},{"count":0,"sum":0,"label":"商會"},{"count":0,"sum":0,"label":"公會"},{"count":0,"sum":0,"label":"協進會"},{"count":0,"sum":0,"label":"促進會"},{"count":0,"sum":0,"label":"研習會"},{"count":0,"sum":0,"label":"婦聯會"},{"count":0,"sum":0,"label":"婦女會"},{"count":0,"sum":0,"label":"體育會"},{"count":0,"sum":0,"label":"同心會"},{"count":0,"sum":0,"label":"農會"},{"count":0,"sum":0,"label":"早起會"},{"count":0,"sum":0,"label":"健身會"},{"count":0,"sum":0,"label":"宗親會"},{"count":0,"sum":0,"label":"功德會"},{"count":0,"sum":0,"label":"商業會"},{"count":0,"sum":0,"label":"長青會"},{"count":0,"sum":0,"label":"民眾服務社"},{"count":0,"sum":0,"label":"聯盟"}],"bills_party_diversity":null,"suggestions_piles":[{"count":20,"tokens":"國中|國小","sum":4608312,"label":"國中、國小"},{"count":3,"tokens":"警察局|分局","sum":585020,"label":"警察局"},{"count":3,"tokens":"協會|學會|商會|公會|協進會|促進會|研習會|婦聯會|婦女會|體育會|同心會|農會|早起會|健身會|宗親會|功德會|商業會|長青會|民眾服務社|聯盟","sum":200000,"label":"協會"},{"count":0,"tokens":"辦公室|辦公處","sum":0,"label":"辦公室"},{"count":0,"tokens":"廟|宮","sum":0,"label":"廟"},{"count":0,"tokens":"消防局|消防隊|分隊|中隊","sum":0,"label":"消防局"}]},"councilor":"955dbe5bbc814b9eb98114c396f119e9"}],"uid":"955dbe5bbc814b9eb98114c396f119e9","name":"李鴻鈞","birth":null,"former_names":"","identifiers":["李鴻鈞","李鴻鈞"]}]}