{"count":1904,"next":"http://councils.g0v.tw/api/councilors/?page=91","previous":"http://councils.g0v.tw/api/councilors/?page=89","results":[{"url":"http://councils.g0v.tw/api/councilors/687/","each_terms":[{"url":"http://councils.g0v.tw/api/councilors_terms/1227/","election_year":"1998","name":"徐陳麗華","gender":"","party":"","title":"議員","constituency":6,"county":"新北市","district":"新莊市、泰山鄉、五股鄉、林口鄉","in_office":true,"contact_details":null,"term_start":"1998-03-01","term_end":{"date":"2002-02-28"},"education":"民安國小畢業\n海山高中肆業\n新莊國中畢業","experience":"臺北縣議會第14、15屆議員\n新莊第3、4、5屆市民代表\n新莊市黨部委員\n臺北縣婦工委員\n新莊市溜滑冰創會主任委員\n新莊婦女會理事長\n新莊市婦女防災宣導隊分隊長\n新莊市民俗改善委員會會長\n土風舞委員會\n教師聯誼會\n義警\n義消\n民防\n殘障\n工業區等顧問\n新莊市外丹功主任委員","remark":null,"image":"http://www.ntp.gov.tw/UpFile/CouncilorFile/TTCC1450.jpg","links":[{"url":"http://www.ntp.gov.tw/content/history/history01-5-p.aspx?sid=495","note":"議會個人官網"}],"social_media":null,"platform":"","param":null,"councilor":"02301ec7a2054efeaa462f4eeaadc145"},{"url":"http://councils.g0v.tw/api/councilors_terms/1298/","election_year":"2002","name":"徐陳麗華","gender":"","party":"","title":"議員","constituency":6,"county":"新北市","district":"新莊市、泰山鄉、五股鄉、林口鄉","in_office":true,"contact_details":null,"term_start":"2002-03-01","term_end":{"date":"2006-02-28"},"education":"民安國小畢業\n海山高中肆業\n新莊國中畢業","experience":"臺北縣議會第14、15屆議員\n新莊第3、4、5屆市民代表\n新莊市黨部委員\n臺北縣婦工委員\n新莊市溜滑冰創會主任委員\n新莊婦女會理事長\n新莊市婦女防災宣導隊分隊長\n新莊市民俗改善委員會會長\n土風舞委員會\n教師聯誼會\n義警\n義消\n民防\n殘障\n工業區等顧問\n新莊市外丹功主任委員","remark":null,"image":"http://www.ntp.gov.tw/UpFile/CouncilorFile/TTCC1450.jpg","links":[{"url":"http://www.ntp.gov.tw/content/history/history01-5-p.aspx?sid=495","note":"議會個人官網"}],"social_media":null,"platform":"","param":null,"councilor":"02301ec7a2054efeaa462f4eeaadc145"}],"uid":"02301ec7a2054efeaa462f4eeaadc145","name":"徐陳麗華","birth":null,"former_names":"","identifiers":["徐陳麗華","徐陳麗華"]},{"url":"http://councils.g0v.tw/api/councilors/688/","each_terms":[{"url":"http://councils.g0v.tw/api/councilors_terms/1230/","election_year":"1998","name":"蔡郁男","gender":"","party":"","title":"議員","constituency":6,"county":"新北市","district":"新莊市、泰山鄉、五股鄉、林口鄉","in_office":true,"contact_details":null,"term_start":"1998-03-01","term_end":{"date":"2002-02-28"},"education":"更寮國小\n新莊初農\n育達高商\n革命實踐研究院結業","experience":"臺北縣議會第14屆議員\n曾任五股鄉農會會計股長\n泰華紡織廠廠長\n良美建築公司\n五股鄉公所秘書\n五股國際獅子會83、84屆會長\n五股鄉後備軍人輔導中心主任\n中國國民黨五股鄉黨部常委\n臺北縣體育會木球委員會主任委員\n第11、12屆五股鄉鄉長","remark":null,"image":"http://www.ntp.gov.tw/UpFile/CouncilorFile/TTCC1448.jpg","links":[{"url":"http://www.ntp.gov.tw/content/history/history01-5-p.aspx?sid=494","note":"議會個人官網"}],"social_media":null,"platform":"","param":null,"councilor":"84c63296ac6d408d840eb14c2ee054e7"}],"uid":"84c63296ac6d408d840eb14c2ee054e7","name":"蔡郁男","birth":null,"former_names":"","identifiers":["蔡郁男"]},{"url":"http://councils.g0v.tw/api/councilors/689/","each_terms":[{"url":"http://councils.g0v.tw/api/councilors_terms/1233/","election_year":"1998","name":"曹來旺","gender":"","party":"","title":"議員","constituency":6,"county":"新北市","district":"新莊市、泰山鄉、五股鄉、林口鄉","in_office":true,"contact_details":null,"term_start":"1998-03-01","term_end":{"date":"2002-02-28"},"education":"龍華技術學院","experience":"第6屆立法委員\n臺北縣議會第14、15屆議員\n臺北縣雲林同鄉會總召集人\n臺北縣愛家協會名譽理事長\n國立林口高級中學家長會會長\n立法委員李應元服務處總幹事\n總統陳水扁競選新莊後援會副總幹事\n臺北縣縣長蘇貞昌競選連任\n新莊後援會總策劃","remark":null,"image":"http://www.ntp.gov.tw/UpFile/CouncilorFile/TTCC1445.jpg","links":[{"url":"http://www.ntp.gov.tw/content/history/history01-5-p.aspx?sid=493","note":"議會個人官網"}],"social_media":null,"platform":"","param":null,"councilor":"bb3e220764504e29bdb53a0abbf100f9"},{"url":"http://councils.g0v.tw/api/councilors_terms/1293/","election_year":"2002","name":"曹來旺","gender":"","party":"","title":"議員","constituency":6,"county":"新北市","district":"新莊市、泰山鄉、五股鄉、林口鄉","in_office":true,"contact_details":null,"term_start":"2002-03-01","term_end":{"date":"2006-02-28"},"education":"龍華技術學院","experience":"第6屆立法委員\n臺北縣議會第14、15屆議員\n臺北縣雲林同鄉會總召集人\n臺北縣愛家協會名譽理事長\n國立林口高級中學家長會會長\n立法委員李應元服務處總幹事\n總統陳水扁競選新莊後援會副總幹事\n臺北縣縣長蘇貞昌競選連任\n新莊後援會總策劃","remark":null,"image":"http://www.ntp.gov.tw/UpFile/CouncilorFile/TTCC1445.jpg","links":[{"url":"http://www.ntp.gov.tw/content/history/history01-5-p.aspx?sid=493","note":"議會個人官網"}],"social_media":null,"platform":"","param":null,"councilor":"bb3e220764504e29bdb53a0abbf100f9"}],"uid":"bb3e220764504e29bdb53a0abbf100f9","name":"曹來旺","birth":null,"former_names":"","identifiers":["曹來旺"]},{"url":"http://councils.g0v.tw/api/councilors/691/","each_terms":[{"url":"http://councils.g0v.tw/api/councilors_terms/1235/","election_year":"1998","name":"楊世興","gender":"","party":"","title":"議員","constituency":6,"county":"新北市","district":"新莊市、泰山鄉、五股鄉、林口鄉","in_office":true,"contact_details":null,"term_start":"1998-03-01","term_end":{"date":"2002-02-28"},"education":"新莊國小","experience":"臺北縣議會第14屆議員\n新莊市文明里里長\n新莊市里長聯誼會主席\n新莊市民防中隊副中隊長\n臺北縣義勇消防隊新莊分隊顧問\n新莊地藏庵管理委員會委員\n新莊保元宮管理委員會主任委員\n新莊普安宮管理委員會主任委員\n李佳融跆拳教室館長","remark":null,"image":"http://www.ntp.gov.tw/UpFile/CouncilorFile/TTCC1443.jpg","links":[{"url":"http://www.ntp.gov.tw/content/history/history01-5-p.aspx?sid=491","note":"議會個人官網"}],"social_media":null,"platform":"","param":null,"councilor":"56cb615bc0b546d89c91219d7c40bb98"}],"uid":"56cb615bc0b546d89c91219d7c40bb98","name":"楊世興","birth":null,"former_names":"","identifiers":["楊世興"]},{"url":"http://councils.g0v.tw/api/councilors/477/","each_terms":[{"url":"http://councils.g0v.tw/api/councilors_terms/823/","election_year":"1973","name":"陳明日","gender":"","party":"","title":"議員","constituency":3,"county":"新北市","district":"新莊鎮、泰山鄉、五股鄉、蘆洲鄉、林口鄉","in_office":true,"contact_details":null,"term_start":"1973-05-01","term_end":{"date":"1977-12-29"},"education":"新莊國小光復第１屆\n新莊初中第１屆","experience":"新莊警察分局頭前義警分隊長\n新莊國際獅子會創會會長\n頭前貨運股份有限公司常務董事\n中華民國警察之友會臺北縣支會新莊辦事處主任\n臺北縣議會第8、9屆議員\n新莊警察分局義警中隊長\n晶品工業股份有限公司董事長\n民國92年5月6日歿","remark":null,"image":"http://www.ntp.gov.tw/UpFile/CouncilorFile/TTCC0822.jpg","links":[{"url":"http://www.ntp.gov.tw/content/history/history01-5-p.aspx?sid=307","note":"議會個人官網"}],"social_media":null,"platform":"","param":null,"councilor":"bbbcd53f8b704d9facc5ac2484b90e24"},{"url":"http://councils.g0v.tw/api/councilors_terms/928/","election_year":"1977","name":"陳明日","gender":"","party":"","title":"議員","constituency":3,"county":"新北市","district":"三重市、新莊鎮、泰山鄉、五股鄉、蘆洲鄉、林口鄉","in_office":true,"contact_details":null,"term_start":"1977-12-30","term_end":{"date":"1982-02-28"},"education":"新莊國小光復第１屆\n新莊初中第１屆","experience":"新莊警察分局頭前義警分隊長\n新莊國際獅子會創會會長\n頭前貨運股份有限公司常務董事\n中華民國警察之友會臺北縣支會新莊辦事處主任\n臺北縣議會第8、9屆議員\n新莊警察分局義警中隊長\n晶品工業股份有限公司董事長\n民國92年5月6日歿","remark":null,"image":"http://www.ntp.gov.tw/UpFile/CouncilorFile/TTCC0822.jpg","links":[{"url":"http://www.ntp.gov.tw/content/history/history01-5-p.aspx?sid=307","note":"議會個人官網"}],"social_media":null,"platform":"","param":null,"councilor":"bbbcd53f8b704d9facc5ac2484b90e24"}],"uid":"bbbcd53f8b704d9facc5ac2484b90e24","name":"陳明日","birth":null,"former_names":"","identifiers":["陳明日"]},{"url":"http://councils.g0v.tw/api/councilors/478/","each_terms":[{"url":"http://councils.g0v.tw/api/councilors_terms/824/","election_year":"1973","name":"陳李豆","gender":"","party":"","title":"議員","constituency":2,"county":"新北市","district":"樹林鎮、鶯歌鎮、三峽鎮","in_office":true,"contact_details":null,"term_start":"1973-05-01","term_end":{"date":"1977-12-29"},"education":"私塾６年\n革命實踐研究院結業","experience":"鶯歌鎮第7屆鎮民代表\n鶯歌鎮婦女會理事長\n臺北縣婦女會理事\n國民黨黨部委員\n愛心工作隊主任委員\n臺北縣議會第6、7、8、9屆議員","remark":null,"image":"http://www.ntp.gov.tw/UpFile/CouncilorFile/TTCC0612.jpg","links":[{"url":"http://www.ntp.gov.tw/content/history/history01-5-p.aspx?sid=254","note":"議會個人官網"}],"social_media":null,"platform":"","param":null,"councilor":"d35fe213b88e46199f2c2239847bc242"},{"url":"http://councils.g0v.tw/api/councilors_terms/885/","election_year":"1968","name":"陳李豆","gender":"","party":"","title":"議員","constituency":2,"county":"新北市","district":"樹林鎮、鶯歌鎮、三峽鎮","in_office":true,"contact_details":null,"term_start":"1968-02-21","term_end":{"date":"1973-04-30"},"education":"私塾６年\n革命實踐研究院結業","experience":"鶯歌鎮第7屆鎮民代表\n鶯歌鎮婦女會理事長\n臺北縣婦女會理事\n國民黨黨部委員\n愛心工作隊主任委員\n臺北縣議會第6、7、8、9屆議員","remark":null,"image":"http://www.ntp.gov.tw/UpFile/CouncilorFile/TTCC0612.jpg","links":[{"url":"http://www.ntp.gov.tw/content/history/history01-5-p.aspx?sid=254","note":"議會個人官網"}],"social_media":null,"platform":"","param":null,"councilor":"d35fe213b88e46199f2c2239847bc242"},{"url":"http://councils.g0v.tw/api/councilors_terms/936/","election_year":"1977","name":"陳李豆","gender":"","party":"","title":"議員","constituency":2,"county":"新北市","district":"樹林鎮、鶯歌鎮、三峽鎮","in_office":true,"contact_details":null,"term_start":"1977-12-30","term_end":{"date":"1982-02-28"},"education":"私塾６年\n革命實踐研究院結業","experience":"鶯歌鎮第7屆鎮民代表\n鶯歌鎮婦女會理事長\n臺北縣婦女會理事\n國民黨黨部委員\n愛心工作隊主任委員\n臺北縣議會第6、7、8、9屆議員","remark":null,"image":"http://www.ntp.gov.tw/UpFile/CouncilorFile/TTCC0612.jpg","links":[{"url":"http://www.ntp.gov.tw/content/history/history01-5-p.aspx?sid=254","note":"議會個人官網"}],"social_media":null,"platform":"","param":null,"councilor":"d35fe213b88e46199f2c2239847bc242"},{"url":"http://councils.g0v.tw/api/councilors_terms/1854/","election_year":"1964","name":"陳李豆","gender":"","party":"","title":"議員","constituency":2,"county":"新北市","district":"樹林鎮、鶯歌鎮、三峽鎮","in_office":true,"contact_details":null,"term_start":"1964-02-21","term_end":{"date":"1968-02-20"},"education":"私塾６年\n革命實踐研究院結業","experience":"鶯歌鎮第7屆鎮民代表\n鶯歌鎮婦女會理事長\n臺北縣婦女會理事\n國民黨黨部委員\n愛心工作隊主任委員\n臺北縣議會第6、7、8、9屆議員","remark":null,"image":"http://www.ntp.gov.tw/UpFile/CouncilorFile/TTCC0612.jpg","links":[{"url":"http://www.ntp.gov.tw/content/history/history01-5-p.aspx?sid=254","note":"議會個人官網"}],"social_media":null,"platform":"","param":null,"councilor":"d35fe213b88e46199f2c2239847bc242"}],"uid":"d35fe213b88e46199f2c2239847bc242","name":"陳李豆","birth":null,"former_names":"","identifiers":["陳李豆","陳李豆"]},{"url":"http://councils.g0v.tw/api/councilors/479/","each_terms":[{"url":"http://councils.g0v.tw/api/councilors_terms/825/","election_year":"1973","name":"陳添秀","gender":"","party":"","title":"議員","constituency":3,"county":"新北市","district":"新莊鎮、泰山鄉、五股鄉、蘆洲鄉、林口鄉","in_office":true,"contact_details":null,"term_start":"1973-05-01","term_end":{"date":"1977-12-29"},"education":"臺北第二師範學校畢業","experience":"保正\n國校教員\n農業會副會長\n林口鄉第4、5屆代表會主席\n臺灣區茶商工業公會常務理事\n臺北縣議會第4、5、7、8屆議員\n*民國82年底歿","remark":null,"image":"http://www.ntp.gov.tw/UpFile/CouncilorFile/TTCC0422.jpg","links":[{"url":"http://www.ntp.gov.tw/content/history/history01-5-p.aspx?sid=196","note":"議會個人官網"}],"social_media":null,"platform":"","param":null,"councilor":"796f5fb29aca42d2b6ecc63ebbc90e1f"},{"url":"http://councils.g0v.tw/api/councilors_terms/872/","election_year":"1968","name":"陳添秀","gender":"","party":"","title":"議員","constituency":3,"county":"新北市","district":"新莊鎮、蘆洲鄉、五股鄉、泰山鄉、林口鄉","in_office":true,"contact_details":null,"term_start":"1968-02-21","term_end":{"date":"1973-04-30"},"education":"臺北第二師範學校畢業","experience":"保正\n國校教員\n農業會副會長\n林口鄉第4、5屆代表會主席\n臺灣區茶商工業公會常務理事\n臺北縣議會第4、5、7、8屆議員\n*民國82年底歿","remark":null,"image":"http://www.ntp.gov.tw/UpFile/CouncilorFile/TTCC0422.jpg","links":[{"url":"http://www.ntp.gov.tw/content/history/history01-5-p.aspx?sid=196","note":"議會個人官網"}],"social_media":null,"platform":"","param":null,"councilor":"796f5fb29aca42d2b6ecc63ebbc90e1f"},{"url":"http://councils.g0v.tw/api/councilors_terms/1718/","election_year":"1958","name":"陳添秀","gender":"","party":"","title":"議員","constituency":3,"county":"新北市","district":"新莊鎮、泰山鄉、三重鎮、五股鄉、林口鄉、蘆洲鄉","in_office":true,"contact_details":null,"term_start":"1958-02-21","term_end":{"date":"1961-02-20"},"education":"臺北第二師範學校畢業","experience":"保正\n國校教員\n農業會副會長\n林口鄉第4、5屆代表會主席\n臺灣區茶商工業公會常務理事\n臺北縣議會第4、5、7、8屆議員\n*民國82年底歿","remark":null,"image":"http://www.ntp.gov.tw/UpFile/CouncilorFile/TTCC0422.jpg","links":[{"url":"http://www.ntp.gov.tw/content/history/history01-5-p.aspx?sid=196","note":"議會個人官網"}],"social_media":null,"platform":"","param":null,"councilor":"796f5fb29aca42d2b6ecc63ebbc90e1f"},{"url":"http://councils.g0v.tw/api/councilors_terms/1782/","election_year":"1961","name":"陳添秀","gender":"","party":"","title":"議員","constituency":3,"county":"新北市","district":"新莊鎮、泰山鄉、三重鎮、五股鄉、蘆洲鄉、林口鄉","in_office":true,"contact_details":null,"term_start":"1961-02-21","term_end":{"date":"1964-02-20"},"education":"臺北第二師範學校畢業","experience":"保正\n國校教員\n農業會副會長\n林口鄉第4、5屆代表會主席\n臺灣區茶商工業公會常務理事\n臺北縣議會第4、5、7、8屆議員\n*民國82年底歿","remark":null,"image":"http://www.ntp.gov.tw/UpFile/CouncilorFile/TTCC0422.jpg","links":[{"url":"http://www.ntp.gov.tw/content/history/history01-5-p.aspx?sid=196","note":"議會個人官網"}],"social_media":null,"platform":"","param":null,"councilor":"796f5fb29aca42d2b6ecc63ebbc90e1f"}],"uid":"796f5fb29aca42d2b6ecc63ebbc90e1f","name":"陳添秀","birth":null,"former_names":"","identifiers":["陳添秀"]},{"url":"http://councils.g0v.tw/api/councilors/480/","each_terms":[{"url":"http://councils.g0v.tw/api/councilors_terms/826/","election_year":"1973","name":"朱連和","gender":"","party":"","title":"議員","constituency":2,"county":"新北市","district":"樹林鎮、鶯歌鎮、三峽鎮","in_office":true,"contact_details":null,"term_start":"1973-05-01","term_end":{"date":"1977-12-29"},"education":"樹林國小畢業\n板橋國中畢業\n樹林高中部畢業\n幹訓班第５５期省訓班結業","experience":"日新建設公司董事\n石門水庫測量員\n樹林鎮民代表\n縣租佃委員\n國民黨區黨部委員\n獅子會會長\n義勇消防分隊長\n警友會主任\n臺北縣議會第8屆議員","remark":null,"image":"http://www.ntp.gov.tw/UpFile/CouncilorFile/TTCC0820.jpg","links":[{"url":"http://www.ntp.gov.tw/content/history/history01-5-p.aspx?sid=306","note":"議會個人官網"}],"social_media":null,"platform":"","param":null,"councilor":"c5178b3cac764ab1ba0b7f5ff4be1875"}],"uid":"c5178b3cac764ab1ba0b7f5ff4be1875","name":"朱連和","birth":null,"former_names":"","identifiers":["朱連和"]},{"url":"http://councils.g0v.tw/api/councilors/891/","each_terms":[{"url":"http://councils.g0v.tw/api/councilors_terms/1573/","election_year":"1953","name":"陳國銓","gender":"","party":"","title":"議員","constituency":3,"county":"新北市","district":"新莊鎮、泰山鄉、三重鎮、五股鄉、蘆洲鄉、林口鄉","in_office":true,"contact_details":null,"term_start":"1953-01-16","term_end":{"date":"1955-01-15"},"education":"農事試驗場農科","experience":"庄長\n區長\n新莊區物產組合理事長\n省農會第四組長\n新莊區區長\n臺北縣議會第2屆議員","remark":null,"image":"http://www.ntp.gov.tw/UpFile/CouncilorFile/TTCC0221.jpg","links":[{"url":"http://www.ntp.gov.tw/content/history/history01-5-p.aspx?sid=129","note":"議會個人官網"}],"social_media":null,"platform":"","param":null,"councilor":"1559302f920c4f7e9489458ccb91de74"}],"uid":"1559302f920c4f7e9489458ccb91de74","name":"陳國銓","birth":null,"former_names":"","identifiers":["陳國銓"]},{"url":"http://councils.g0v.tw/api/councilors/1874/","each_terms":[{"url":"http://councils.g0v.tw/api/councilors_terms/3259/","election_year":"2014","name":"方賢仁","gender":"男","party":"中國國民黨","title":"議員","constituency":7,"county":"臺東縣","district":"臺東市","in_office":true,"contact_details":[{"type":"voice","value":"089-333780","label":"電話"},{"type":"address","value":"臺東縣台東市知本路二段550巷10號","label":"地址"}],"term_start":"2015-03-04","term_end":{"date":"2018-12-25"},"education":"一、新生國小。\n二、新生國中。\n三、臺東高中畢業。\n四、淡江大學日文系畢業。","experience":"一、67、68年擔任山謠四重唱團長。\n二、臺灣世界展望會花蓮瑞穗奇美計劃區負責人。\n三、中國國民黨高雄市、臺東縣黨部組長、秘書及成功鎮、台東市黨部區書記。\n四、宏利人壽及巨擘保險經理。\n五、臺東市長陳建閣特助。\n六、立法委員廖國棟服務處主任。","remark":null,"image":"http://www.taitungcc.gov.tw/../FileUpload/loadImage.ashx?MasterGuid=4d45cc2a-f736-446b-94e6-665d591c0b93&RealNameGuid=f6da0897-a316-4075-9252-362bd4b0ed1f","links":[{"url":"http://www.taitungcc.gov.tw/OurTeamDetail.aspx?Guid=4d45cc2a-f736-446b-94e6-665d591c0b93","note":"議會個人官網"}],"social_media":null,"platform":"一、敢說敢做強勢問政，反映民意為民喉舌。\n二、嚴格監督縣政，督促政府徹底執行原住民政策。\n三、原住民自治法未通過前，督促政府儘速修改選罷法：平地鄉鎮市之選民數若多於區域選民數時，鄉鎮市長應由平地原住民擔任，村里長選舉亦同，以保障平地原住民參政權。\n四、督促政府專案編列經費，購置土地興建或增、擴、改建部落聚會所，設置圖書館，課輔班等設施，提升部落教育水準。\n五、依部落需要分別辦理國中小學生、及高中、大學青年文化教育成長營及婦女才藝訓練等活動，並加強輔導原住民各社團組織功能，以延續原住民文化命脈。\n六、督促政府規劃對原住民教育、文化、體育等項傑出貢獻者設置獎勵辦法，為國舉才，重振族人自信心。\n七、督促政府儘速檢討都更計劃實施細則，以利部落經濟文化整體發展。\n八、督促政府繼續推動公地放領政策，解決農民疾苦。\n九、督促政府加強照顧殘障、老人、兒童、婦孺等弱勢團體，落實社會福利政策。","param":{"bills_role_statistics":{"total":53,"priproposer":11,"sponsor":11,"cosponsor":42},"suggestions_years":{"count":71,"sum":7176900,"years":[{"count":18,"sum":1054900,"suggest_year":"2015","small_purchase":17},{"count":53,"sum":6122000,"suggest_year":"2016","small_purchase":45}]},"suggestions_associations":[{"count":7,"sum":407000,"label":"社區發展協會"},{"count":5,"sum":303000,"label":"協進會"},{"count":1,"sum":98000,"label":"公會"},{"count":1,"sum":50000,"label":"商業會"},{"count":1,"sum":49000,"label":"體育會"},{"count":0,"sum":0,"label":"學會"},{"count":0,"sum":0,"label":"商會"},{"count":0,"sum":0,"label":"促進會"},{"count":0,"sum":0,"label":"研習會"},{"count":0,"sum":0,"label":"婦聯會"},{"count":0,"sum":0,"label":"婦女會"},{"count":0,"sum":0,"label":"同心會"},{"count":0,"sum":0,"label":"農會"},{"count":0,"sum":0,"label":"早起會"},{"count":0,"sum":0,"label":"健身會"},{"count":0,"sum":0,"label":"宗親會"},{"count":0,"sum":0,"label":"功德會"},{"count":0,"sum":0,"label":"長青會"},{"count":0,"sum":0,"label":"民眾服務社"},{"count":0,"sum":0,"label":"聯盟"}],"suggestions_piles":[{"count":24,"tokens":"協會|學會|商會|公會|協進會|促進會|研習會|婦聯會|婦女會|體育會|同心會|農會|早起會|健身會|宗親會|功德會|商業會|長青會|民眾服務社|聯盟","sum":1490000,"label":"協會"},{"count":4,"tokens":"辦公室|辦公處","sum":295000,"label":"辦公室"},{"count":3,"tokens":"消防局|消防隊|分隊|中隊","sum":130000,"label":"消防局"},{"count":1,"tokens":"警察局|分局","sum":30000,"label":"警察局"},{"count":1,"tokens":"國中|國小","sum":20000,"label":"國中、國小"},{"count":0,"tokens":"廟|宮","sum":0,"label":"廟"}],"bills_party_diversity":[{"party":"中國國民黨","ratio":0.8534031413612565},{"party":"無黨籍","ratio":0.14136125654450263},{"party":"民主進步黨","ratio":0.005235602094240838}]},"councilor":"e9d3966a9a6947658bcbe81e497fb283"}],"uid":"e9d3966a9a6947658bcbe81e497fb283","name":"方賢仁","birth":null,"former_names":"","identifiers":["方賢仁"]}]}