{"count":1904,"next":"http://councils.g0v.tw/api/councilors/?page=94","previous":"http://councils.g0v.tw/api/councilors/?page=92","results":[{"url":"http://councils.g0v.tw/api/councilors/1139/","each_terms":[{"url":"http://councils.g0v.tw/api/councilors_terms/2065/","election_year":"2009","name":"林茂明","gender":"男","party":"","title":"議員","constituency":1,"county":"彰化縣","district":"彰化市、花壇鄉、芬園鄉","in_office":true,"contact_details":[{"type":"phone","value":"","label":"電話"},{"type":"fax","value":"04-7384430","label":"傳真"},{"type":"email","value":"","label":"電子信箱"},{"type":"address","value":"彰化市牛埔里彰南路三段153號","label":"通訊處"}],"term_start":"2009-12-25","term_end":{"date":"2014-12-25"},"education":"高中畢業","experience":"彰化縣議會第16屆議員\n彰化市第15屆代表\n快官派出所警友站顧問\n彰化縣林姓宗親會理事\n彰化屠宰工會理事\n牛埔里社區巡守隊組長\n牛埔里東興宮管理委員會顧問\n快官法主公廟管理委員會顧問\n東區扶輪社糾察\n彰化縣議會第17屆議員","remark":null,"image":"http://www.chcc.gov.tw/UpFile/CouncilorPhoto/N201153173516.jpg","links":[{"url":"http://www.chcc.gov.tw/content/list/list01_01.aspx?sid=11","note":"議會個人官網"}],"social_media":null,"platform":"落實彰化市東區擴大都市計畫\n督促縣政順利推動\n督促縣府，鐵路局儘速完成輕軌鐵路由中央站經東區烏日高鐵站早日動工\n配合中央民意代表早日完成彰化市區鐵路高架化","param":{"bills_role_statistics":{"total":38,"priproposer":0,"sponsor":0,"cosponsor":38},"diversity":{"":1.0},"bills_party_diversity":[{"party":"","ratio":1.0}]},"councilor":"380df064cf5d4c08b199ce98e58009f8"},{"url":"http://councils.g0v.tw/api/councilors_terms/3035/","election_year":"2014","name":"林茂明","gender":"男","party":"無黨籍","title":"議員","constituency":1,"county":"彰化縣","district":"彰化市、花壇鄉、芬園鄉","in_office":true,"contact_details":[{"type":"voice","value":"04-7381650、04-7382697","label":"電話"},{"type":"cell","value":"0932-512989","label":"行動"},{"type":"fax","value":"04-7384430","label":"傳真"},{"type":"address","value":"彰化市牛埔里彰南路三段153號","label":"地址"}],"term_start":"2014-12-25","term_end":{"date":"2018-12-25"},"education":"高職畢業","experience":"一、彰化縣第16、17屆縣議員。\n二、彰化市第15、16屆市民代表。\n三、彰化縣山坡地防護協會理事長。\n四、彰化地方法院觀護協會理事。\n五、彰化縣林姓宗親會理事。\n六、彰化分局快官派出所警友站顧問。","remark":null,"image":"http://www.chcc.gov.tw/df_ufiles/d/s_12%E6%9E%97%E8%8C%82%E6%98%8E.jpg","links":[{"url":"http://www.chcc.gov.tw/member/details.aspx?Parser=99,6,40,,,,11","note":"議會個人官網"},{"url":"https://www.facebook.com/pages/%E5%BD%B0%E5%8C%96%E7%B8%A3%E8%AD%B0%E5%93%A1-%E6%9E%97%E8%8C%82%E6%98%8E%E6%9C%8D%E5%8B%99%E8%99%95/232673346930437","note":"個人臉書"}],"social_media":null,"platform":"一、督促東區擴大都市計畫早日落實。\n二、當民眾與政府間的溝通橋樑。\n三、監督縣政切實實行政見。\n四、督促彰化地區鐵路高架早日完成。\n五、傾聽民意適時提出建言。","param":{"bills_role_statistics":{"total":56,"priproposer":1,"sponsor":1,"cosponsor":55},"bills_party_diversity":[{"party":"中國國民黨","ratio":0.37450980392156863},{"party":"無黨籍","ratio":0.3176470588235294},{"party":"民主進步黨","ratio":0.307843137254902}]},"councilor":"380df064cf5d4c08b199ce98e58009f8"}],"uid":"380df064cf5d4c08b199ce98e58009f8","name":"林茂明","birth":"1958-07-25","former_names":"","identifiers":["林茂明","林茂明"]},{"url":"http://councils.g0v.tw/api/councilors/1791/","each_terms":[{"url":"http://councils.g0v.tw/api/councilors_terms/3036/","election_year":"2014","name":"白玉如","gender":"女","party":"中國國民黨","title":"議員","constituency":1,"county":"彰化縣","district":"彰化市、花壇鄉、芬園鄉","in_office":true,"contact_details":[{"type":"voice","value":"04-7272862","label":"電話"},{"type":"cell","value":"0937-738815","label":"行動"},{"type":"fax","value":"04-7263100","label":"傳真"},{"type":"address","value":"彰化縣彰化市西安里華山路273巷8號","label":"地址"}],"term_start":"2014-12-25","term_end":{"date":"2018-12-25"},"education":"國立台中科技大學空中進修學院學士\n建國科技大學副學士\n明道高級中學\n彰安國民中學\n平和國民小學","experience":"一、彰化縣第17屆縣議員。\n二、彰化市第15、16屆市民代表。\n三、彰化市西安里里長。","remark":null,"image":"http://www.chcc.gov.tw/df_ufiles/d/s_11%E7%99%BD%E7%8E%89%E5%A6%82.jpg","links":[{"url":"http://www.chcc.gov.tw/member/details.aspx?Parser=99,6,40,,,,10","note":"議會個人官網"},{"url":"https://www.facebook.com/pages/%E7%99%BD%E7%8E%89%E5%A6%82/668983306515092?fref=ts","note":"個人臉書"}],"social_media":null,"platform":"一、落實「老有所終」老年人長期受照護，並發揮銀髮力。「壯有所用」壯年人能發揮所長，免於失業，而安居樂業。「幼有所長」幼年托育安全，人本教育並能快樂學習好好地成長。祥和˙富裕居住的社會環境。\n二、推動基礎建設，發展觀光，促進地方產業升級並整合資源打造以發展經濟促進地方繁榮的政策方針！\n三、結合縣府與地方慈善團體，共同照護社會弱勢，使鰥夫、寡婦、孤兒、沒有子女的老人家，以至殘疾的人，都能得到照顧。","param":{"bills_role_statistics":{"total":53,"priproposer":6,"sponsor":6,"cosponsor":47},"bills_party_diversity":[{"party":"中國國民黨","ratio":0.42857142857142855},{"party":"民主進步黨","ratio":0.32983193277310924},{"party":"無黨籍","ratio":0.2415966386554622}]},"councilor":"7168eb4c1f484df9a01e77cbb8ff3c6f"}],"uid":"7168eb4c1f484df9a01e77cbb8ff3c6f","name":"白玉如","birth":"1968-06-30","former_names":"","identifiers":["白玉如"]},{"url":"http://councils.g0v.tw/api/councilors/1796/","each_terms":[{"url":"http://councils.g0v.tw/api/councilors_terms/3047/","election_year":"2014","name":"陳光輝","gender":"男","party":"無黨籍","title":"議員","constituency":8,"county":"彰化縣","district":"芳苑鄉、二林鎮、大城鄉、竹塘鄉","in_office":true,"contact_details":[{"type":"voice","value":"04-8952899","label":"電話"},{"type":"fax","value":"04-8960220","label":"傳真"},{"type":"address","value":"彰化縣二林鎮北平里13鄰新生路273號","label":"地址"},{"type":"email","value":"h45665482@yahoo.com.tw","label":"電子信箱"}],"term_start":"2014-12-25","term_end":{"date":"2018-12-25"},"education":"僑泰高職畢業","experience":"一、二林國際青商會會長\n二、國際青商會中華民國總會監事\n三、縣政關懷中心二林區召集人\n四、二林鎮里長聯誼會 會長\n五、彰化縣陳姓宗親會 理事\n六、二林仁和宮 顧問\n七、芳苑普天宮 顧問\n八、二林鎮老人會 顧問","remark":null,"image":"http://www.chcc.gov.tw/df_ufiles/d/s_52%E9%99%B3%E5%85%89%E8%BC%9D.jpg","links":[{"url":"http://www.chcc.gov.tw/member/details.aspx?Parser=99,6,40,,,,52","note":"議會個人官網"},{"url":"https://www.facebook.com/profile.php?id=100004408246473&fref=ts","note":"個人臉書"}],"social_media":null,"platform":"一、監督縣政、促進府會和諧，共同打造二林、大城、芳苑、竹塘四鄉鎮新故鄉。\n二、爭取各學校補助經費，增加硬體、軟體設備，以提昇教學品質。\n三、建請政府制訂妥善照顧農民政策，保障農民生活。","param":{"bills_role_statistics":{"total":22,"priproposer":0,"sponsor":0,"cosponsor":22},"bills_party_diversity":[{"party":"中國國民黨","ratio":0.45652173913043476},{"party":"無黨籍","ratio":0.3869565217391304},{"party":"民主進步黨","ratio":0.1565217391304348}]},"councilor":"70caaf7d3170473cbfce6fcd9db31c56"}],"uid":"70caaf7d3170473cbfce6fcd9db31c56","name":"陳光輝","birth":"1955-05-16","former_names":"","identifiers":["陳光輝"]},{"url":"http://councils.g0v.tw/api/councilors/1797/","each_terms":[{"url":"http://councils.g0v.tw/api/councilors_terms/3048/","election_year":"2014","name":"謝彥慧","gender":"女","party":"中國國民黨","title":"議員","constituency":8,"county":"彰化縣","district":"芳苑鄉、二林鎮、大城鄉、竹塘鄉","in_office":true,"contact_details":[{"type":"voice","value":"04-8957123","label":"電話"},{"type":"fax","value":"04-8967302","label":"傳真"},{"type":"address","value":"彰化縣芳苑鄉三合村斗苑路三合段136號","label":"地址"},{"type":"email","value":"h1497@yahoo.com.tw","label":"電子信箱"}],"term_start":"2014-12-25","term_end":{"date":"2018-12-25"},"education":"國立彰化師範大學企業高階管理碩士\n四海工專\n二林工商\n二林國中\n中正國小","experience":"一、二林鎮公所機要專員。\n二、儒林文教基金會執行長。\n三、台灣青年菁英協會執行長。\n四、前台灣省農會總幹事謝國雇特助。","remark":null,"image":"http://www.chcc.gov.tw/df_ufiles/d/s_51%E8%AC%9D%E5%BD%A5%E6%85%A7.jpg","links":[{"url":"http://www.chcc.gov.tw/member/details.aspx?Parser=99,6,40,,,,51","note":"議會個人官網"},{"url":"https://www.facebook.com/profile.php?id=100000227374674&fref=ts","note":"個人臉書"}],"social_media":null,"platform":"一、開創彰化縣西南角領航新生活視野、推動二林、芳苑、大城、竹塘的後發優勢。\n二、督促彰化縣政府積極配合推動中科四期的建設及招商。\n三、推動二林等四鄉鎮為中科的衛星城市、後花園，二林為商業、農業中心。芳苑為農漁業觀光區，大城連接芳苑農漁業觀光帶，竹塘稻穀米粉之鄉。\n四、建設美好生活機能的優質社區、吸引六輕、中科員工進駐四鄉鎮。\n五、爭取闢建斗苑路四鄉鎮引道－儒林大道，並整合行銷延伸出休閒觀光景點。\n六、督促縣府落實四鄉鎮社區總體營造、產業、福利、文化、環保、醫療、弱勢、外籍等社區工作。","param":{"bills_role_statistics":{"total":26,"priproposer":1,"sponsor":1,"cosponsor":25},"bills_party_diversity":[{"party":"中國國民黨","ratio":0.6692307692307692},{"party":"無黨籍","ratio":0.21153846153846154},{"party":"民主進步黨","ratio":0.11923076923076924}]},"councilor":"0f2b267a45354a759a41c32b42c32e19"}],"uid":"0f2b267a45354a759a41c32b42c32e19","name":"謝彥慧","birth":"1974-03-25","former_names":"","identifiers":["謝彥慧"]},{"url":"http://councils.g0v.tw/api/councilors/1148/","each_terms":[{"url":"http://councils.g0v.tw/api/councilors_terms/2074/","election_year":"2009","name":"吳淑娟","gender":"女","party":"","title":"議員","constituency":8,"county":"彰化縣","district":"芳苑鄉、二林鎮、大城鄉、竹塘鄉","in_office":true,"contact_details":[{"type":"phone","value":"04-8941852","label":"電話"},{"type":"fax","value":"04-8941859","label":"傳真"},{"type":"email","value":"wu_209996@yahoo.com.tw","label":"電子信箱"},{"type":"address","value":"彰化縣大城鄉大城村東平路129號","label":"通訊處"}],"term_start":"2009-12-25","term_end":{"date":"2014-12-25"},"education":"大城國小畢業\n大城國中畢業\n二林工商畢業\n明道大學","experience":"彰化縣議會第13、14、15、16屆議員\n彰化縣議會第17屆議員","remark":null,"image":"http://www.chcc.gov.tw/UpFile/CouncilorPhoto/8003.jpg","links":[{"url":"http://www.chcc.gov.tw/content/list/list01_01.aspx?sid=49","note":"議會個人官網"}],"social_media":null,"platform":"強力監督中科四期\n堅決反對設立大城火葬場\n為農民繼續爭取權益\n為葡萄農爭取權益\n爭取彰化縣西南角之觀光景點設施\n爭取王功、芳苑、大城地區之出海道路\n爭取二林四鄉鎮自行車道與全縣接軌","param":{"bills_role_statistics":{"total":35,"priproposer":11,"sponsor":11,"cosponsor":24},"diversity":{"":1.0},"bills_party_diversity":[{"party":"","ratio":1.0}]},"councilor":"05405f8aefd547779cdf75c3b7847393"},{"url":"http://councils.g0v.tw/api/councilors_terms/3049/","election_year":"2014","name":"吳淑娟","gender":"女","party":"無黨籍","title":"議員","constituency":8,"county":"彰化縣","district":"芳苑鄉、二林鎮、大城鄉、竹塘鄉","in_office":true,"contact_details":[{"type":"voice","value":"04-8941852","label":"電話"},{"type":"fax","value":"04-8941859","label":"傳真"},{"type":"address","value":"彰化縣大城鄉大城村東平路129號","label":"地址"},{"type":"email","value":"wu_209996@yahoo.com.tw","label":"電子信箱"}],"term_start":"2014-12-25","term_end":{"date":"2018-12-25"},"education":"明道大學\n二林工商畢業\n大城國中畢業\n大城國小畢業","experience":"一、彰化縣議會第13、14、15、16、17屆議員。\n二、彰化縣議會第17屆議員超黨派會長。\n三、彰化地方法院檢察署榮譽觀護人。\n四、二林四鄉鎮婦女弱勢團體召集。\n五、二林工商校友會理事。\n六、吳氏宗親會理事。\n七、明道大學進修。","remark":null,"image":"http://www.chcc.gov.tw/df_ufiles/d/s_49%E5%90%B3%E6%B7%91%E5%A8%9F.jpg","links":[{"url":"http://www.chcc.gov.tw/member/details.aspx?Parser=99,6,40,,,,49","note":"議會個人官網"},{"url":"https://www.facebook.com/profile.php?id=100004247582592&fref=ts","note":"個人臉書"}],"social_media":null,"platform":"一、電話一通，服務就到。\n二、監督縣政，舉發貪腐，為民申冤，維護公義。\n三、督促61線76線及129線太平路儘速興建。\n四、建議台17線上之西港橋儘速興建以配合61線施工。\n五、西南角自行車道環線儘速興建以利觀光休閒事業發展。\n六、建請教育部將國立二林工商改制提昇為二林科技大學，使西南角之教育、文化、金融、經濟、科技產業迎頭趕上。\n七、繼續推動二林四鄉鎮觀光果園蔬菜休閒園區改善農民生活。\n八、擔任婦女弱勢團體召集人，長期關懷弱勢團體，幫助其就業及補助等各項福利。","param":{"bills_role_statistics":{"total":28,"priproposer":4,"sponsor":4,"cosponsor":24},"bills_party_diversity":[{"party":"中國國民黨","ratio":0.4957627118644068},{"party":"無黨籍","ratio":0.3855932203389831},{"party":"民主進步黨","ratio":0.11864406779661017}]},"councilor":"05405f8aefd547779cdf75c3b7847393"}],"uid":"05405f8aefd547779cdf75c3b7847393","name":"吳淑娟","birth":"1955-11-10","former_names":"","identifiers":["吳淑娟"]},{"url":"http://councils.g0v.tw/api/councilors/75/","each_terms":[{"url":"http://councils.g0v.tw/api/councilors_terms/77/","election_year":"1994","name":"龐建國","gender":"男","party":"新黨","title":"議員","constituency":null,"county":"臺北市","district":"","in_office":true,"contact_details":null,"term_start":"1994-12-25","term_end":{"date":"1998-12-25"},"education":"臺南縣佳里國小。北門中學畢業。中興大學應用數學系學士。臺灣大學三民主義研究所碩士。美國布朗大學社會學博士。","experience":"中山大學中山學術研究所講師、中央研究院民族所助理研究員、臺灣大學社學系暨研究所專任副教授、臺灣師範大學公民訓育學系暨研究所兼任副教授、政治大學國際關係研究中心特約研究員、中央日報主筆、大成報主筆、成功大學政治經濟學研究所兼任副教授。","remark":"","image":"http://www.tcc.gov.tw/../upload/photo/%E9%BE%90%E5%BB%BA%E5%9C%8B15.jpg","links":[{"url":"http://www.tcc.gov.tw/Councilor_Content_All.aspx?s=1513&d=530819&n=%E9%BE%90%E5%BB%BA%E5%9C%8B","note":"議會個人官網"}],"social_media":null,"platform":"","param":null,"councilor":"599ceb0d5022417aa8e8e19ca4ccae1e"},{"url":"http://councils.g0v.tw/api/councilors_terms/247/","election_year":"1998","name":"龐建國","gender":"男","party":"新黨","title":"議員","constituency":null,"county":"臺北市","district":"","in_office":false,"contact_details":null,"term_start":"1998-12-25","term_end":{"date":"2000-03-31","reason":"於89年3月31日加入親民黨。91年1月31日當選第五屆立法委員，辭職轉任國會議員。"},"education":"臺南縣佳里國小。北門中學畢業。中興大學應用數學系學士。台灣大學三民主義研究所碩士。美國布朗大學社會學博士。","experience":"中山大學講師、中央研究院助理研究員、臺灣大學專任副教授、臺灣師範大學兼任副教授、政治大學國際關係研究中心特約研究員、中央日報主筆、大成報主筆。臺北市直轄市議會第七屆議員。","remark":"於89年3月31日加入親民黨。91年1月31日當選第五屆立法委員，辭職轉任國會議員。","image":"http://www.tcc.gov.tw/../upload/photo/%E9%BE%90%E5%BB%BA%E5%9C%8B16.bmp","links":[{"url":"http://www.tcc.gov.tw/Councilor_Content_All.aspx?s=1981&d=530819&n=%E9%BE%90%E5%BB%BA%E5%9C%8B","note":"議會個人官網"}],"social_media":null,"platform":"","param":null,"councilor":"599ceb0d5022417aa8e8e19ca4ccae1e"}],"uid":"599ceb0d5022417aa8e8e19ca4ccae1e","name":"龐建國","birth":"1953-08-19","former_names":"","identifiers":["龐建國"]},{"url":"http://councils.g0v.tw/api/councilors/140/","each_terms":[{"url":"http://councils.g0v.tw/api/councilors_terms/148/","election_year":"2006","name":"蔡坤龍","gender":"男","party":"民主進步黨","title":"議員","constituency":null,"county":"臺北市","district":"","in_office":false,"contact_details":null,"term_start":"2006-12-25","term_end":{"date":"2010-12-25","reason":"970819判刑確定解職"},"education":"北市中山國小、建成國中、開南商工、美國加州YUIN大學。","experience":"民進黨北市黨部執行委員、綠色和平台灣嗆聲龍廣播節目主持人、北市選舉委員會監察小組委員、北市國際青年商會會長特別助理、北市大稻埕國際獅子會會長及總召、環球電視台節目主持人、第2、3屆任務型國大代表蔡重吉辦公室主任、慈濟基金會榮譽董事。 ","remark":"970819判刑確定解職","image":"http://www.tcc.gov.tw/../upload/photo/%E8%94%A1%E5%9D%A4%E9%BE%8D10.jpg","links":[{"url":"http://www.tcc.gov.tw/Councilor_Content_All.aspx?s=2283&d=660128&n=%E8%94%A1%E5%9D%A4%E9%BE%8D","note":"議會個人官網"}],"social_media":null,"platform":"","param":null,"councilor":"d1aebbea6da8470a9e20f43f65f81d28"}],"uid":"d1aebbea6da8470a9e20f43f65f81d28","name":"蔡坤龍","birth":"1966-01-28","former_names":"","identifiers":["蔡坤龍"]},{"url":"http://councils.g0v.tw/api/councilors/146/","each_terms":[{"url":"http://councils.g0v.tw/api/councilors_terms/184/","election_year":"2006","name":"李文英","gender":"女","party":"民主進步黨","title":"議員","constituency":null,"county":"臺北市","district":"","in_office":true,"contact_details":null,"term_start":"2006-12-25","term_end":{"date":"2010-12-25"},"education":"台大醫學院畢、北一女中畢、金華女中、松山國小","experience":"美國哈佛大學研究醫師、臺大醫院牙科主治醫師、台大醫學院山地醫療服務隊、民進黨中央社會發展部主任、新女性聯合會理事、台北市婦女保健協會監事、台北市女性權益促進會理事、婦女救援基金會中途之家義務教師、台北市社區婦女聯盟創會理事長、台灣婦女團體全國聯合會理事","remark":"","image":"http://www.tcc.gov.tw/../upload/photo/%E6%9D%8E%E6%96%87%E8%8B%B1.jpg","links":[{"url":"http://www.tcc.gov.tw/Councilor_Content_All.aspx?s=2317&d=610111&n=%E6%9D%8E%E6%96%87%E8%8B%B1","note":"議會個人官網"}],"social_media":null,"platform":"","param":null,"councilor":"6206ef5dc3e54e858b0dfebc4caaeb22"},{"url":"http://councils.g0v.tw/api/councilors_terms/235/","election_year":"2002","name":"李文英","gender":"女","party":"民主進步黨","title":"議員","constituency":null,"county":"臺北市","district":"","in_office":true,"contact_details":null,"term_start":"2002-12-25","term_end":{"date":"2006-12-25"},"education":"美國哈佛大學研究醫師、臺灣大學醫學院畢、北一女中畢。","experience":"臺大醫院主治醫師、民進黨中央社會發展部主任、民進黨臺北市黨部執行長、二００二年總統大選水蓮會秘書長、彭明敏文教基金會董事、新女性聯合會理事、臺灣女人連線理事、臺北市婦女保健協會監事、臺北市女性權益促進會理事、婦女救援基金會中途之家義務教師。","remark":"","image":"http://www.tcc.gov.tw/../upload/photo/%E6%9D%8E%E6%96%87%E8%8B%B117.bmp","links":[{"url":"http://www.tcc.gov.tw/Councilor_Content_All.aspx?s=1671&d=610111&n=%E6%9D%8E%E6%96%87%E8%8B%B1","note":"議會個人官網"}],"social_media":null,"platform":"","param":null,"councilor":"6206ef5dc3e54e858b0dfebc4caaeb22"}],"uid":"6206ef5dc3e54e858b0dfebc4caaeb22","name":"李文英","birth":"1961-01-11","former_names":"","identifiers":["李文英","李文英"]},{"url":"http://councils.g0v.tw/api/councilors/934/","each_terms":[{"url":"http://councils.g0v.tw/api/councilors_terms/1675/","election_year":"1958","name":"詹土生","gender":"","party":"","title":"議員","constituency":7,"county":"新北市","district":"瑞芳鎮、貢寮鄉、雙溪鄉、平溪鄉","in_office":true,"contact_details":null,"term_start":"1958-02-21","term_end":{"date":"1961-02-20"},"education":"石碇國校畢業\n國文修業３年","experience":"龍安里里長\n瑞芳鎮民代表\n臺北縣警民協會瑞芳分會理事長\n臺北縣議會第4、5屆議員\n瑞芳工職學校獎助會董事\n*民國62年3月28日歿","remark":null,"image":"http://www.ntp.gov.tw/UpFile/CouncilorFile/TTCC0465.jpg","links":[{"url":"http://www.ntp.gov.tw/content/history/history01-5-p.aspx?sid=219","note":"議會個人官網"}],"social_media":null,"platform":"","param":null,"councilor":"44c3e18bee2445ca89a6cd73e90300c0"},{"url":"http://councils.g0v.tw/api/councilors_terms/1750/","election_year":"1961","name":"詹土生","gender":"","party":"","title":"議員","constituency":7,"county":"新北市","district":"瑞芳鎮、貢寮鄉、雙溪鄉、平溪鄉","in_office":true,"contact_details":null,"term_start":"1961-02-21","term_end":{"date":"1964-02-20"},"education":"石碇國校畢業\n國文修業３年","experience":"龍安里里長\n瑞芳鎮民代表\n臺北縣警民協會瑞芳分會理事長\n臺北縣議會第4、5屆議員\n瑞芳工職學校獎助會董事\n*民國62年3月28日歿","remark":null,"image":"http://www.ntp.gov.tw/UpFile/CouncilorFile/TTCC0465.jpg","links":[{"url":"http://www.ntp.gov.tw/content/history/history01-5-p.aspx?sid=219","note":"議會個人官網"}],"social_media":null,"platform":"","param":null,"councilor":"44c3e18bee2445ca89a6cd73e90300c0"}],"uid":"44c3e18bee2445ca89a6cd73e90300c0","name":"詹土生","birth":null,"former_names":"","identifiers":["詹土生"]},{"url":"http://councils.g0v.tw/api/councilors/935/","each_terms":[{"url":"http://councils.g0v.tw/api/councilors_terms/1677/","election_year":"1958","name":"傅炫箕","gender":"","party":"","title":"議員","constituency":7,"county":"新北市","district":"瑞芳鎮、貢寮鄉、雙溪鄉、平溪鄉","in_office":true,"contact_details":null,"term_start":"1958-02-21","term_end":{"date":"1961-02-20"},"education":"桃園農業學校畢業\n臺灣大學醫學院熱帶醫學研究班","experience":"香港醫院、廈門醫院及臺灣總督府衛生課\n臺灣金屬礦業公司附屬醫院服務\n臺灣金屬礦業公司總務主任\n臺北縣議會第4、5屆議員\n時雨中學董事會董事\n臺北縣選舉委員會監察委員\n*民國79年10月22日歿","remark":null,"image":"http://www.ntp.gov.tw/UpFile/CouncilorFile/TTCC0463.jpg","links":[{"url":"http://www.ntp.gov.tw/content/history/history01-5-p.aspx?sid=218","note":"議會個人官網"}],"social_media":null,"platform":"","param":null,"councilor":"3aba89ccce6440f0ba7c271f84a585f5"},{"url":"http://councils.g0v.tw/api/councilors_terms/1755/","election_year":"1961","name":"傅炫箕","gender":"","party":"","title":"議員","constituency":7,"county":"新北市","district":"瑞芳鎮、貢寮鄉、雙溪鄉、平溪鄉","in_office":true,"contact_details":null,"term_start":"1961-02-21","term_end":{"date":"1964-02-20"},"education":"桃園農業學校畢業\n臺灣大學醫學院熱帶醫學研究班","experience":"香港醫院、廈門醫院及臺灣總督府衛生課\n臺灣金屬礦業公司附屬醫院服務\n臺灣金屬礦業公司總務主任\n臺北縣議會第4、5屆議員\n時雨中學董事會董事\n臺北縣選舉委員會監察委員\n*民國79年10月22日歿","remark":null,"image":"http://www.ntp.gov.tw/UpFile/CouncilorFile/TTCC0463.jpg","links":[{"url":"http://www.ntp.gov.tw/content/history/history01-5-p.aspx?sid=218","note":"議會個人官網"}],"social_media":null,"platform":"","param":null,"councilor":"3aba89ccce6440f0ba7c271f84a585f5"}],"uid":"3aba89ccce6440f0ba7c271f84a585f5","name":"傅炫箕","birth":null,"former_names":"","identifiers":["傅炫箕"]}]}