{"count":1904,"next":"http://councils.g0v.tw/api/councilors/?page=95","previous":"http://councils.g0v.tw/api/councilors/?page=93","results":[{"url":"http://councils.g0v.tw/api/councilors/516/","each_terms":[{"url":"http://councils.g0v.tw/api/councilors_terms/871/","election_year":"1968","name":"曾黃金蓮","gender":"","party":"","title":"議員","constituency":4,"county":"新北市","district":"三重市","in_office":true,"contact_details":null,"term_start":"1968-02-21","term_end":{"date":"1973-04-30"},"education":"國校畢業","experience":"市民代表\n鏡湖煤礦公司董事\n鏡湖煤礦公司監察人\n連興鐵材行負責人\n豐鐵材公司董事長\n臺北縣議會第6、7屆議員","remark":null,"image":"http://www.ntp.gov.tw/UpFile/CouncilorFile/TTCC0624.jpg","links":[{"url":"http://www.ntp.gov.tw/content/history/history01-5-p.aspx?sid=262","note":"議會個人官網"}],"social_media":null,"platform":"","param":null,"councilor":"88c1348ab9bc408c9b43787767d0c383"},{"url":"http://councils.g0v.tw/api/councilors_terms/1841/","election_year":"1964","name":"曾黃金蓮","gender":"","party":"","title":"議員","constituency":4,"county":"新北市","district":"三重市","in_office":true,"contact_details":null,"term_start":"1964-02-21","term_end":{"date":"1968-02-20"},"education":"國校畢業","experience":"市民代表\n鏡湖煤礦公司董事\n鏡湖煤礦公司監察人\n連興鐵材行負責人\n豐鐵材公司董事長\n臺北縣議會第6、7屆議員","remark":null,"image":"http://www.ntp.gov.tw/UpFile/CouncilorFile/TTCC0624.jpg","links":[{"url":"http://www.ntp.gov.tw/content/history/history01-5-p.aspx?sid=262","note":"議會個人官網"}],"social_media":null,"platform":"","param":null,"councilor":"88c1348ab9bc408c9b43787767d0c383"}],"uid":"88c1348ab9bc408c9b43787767d0c383","name":"曾黃金蓮","birth":null,"former_names":"","identifiers":["曽黄金蓮","曾黄金蓮","曾黃金蓮","曽黃金蓮"]},{"url":"http://councils.g0v.tw/api/councilors/517/","each_terms":[{"url":"http://councils.g0v.tw/api/councilors_terms/873/","election_year":"1968","name":"鄭宗藝","gender":"","party":"","title":"議員","constituency":4,"county":"新北市","district":"三重市","in_office":true,"contact_details":null,"term_start":"1968-02-21","term_end":{"date":"1973-04-30"},"education":"東海高中","experience":"三重客運公司總經理\n三重市第4屆市長\n臺北縣議會第5、6、7屆議員\n三重市介壽零售市場\n介壽建設公司董事長\n民國101年8月12日歿","remark":null,"image":"http://www.ntp.gov.tw/UpFile/CouncilorFile/TTCC0515.jpg","links":[{"url":"http://www.ntp.gov.tw/content/history/history01-5-p.aspx?sid=229","note":"議會個人官網"}],"social_media":null,"platform":"","param":null,"councilor":"d0872ef4d989476c9aff9bf27740382d"},{"url":"http://councils.g0v.tw/api/councilors_terms/1840/","election_year":"1964","name":"鄭宗藝","gender":"","party":"","title":"議員","constituency":4,"county":"新北市","district":"三重市","in_office":true,"contact_details":null,"term_start":"1964-02-21","term_end":{"date":"1968-02-20"},"education":"東海高中","experience":"三重客運公司總經理\n三重市第4屆市長\n臺北縣議會第5、6、7屆議員\n三重市介壽零售市場\n介壽建設公司董事長\n民國101年8月12日歿","remark":null,"image":"http://www.ntp.gov.tw/UpFile/CouncilorFile/TTCC0515.jpg","links":[{"url":"http://www.ntp.gov.tw/content/history/history01-5-p.aspx?sid=229","note":"議會個人官網"}],"social_media":null,"platform":"","param":null,"councilor":"d0872ef4d989476c9aff9bf27740382d"},{"url":"http://councils.g0v.tw/api/councilors_terms/1788/","election_year":"1961","name":"鄭宗藝","gender":"","party":"","title":"議員","constituency":3,"county":"新北市","district":"新莊鎮、泰山鄉、三重鎮、五股鄉、蘆洲鄉、林口鄉","in_office":true,"contact_details":null,"term_start":"1961-02-21","term_end":{"date":"1964-02-20"},"education":"東海高中","experience":"三重客運公司總經理\n三重市第4屆市長\n臺北縣議會第5、6、7屆議員\n三重市介壽零售市場\n介壽建設公司董事長\n民國101年8月12日歿","remark":null,"image":"http://www.ntp.gov.tw/UpFile/CouncilorFile/TTCC0515.jpg","links":[{"url":"http://www.ntp.gov.tw/content/history/history01-5-p.aspx?sid=229","note":"議會個人官網"}],"social_media":null,"platform":"","param":null,"councilor":"d0872ef4d989476c9aff9bf27740382d"}],"uid":"d0872ef4d989476c9aff9bf27740382d","name":"鄭宗藝","birth":null,"former_names":"","identifiers":["鄭宗藝"]},{"url":"http://councils.g0v.tw/api/councilors/982/","each_terms":[{"url":"http://councils.g0v.tw/api/councilors_terms/1826/","election_year":"1964","name":"劉有亮","gender":"","party":"","title":"議員","constituency":6,"county":"新北市","district":"內湖鄉、南港鎮、汐止鎮、萬里鄉、金山鄉","in_office":true,"contact_details":null,"term_start":"1964-02-21","term_end":{"date":"1968-02-20"},"education":"基隆商職畢業","experience":"福美煤礦主任\n南港鎮第6屆鎮民代表會副主席\n南港鎮第10屆調解委員會主席\n南港民眾服務站理事\n臺北縣議會第6屆議員\n民國99年4月15日歿","remark":null,"image":"http://www.ntp.gov.tw/UpFile/CouncilorFile/TTCC0636.jpg","links":[{"url":"http://www.ntp.gov.tw/content/history/history01-5-p.aspx?sid=265","note":"議會個人官網"}],"social_media":null,"platform":"","param":null,"councilor":"5fe951a6ccd14409b03d2d2a725e6e31"}],"uid":"5fe951a6ccd14409b03d2d2a725e6e31","name":"劉有亮","birth":null,"former_names":"","identifiers":["劉有亮","劉有亮"]},{"url":"http://councils.g0v.tw/api/councilors/1212/","each_terms":[{"url":"http://councils.g0v.tw/api/councilors_terms/2138/","election_year":"2009","name":"黃哲鍾","gender":"","party":"","title":"議員","constituency":1,"county":"桃園縣","district":"桃園市","in_office":true,"contact_details":[{"type":"email","value":"tycca007@tycc.gov.tw","label":"EMAIL"},{"type":"address","value":"桃園市國際路一段1124巷12弄6號","label":"服務處"},{"type":"voice","value":"03-220-3296","label":"電話"},{"type":"fax","value":"03-2203298","label":"傳真"}],"term_start":"2009-12-25","term_end":{"date":"2014-12-25"},"education":"國立台北科技大學機械系","experience":"桃園縣議會第14、15屆議員\n桃園市第十屆市民代表\n桃園市中山里里長\n桃園縣國立台北科技大學校友會常務監事\n中華航空公司修護工廠飛機檢驗領班\n桃園縣黃姓宗親會副會長\n桃園縣客屬聯誼會常務理事\n國立桃園高中家長會副會長\n桃園縣立中興國中家長會副會長\n桃園縣立中山國小家長會副會長\n桃園縣太極拳協會常務理事\n桃園市晉福宮主任委員\n桃園市長山寺監事\n桃園縣老人守望相助協會理事長\n桃園縣老人健康促進會顧問","remark":null,"image":"http://www.tycc.gov.tw/file%5Cperson%5Capp%5Ca634641660529279467%E9%BB%83%E5%93%B2%E9%8D%BE%E8%AD%B0%E5%93%A1.jpg","links":[{"url":"http://www.tycc.gov.tw/page.aspx?wtp=1&wnd=204&id=42","note":"議會個人官網"},{"url":"http://https://www.facebook.com/people/%E9%BB%83%E5%93%B2%E9%8D%BE/100004523405854","note":"臉書"}],"social_media":null,"platform":"＊加強規劃建置天羅地網監視系統並整合市公所及相關單位監視系統，統籌由警\n察機關管理，以協助刑案之偵破。\n＊儘速徵收南崁都市計劃文高二莊敬路與經國路口用地，並規劃興建經國高中，\n以落實12年國教及增加桃園市學子之就學機會。\n＊RCA附近﹙中山路1308巷﹚有五個社區無聯外道路，目前僅能以埤塘週邊道\n路進出，請打通桃園市國強七街，以解決民眾需求。\n＊加緊下水道建構發揮排洪導流功能，避免重大水患發生，保障人民生命財產安\n全。\n＊建請桃園分局中路派出所遷移至中山路原址辦公，以提供民　眾優質服務。\n＊興建社區老人公寓以照顧獨居或是無依老人。\n＊積極建設桃園市中山國小分校以解決學生飽和壓力。\n＊推動虎頭山整理規劃讓市民有更寬闊、精緻的休閒空間。\n＊推動桃林鐵路再生利用計劃。\n＊建請縣府將國際路通往八德方向截彎取直案以利改善交通問　題。\n＊推動港、縣合一，增加財政收入。\n＊桃園市埔子區、中路區人口驟增、轄區日益複雜，為維護民眾安全，成立、提\n案、督促成立同安、龍安派出所。\n＊解決桃園市中路重劃區(宏昌十三街 吉昌街)之排水問題。","param":null,"councilor":"0c747c471bd249899a622d2fb934995a"}],"uid":"0c747c471bd249899a622d2fb934995a","name":"黃哲鍾","birth":null,"former_names":"","identifiers":["黃哲鍾","黄哲鍾"]},{"url":"http://councils.g0v.tw/api/councilors/1573/","each_terms":[],"uid":"1c66978102004af99ba5f4d837921967","name":"陳永賢","birth":null,"former_names":"","identifiers":["陳永賢"]},{"url":"http://councils.g0v.tw/api/councilors/1153/","each_terms":[{"url":"http://councils.g0v.tw/api/councilors_terms/3051/","election_year":"2014","name":"劉淑芳","gender":"女","party":"中國國民黨","title":"議員","constituency":7,"county":"彰化縣","district":"田尾鄉、埤頭鄉、北斗鎮、溪州鄉","in_office":true,"contact_details":[{"type":"voice","value":"04-8830693、04-8833007","label":"電話"},{"type":"cell","value":"0933-191889","label":"行動"},{"type":"fax","value":"04-8833008","label":"傳真"},{"type":"address","value":"彰化縣田尾鄉正義村民和巷404號","label":"地址"},{"type":"email","value":"flower080299@yahoo.com.tw","label":"電子信箱"}],"term_start":"2014-12-25","term_end":{"date":"2018-12-25"},"education":"大葉大學國際企業管理碩士\n美國密西根州立大學公共政策研習班結業\n國立台中商專附設空專國貿科畢業\n省立北斗高中\n田尾國中\n田尾國小","experience":"一、彰化縣議會第12、13、16、17屆議員\n二、彰化縣田尾鄉第13、14屆鄉長\n三、彰化縣家扶中心員林區扶幼委員會主任委員\n四、國立北斗家商校友會理事長\n五、彰化縣婦女會常務理事、田尾鄉婦女會常務監事、秘書\n六、國際獅子會300-C3區芊鈺獅子會創會長\n七、救國團專任烹飪及土風舞指導老師\n八、74年曾當選全國優秀青年\n九、彰化縣體育會木球委員會主任委員","remark":null,"image":"http://www.chcc.gov.tw/df_ufiles/d/s_47%E5%8A%89%E6%B7%91%E8%8A%B3.jpg","links":[{"url":"http://www.chcc.gov.tw/member/details.aspx?Parser=99,6,40,,,,47","note":"議會個人官網"},{"url":"https://www.facebook.com/flower080299","note":"個人臉書"}],"social_media":null,"platform":"民意優先、建設家園、繁榮地方、照顧弱勢。\n一、監督縣政、服務鄉親，做好鄉親與縣府之間的橋樑。\n二、賡續爭取縣轄各級學校軟硬體建設，改善教學環境、提昇教育品質。\n三、關懷老人、關心年輕人，督促縣府重視婦幼、兒少、長者、身心礙者之社會福利措施。\n四、珍惜過去、開創未來，推觀光、銷農產、要建設、顧權益、爭福利，用心盡心為鄉親。","param":{"bills_role_statistics":{"total":52,"priproposer":9,"sponsor":9,"cosponsor":43},"bills_party_diversity":[{"party":"中國國民黨","ratio":0.6307692307692307},{"party":"無黨籍","ratio":0.25934065934065936},{"party":"民主進步黨","ratio":0.10989010989010989}]},"councilor":"825571d83a6845a58603ee2717c7fe9d"},{"url":"http://councils.g0v.tw/api/councilors_terms/2079/","election_year":"2009","name":"劉淑芳","gender":"女","party":"","title":"議員","constituency":7,"county":"彰化縣","district":"田尾鄉、埤頭鄉、北斗鎮、溪州鄉","in_office":true,"contact_details":[{"type":"phone","value":"","label":"電話"},{"type":"fax","value":"04-8833008","label":"傳真"},{"type":"email","value":"flower080299@yahoo.com.tw","label":"電子信箱"},{"type":"address","value":"彰化縣田尾鄉正義村民和巷404號","label":"通訊處"}],"term_start":"2009-12-25","term_end":{"date":"2014-12-25"},"education":"田尾國小\n田尾國中\n省立北斗高中\n國立台中商專附設空專國貿科畢業\n美國密西根州立大學公共政策研習班結業\n大葉大學國企所碩士","experience":"彰化縣議會第12、13、16屆議員\n彰化縣田尾鄉第13、14屆鄉長\n彰化縣家扶中心永久認養人\n彰化縣家扶中心員林區扶幼委員會主任委員\n彰化縣議會第17屆議員\n北斗國際青年商會特友會主席\n彰化縣體育會木球委員會主任委員\n中國童子軍總會社區發展委員","remark":null,"image":"http://www.chcc.gov.tw/UpFile/CouncilorPhoto/7004.jpg","links":[{"url":"http://www.chcc.gov.tw/content/list/list01_01.aspx?sid=43","note":"議會個人官網"}],"social_media":null,"platform":"落實生態環境保護防治公害污染確保鄉親身心健康\n開發本區域之工業化促進地方均衡發展增加就業機會\n促請政府修改土地政策逐步開放農地讓無住屋者能自建住屋照顧中低收入戶民眾\n促請政府建立農產品運銷機制穩定產銷價格提高農民收益\n爭取本縣各級學校軟硬體建設，改善教學環境提高教育品質\n伸張公權力維護社會治安，確保民眾生命財產安全\n加強倫理建設充實精神生活內涵導正社會不良風氣\n加強社會福利措施重視老人婦幼及身心障礙者權益","param":{"bills_role_statistics":{"total":56,"priproposer":8,"sponsor":8,"cosponsor":48},"diversity":{"":1.0},"bills_party_diversity":[{"party":"","ratio":1.0}]},"councilor":"825571d83a6845a58603ee2717c7fe9d"}],"uid":"825571d83a6845a58603ee2717c7fe9d","name":"劉淑芳","birth":"1959-08-02","former_names":"","identifiers":["劉淑芳","劉淑芳"]},{"url":"http://councils.g0v.tw/api/councilors/1151/","each_terms":[{"url":"http://councils.g0v.tw/api/councilors_terms/2077/","election_year":"2009","name":"江熊一楓","gender":"女","party":"","title":"議員","constituency":7,"county":"彰化縣","district":"田尾鄉、埤頭鄉、北斗鎮、溪州鄉","in_office":true,"contact_details":[{"type":"phone","value":"","label":"電話"},{"type":"fax","value":"04-8877493","label":"傳真"},{"type":"email","value":"xxx4488@yahoo.com.tw","label":"電子信箱"},{"type":"address","value":"彰化縣北斗鎮光復里地政路404號","label":"通訊處"}],"term_start":"2009-12-25","term_end":{"date":"2014-12-25"},"education":"台灣大學肄業\n彰化國立師範大學碩士班\n中洲科技大學","experience":"亞洲商報、自由時報、臺灣日報工商記者\n美國加州臺灣文化出版社執行秘書\n立法院江昭儀委員國會辦公室主任\n玉胡獅子會 會長\n彰化縣議會第17屆議員","remark":null,"image":"http://www.chcc.gov.tw/UpFile/CouncilorPhoto/7002.jpg","links":[{"url":"http://www.chcc.gov.tw/content/list/list01_01.aspx?sid=45","note":"議會個人官網"}],"social_media":null,"platform":"推展本土文化，改善社會風氣，顧鄉土，顧百姓，顧台灣\n督促縣府改善農田道路，及排水系統整治，解決水患保障人民生命財產安全\n敦促縣府推展文化資產，古蹟維護以發揮觀光價值及古蹟教育\n清廉從政，專業問政，監督縣府\n強化優質教育\n強力監督警察開罰單制度，取締不法但不濫開罰單\n重視老人安養問題、婦幼安全制度，強化急難救助機制\n重視守望相助隊，讓鄰里生活安心\n協助農業轉型積極發展民宿、推展花及農產品附加價值朝向觀光，精緻休閒農業發展","param":{"bills_role_statistics":{"total":31,"priproposer":5,"sponsor":5,"cosponsor":26},"diversity":{"":1.0},"bills_party_diversity":[{"party":"","ratio":1.0}]},"councilor":"5a055606725a4d6687179f8c8d421a5b"},{"url":"http://councils.g0v.tw/api/councilors_terms/3052/","election_year":"2014","name":"江熊一楓","gender":"女","party":"民主進步黨","title":"議員","constituency":7,"county":"彰化縣","district":"田尾鄉、埤頭鄉、北斗鎮、溪州鄉","in_office":true,"contact_details":[{"type":"voice","value":"04-8872348、04-8877779、04-8877859","label":"電話"},{"type":"cell","value":"0919-749120","label":"行動"},{"type":"fax","value":"04-8877493","label":"傳真"},{"type":"address","value":"彰化縣北斗鎮光復里地政路404號","label":"地址"},{"type":"email","value":"xxx4488@yahoo.com.tw","label":"電子信箱"}],"term_start":"2014-12-25","term_end":{"date":"2018-12-25"},"education":"彰化國立師範大學碩士\n中州科技大學","experience":"一、彰化縣議會第17屆議員。\n二、2016蔡英文總統彰化縣競選總部 決策委員\n三、民進黨彰化縣議會黨團 幹事長\n四、江昭儀立委國會辦公室主任。\n五、玉湖獅子會會長。\n六、台灣大學(肄)","remark":null,"image":"http://www.chcc.gov.tw/df_ufiles/d/s_46%E6%B1%9F%E7%86%8A%E4%B8%80%E6%A5%93.jpg","links":[{"url":"http://www.chcc.gov.tw/member/details.aspx?Parser=99,6,40,,,,46","note":"議會個人官網"},{"url":"https://www.facebook.com/profile.php?id=100001553100129&fref=ts","note":"個人臉書"}],"social_media":null,"platform":"一、推展本土文化，改善社會風氣，顧鄉土、顧百姓、顧臺灣。\n二、督促縣府改善農田道路，及排水系統整治，解決水患保障人民財產安全。\n三、督促縣府推展文化資產，古蹟維護以發揮觀光價值及古蹟教育。\n四、清廉從政，專業問政，監督縣府。\n五、田尾鄉內開設外語導遊、美食廚師專科班，提昇觀光品質。\n六、關心地方產業發展，增加就業機會，促進勞資和諧。\n七、強力監督警察開罰單制度，取締不法但不濫開罰單。\n八、重視老人安養問題、婦幼安全制度，強化急難救助機制。\n九、重視守望相助隊，讓鄰里生活安心。\n十、協助農業積極發展民宿、推展花及農產品附加價值朝向觀光，精緻休閒農業發展。","param":{"bills_role_statistics":{"total":26,"priproposer":2,"sponsor":2,"cosponsor":24},"bills_party_diversity":[{"party":"民主進步黨","ratio":0.5593869731800766},{"party":"中國國民黨","ratio":0.2835249042145594},{"party":"無黨籍","ratio":0.15708812260536398}]},"councilor":"5a055606725a4d6687179f8c8d421a5b"}],"uid":"5a055606725a4d6687179f8c8d421a5b","name":"江熊一楓","birth":"1952-06-11","former_names":"","identifiers":["江熊一楓"]},{"url":"http://councils.g0v.tw/api/councilors/1152/","each_terms":[{"url":"http://councils.g0v.tw/api/councilors_terms/3053/","election_year":"2014","name":"李俊諭","gender":"男","party":"民主進步黨","title":"議員","constituency":7,"county":"彰化縣","district":"田尾鄉、埤頭鄉、北斗鎮、溪州鄉","in_office":true,"contact_details":[{"type":"voice","value":"04-8895268","label":"電話"},{"type":"cell","value":"0932-962802","label":"行動"},{"type":"fax","value":"04-8891440","label":"傳真"},{"type":"address","value":"彰化縣溪州鄉尾厝村中山路三段456號","label":"地址"},{"type":"email","value":"eejenera@yahoo.com.tw","label":"電子信箱"}],"term_start":"2014-12-25","term_end":{"date":"2018-12-25"},"education":"中臺科技大學醫技科\n彰化高中（肄）\n明道中學初中部\n溪州國小","experience":"一、民進黨彰化縣黨部執委、評委。\n二、周清玉競選省議員、立委、大北斗區副會長、總督導。\n三、翁金珠競選縣長總部副總幹事。\n四、民進黨彰化縣議會(四任)黨團召集人。\n五、第 14、15、16、17 屆彰化縣議員。\n六、凱達格蘭學校民間領袖與地方發展班第一期。\n七、民進黨中央政策說明種子教官。\n八、第 17 屆彰化縣議會程序委員。","remark":null,"image":"http://www.chcc.gov.tw/df_ufiles/d/s_45%E6%9D%8E%E4%BF%8A%E8%AB%AD.jpg","links":[{"url":"http://www.chcc.gov.tw/member/details.aspx?Parser=99,6,40,,,,45","note":"議會個人官網"},{"url":"https://www.facebook.com/leejenera?fref=ts","note":"個人臉書"}],"social_media":null,"platform":"監督縣政、爭取建設、服務鄉親：\n一、督促縣府儘速完成大北斗區(北斗鎮、田尾鄉、埤頭鄉、溪州鄉)高速公路與觀光景點濁水溪淨美化、公路花園、花博公園、地方小吃結合完成觀光旅遊規劃。\n二、督促縣府重視社會福利，照顧困苦無依老人及弱勢殘障同胞。\n三、督促縣府重視社會治安，保護人民生命財產安全，早日完成各重要路口監視系統設置。\n四、當一位專職的縣議員，認真出席會議，決不與縣府掛勾侵損縣民權益，做好政府與民眾間溝通橋樑。\n五、督促縣府早日完成，改善縣內各區域，大、中、小排水系統，以保護縣民生命財產安全。\n六、督促縣府儘速完成各農田道路及排水系統改善，以保障農民權益。","param":{"bills_role_statistics":{"total":50,"priproposer":5,"sponsor":5,"cosponsor":45},"bills_party_diversity":[{"party":"民主進步黨","ratio":0.6658415841584159},{"party":"中國國民黨","ratio":0.21287128712871287},{"party":"無黨籍","ratio":0.12128712871287128}]},"councilor":"235787bb80b744f7ada606021a7e1196"},{"url":"http://councils.g0v.tw/api/councilors_terms/2078/","election_year":"2009","name":"李俊諭","gender":"男","party":"","title":"議員","constituency":7,"county":"彰化縣","district":"田尾鄉、埤頭鄉、北斗鎮、溪州鄉","in_office":true,"contact_details":[{"type":"phone","value":"04-8895268","label":"電話"},{"type":"fax","value":"04-8891440","label":"傳真"},{"type":"email","value":"leejenera@yahoo.com.tw","label":"電子信箱"},{"type":"address","value":"彰化縣溪州鄉尾厝村中山路三段456號","label":"通訊處"}],"term_start":"2009-12-25","term_end":{"date":"2014-12-25"},"education":"溪州國小\n明道中學初中部\n彰化高中（肄）\n中臺醫專醫技科","experience":"彰化縣議會第14、15、16屆議員\n     民進黨彰化縣黨部執委、評委、陳水扁競選總統及連任彰化縣副總幹事\n周清玉競選省議員\n立委大北斗區副會長、總督導\n翁金珠競選縣長總部副總幹事\n民進黨彰化縣議會黨團召集人\n凱達格蘭學校民間領袖與地方發展班第一期\n民進黨中央政策說明種子教官\n彰化縣臺灣入聯促進會會長\n彰化縣議會第17屆議員","remark":null,"image":"http://www.chcc.gov.tw/UpFile/CouncilorPhoto/N201155165331.jpg","links":[{"url":"http://www.chcc.gov.tw/content/list/list01_01.aspx?sid=44","note":"議會個人官網"}],"social_media":null,"platform":"督促縣府儘速完成各農田道路及排水系統改善，以保障農民權益\n督促縣府儘速完成大北斗區（北斗鎮、田尾鄉、埤頭鄉、溪州鄉）高速公路與觀光景點濁水溪淨美化、公路花園、花博公園、地方小吃結合完成觀光旅遊規劃\n督促縣府重視社會福利，照顧困苦無依老人及弱勢殘障同胞\n督促縣府重視社會治安，保護人民生命財產安全，早日完成各重要路口監視系統設置\n督促縣府早日完成，改善縣內各區域，大、中、小排水系統，以保護縣民生命財產安全\n當一位專職的縣議員，認真出席會議，決不與縣府掛勾侵損縣民權益，做好政府與民眾間溝通橋樑","param":{"bills_role_statistics":{"total":74,"priproposer":13,"sponsor":13,"cosponsor":61},"diversity":{"":1.0},"bills_party_diversity":[{"party":"","ratio":1.0}]},"councilor":"235787bb80b744f7ada606021a7e1196"}],"uid":"235787bb80b744f7ada606021a7e1196","name":"李俊諭","birth":"1958-05-23","former_names":"","identifiers":["李俊諭","李俊諭"]},{"url":"http://councils.g0v.tw/api/councilors/1154/","each_terms":[{"url":"http://councils.g0v.tw/api/councilors_terms/2080/","election_year":"2009","name":"謝典霖","gender":"男","party":"","title":"議長","constituency":7,"county":"彰化縣","district":"田尾鄉、埤頭鄉、北斗鎮、溪州鄉","in_office":true,"contact_details":[{"type":"phone","value":"04-8894123","label":"電話"},{"type":"fax","value":"04-8898399","label":"傳真"},{"type":"email","value":"dienlin23@hotmail.com","label":"電子信箱"},{"type":"address","value":"彰化縣溪州鄉溪州村中山路三段270巷5號","label":"通訊處"}],"term_start":"2009-12-25","term_end":{"date":"2014-12-25"},"education":"真理大學財經法律系畢業\n美國多明尼肯大學管理學碩士","experience":"彰化縣議會第16屆議長\n彰化縣體育總會自由車委員會主任委員\n北斗青商會理事\n彰化縣警察局北斗分局警友會顧問\n立委鄭汝芬服務處特助\n彰化縣議會第17屆議長","remark":null,"image":"http://www.chcc.gov.tw/UpFile/CouncilorPhoto/33_7-02.jpg","links":[{"url":"http://www.chcc.gov.tw/content/list/list01_01.aspx?sid=1","note":"議會個人官網"}],"social_media":null,"platform":"督促縣府改善各種不良的政策\n做好政府與鄉親之間的橋樑，大聲說出鄉親的聲音\n促進文教建設，積極推動社區總體營造，提升生活品質\n爭取地方建設，改善排水設施\n全力為民眾監督縣府，讓縣府做好為民服務的工作","param":{"bills_role_statistics":{"total":14,"priproposer":13,"sponsor":13,"cosponsor":1},"diversity":{"":1.0},"bills_party_diversity":[{"party":"","ratio":1.0}]},"councilor":"d2bda6a20b4c40598b146613bbe29a60"},{"url":"http://councils.g0v.tw/api/councilors_terms/3054/","election_year":"2014","name":"謝典霖","gender":"男","party":"中國國民黨","title":"議長","constituency":7,"county":"彰化縣","district":"田尾鄉、埤頭鄉、北斗鎮、溪州鄉","in_office":true,"contact_details":[{"type":"voice","value":"04-8894123","label":"電話"},{"type":"fax","value":"04-8898399","label":"傳真"},{"type":"address","value":"彰化縣溪州鄉溪州村中山路三段270巷5號","label":"地址"},{"type":"email","value":"dienlin23@hotmail.c","label":"電子信箱"}],"term_start":"2014-12-25","term_end":{"date":"2018-12-25"},"education":"美國多明尼肯大學管理學碩士\n真理大學財經法律系畢業","experience":"一、彰化縣議會第16、17屆議長。\n二、中華民國縣市體育會聯合總會常務監事。\n三、彰化縣體育會理事長。\n四、北斗青商會會長。\n五、彰化縣警察局北斗分局警友會顧問。\n六、立委謝言信國會辦公室助理。\n七、立委鄭汝芬服務處特助。","remark":null,"image":"http://www.chcc.gov.tw/df_ufiles/d/s_44%E8%AC%9D%E5%85%B8%E9%9C%96.jpg","links":[{"url":"http://www.chcc.gov.tw/member/details.aspx?Parser=99,6,40,,,,44","note":"議會個人官網"},{"url":"https://www.facebook.com/profile.php?id=100001561856904","note":"個人臉書"}],"social_media":null,"platform":"一、關懷弱勢團體，愛在彰化。\n二、推廣體育活動，帶動全民運動風潮。\n三、全力為民眾監督縣府，讓縣府做好為民服務的工作。\n四、做好政府與鄉親之間的橋樑，大聲說出鄉親的聲音。\n五、督促縣府改善各種不良的政策。\n六、爭取地方建設，改善排水設施。\n七、促進文教建設，積極推動社區總體營造，提升生活品質。","param":{"bills_role_statistics":{"total":10,"priproposer":10,"sponsor":10,"cosponsor":0},"bills_party_diversity":[{"party":"中國國民黨","ratio":0.6486486486486487},{"party":"民主進步黨","ratio":0.1891891891891892},{"party":"無黨籍","ratio":0.16216216216216217}]},"councilor":"d2bda6a20b4c40598b146613bbe29a60"}],"uid":"d2bda6a20b4c40598b146613bbe29a60","name":"謝典霖","birth":"1979-08-16","former_names":"","identifiers":["謝典霖"]},{"url":"http://councils.g0v.tw/api/councilors/1157/","each_terms":[{"url":"http://councils.g0v.tw/api/councilors_terms/2083/","election_year":"2009","name":"蕭淑芬","gender":"女","party":"","title":"議員","constituency":6,"county":"彰化縣","district":"社頭鄉、田中鎮、二水鄉","in_office":true,"contact_details":[{"type":"phone","value":"04-8755181","label":"電話"},{"type":"fax","value":"04-8743788","label":"傳真"},{"type":"email","value":"a048755181@yahoo.com.tw","label":"電子信箱"},{"type":"address","value":"彰化縣田中鎮北路里員集路二段627號","label":"通訊處"}],"term_start":"2009-12-25","term_end":{"date":"2014-12-25"},"education":"社頭國小\n社頭國中\n達德商工\n環球技術學院二專畢業","experience":"彰化縣議會第16屆議員\n三潭國小家長會長\n社頭國中家長會副會長\n田中鎮鎮民代表會副主席\n社頭同濟會會員\n田中向陽慈善會會員\n二水天霖慈善會會員\n蕭氏宗親會會員及顧問\n社頭義警分隊顧問\n田中青工會顧問\n田中後備憲兵聯絡中心顧問\n彰化縣議會第17屆議員","remark":null,"image":"http://www.chcc.gov.tw/UpFile/CouncilorPhoto/6003.jpg","links":[{"url":"http://www.chcc.gov.tw/content/list/list01_01.aspx?sid=40","note":"議會個人官網"}],"social_media":null,"platform":"整治各野溪並監控及改善土石流危險區，並嚴格取締山坡地不當開發、維護二水、田中、社頭居民生命安全\n爭取縣政府於各鄉鎮設立外籍新娘、弱勢族群的關懷據點適時關懷外籍新娘及弱勢族群消弭家庭、社會紛爭\n爭取縣府輔導農民建立農產品牌，提高農產品形象，提昇農產品的附加價值，增加農民收入\n爭取高鐵早日設置田中站及開發站區公共設施，聯外交通網，帶動地方繁榮，創造商機\n爭取各鄉鎮農路、巷道、路面、水溝之改善工程\n爭取二水國中遷建校區以利學子就學，原校區規劃為藝術中心保存地方文物及發展地方文化","param":{"bills_role_statistics":{"total":40,"priproposer":11,"sponsor":11,"cosponsor":29},"diversity":{"":1.0},"bills_party_diversity":[{"party":"","ratio":1.0}]},"councilor":"d95f5d19f441496b9140901a05a1cf47"},{"url":"http://councils.g0v.tw/api/councilors_terms/3055/","election_year":"2014","name":"蕭淑芬","gender":"女","party":"無黨籍","title":"議員","constituency":6,"county":"彰化縣","district":"社頭鄉、田中鎮、二水鄉","in_office":true,"contact_details":[{"type":"voice","value":"04-8755181","label":"電話"},{"type":"cell","value":"0918-330968","label":"行動"},{"type":"fax","value":"04-8743788","label":"傳真"},{"type":"address","value":"彰化縣田中鎮北路里員集路二段506號","label":"地址"},{"type":"email","value":"048755181@yahoo.com.tw","label":"電子信箱"}],"term_start":"2014-12-25","term_end":{"date":"2018-12-25"},"education":"環球技術學院二專畢業\n達德商工\n社頭國中\n社頭國小","experience":"一、田中鎮民代表會17屆副主席。\n二、彰化縣議會第16、17屆議員。\n三、三潭國小家長會長。\n四、社頭國中家長會副會長。\n五、田中向陽、二水天霖慈善會會員。\n六、蕭氏宗親會會員及顧問。\n七、社頭義警分隊、田中後備憲兵及青工會顧問。\n八、慈濟功德會會員。","remark":null,"image":"http://www.chcc.gov.tw/df_ufiles/d/s_43%E8%95%AD%E6%B7%91%E8%8A%AC.jpg","links":[{"url":"http://www.chcc.gov.tw/member/details.aspx?Parser=99,6,40,,,,43","note":"議會個人官網"},{"url":"https://www.facebook.com/XiaoShuFenXianYiYuan?fref=ts","note":"個人臉書"}],"social_media":null,"platform":"一、爭取經費改善區域排水與整治野溪解決淹水問題，保障縣民生命財產。\n二、為鼓勵生育及照護幼兒建議彰化縣政府編列6歲以下兒童育兒津貼。\n三、建議彰化縣政府配合彰化高鐵站營運，積極規劃行銷彰化文化特色、地方特產，創造商機、活絡地方經濟。\n四、為因應人口老化，建議彰化縣政府在社區設立托老中心讓老者在熟悉環境中快樂生活。\n五、爭取教育資源平衡城鄉差距，促進學習環境之公平。\n六、為民喉舌認真打拼爭取經費來建設鄉梓。","param":{"bills_role_statistics":{"total":17,"priproposer":7,"sponsor":7,"cosponsor":10},"bills_party_diversity":[{"party":"中國國民黨","ratio":0.4114285714285714},{"party":"無黨籍","ratio":0.36},{"party":"民主進步黨","ratio":0.22857142857142856}]},"councilor":"d95f5d19f441496b9140901a05a1cf47"}],"uid":"d95f5d19f441496b9140901a05a1cf47","name":"蕭淑芬","birth":"1968-05-15","former_names":"","identifiers":["蕭淑芬"]}]}