{"count":1904,"next":"http://councils.g0v.tw/api/councilors/?page=96","previous":"http://councils.g0v.tw/api/councilors/?page=94","results":[{"url":"http://councils.g0v.tw/api/councilors/1802/","each_terms":[{"url":"http://councils.g0v.tw/api/councilors_terms/3061/","election_year":"2014","name":"陳文漢","gender":"男","party":"中國國民黨","title":"議員","constituency":5,"county":"彰化縣","district":"埔鹽鄉、溪湖鎮、埔心鄉","in_office":true,"contact_details":[{"type":"voice","value":"04-8852725","label":"電話"},{"type":"cell","value":"0910588885","label":"行動"},{"type":"fax","value":"04-8813576","label":"傳真"},{"type":"address","value":"彰化縣溪湖鎮太平里員鹿路三段411號","label":"地址"},{"type":"email","value":"service.rpe@msa.hinet.ne","label":"電子信箱"}],"term_start":"2014-12-25","term_end":{"date":"2018-12-25"},"education":"中州科技大學機械與自動化工程系工程技術碩士畢業\n中州技術學院行銷與流通管理科副學士畢業","experience":"一、溪湖鎮長第 15、16屆鎮長。\n二、彰化縣議會第15 屆議員。\n三、彰化縣後備憲兵荷松協會顧問團榮譽團長。\n四、國防部後備司令部中部地區後備指揮部組訓顧問。\n五、溪湖鎮果菜市場(股)公司董事長。\n六、彰化縣警察之友會代表。\n七、溪湖分局警友辦事處副主任。","remark":null,"image":"http://www.chcc.gov.tw/df_ufiles/d/s_38%E9%99%B3%E6%96%87%E6%BC%A2.jpg","links":[{"url":"http://www.chcc.gov.tw/member/details.aspx?Parser=99,6,40,,,,38","note":"議會個人官網"},{"url":"https://www.facebook.com/profile.php?id=100007109941755","note":"個人臉書"}],"social_media":null,"platform":"一、監督縣政總體發展、提升鎮民生活品質。\n二、爭取鎮政經費補助、改善鄉親居住環境。\n三、舉辦特色節慶活動、繁榮產業行銷觀光。\n四、設立關懷服務中心、便民服務不打折扣。\n五、推動社區藝文展覽、營造蘊育書香氣息。\n六、協助弱勢族群自立、保障四就(就學、就養、就醫、就業)權益。\n七、申請廣設學習課程、培養第二專長能力。\n八、專業優質問政服務、理性思辨縣政規劃。","param":{"bills_role_statistics":{"total":8,"priproposer":0,"sponsor":0,"cosponsor":8},"bills_party_diversity":[{"party":"中國國民黨","ratio":0.6666666666666666},{"party":"民主進步黨","ratio":0.19230769230769232},{"party":"無黨籍","ratio":0.14102564102564102}]},"councilor":"81cf8a33dd414b589978203af523e1b7"}],"uid":"81cf8a33dd414b589978203af523e1b7","name":"陳文漢","birth":"1961-12-30","former_names":"","identifiers":["陳文漢"]},{"url":"http://councils.g0v.tw/api/councilors/1159/","each_terms":[{"url":"http://councils.g0v.tw/api/councilors_terms/3062/","election_year":"2014","name":"歐陽蓁珠","gender":"女","party":"民主進步黨","title":"議員","constituency":5,"county":"彰化縣","district":"埔鹽鄉、溪湖鎮、埔心鄉","in_office":true,"contact_details":[{"type":"voice","value":"04-8854219","label":"電話"},{"type":"fax","value":"04-8817002","label":"傳真"},{"type":"address","value":"彰化縣溪湖鎮富德街65號","label":"地址"},{"type":"email","value":"q8851154@yahoo.com.tw","label":"電子信箱"}],"term_start":"2014-12-25","term_end":{"date":"2018-12-25"},"education":"省立嘉義女子高級中學畢業","experience":"一、民主進步黨彰化縣議會黨團 2014 副總召\n二、彰化縣議會第17屆議員\n三、民主進步黨彰化縣議會黨團 2013 年幹事長\n四、溪湖鎮第18屆鎮民代表\n五、溪湖鎮農會第 10 屆監事\n六、蔡英文競選總統彰化縣競選總部副總幹事\n七、江昭儀競選立委埔心後援會會長\n八、林重謨競選立委溪湖區後援會婦女部主任\n九、凱達格蘭學校國家領導與發展策略班結業\n十、中華民國得勝者教育協會志工\n十一、彰化縣脊髓損傷重建協會 諮詢顧問\n十二、通天宮紫極殿委員\n十三、三巡堂慈善會會員\n十四、螢火蟲鐵騎隊隊員\n十五、彰化縣儒林登山協會會員","remark":null,"image":"http://www.chcc.gov.tw/df_ufiles/d/s_36%E6%AD%90%E9%99%BD%E8%93%81%E7%8F%A0.jpg","links":[{"url":"http://www.chcc.gov.tw/member/details.aspx?Parser=99,6,40,,,,36","note":"議會個人官網"},{"url":"https://www.facebook.com/profile.php?id=100000725917728&fref=ts","note":"個人臉書"}],"social_media":null,"platform":"一、國中國小教育之強化：國小國中是人生最重要的啟蒙教育，須更用心的打好基礎，本人將建請縣府編列充足之預算，使學校軟硬體設施更臻完善，教師之編列比照台北市教師人員編制。\n二、排水系統之改善：督促縣府全面檢查各種排水系統之缺失(縣內很多排水系統，淤積、阻塞，沼氣瀰漫，水路不通、滋生蚊蟲、造成環境惡臭，影響縣民健康)。希望縣府研究出解決方案，分年編列預算給予改善，讓其排水通暢，給縣民一個良好的生活環境。\n三、年老長輩之照顧：很快進入超高齡社會的台灣，需要有社區式長照中心，目前全台灣，只有120所長照中心，因其密度和服務品質都不足，家中若有失能失智的老人，家屬負擔都很沉重，心力交瘁，希望未來(長照服務法)上路前，縣府能提供幫助，減輕家屬的負擔。\n四、自行車步道之建設：埔心、溪湖、埔鹽三鄉鎮自行車步道，經過本人多年奔走，尋求各單位協助幫忙，終於串連成功，但還有很多步道需加強路網標誌與安全措施，本人會繼續用心努力，未來建請縣府重視指示友善性、串連友善性、路段友善性及據點友善性之目標，以方便遊客使用，提供彰化縣民運動休閒之場域，建立優質完善的自行車友善路網。\n五、繼續堅持自由、民主、公義的信念，監督縣政，使其施政符合多數人的權益。\n六、繼續善盡縣議員的職責，爭取埔心、埔鹽、溪湖應有之地方建設，促其實現。","param":{"bills_role_statistics":{"total":48,"priproposer":3,"sponsor":4,"cosponsor":44},"bills_party_diversity":[{"party":"民主進步黨","ratio":0.6017505470459519},{"party":"中國國民黨","ratio":0.2275711159737418},{"party":"無黨籍","ratio":0.17067833698030635}]},"councilor":"7f33f5685a074044945b13215382331f"},{"url":"http://councils.g0v.tw/api/councilors_terms/2085/","election_year":"2009","name":"歐陽蓁珠","gender":"女","party":"","title":"議員","constituency":5,"county":"彰化縣","district":"埔鹽鄉、溪湖鎮、埔心鄉","in_office":true,"contact_details":[{"type":"phone","value":"04-8854219","label":"電話"},{"type":"fax","value":"04-8817002","label":"傳真"},{"type":"email","value":"q8851154@yahoo.com.tw","label":"電子信箱"},{"type":"address","value":"彰化縣溪湖鎮富德街65號","label":"通訊處"}],"term_start":"2009-12-25","term_end":{"date":"2014-12-25"},"education":"省立嘉義女子高級中學畢業","experience":"溪湖鎮農會前監事\n溪湖鎮第18屆鎮民代表\n彰化縣議會第17屆議員","remark":null,"image":"http://www.chcc.gov.tw/UpFile/CouncilorPhoto/5001.jpg","links":[{"url":"http://www.chcc.gov.tw/content/list/list01_01.aspx?sid=38","note":"議會個人官網"}],"social_media":null,"platform":"一、我會堅持自由、民主、公義的信念，監督縣政，使其施政符合多數人的利益。\n二、我會堅持熱愛家鄉，維護農民、勞工、學生、婦女及弱勢團體的權益。\n三、我會善盡縣議員的職責，爭取埔心、埔鹽、溪湖應有之地方建設，促其實現。\n四、我會發揮女性溫柔、慈悲、向善的特質。幫助婦女鄉親，參與社區活動，提升生活品質，更有能力照顧家庭。引領婦女鄉親，充實自我，開闊視野，認識世界。\n五、我主張ECFA應全民公投，由人民行使直接民權，決定國家的重大政策。\n六、我堅決守護台灣主體性、維護台灣之主權，展現台灣人的尊嚴。","param":{"bills_role_statistics":{"total":38,"priproposer":8,"sponsor":8,"cosponsor":30},"diversity":{"":1.0},"bills_party_diversity":[{"party":"","ratio":1.0}]},"councilor":"7f33f5685a074044945b13215382331f"}],"uid":"7f33f5685a074044945b13215382331f","name":"歐陽蓁珠","birth":"1955-12-10","former_names":"","identifiers":["歐陽蓁珠"]},{"url":"http://councils.g0v.tw/api/councilors/1803/","each_terms":[{"url":"http://councils.g0v.tw/api/councilors_terms/3063/","election_year":"2014","name":"李清木","gender":"男","party":"民主進步黨","title":"議員","constituency":5,"county":"彰化縣","district":"埔鹽鄉、溪湖鎮、埔心鄉","in_office":true,"contact_details":[{"type":"voice","value":"04-8825052","label":"電話"},{"type":"fax","value":"04-8825059","label":"傳真"},{"type":"address","value":"彰化縣埔鹽鄉崑崙村彰水路一段14號","label":"地址"},{"type":"email","value":"cingmu168@gmail.c","label":"電子信箱"}],"term_start":"2014-12-25","term_end":{"date":"2018-12-25"},"education":"台中一中畢業\n埔鹽國中\n好修國小","experience":"一、民主進步黨埔鹽鄉聯絡處主任。\n二、埔鹽鄉愛心慈善會監事。\n三、溪湖四季游泳會會員。\n四、西湖村西德宮副主委。\n五、好修國小家長會顧問。\n六、埔鹽警友站顧問。\n七、埔鹽消防隊義消顧問。\n八、台灣國埔心聯誼會顧問團長。","remark":null,"image":"http://www.chcc.gov.tw/df_ufiles/d/s_35%E6%9D%8E%E6%B8%85%E6%9C%A8.jpg","links":[{"url":"http://www.chcc.gov.tw/member/details.aspx?Parser=99,6,40,,,,35","note":"議會個人官網"},{"url":"https://www.facebook.com/profile.php?id=100005243377722&fref=ts","note":"個人臉書"}],"social_media":null,"platform":"一、堅持台灣本土意識，一切以台灣人民利益為最大考量。\n二、積極監督縣政府預算，讓縣政府發揮最有效功能，符合縣民期待。\n三、本身是農民，所以農民的問題，清木會用心幫忙解決，更知道農業經營的辛苦，要求縣政府在產業道路、排給水設施要努力改善。\n四、本人會更積極參與慈善工作，關懷弱勢朋友，重視婦幼安全及教育文化。\n五、當產業與縣政府之間溝通的橋樑，在合法下幫助企業在縣內拓展工廠規模，增加就業員工，讓企業能獲利，好增加員工薪水，進而改善人民生活。\n六、人民所託付的服務，清木會感同深受的心理去完成，做到認真、正直、好央甲的縣議員。\n七、續辦免費學童營養午餐。\n八、65歲以上年長者，免費裝置全口假牙。\n九、於埔心鄉設立縣政府第二行政中心。\n十、溪湖鎮、埔鹽鄉設立演藝廳。","param":{"bills_role_statistics":{"total":34,"priproposer":0,"sponsor":0,"cosponsor":34},"bills_party_diversity":[{"party":"民主進步黨","ratio":0.738255033557047},{"party":"中國國民黨","ratio":0.17114093959731544},{"party":"無黨籍","ratio":0.09060402684563758}]},"councilor":"0468e951551341e09c68b7405fda49dd"}],"uid":"0468e951551341e09c68b7405fda49dd","name":"李清木","birth":"1972-09-19","former_names":"","identifiers":["李清木","李清木"]},{"url":"http://councils.g0v.tw/api/councilors/1804/","each_terms":[{"url":"http://councils.g0v.tw/api/councilors_terms/3064/","election_year":"2014","name":"黃正盛","gender":"男","party":"中國國民黨","title":"議員","constituency":4,"county":"彰化縣","district":"大村鄉、員林市、永靖鄉","in_office":true,"contact_details":[{"type":"voice","value":"04-8343777","label":"電話"},{"type":"cell","value":"0937-790330","label":"行動"},{"type":"fax","value":"04-8348666","label":"傳真"},{"type":"address","value":"彰化縣員林市三義里莒光路161巷41號","label":"地址"},{"type":"email","value":"8343777@kimo.c","label":"電子信箱"}],"term_start":"2014-12-25","term_end":{"date":"2018-12-25"},"education":"屏東高中\n員林國中\n靜修國小","experience":"一、員林國際青年商會。\n二、大村鄉農會第16、17屆理事長。\n三、彰化縣議會17屆議員。\n四、彰化縣體育會監事。\n五、員林義勇消防一分隊顧問團副團長。\n六、文化大學肄業。","remark":null,"image":"http://www.chcc.gov.tw/df_ufiles/d/s_33%E9%BB%83%E6%AD%A3%E7%9B%9B.jpg","links":[{"url":"http://www.chcc.gov.tw/member/details.aspx?Parser=99,6,40,,,,33","note":"議會個人官網"},{"url":"https://www.facebook.com/profile.php?id=100002467461750","note":"個人臉書"}],"social_media":null,"platform":"一、全面督促政府改善河川及用水、排水系統整治、改善農民用水，以根治水患。\n二、重視老人安養權益，以提升生活的品質與尊嚴。\n三、結合地方文化產業活動推行觀光、加速推動社區總體營造、培育社區文化人才，充實社區文化軟硬體設施、美化社區環境、振興地方產業文化。\n四、保障農民權益，推動農產品觀光化及知名度、產銷一條線，改善及提升農民收入及生活品質。\n五、促進員林鎮早日升格成員林市，促進員林繁榮再現，使員林鎮脫胎換骨成為交通、文化、經濟、工商再創高峯。\n六、全力爭取經費，因應地方建設需求，並監督政府預算，落實民需民用、杜絕公帑浪費，提升施政品質與效率。","param":{"bills_role_statistics":{"total":32,"priproposer":0,"sponsor":0,"cosponsor":32},"bills_party_diversity":[{"party":"中國國民黨","ratio":0.6005509641873278},{"party":"無黨籍","ratio":0.29201101928374656},{"party":"民主進步黨","ratio":0.10743801652892562}]},"councilor":"53f8b70bb4e14e159a8be93369fb2699"}],"uid":"53f8b70bb4e14e159a8be93369fb2699","name":"黃正盛","birth":"1978-09-19","former_names":"","identifiers":["黄正盛","黃正盛"]},{"url":"http://councils.g0v.tw/api/councilors/1165/","each_terms":[{"url":"http://councils.g0v.tw/api/councilors_terms/2091/","election_year":"2009","name":"游振雄","gender":"男","party":"","title":"議員","constituency":4,"county":"彰化縣","district":"大村鄉、員林鎮、永靖鄉","in_office":true,"contact_details":[{"type":"phone","value":"04-8338786","label":"電話"},{"type":"fax","value":"04-8339158","label":"傳真"},{"type":"email","value":"Mr_Yu@livemail.tw","label":"電子信箱"},{"type":"address","value":"彰化縣員林鎮南平里莒光路538號","label":"通訊處"}],"term_start":"2009-12-25","term_end":{"date":"2014-12-25"},"education":"大西國小\n育英國小\n明倫國中\n正德工商\n中州科技大學","experience":"彰化縣議會14、15、16屆議員\n中華民國健力協會副秘書長\n中華民國拔河協會理事\n彰化縣體育會健力委員會總幹事\n彰化縣體育會拔河委員會主任委員\n員林鎮體育會理事長\n員林獅子會會長\n彰化縣議會第17屆議員\n彰化縣農田水利會會務委員","remark":null,"image":"http://www.chcc.gov.tw/UpFile/CouncilorPhoto/4003.jpg","links":[{"url":"http://www.chcc.gov.tw/content/list/list01_01.aspx?sid=31","note":"議會個人官網"}],"social_media":null,"platform":"積極推廣全民體育活動，促進縣民身心健康\n提昇教學品質，爭取教育經費\n理性問政、監督縣府行政效率及服務品質\n推動社會福利措施，重視弱勢族群安養與心理之照顧\n促請政府結合地方特色，推動產業多元化，以「一鄉一特產」為目標努力，促進經濟繁榮\n爭取補助地方建設及都市規劃，提昇縣民生活品質","param":{"bills_role_statistics":{"total":33,"priproposer":6,"sponsor":6,"cosponsor":27},"diversity":{"":1.0},"bills_party_diversity":[{"party":"","ratio":1.0}]},"councilor":"87008b14e10f43a09d3d8071e5f7cfda"},{"url":"http://councils.g0v.tw/api/councilors_terms/3065/","election_year":"2014","name":"游振雄","gender":"男","party":"中國國民黨","title":"議員","constituency":4,"county":"彰化縣","district":"大村鄉、員林市、永靖鄉","in_office":true,"contact_details":[{"type":"voice","value":"04-8338786","label":"電話"},{"type":"fax","value":"04-8339158","label":"傳真"},{"type":"address","value":"彰化縣員林市南平里莒光路538號","label":"地址"},{"type":"email","value":"Mr_Yu@livemail.tw","label":"電子信箱"}],"term_start":"2014-12-25","term_end":{"date":"2018-12-25"},"education":"中州科技大學副學士\n大西國小\n育英國小\n正德工商\n明倫國中","experience":"一、彰化縣議會14、 15 、16 、17 屆議員。\n二、台灣彰化農田水利會3、4屆會務委員。\n三、彰化縣體育會羽球委員會主委。\n四、彰化縣體育會拔河委員會主委。\n五、員林鎮體育會榮譽理事長。\n六、員林獅子會 11、12 年會長。\n七、員林三聖管理委員會主任委員。","remark":null,"image":"http://www.chcc.gov.tw/df_ufiles/d/s_32%E6%B8%B8%E6%8C%AF%E9%9B%84.jpg","links":[{"url":"http://www.chcc.gov.tw/member/details.aspx?Parser=99,6,40,,,,32","note":"議會個人官網"},{"url":"https://www.facebook.com/mryu8786?fref=ts","note":"個人臉書"}],"social_media":null,"platform":"一、理性問政、監督縣府行政效率及服務品質。\n二、積極推動全民體育活動、促進縣民身心健康。\n三、推動社會福利措施、重視弱勢族群安養與心理之照顧。\n四、爭取補助地方建設及都市規劃、提昇縣民生活品質。\n五、提昇教學品質，爭取教育經費。\n六、爭取設立托嬰、托兒、托老中心。\n七、關心地方產業發展、協助勞工就業、促進勞資和諧。\n八、保障農民權益，以改善及提升農友生活。","param":{"bills_role_statistics":{"total":23,"priproposer":7,"sponsor":7,"cosponsor":16},"bills_party_diversity":[{"party":"中國國民黨","ratio":0.5962962962962963},{"party":"無黨籍","ratio":0.2518518518518518},{"party":"民主進步黨","ratio":0.15185185185185185}]},"councilor":"87008b14e10f43a09d3d8071e5f7cfda"}],"uid":"87008b14e10f43a09d3d8071e5f7cfda","name":"游振雄","birth":"1962-02-08","former_names":"","identifiers":["游振雄"]},{"url":"http://councils.g0v.tw/api/councilors/1167/","each_terms":[{"url":"http://councils.g0v.tw/api/councilors_terms/2093/","election_year":"2009","name":"張雪如","gender":"女","party":"","title":"議員","constituency":4,"county":"彰化縣","district":"大村鄉、員林鎮、永靖鄉","in_office":true,"contact_details":[{"type":"phone","value":"04-8337306","label":"電話"},{"type":"fax","value":"04-8337610","label":"傳真"},{"type":"email","value":"ru9951@gmail.com","label":"電子信箱"},{"type":"address","value":"彰化縣員林鎮員水路二段534號","label":"通訊處"}],"term_start":"2009-12-25","term_end":{"date":"2014-12-25"},"education":"明道大學(學士)畢業","experience":"彰化縣議會第15、16、17屆議員\n救難協會第六中隊隊員\n員林分局家暴（防治）志工隊長\n茉莉國際同濟會創會長\n12個慈善會永久會員\n員林鎮民代表\n彰化縣議會第17屆議員\n員林廣寧宮樂善團團長","remark":null,"image":"http://www.chcc.gov.tw/UpFile/CouncilorPhoto/4005.jpg","links":[{"url":"http://www.chcc.gov.tw/content/list/list01_01.aspx?sid=29","note":"議會個人官網"}],"social_media":null,"platform":"對無喪葬費者，積極爭取政府補助外，並給予民間資源已達圓滿\n加強學童性防治法的觀念，杜絕性侵\n監持社會預算比例不縮水，保障婦幼安全，推廣家暴防治觀念，推動兩性平權。共同營造安和樂利的環境，避免不幸案件一再發生\n監督縣府落實各項社福政策，監督縣府各項社福預算執行，務必照顧到每位老幼、低收入戶及身心障礙者\n臺灣進入高齡化社會，老人照顧資源的需求大增，而其中更棘手的是失智老人的問題，專家警告，如果臺灣再不建構有效的照護扶持體系，二、三十年後，臺灣的家庭與社會都會面臨癱瘓的危機，將督促政府投入資源，加速建立相關照護系統\n雪中送炭","param":{"bills_role_statistics":{"total":7,"priproposer":0,"sponsor":0,"cosponsor":7},"diversity":{"":1.0},"bills_party_diversity":[{"party":"","ratio":1.0}]},"councilor":"77b5171a3c98473198037491f5c05f70"},{"url":"http://councils.g0v.tw/api/councilors_terms/3066/","election_year":"2014","name":"張雪如","gender":"女","party":"無黨籍","title":"議員","constituency":4,"county":"彰化縣","district":"大村鄉、員林市、永靖鄉","in_office":true,"contact_details":[{"type":"voice","value":"04-8337306","label":"電話"},{"type":"fax","value":"04-8337610","label":"傳真"},{"type":"address","value":"彰化縣員林市員水路二段534號","label":"地址"},{"type":"email","value":"ru9951@gmail.c","label":"電子信箱"}],"term_start":"2014-12-25","term_end":{"date":"2018-12-25"},"education":"明道大學學士畢業","experience":"一、彰化縣議會第15、16、17屆議員。\n二、員林分局家暴防治志工隊長。\n三、員林廣寧樂善團團長。\n四、員林鎮民代表(一屆)。\n五、救難協會第六中隊隊員。\n六、南開科技大學(社工系)。","remark":null,"image":"http://www.chcc.gov.tw/df_ufiles/d/s_31%E5%BC%B5%E9%9B%AA%E5%A6%82.jpg","links":[{"url":"http://www.chcc.gov.tw/member/details.aspx?Parser=99,6,40,,,,31","note":"議會個人官網"},{"url":"https://zh-tw.facebook.com/people/%E5%BC%B5%E9%9B%AA%E5%A6%82/100000309916730","note":"個人臉書"}],"social_media":null,"platform":"一、台灣距離聯合國制定＜兒童權利公約＞已經20年，在台灣，卻仍然有許多弱小兒童生命遭受虐待、疏忽、性侵害，或是飽受複雜的家庭問題影響，失去與生俱來、應當享有的權益。根據＜113保護專線＞最新統計資料顯示：2012年全年兒童因遭受家庭暴力、兒少保護或性侵害求助477人，2013年1–9月344名，也顯示許多孩子對於自身應享有的權益及觀念仍相當薄弱。縣府應加強113的宣導，讓兒童更能了解113保護專線的功能。\n二、強化社區家暴防治及通報系統。\n三、建立安全校園，設置專線，供學生霸凌事件受害者申訴之用，健全通報及調查系統。\n四、因應人口高齡化趨勢，政府應增設失智、失能老人庇護中心，讓專業、專職人員照顧需要照顧的長者，具自理能力者，有一平實依歸之處，讓老有所終、老有尊嚴。","param":{"bills_role_statistics":{"total":24,"priproposer":2,"sponsor":2,"cosponsor":22},"bills_party_diversity":[{"party":"中國國民黨","ratio":0.4587628865979381},{"party":"無黨籍","ratio":0.30927835051546393},{"party":"民主進步黨","ratio":0.23195876288659795}]},"councilor":"77b5171a3c98473198037491f5c05f70"}],"uid":"77b5171a3c98473198037491f5c05f70","name":"張雪如","birth":"1966-05-13","former_names":"","identifiers":["張雪如"]},{"url":"http://councils.g0v.tw/api/councilors/1805/","each_terms":[{"url":"http://councils.g0v.tw/api/councilors_terms/3067/","election_year":"2014","name":"曹嘉豪","gender":"男","party":"中國國民黨","title":"議員","constituency":4,"county":"彰化縣","district":"大村鄉、員林市、永靖鄉","in_office":true,"contact_details":[{"type":"voice","value":"04-8362046","label":"電話"},{"type":"fax","value":"04-8314275","label":"傳真"},{"type":"address","value":"彰化縣員林市東北里山腳路六段189號","label":"地址"},{"type":"email","value":"bit_tsao@hotmail.c","label":"電子信箱"}],"term_start":"2014-12-25","term_end":{"date":"2018-12-25"},"education":"中州科技大學行銷與流通管理科副學士\n崇先中學","experience":"一、立法委員蕭景田服務處助理。\n二、彰化縣議員曹明正服務處助理。\n三、中國國民黨第19屆全黨代表。\n四、員林螢光慈善會監事。\n五、員林錦龍獅子會理事。\n六、員林義消第一分隊顧問。\n七、員林國際青年商會會友。","remark":null,"image":"http://www.chcc.gov.tw/df_ufiles/d/s_30%E6%9B%B9%E5%98%89%E8%B1%AA.jpg","links":[{"url":"http://www.chcc.gov.tw/member/details.aspx?Parser=99,6,40,,,,30","note":"議會個人官網"},{"url":"https://www.facebook.com/TsaoHower?fref=ts","note":"個人臉書"}],"social_media":null,"platform":"一、爭取員林地區醫療單位設置夜間小兒急診。\n二、監督員林184甲都更細項改良、改善，以達地方民意和諧。\n三、建請針對八卦山脈地區進行整體規劃檢討，以改善山區農地使用情況。\n四、爭取強化警務設施設備，提振警力士氣。\n五、爭取更新義消裝備設備，提昇義消人員人身安全。\n六、建請輔導青年農業專業教育，進而投入精緻農業，提昇農業等級，爭取農民優惠貸款，輔助農業創新。\n七、建請落實外籍配偶家庭教育課程，輔導其就業、生活、文化，降低離婚情況，改善社會問題。\n八、建請妥善利用員林鐵路高架後下方空間，改善員林地區擁擠空間，提昇商圈等級、停車情況改善。","param":{"bills_role_statistics":{"total":45,"priproposer":2,"sponsor":3,"cosponsor":42},"bills_party_diversity":[{"party":"中國國民黨","ratio":0.5627705627705628},{"party":"無黨籍","ratio":0.2597402597402597},{"party":"民主進步黨","ratio":0.1774891774891775}]},"councilor":"213a94428eeb482c9a1fa420c3c6fd93"}],"uid":"213a94428eeb482c9a1fa420c3c6fd93","name":"曹嘉豪","birth":"1981-11-05","former_names":"","identifiers":["曹嘉豪"]},{"url":"http://councils.g0v.tw/api/councilors/1806/","each_terms":[{"url":"http://councils.g0v.tw/api/councilors_terms/3068/","election_year":"2014","name":"劉惠娟","gender":"女","party":"中國國民黨","title":"議員","constituency":4,"county":"彰化縣","district":"大村鄉、員林市、永靖鄉","in_office":true,"contact_details":[{"type":"voice","value":"04-8339422","label":"電話"},{"type":"fax","value":"04-8358272","label":"傳真"},{"type":"address","value":"彰化縣員林市西東里浮圳路二段83巷111號","label":"地址"},{"type":"email","value":"chuan8349909@yahoo.com.tw","label":"電子信箱"}],"term_start":"2014-12-25","term_end":{"date":"2018-12-25"},"education":"國立彰化師範大學管理學院企業高階管理碩士","experience":"一、員林鎮第 17、18、19 屆鎮民代表。\n二、員林螢光慈善會第20 屆理事長。\n三、中國國民黨 18、19 全黨代表。\n四、彰化 B 區華嵐國際同濟會祕書長。\n五、彰化縣立大同國中校友會常務理事。\n六、彰化縣立員東國小50 周年校慶榮譽籌備主委。\n七、彰化縣志願服務協會志工獎助學金審查委員。","remark":null,"image":"http://www.chcc.gov.tw/df_ufiles/d/s_29%E5%8A%89%E6%83%A0%E5%A8%9F.jpg","links":[{"url":"http://www.chcc.gov.tw/member/details.aspx?Parser=99,6,40,,,,29","note":"議會個人官網"},{"url":"https://www.facebook.com/profile.php?id=100000092475889&sk=about","note":"個人臉書"}],"social_media":null,"platform":"一、認真審查縣政府預、決算，及強力監察縣政府財產之經營管理及處分，並審慎審查縣政府所屬事業機構之組織規程。\n二、出席縣議會並聽取施政報告和提出查詢，參加縣內村、里民召開的各種會議，接受人民請願，全力行使其他法律所賦予議員的職權。\n三、成為專職議員、努力不懈，講究效率、全方位的為縣民服務。\n四、打造員林、永靖、大村生活圈，建請放寬容積率，加速周遭社區更新，全面改善周圍交通及生活機能。\n五、擴大完成光纖寬頻管道建置，增設WiFi據點、加速推動網路無國界的無線城市。\n六、讓學校教育專業化，教師甄選公平公開化。\n七、定期舉辦免費法律諮詢及社區巡迴服務，堅持照顧弱勢家庭。\n八、增加社會預算比例，保障婦幼安全，健全幼兒托育環境、檢討教育品質，讓父母安心工作、孩子快樂成長；推動兩性平權，推廣家暴防治觀念；落實老人、身心障礙、特殊境遇家庭、婦幼、勞工等弱勢團體照顧，並加強職訓與生活補助。\n九、加強獎勵社區，擴大整合民間資源，鼓勵大家參與志工服務，讓社區民眾都成為快樂的志工。\n十、設置與年輕人對話平台，鼓勵年輕人參與公共事務，讓彰化成為年輕、有活力的城市。","param":{"bills_role_statistics":{"total":29,"priproposer":10,"sponsor":10,"cosponsor":19},"bills_party_diversity":[{"party":"中國國民黨","ratio":0.6870229007633588},{"party":"無黨籍","ratio":0.24427480916030533},{"party":"民主進步黨","ratio":0.06870229007633588}]},"councilor":"fd31fc188c594793a219c76d3a065569"}],"uid":"fd31fc188c594793a219c76d3a065569","name":"劉惠娟","birth":"1972-03-08","former_names":"","identifiers":["劉惠娟","劉惠娟"]},{"url":"http://councils.g0v.tw/api/councilors/1807/","each_terms":[{"url":"http://councils.g0v.tw/api/councilors_terms/3069/","election_year":"2014","name":"賴澤民","gender":"男","party":"民主進步黨","title":"議員","constituency":4,"county":"彰化縣","district":"大村鄉、員林市、永靖鄉","in_office":true,"contact_details":[{"type":"voice","value":"04-8338501","label":"電話"},{"type":"cell","value":"0923-564180","label":"行動"},{"type":"fax","value":"04-8337657","label":"傳真"},{"type":"address","value":"彰化縣員林市莒光路798巷42-1號","label":"地址"},{"type":"email","value":"sk134755200@gmail.c","label":"電子信箱"}],"term_start":"2014-12-25","term_end":{"date":"2018-12-25"},"education":"康寧大學休閒管理學系畢業\n精誠高中畢業\n私立衛道中學畢業\n員林國小畢業","experience":"一、民主進步黨中央黨部組織部幹事。\n二、蔡英文競選總統中部辦公室幹事－彰化縣區負責人。\n三、民主進步黨彰化縣黨部縣代表。\n四、立法委員魏明谷國會辦公室助理。\n五、立法委員魏明谷員林服務處助理。\n六、民主進步黨彰化縣議會黨團副主任。","remark":null,"image":"http://www.chcc.gov.tw/df_ufiles/d/s_28%E8%B3%B4%E6%BE%A4%E6%B0%91.jpg","links":[{"url":"http://www.chcc.gov.tw/member/details.aspx?Parser=99,6,40,,,,28","note":"議會個人官網"},{"url":"https://www.facebook.com/laizemin?fref=nf","note":"個人臉書"}],"social_media":null,"platform":"一、推動員林規劃設立工業區，充分提供工業用地，擴大員林地區工作就業機會，減少年輕人外流現象。\n二、爭取員林鎮區建設運動中心，鼓勵推行全民運動。\n三、努力推動台137線山腳路快速道路交通建設，以改善花壇、大村、員林、永靖至二水山腳路的交通不便且交通事故頻傳等等的問題。\n四、嚴格監督縣政施政，杜絕縣政資源浪費或圖利財團。\n五、提案暫時停止員林地區違規車輛拖吊作業，改以開告罰單為原則，並要求重新規劃員林地區路邊停車空間。\n六、推動彰化縣農業產品認證，打造彰化縣優良農產品口碑，提高農民收入，補助並輔導吸引年輕人回鄉從事農業改良。\n七、以孩童教育、社區宣導、繁殖登記、補助寵物晶片登記、疫苗注射及結紮，減少流浪動物數量，增加流浪動物待領養天數，減少流浪動物撲殺。\n八、推動政府儘速改善永靖火車站周邊道路交通，提高永靖火車站使用上之便利性，提升永靖車站功能性並減少周邊交通意外。\n九、替彰化縣年輕族群發聲，深入了解並盡力協助年輕族群在社會上所遇到的困難。\n十、爭取彰化縣家庭育兒貸款補助及學雜費補助。\n十一、推動學童營養午餐食材在地化。","param":{"bills_role_statistics":{"total":41,"priproposer":7,"sponsor":8,"cosponsor":33},"bills_party_diversity":[{"party":"民主進步黨","ratio":0.71671388101983},{"party":"中國國民黨","ratio":0.18696883852691218},{"party":"無黨籍","ratio":0.09631728045325778}]},"councilor":"89744ea741f04de69fcfe279fbe32678"}],"uid":"89744ea741f04de69fcfe279fbe32678","name":"賴澤民","birth":null,"former_names":"","identifiers":["賴澤民","頼澤民"]},{"url":"http://councils.g0v.tw/api/councilors/1808/","each_terms":[{"url":"http://councils.g0v.tw/api/councilors_terms/3070/","election_year":"2014","name":"陳秋蓉","gender":"女","party":"民主進步黨","title":"議員","constituency":4,"county":"彰化縣","district":"大村鄉、員林市、永靖鄉","in_office":true,"contact_details":[{"type":"voice","value":"04-8328552","label":"電話"},{"type":"fax","value":"04-8353414","label":"傳真"},{"type":"address","value":"彰化縣員林市惠來里惠明街219號","label":"地址"},{"type":"email","value":"ccr0717@yahoo.com.tw","label":"電子信箱"}],"term_start":"2014-12-25","term_end":{"date":"2018-12-25"},"education":"中州科技大學\n明倫國中\n育英國小","experience":"一、員林鎮第 19 屆鎮民代表。\n二、2008-2011 立委翁金珠、縣議員陳素月聯合服務處主任 4 年。\n三、2003-2007 立委魏明谷、縣議員陳素月聯合服務處助理5 年。\n四、民進黨彰化縣黨部第 11 屆評議委員。\n五、通過「身心障礙福利服務專業人員培訓－教保員初級考試」及格。","remark":null,"image":"http://www.chcc.gov.tw/df_ufiles/d/s_%E7%B6%B2%E7%AB%99%E5%A4%A7%E9%A0%AD%E7%85%A71.png","links":[{"url":"http://www.chcc.gov.tw/member/details.aspx?Parser=99,6,40,,,,27","note":"議會個人官網"},{"url":"https://www.facebook.com/smile219/","note":"個人臉書"}],"social_media":null,"platform":"一、嚴格審查督促縣府預算之編列，讓有限財源發揮最高建設效益。\n二、力行清廉從政，爭取建設決不指定包商、不拿回扣。\n三、促請縣府儘速完成「184公頃市地重劃」尚未完成之道路貫通之工程。\n四、全力協助特殊境遇婦女(單親、失婚、受虐、高風險之家庭)申請辦理補助。\n五、關心弱勢族群，確實維護其權益。\n六、推動學校社區化，強化校園軟體設施，均衡區域發展，提升教育品質。\n七、敦促縣府重視文化資產及古蹟維護，以發揮古蹟之教育及觀光功能。\n八、監督縣府確實做好排水系統整治、解決水患，保障人民生命財產安全。\n九、敦促縣府早日完成山腳路外環道(縣道137替代道路)以疏解交通避免塞車窘況。\n十、推動大村葡萄觀光果園、永靖植栽園藝區的發展計畫，協助農業朝精緻休閒農業發展。\n十一、積極爭取永靖鄉設立演藝廳，讓永靖鄉親有一表演空間，不須再向鄰近鄉鎮借用。\n十二、推動永靖火車站站區都市開發，建立便捷交通路網，帶動地方發展與繁榮。\n十三、員林鐵路高架化工程103年底完工後，讓員林東西區交通連結暢通，鐵路高架橋下方規劃多功能停車場、商圈、綠美化、道路貫穿南北動線疏解市區交通，讓員林都市機能更完善。\n十四、關心地方產業發展，協助勞工就業，促進勞資和諧共贏。\n十五、秉持專業問政，做專職的議員，延續服務處，提供法律諮詢，解決縣民問題，保障縣民權益。","param":{"bills_role_statistics":{"total":45,"priproposer":6,"sponsor":6,"cosponsor":39},"bills_party_diversity":[{"party":"民主進步黨","ratio":0.8208092485549133},{"party":"中國國民黨","ratio":0.10404624277456648},{"party":"無黨籍","ratio":0.07514450867052024}]},"councilor":"855195c260ba40bf8de77fccbd521431"}],"uid":"855195c260ba40bf8de77fccbd521431","name":"陳秋蓉","birth":"1966-07-17","former_names":"","identifiers":["陳秋蓉"]}]}