{"count":1904,"next":"http://councils.g0v.tw/api/councilors/?page=97","previous":"http://councils.g0v.tw/api/councilors/?page=95","results":[{"url":"http://councils.g0v.tw/api/councilors/1809/","each_terms":[{"url":"http://councils.g0v.tw/api/councilors_terms/3071/","election_year":"2014","name":"蕭文雄","gender":"男","party":"中國國民黨","title":"議員","constituency":3,"county":"彰化縣","district":"伸港鄉、線西鄉、和美鎮","in_office":true,"contact_details":[{"type":"voice","value":"04-7558885","label":"電話"},{"type":"cell","value":"0919-012122","label":"行動"},{"type":"fax","value":"04-7559616","label":"傳真"},{"type":"address","value":"彰化縣和美鎮和東里3鄰忠勇路28號","label":"地址"},{"type":"email","value":"councilman912@gmail.c","label":"電子信箱"}],"term_start":"2014-12-25","term_end":{"date":"2018-12-25"},"education":"和美國中畢","experience":"一、和美鎮第18、19屆鎮民代表。\n二、彰化縣警察志工和美中隊長。\n三、彰化縣國民俗文化競技團武術委員會、理事長。\n四、和東國小志工隊長。\n五、國立秀水高工肄業。\n六、彰化縣體育會武術委員會主委。","remark":null,"image":"http://www.chcc.gov.tw/df_ufiles/d/s_26%E8%95%AD%E6%96%87%E9%9B%84.jpg","links":[{"url":"http://www.chcc.gov.tw/member/details.aspx?Parser=99,6,40,,,,26","note":"議會個人官網"},{"url":"https://www.facebook.com/hsiao.1.cai/?fref=ts","note":"個人臉書"}],"social_media":null,"platform":"一、重視國民基本教育。\n二、重視地方治安工作。\n三、重視弱勢團體輔助及安置。\n四、重視地方宗教團體儀式整合。\n五、重視地方學童交通安全。\n六、重視地方建設及縣民福利。","param":{"bills_role_statistics":{"total":75,"priproposer":23,"sponsor":23,"cosponsor":52},"bills_party_diversity":[{"party":"中國國民黨","ratio":0.48},{"party":"無黨籍","ratio":0.2696296296296296},{"party":"民主進步黨","ratio":0.25037037037037035}]},"councilor":"9692e50e7ef349b5a5496be059af11d5"}],"uid":"9692e50e7ef349b5a5496be059af11d5","name":"蕭文雄","birth":"1958-09-25","former_names":"","identifiers":["蕭文雄"]},{"url":"http://councils.g0v.tw/api/councilors/1810/","each_terms":[{"url":"http://councils.g0v.tw/api/councilors_terms/3073/","election_year":"2014","name":"林庚壬","gender":"男","party":"中國國民黨","title":"議員","constituency":3,"county":"彰化縣","district":"伸港鄉、線西鄉、和美鎮","in_office":true,"contact_details":[{"type":"voice","value":"04-7560998","label":"電話"},{"type":"cell","value":"0937-482929","label":"行動"},{"type":"fax","value":"04-7555366","label":"傳真"},{"type":"address","value":"彰化縣和美鎮和北里信義路241號","label":"地址"},{"type":"email","value":"grlin.election@gmail.c","label":"電子信箱"}],"term_start":"2014-12-25","term_end":{"date":"2018-12-25"},"education":"中州科技大學副學士\n大慶商工商職畢業\n和美國中畢業\n和東國小畢業","experience":"一、義勇警察大隊和美中隊長\n二、柑井里武當宮總幹事\n三、中州科技大學顧問\n四、中國國民黨和美民眾服務社常務理事 理事長\n五、秀傳醫療體系顧問\n六、和美新庄國小家長會首席顧問\n七、彰化家扶基金會永久認養人\n八、和美後備憲兵顧問\n九、線西慈音慈善會顧問\n十、宏瑜精誠公司常務董事","remark":null,"image":"http://www.chcc.gov.tw/df_ufiles/d/s_24%E6%9E%97%E5%BA%9A%E5%A3%AC.jpg","links":[{"url":"http://www.chcc.gov.tw/member/details.aspx?Parser=99,6,40,,,,24","note":"議會個人官網"},{"url":"https://www.facebook.com/profile.php?id=100003270367977&fref=ts","note":"個人臉書"}],"social_media":null,"platform":"一、推展社區服務工作，促進社區文康及各項活動之發展\n二、活化在地經濟，督促政府有效銷售農工漁民產物照顧生計\n三、主張極力爭取建設「和線伸自行車觀光道路」結合在地人文、產業特色以及特有的自然景觀資源，從伸港大肚溪口經伸港、和美、線西開闢一條自行車休閒觀光廊道，結合鄉鎮特色、在地農特產做休憩據點，創造觀光價值及產業生機。\n四、推動無污染工業區發展，增加青年就業機會，爭取提高薪資、解決人口外流。\n五、配合婦女團體舉辦各項活動，保障婦女權益、提升婦女地位\n六、關心婦女、弱勢、殘障及老人之福利與權益\n七、成立基層服務處深入各村里瞭解民需，解決民困、反應民意","param":{"bills_role_statistics":{"total":27,"priproposer":3,"sponsor":3,"cosponsor":24},"bills_party_diversity":[{"party":"中國國民黨","ratio":0.6751824817518248},{"party":"無黨籍","ratio":0.22627737226277372},{"party":"民主進步黨","ratio":0.09854014598540146}]},"councilor":"78f6433017ad4ee8bf50682fe1d73695"}],"uid":"78f6433017ad4ee8bf50682fe1d73695","name":"林庚壬","birth":"1962-06-13","former_names":"","identifiers":["林庚壬","林庚壬"]},{"url":"http://councils.g0v.tw/api/councilors/1118/","each_terms":[{"url":"http://councils.g0v.tw/api/councilors_terms/2044/","election_year":"2009","name":"劉添梧","gender":"","party":"民主進步黨","title":"議員","constituency":6,"county":"宜蘭縣","district":"羅東","in_office":true,"contact_details":[{"type":"address","value":"羅東鎮興東南路5號","label":"服務處所"},{"type":"voice","value":"9556556","label":"服務處所電話"}],"term_start":"2009-12-25","term_end":{"date":"2014-12-25"},"education":"國立台北空中商專企管系畢","experience":"宜蘭縣議會第十七屆議員。\n林義雄、黃煌雄、陳定南、游錫(方方土)、劉守成、張川田、游榮華、林逸\n民等助選員。","remark":null,"image":"http://www.ilcc.gov.tw/pictures/people/A1717.JPG","links":[{"url":"http://www.ilcc.gov.tw/Html/H_05/H_0501.asp?GoOut=&pic=6&clique=DDP&User_id=A1717","note":"議會個人官網"}],"social_media":null,"platform":"基本信念：\n1.堅守台灣精神。\n2.捍衛宜蘭價值。\n3.延續羅東先賢開拓本鎮遠見。\n4.促進羅東幸福魅力觀光小鎮。\n交通：\n1.督促縣府早日爭取北宜直線鐵路（捷運）興建。\n2.督促本縣鐵路高架化早日完成。\n3.督促縣府完善規劃高速公路溪南轉運中心。\n4.督促縣府規劃並整頓本鎮街道市容，創造本鎮特色以利觀光。\n5.督促縣府與縣內大學合作，研發並提振本縣產業。\n6.促進歷史記憶，林業園區融入本鎮社區總體營造。\n建設：\n1.督促縣府早日開放本鎮40－50年保護區。\n2.督促縣府引進軟體科學園區。\n3.督促縣府引進生化科學園區。\n4.督促縣府整治月眉圳、羅莊大排、冬螺圳、打那岸圳、十六份圳，以減少\n水患。\n5.督促縣府疏浚本縣河川如羅東溪、廣興溪、蘭陽溪等，以保護縣民生命財\n產安全。\n文教：\n1.第二文化中心早日完工，以提昇文化水準。\n2.爭取本鎮東區增設國中、國小。\n3.爭取本鎮國中小教室及硬體設備全面更新。\n社福：\n1.爭取國民年金制早日實施。\n2.促進老人福利，強化老人社區照護功能。\n3.義消、民防、義警、環保義工、愛心媽媽等義工福利之爭取。\n4.行政單位優先聘用殘障朋友及低收入戶朋友。\n環保：\n督促縣府整治本鎮倉前路、竹林圳、培英路、西寧路、豐年路下水道及污水\n道工程。","param":{"bills_role_statistics":{"total":111,"priproposer":20,"sponsor":21,"cosponsor":90},"diversity":{"中國國民黨":0.2505978867573069,"民主進步黨":0.5992268508508914,"無黨籍":0.15017526239180112},"bills_party_diversity":[{"party":"民主進步黨","ratio":0.5405156537753223},{"party":"中國國民黨","ratio":0.30755064456721914},{"party":"無黨籍","ratio":0.15193370165745856}]},"councilor":"3ed3277de77d4c5b82d47832706bf045"},{"url":"http://councils.g0v.tw/api/councilors_terms/2983/","election_year":"2014","name":"劉添梧","gender":"男","party":"民主進步黨","title":"議員","constituency":6,"county":"宜蘭縣","district":"羅東","in_office":true,"contact_details":[{"type":"email","value":"sewen1212@yahoo.com.tw","label":"E-mail"},{"type":"voice","value":"9556556","label":"服務處所電話"},{"type":"address","value":"羅東鎮興東南路5號","label":"服務處所"}],"term_start":"2014-12-25","term_end":{"date":"2018-12-25"},"education":"台北空中商專","experience":"1.宜蘭縣議會議員。\n2.陳定南、游錫(方方土)、劉守成、林聰賢助選員。\n3.宜蘭縣義消總隊副總隊長。\n4.羅東高商文教基金會常務董事。\n5.成功國小文教基金會董事。\n6.羅東奠安宮主任委員。\n7.羅東獅子會第43屆會長。\n8.國際獅子會300F區常務理事。","remark":null,"image":"http://www.ilcc.gov.tw/pictures/people/A1819.JPG","links":[{"url":"http://www.ilcc.gov.tw/Html/H_05/H_0501.asp?GoOut=&pic=6&clique=DDP&User_id=A1819","note":"議會個人官網"}],"social_media":null,"platform":"一、環保：堅守非核家園，反對高階核廢場設置縣境。督促縣府嚴格把關，嚴\n禁外縣市有毒廢棄物運儲至本縣。\n二、交通：爭取北宜直線鐵路捷運化興建，爭取本縣鐵路高架化，以利東西部\n平衡發展，爭取開拓本鎮公正西路解決羅東、三星交通壅塞問題，\n督促羅東轉運站早日興建完成。\n三、文教：爭取本鎮東區增設國中國小，為迎取106年本縣舉辦全國運動會爭取\n5000人室內體育館，爭取改善羅東運動公園照明設備及爭設監視\n器、健身器材等，檢討本鎮及冬山清溝、國中小學區以利各校校務\n發展。\n四、社福：爭取陽明醫院恢復為醫學中心級(恢復原50億預算)爭取本鎮義消、\n義警、民防、愛心媽媽各守望相助隊設備及福利，為鼓勵生育爭取\n縣府提高生育補助，爭取提高老人假牙補助名額以落實照顧長者。\n五、建設：配合竹林計劃更加完善內涵督促信義變電所早日遷出以利本鎮北區\n繁榮，為配合中興文創園區興建督促縣府將肉品市場早日遷離，因\n應本縣毛豬嚴重不足爭取設置養豬專業區，爭取於本鎮中山公園設\n置地下停車場，因應羅東警分局消防隊等單位遷至第二行政中心所\n釋放出空地約一千八百坪督促縣府完善規劃「羅東之心」以利羅東\n繁榮，督促縣府力爭內政部早日審查通過本鎮50年保護區開放，爭\n取五分仔火車站(森林火車)於林業園區內局部恢復行駛以利觀光，\n督促縣府早日完成水撲滿計畫以減少水災發生保護縣民生命財產安\n全。","param":{"attendance_statistics":{"absent":1,"total":262},"bills_role_statistics":{"total":91,"priproposer":17,"sponsor":18,"cosponsor":73},"bills_party_diversity":[{"party":"民主進步黨","ratio":0.5608888888888889},{"party":"中國國民黨","ratio":0.20266666666666666},{"party":"無黨籍","ratio":0.13777777777777778},{"party":"在野問政聯盟","ratio":0.09866666666666667}]},"councilor":"3ed3277de77d4c5b82d47832706bf045"}],"uid":"3ed3277de77d4c5b82d47832706bf045","name":"劉添梧","birth":null,"former_names":"","identifiers":["劉添梧","劉添梧"]},{"url":"http://councils.g0v.tw/api/councilors/1117/","each_terms":[{"url":"http://councils.g0v.tw/api/councilors_terms/2984/","election_year":"2014","name":"黃素琴","gender":"女","party":"民主進步黨","title":"議員","constituency":6,"county":"宜蘭縣","district":"羅東","in_office":true,"contact_details":[{"type":"email","value":"eland.chin@yahoo.com.tw","label":"E-mail"},{"type":"voice","value":"9567767","label":"服務處所電話"},{"type":"address","value":"羅東鎮興東路231號","label":"服務處所"}],"term_start":"2014-12-25","term_end":{"date":"2018-12-25"},"education":"長庚護專","experience":"1.第十七屆宜蘭縣議員。\n2.長庚、台大醫院護士。\n3.聖母醫院護理部督導。\n4.博愛醫院院長室秘書。\n5.陳金德國會辦公室執行秘書。\n6.陽明大學醫管研究所學分班。\n7.佛光大學公共事務系研究所。","remark":null,"image":"http://www.ilcc.gov.tw/pictures/people/A1818.JPG","links":[{"url":"http://www.ilcc.gov.tw/Html/H_05/H_0501.asp?GoOut=&pic=6&clique=DDP&User_id=A1818","note":"議會個人官網"}],"social_media":null,"platform":"現任議員以來，素琴時時刻刻以一顆感恩的心認真問政，用最親切的態度服務\n選民。不論在議會質詢，預算審查、地方建設、婦幼權益、基層服務、弱勢福\n利、教育改善、醫療照護等縣政議題，素琴都以最積極認真的態度竭盡所能完\n成鎮民交託的任務，在議員評鑑方面，素琴也獲得公民團體的肯定，入選全縣\n第三名的成績。\n羅東，正在起飛。我們需要乾爭的市容、舒服的生活空間、完善的交通動線、\n豐富的教育資源，讓羅東蛻變為兼具城市經濟和居民生活的幸福城鎮。為達成\n這目標，素琴決心：\n一、推動公共自行車計畫(U-BIKE)、發展低碳觀光、疏解假日交通壅塞問題。\n二、繼續加強教育投資、提升國民教育品質。\n三、繼續督促改善全縣醫療照護品質。\n四、繼續要求廣設長青食堂及老人日間托護中心。\n五、繼續以「婦幼優先、家庭第一」為問政核心，加強弱勢婦女輔導與諮詢。\n六、繼續督促縣府提高社福預算、加強外籍配偶及單親家庭與隔代教養家庭的\n輔導與協助。\n七、繼續爭取提高社區治安維護經費、強化守望相助的巡守功能。\n八、督促「羅東之心」啟動、完成鎮民廣場、中央公園、立體停車場及鎮公所\n的再生計畫。\n九、督促羅東鎮排水系統整治、增設抽水站、美化水岸景觀、打造兼具防災及\n親水功能的水岸城市。\n十、督促串聯中興文創園區、林業園區、鎮民廣場、文化工場、樟仔園文化園\n區，形成大羅東文化廊道。","param":{"attendance_statistics":{"absent":17,"total":262},"bills_role_statistics":{"total":101,"priproposer":10,"sponsor":10,"cosponsor":91},"bills_party_diversity":[{"party":"民主進步黨","ratio":0.5538221528861155},{"party":"中國國民黨","ratio":0.18642745709828393},{"party":"無黨籍","ratio":0.14586583463338534},{"party":"在野問政聯盟","ratio":0.11388455538221529}]},"councilor":"6dd0e0e0b04c4c0a9655c1cdb509d326"},{"url":"http://councils.g0v.tw/api/councilors_terms/2043/","election_year":"2009","name":"黃素琴","gender":"","party":"民主進步黨","title":"議員","constituency":6,"county":"宜蘭縣","district":"羅東","in_office":true,"contact_details":[{"type":"address","value":"羅東鎮興東路231號","label":"服務處所"},{"type":"voice","value":"9567767","label":"服務處所電話"}],"term_start":"2009-12-25","term_end":{"date":"2014-12-25"},"education":"長庚護專畢業","experience":"宜蘭縣議會第十七屆議員。\n長庚、台大醫院護士。\n聖母醫院護理部督導。\n博愛醫院秘書。\n陳金德國會辦公室執行秘書。\n陽明大學醫管研究所學分班。","remark":null,"image":"http://www.ilcc.gov.tw/pictures/people/A1716.JPG","links":[{"url":"http://www.ilcc.gov.tw/Html/H_05/H_0501.asp?GoOut=&pic=6&clique=DDP&User_id=A1716","note":"議會個人官網"}],"social_media":null,"platform":"一、我決心，全力為弱勢者執言：\n1、降低低收入戶補助審核門檻。\n2、促進縣府整合社會資源，協助社區照顧獨居老人用餐、日間托護。\n3、要求縣府寬列預算，加強照顧弱勢族群。\n二、我決心，強力推動學前及國民教育改革：\n1、制定縣教育自治條例，推動教育行政法制化。\n2、增加教育投資，全面改善托育、學前及國教品質，提升國民教育環境。\n3、校長、教師遴選透明化，以遴選負責的校長及優質教師。\n三、我決心，全力督促改善全縣醫療照護品質。\n四、我決心，大力推動羅東升格為縣轄市，成為宜蘭地區中心城市：\n1、要求縣府加速推動「新訂羅東擴大都市計劃」，健全土地分區及公共設施\n配套的合理利用。\n2、推動鎮公所、地政事務所遷移，成立溪南行政中心。\n3、推動鎮公所前鎮民廣場，促進休閒觀光產業。\n五、我決心，督促縣府提高社福預算，以「婦幼優先、家庭第一」為核心施\n政方向：\n1、加強外籍新娘家庭的輔導與諮詢。\n2、加強單親家庭與隔代教養家庭的教育與協助。\n六、我決心，全面提高社區治安維護，及災難救援能力：\n1、改善警勤義消人員裝備，提高警察人員超勤加班費。\n2、爭取專款加強各社區守望相助巡守功能。\n3、增加災難救援設備及人力培養。","param":{"bills_role_statistics":{"total":135,"priproposer":32,"sponsor":34,"cosponsor":101},"diversity":{"中國國民黨":0.32854612083294266,"民主進步黨":0.49197297711661614,"無黨籍":0.17948090205044132},"bills_party_diversity":[{"party":"民主進步黨","ratio":0.48502495840266224},{"party":"中國國民黨","ratio":0.3452579034941764},{"party":"無黨籍","ratio":0.16971713810316139}]},"councilor":"6dd0e0e0b04c4c0a9655c1cdb509d326"}],"uid":"6dd0e0e0b04c4c0a9655c1cdb509d326","name":"黃素琴","birth":null,"former_names":"","identifiers":["黄素琴","黃素琴"]},{"url":"http://councils.g0v.tw/api/councilors/1770/","each_terms":[{"url":"http://councils.g0v.tw/api/councilors_terms/2985/","election_year":"2014","name":"陳漢鍾","gender":"男","party":"在野問政聯盟","title":"議員","constituency":6,"county":"宜蘭縣","district":"羅東","in_office":true,"contact_details":[{"type":"email","value":"chung0935986986@gmail.com","label":"E-mail"},{"type":"voice","value":"9530540","label":"服務處所電話"},{"type":"address","value":"羅東鎮純精路1段46號","label":"服務處所"}],"term_start":"2014-12-25","term_end":{"date":"2018-12-25"},"education":"蘭陽技術學院環境與安全衛生工程科","experience":"1.第十七屆羅東鎮民代表會副主席。\n2.第十八屆羅東鎮民代表會主席。\n3.羅東鎮農會會員代表。\n4.宜蘭縣體育慢速壘球委員會主任委員。\n5.羅東鎮體育會常務理事。\n6.羅東獅子會監事。\n7.羅東西區扶輪社員。\n8.曾任國際青年商會四維分會會長。","remark":null,"image":"http://www.ilcc.gov.tw/pictures/people/A1817.JPG","links":[{"url":"http://www.ilcc.gov.tw/Html/H_05/H_0501.asp?GoOut=&pic=6&clique=&User_id=A1817","note":"議會個人官網"}],"social_media":null,"platform":"一、監督十二年國民教育，正視少子化議題。\n二、推動完善社福體系，關懷照顧弱勢族群。\n三、輔導青年創業就業，提供青年美好未來。\n四、檢討羅東都市計畫，提供區域均衡發展。\n五、興建北成抽水廠站，解決羅東淹水問題。\n六、整治羅東五大區排，成為美麗親水家園。\n七、加速衛生下水道工程，提供美好生活環境。\n八、打通宜22線道路，紓解羅東鎮內交通。\n九、配合北宜直線鐵路，推動羅東鐵路高架。\n十、用心服務好央叫，守護宜蘭真幸福。","param":{"attendance_statistics":{"absent":2,"total":262},"bills_role_statistics":{"total":224,"priproposer":35,"sponsor":47,"cosponsor":177},"bills_party_diversity":[{"party":"民主進步黨","ratio":0.3745271122320303},{"party":"中國國民黨","ratio":0.2934005884825557},{"party":"在野問政聯盟","ratio":0.2030264817150063},{"party":"無黨籍","ratio":0.12904581757040773}]},"councilor":"09ca99e87644417abb9f15980ff35c93"}],"uid":"09ca99e87644417abb9f15980ff35c93","name":"陳漢鍾","birth":null,"former_names":"","identifiers":["陳漢鍾"]},{"url":"http://councils.g0v.tw/api/councilors/1119/","each_terms":[{"url":"http://councils.g0v.tw/api/councilors_terms/2045/","election_year":"2009","name":"吳秋齡","gender":"","party":"中國國民黨","title":"議員","constituency":6,"county":"宜蘭縣","district":"羅東","in_office":true,"contact_details":[{"type":"address","value":"羅東鎮西安街88號","label":"服務處所"},{"type":"voice","value":"9513336","label":"服務處所電話"}],"term_start":"2009-12-25","term_end":{"date":"2014-12-25"},"education":"國立海洋大學畢業","experience":"宜蘭縣議會第十七屆議員。\n宜蘭縣蘇澳國中教師、學務主任、輔導主任。\n宜蘭縣議員。\n宜蘭縣女童軍理事長。\n婦聯會羅東分會主任委員。\n婦聯青溪羅東分支會主任委員。\n羅東婦女會愛心工作隊副主任委員。\n宜蘭縣議會第16屆議員。","remark":null,"image":"http://www.ilcc.gov.tw/pictures/people/A1718.JPG","links":[{"url":"http://www.ilcc.gov.tw/Html/H_05/H_0501.asp?GoOut=&pic=6&clique=KMT&User_id=A1718","note":"議會個人官網"}],"social_media":null,"platform":"四年前，秋齡由蘇澳國中理化教師轉任縣議員。理工人崇尚務實，不虛華、\n不做秀、實實在在做事，四年來，走基層、勤問政、爭權益，成績尚稱滿\n意。但還有許多目標有待達成，感謝鄉親以往的支持與鼓勵，懇請繼續予以\n栽培與指教，共建我們美麗的家園。\n一、地方發展首重人才，人才養成首重教育，要有好教育，才有好將來，願\n督促提高教育經費之編列，促進教育之發展。\n二、四十年來體驗的婆婆媽媽經，實刻骨銘心，秋齡誓為婦幼問題，付出一\n切心力，婦幼安全體系的建構，婦幼福利的爭取，婦女工作權的保障等\n均待努力。\n三、秋齡是專職議員，四年的歷練法令已熟、門道已悉，加上人稱「好央\n叫」的夫婿魏炎輝從旁協助，一人當選兩人服務，相輔相成。相信將來\n會成為「服務中心」。\n四、督促羅東都市計畫保護區儘速開放，完成公設。並願爭取更高比例抵價\n地及放寬建蔽率、容積率之限制。\n五、督促東區設國中小學，應納入最近之通盤檢討辦理，不能一再空口白\n話，不見動靜。\n六、督促羅東第二文化中心主體工程應儘速完工，及爭取羅東體育公園興建\n「小巨蛋」及周邊水景工程開發建設。\n七、爭取羅東管線應全面地下化，及污水下水道即將完成，應由縣府及公所\n編列預算，獎勵鎮民，提高接管率。\n八、羅東路邊停車收費，應考慮羅東人生活之所需，爭取第一時段，羅東鎮\n籍車輛停放應予免費。\n九、為節能減碳，建議縣府應推行全縣自行車租借制度，甲地借乙地還，方\n便交通、乾淨空氣。\n十、建議縣府爭取經濟部商業司補助，在羅東辦理「形象商圈」，並由縣\n府、公所配合商家，在蘭雨節、藝穗節等重點時段，舉辦促銷活動，活\n絡羅東商業發展。","param":{"bills_role_statistics":{"total":255,"priproposer":18,"sponsor":24,"cosponsor":231},"diversity":{"中國國民黨":0.6207975935701946,"民主進步黨":0.2686442202524287,"無黨籍":0.11055818617737584},"bills_party_diversity":[{"party":"中國國民黨","ratio":0.5889110889110889},{"party":"民主進步黨","ratio":0.2917082917082917},{"party":"無黨籍","ratio":0.11938061938061938}]},"councilor":"a34d1b99fd3f4dd2a236dfd08a5f99be"},{"url":"http://councils.g0v.tw/api/councilors_terms/2986/","election_year":"2014","name":"吳秋齡","gender":"女","party":"中國國民黨","title":"議員","constituency":6,"county":"宜蘭縣","district":"羅東","in_office":true,"contact_details":[{"type":"email","value":"wu9519066@yahoo.com.tw","label":"E-mail"},{"type":"voice","value":"9513336","label":"服務處所電話"},{"type":"address","value":"羅東鎮西安街88號","label":"服務處所"}],"term_start":"2014-12-25","term_end":{"date":"2018-12-25"},"education":"國立海洋大學","experience":"1.宜蘭縣蘇澳國中教師、學務主任、輔導主任。\n2.宜蘭縣議員。\n3.宜蘭縣女童軍理事長。\n4.婦聯會羅東支會主任委員。\n5.婦聯青溪羅東支分會主任委員。\n6.羅東婦女會愛心工作隊副主任委員。\n7.羅東環保志工中隊中隊長。","remark":null,"image":"http://www.ilcc.gov.tw/pictures/people/A1816.JPG","links":[{"url":"http://www.ilcc.gov.tw/Html/H_05/H_0501.asp?GoOut=&pic=6&clique=KMT&User_id=A1816","note":"議會個人官網"}],"social_media":null,"platform":"一、我從國中教師轉任縣議員，是縣議會唯一教育界出身的議員。地方要發\n展，首先要人才，願傾聽教育界前輩、同儕的建言，推動本縣教育的發\n展。\n二、有謂「女人半邊天」，事實依然不能打破「男尊女卑」的傳統。我的一生\n命中註定：「女兒、妻子、母親」，即將變成「婆婆」。有誰比我了解女\n人的苦楚與辛酸。我發願一輩做為婦幼的守護者，永遠站在婦幼最前面。\n三、我有一個脾氣不好，但二十四小時一通電話，馬上到場，人人哦樂「好央\n叫」的尪婿-魏炎輝，我可以自誇「一人當選，二人服務！」，歷年來，我\n們服務的質與量，都遠遠超過其他人，天道酬勤，秋齡會更加努力，支持\n秋齡才是順應天道、合乎人性。\n四、羅東都市計畫保護區開放，依據區段徵收法令，以發還地主五成抵價地為\n原則，縣政府卻一再苛刻農民，僅願給予四成。事關地主權益，我已多次\n在議會表達異議，將來我仍將與地主農民站在一起，有必要時不排除率隊\n抗爭。\n五、羅東已數度豪雨成災。水災一過，煙火照放，歌星照秀，大家都忘了潛藏\n的危機。羅東地面標高約十二公尺，洩水坡度不成問題，只因排水系統有\n問題。水患關係人民生命財產安全。我會更強硬促做好區域排水工程。\n六、羅東鎮是全省面積最小的鎮。我會提案建議縣政府推動羅東「都市現代\n化」。例如：佈建wifi無線網路方案，塑造形象商圈方案，美化綠化城市\n方案，公辦自行車租借方案，社區居家安全路口監視器方案…等。","param":{"attendance_statistics":{"absent":0,"total":262},"bills_role_statistics":{"total":173,"priproposer":10,"sponsor":16,"cosponsor":157},"bills_party_diversity":[{"party":"民主進步黨","ratio":0.38961038961038963},{"party":"中國國民黨","ratio":0.31277056277056275},{"party":"無黨籍","ratio":0.1958874458874459},{"party":"在野問政聯盟","ratio":0.10173160173160173}]},"councilor":"a34d1b99fd3f4dd2a236dfd08a5f99be"}],"uid":"a34d1b99fd3f4dd2a236dfd08a5f99be","name":"吳秋齡","birth":null,"former_names":"","identifiers":["吳秋齡"]},{"url":"http://councils.g0v.tw/api/councilors/1629/","each_terms":[{"url":"http://councils.g0v.tw/api/councilors_terms/2834/","election_year":"2014","name":"鍾福貴","gender":"男","party":"中國國民黨","title":"議員","constituency":5,"county":"苗栗縣","district":"頭份鎮、南庄鄉、三灣鄉","in_office":true,"contact_details":[{"type":"address","value":"360苗栗縣苗栗市玉華里玉清里351號","label":"服務處"},{"type":"voice","value":"037-660406","label":"連絡電話"}],"term_start":"2015-06-25","term_end":{"date":"2018-12-25"},"education":"政戰學校畢業","experience":"第17屆苗栗縣議員","remark":null,"image":"http://www.mcc.gov.tw/admin/upload/small_twgov_img_201511220023241.jpg","links":[{"url":"http://www.mcc.gov.tw/imgtxt_list.php?menu=2568&typeid=2580&typeid2=2603","note":"議會個人官網"}],"social_media":null,"platform":"","param":{"bills_role_statistics":{"total":14,"priproposer":9,"sponsor":9,"cosponsor":5},"bills_party_diversity":[{"party":"中國國民黨","ratio":0.5384615384615384},{"party":"無黨籍","ratio":0.3076923076923077},{"party":"民主進步黨","ratio":0.15384615384615385}]},"councilor":"7edb57151fbc46e794e3a94e599b3ca4"},{"url":"http://councils.g0v.tw/api/councilors_terms/2555/","election_year":"2009","name":"鍾福貴","gender":"","party":"","title":"","constituency":5,"county":"苗栗縣","district":"頭份鎮、南庄鄉、三灣鄉","in_office":true,"contact_details":null,"term_start":"2009-12-25","term_end":{"date":"2014-12-25"},"education":null,"experience":null,"remark":null,"image":"http://www.mcc.gov.tw/admin/upload/small_news_201003131649200.jpg","links":[{"url":"http://www.mcc.gov.tw/imgtxt_list.php?menu=27&typeid=42&typeid2=670","note":"議會個人官網"}],"social_media":null,"platform":"","param":{"suggestions_years":{"count":4,"sum":3351800,"years":[{"count":1,"sum":2000000,"suggest_year":"2012","small_purchase":0},{"count":3,"sum":1351800,"suggest_year":"2013","small_purchase":0}]},"suggestions_associations":[{"count":0,"sum":0,"label":"社區發展協會"},{"count":0,"sum":0,"label":"學會"},{"count":0,"sum":0,"label":"商會"},{"count":0,"sum":0,"label":"公會"},{"count":0,"sum":0,"label":"協進會"},{"count":0,"sum":0,"label":"促進會"},{"count":0,"sum":0,"label":"研習會"},{"count":0,"sum":0,"label":"婦聯會"},{"count":0,"sum":0,"label":"婦女會"},{"count":0,"sum":0,"label":"體育會"},{"count":0,"sum":0,"label":"同心會"},{"count":0,"sum":0,"label":"農會"},{"count":0,"sum":0,"label":"早起會"},{"count":0,"sum":0,"label":"健身會"},{"count":0,"sum":0,"label":"宗親會"},{"count":0,"sum":0,"label":"功德會"},{"count":0,"sum":0,"label":"商業會"},{"count":0,"sum":0,"label":"長青會"},{"count":0,"sum":0,"label":"民眾服務社"},{"count":0,"sum":0,"label":"聯盟"}],"suggestions_piles":[{"count":2,"tokens":"國中|國小","sum":2400000,"label":"國中、國小"},{"count":0,"tokens":"協會|學會|商會|公會|協進會|促進會|研習會|婦聯會|婦女會|體育會|同心會|農會|早起會|健身會|宗親會|功德會|商業會|長青會|民眾服務社|聯盟","sum":0,"label":"協會"},{"count":0,"tokens":"辦公室|辦公處","sum":0,"label":"辦公室"},{"count":0,"tokens":"廟|宮","sum":0,"label":"廟"},{"count":0,"tokens":"警察局|分局","sum":0,"label":"警察局"},{"count":0,"tokens":"消防局|消防隊|分隊|中隊","sum":0,"label":"消防局"}]},"councilor":"7edb57151fbc46e794e3a94e599b3ca4"}],"uid":"7edb57151fbc46e794e3a94e599b3ca4","name":"鍾福貴","birth":null,"former_names":"","identifiers":["鍾福貴","鍾褔貴"]},{"url":"http://councils.g0v.tw/api/councilors/1627/","each_terms":[{"url":"http://councils.g0v.tw/api/councilors_terms/2835/","election_year":"2014","name":"羅雪珠","gender":"女","party":"無黨籍","title":"議員","constituency":5,"county":"苗栗縣","district":"頭份鎮、南庄鄉、三灣鄉","in_office":true,"contact_details":[{"type":"address","value":"360苗栗縣苗栗市玉華里玉清路351號","label":"服務處"},{"type":"voice","value":"037-685258","label":"連絡電話"}],"term_start":"2014-12-25","term_end":{"date":"2018-12-25"},"education":"親民工專畢業","experience":"第17屆苗栗縣議員","remark":null,"image":"http://www.mcc.gov.tw/admin/upload/small_twgov_img_201511220022591.jpg","links":[{"url":"http://www.mcc.gov.tw/imgtxt_list.php?menu=2568&typeid=2580&typeid2=2603","note":"議會個人官網"}],"social_media":null,"platform":"","param":{"bills_role_statistics":{"total":99,"priproposer":26,"sponsor":27,"cosponsor":72},"suggestions_years":{"count":4,"sum":2710000,"years":[{"count":2,"sum":2250000,"suggest_year":"2015","small_purchase":0},{"count":2,"sum":460000,"suggest_year":"2016","small_purchase":0}]},"suggestions_associations":[{"count":0,"sum":0,"label":"社區發展協會"},{"count":0,"sum":0,"label":"學會"},{"count":0,"sum":0,"label":"商會"},{"count":0,"sum":0,"label":"公會"},{"count":0,"sum":0,"label":"協進會"},{"count":0,"sum":0,"label":"促進會"},{"count":0,"sum":0,"label":"研習會"},{"count":0,"sum":0,"label":"婦聯會"},{"count":0,"sum":0,"label":"婦女會"},{"count":0,"sum":0,"label":"體育會"},{"count":0,"sum":0,"label":"同心會"},{"count":0,"sum":0,"label":"農會"},{"count":0,"sum":0,"label":"早起會"},{"count":0,"sum":0,"label":"健身會"},{"count":0,"sum":0,"label":"宗親會"},{"count":0,"sum":0,"label":"功德會"},{"count":0,"sum":0,"label":"商業會"},{"count":0,"sum":0,"label":"長青會"},{"count":0,"sum":0,"label":"民眾服務社"},{"count":0,"sum":0,"label":"聯盟"}],"suggestions_piles":[{"count":0,"tokens":"協會|學會|商會|公會|協進會|促進會|研習會|婦聯會|婦女會|體育會|同心會|農會|早起會|健身會|宗親會|功德會|商業會|長青會|民眾服務社|聯盟","sum":0,"label":"協會"},{"count":0,"tokens":"辦公室|辦公處","sum":0,"label":"辦公室"},{"count":0,"tokens":"廟|宮","sum":0,"label":"廟"},{"count":0,"tokens":"警察局|分局","sum":0,"label":"警察局"},{"count":0,"tokens":"消防局|消防隊|分隊|中隊","sum":0,"label":"消防局"},{"count":0,"tokens":"國中|國小","sum":0,"label":"國中、國小"}],"bills_party_diversity":[{"party":"無黨籍","ratio":0.484472049689441},{"party":"中國國民黨","ratio":0.37888198757763975},{"party":"民主進步黨","ratio":0.13664596273291926}]},"councilor":"4593f676fba2417d9fe65ff0f1c02bf5"},{"url":"http://councils.g0v.tw/api/councilors_terms/2553/","election_year":"2009","name":"羅雪珠","gender":"","party":"","title":"","constituency":5,"county":"苗栗縣","district":"頭份鎮、南庄鄉、三灣鄉","in_office":true,"contact_details":null,"term_start":"2009-12-25","term_end":{"date":"2014-12-25"},"education":null,"experience":null,"remark":null,"image":"http://www.mcc.gov.tw/admin/upload/small_news_201003131649370.jpg","links":[{"url":"http://www.mcc.gov.tw/imgtxt_list.php?menu=27&typeid=42&typeid2=670","note":"議會個人官網"}],"social_media":null,"platform":"","param":{"suggestions_years":{"count":2,"sum":519000,"years":[{"count":2,"sum":519000,"suggest_year":"2012","small_purchase":0}]},"suggestions_associations":[{"count":0,"sum":0,"label":"社區發展協會"},{"count":0,"sum":0,"label":"學會"},{"count":0,"sum":0,"label":"商會"},{"count":0,"sum":0,"label":"公會"},{"count":0,"sum":0,"label":"協進會"},{"count":0,"sum":0,"label":"促進會"},{"count":0,"sum":0,"label":"研習會"},{"count":0,"sum":0,"label":"婦聯會"},{"count":0,"sum":0,"label":"婦女會"},{"count":0,"sum":0,"label":"體育會"},{"count":0,"sum":0,"label":"同心會"},{"count":0,"sum":0,"label":"農會"},{"count":0,"sum":0,"label":"早起會"},{"count":0,"sum":0,"label":"健身會"},{"count":0,"sum":0,"label":"宗親會"},{"count":0,"sum":0,"label":"功德會"},{"count":0,"sum":0,"label":"商業會"},{"count":0,"sum":0,"label":"長青會"},{"count":0,"sum":0,"label":"民眾服務社"},{"count":0,"sum":0,"label":"聯盟"}],"suggestions_piles":[{"count":0,"tokens":"協會|學會|商會|公會|協進會|促進會|研習會|婦聯會|婦女會|體育會|同心會|農會|早起會|健身會|宗親會|功德會|商業會|長青會|民眾服務社|聯盟","sum":0,"label":"協會"},{"count":0,"tokens":"辦公室|辦公處","sum":0,"label":"辦公室"},{"count":0,"tokens":"廟|宮","sum":0,"label":"廟"},{"count":0,"tokens":"警察局|分局","sum":0,"label":"警察局"},{"count":0,"tokens":"消防局|消防隊|分隊|中隊","sum":0,"label":"消防局"},{"count":0,"tokens":"國中|國小","sum":0,"label":"國中、國小"}]},"councilor":"4593f676fba2417d9fe65ff0f1c02bf5"}],"uid":"4593f676fba2417d9fe65ff0f1c02bf5","name":"羅雪珠","birth":null,"former_names":"","identifiers":["羅雪珠"]},{"url":"http://councils.g0v.tw/api/councilors/1630/","each_terms":[{"url":"http://councils.g0v.tw/api/councilors_terms/2556/","election_year":"2009","name":"陳永賢","gender":"","party":"","title":"","constituency":5,"county":"苗栗縣","district":"頭份鎮、南庄鄉、三灣鄉","in_office":true,"contact_details":null,"term_start":"2009-12-25","term_end":{"date":"2014-12-25"},"education":null,"experience":null,"remark":null,"image":"http://www.mcc.gov.tw/admin/upload/small_news_201003131649130.jpg","links":[{"url":"http://www.mcc.gov.tw/imgtxt_list.php?menu=27&typeid=42&typeid2=670","note":"議會個人官網"}],"social_media":null,"platform":"","param":null,"councilor":"198e213089ab42bbbc8ded8029984096"},{"url":"http://councils.g0v.tw/api/councilors_terms/2836/","election_year":"2014","name":"陳永賢","gender":"男","party":"中國國民黨","title":"議員","constituency":5,"county":"苗栗縣","district":"頭份鎮、南庄鄉、三灣鄉","in_office":true,"contact_details":[{"type":"address","value":"360苗栗縣苗栗市玉華里玉清路351號","label":"服務處"},{"type":"voice","value":"037-660390","label":"連絡電話"}],"term_start":"2014-12-25","term_end":{"date":"2018-12-25"},"education":"花蓮高工畢業","experience":"第17屆苗栗縣議員","remark":null,"image":"http://www.mcc.gov.tw/admin/upload/small_twgov_img_201511220022351.jpg","links":[{"url":"http://www.mcc.gov.tw/imgtxt_list.php?menu=2568&typeid=2580&typeid2=2603","note":"議會個人官網"}],"social_media":null,"platform":"","param":{"bills_role_statistics":{"total":14,"priproposer":3,"sponsor":3,"cosponsor":11},"suggestions_years":{"count":1,"sum":97000,"years":[{"count":1,"sum":97000,"suggest_year":"2015","small_purchase":1}]},"suggestions_associations":[{"count":0,"sum":0,"label":"社區發展協會"},{"count":0,"sum":0,"label":"學會"},{"count":0,"sum":0,"label":"商會"},{"count":0,"sum":0,"label":"公會"},{"count":0,"sum":0,"label":"協進會"},{"count":0,"sum":0,"label":"促進會"},{"count":0,"sum":0,"label":"研習會"},{"count":0,"sum":0,"label":"婦聯會"},{"count":0,"sum":0,"label":"婦女會"},{"count":0,"sum":0,"label":"體育會"},{"count":0,"sum":0,"label":"同心會"},{"count":0,"sum":0,"label":"農會"},{"count":0,"sum":0,"label":"早起會"},{"count":0,"sum":0,"label":"健身會"},{"count":0,"sum":0,"label":"宗親會"},{"count":0,"sum":0,"label":"功德會"},{"count":0,"sum":0,"label":"商業會"},{"count":0,"sum":0,"label":"長青會"},{"count":0,"sum":0,"label":"民眾服務社"},{"count":0,"sum":0,"label":"聯盟"}],"suggestions_piles":[{"count":0,"tokens":"協會|學會|商會|公會|協進會|促進會|研習會|婦聯會|婦女會|體育會|同心會|農會|早起會|健身會|宗親會|功德會|商業會|長青會|民眾服務社|聯盟","sum":0,"label":"協會"},{"count":0,"tokens":"辦公室|辦公處","sum":0,"label":"辦公室"},{"count":0,"tokens":"廟|宮","sum":0,"label":"廟"},{"count":0,"tokens":"警察局|分局","sum":0,"label":"警察局"},{"count":0,"tokens":"消防局|消防隊|分隊|中隊","sum":0,"label":"消防局"},{"count":0,"tokens":"國中|國小","sum":0,"label":"國中、國小"}],"bills_party_diversity":[{"party":"中國國民黨","ratio":0.5764705882352941},{"party":"無黨籍","ratio":0.36470588235294116},{"party":"民主進步黨","ratio":0.058823529411764705}]},"councilor":"198e213089ab42bbbc8ded8029984096"}],"uid":"198e213089ab42bbbc8ded8029984096","name":"陳永賢","birth":null,"former_names":"","identifiers":["陳永賢"]},{"url":"http://councils.g0v.tw/api/councilors/1485/","each_terms":[{"url":"http://councils.g0v.tw/api/councilors_terms/2411/","election_year":"2009","name":"許國華","gender":"男","party":"民主進步黨","title":"","constituency":2,"county":"屏東縣","district":"里港鄉、高樹鄉、九如鄉、鹽埔鄉、長治鄉、麟洛鄉","in_office":true,"contact_details":[{"type":"address","value":"屏東縣里港鄉90541塔樓村塔樓路1-3號","label":"通訊處"},{"type":"voice","value":"08-7756281","label":"電話"}],"term_start":"2009-12-25","term_end":{"date":"2014-12-25"},"education":null,"experience":null,"remark":null,"image":"http://www.ptcc.gov.tw/upload/upimage/89f440a8-9fa3-4b33-8863-be384ccfab9d-S.jpg","links":[{"url":"http://www.ptcc.gov.tw/?Page=PersionalDetail&Guid=4fbb2e17-f21d-028e-d122-1c5548b2e785","note":"議會個人官網"}],"social_media":null,"platform":"一、反應基層心聲，為民服務。\n二、爭取弱勢團體社區各項福利。\n三、為地方爭取軟硬體各項建設。","param":{"suggestions_years":{"count":451,"sum":21634000,"years":[{"count":110,"sum":5393000,"suggest_year":"2011","small_purchase":105},{"count":129,"sum":5466000,"suggest_year":"2012","small_purchase":125},{"count":95,"sum":4643000,"suggest_year":"2013","small_purchase":92},{"count":117,"sum":6132000,"suggest_year":"2014","small_purchase":113}]},"suggestions_associations":[{"count":191,"sum":4138000,"label":"社區發展協會"},{"count":9,"sum":639000,"label":"促進會"},{"count":8,"sum":370000,"label":"農會"},{"count":6,"sum":120000,"label":"協進會"},{"count":4,"sum":120000,"label":"宗親會"},{"count":3,"sum":60000,"label":"學會"},{"count":1,"sum":50000,"label":"體育會"},{"count":0,"sum":0,"label":"商會"},{"count":0,"sum":0,"label":"公會"},{"count":0,"sum":0,"label":"研習會"},{"count":0,"sum":0,"label":"婦聯會"},{"count":0,"sum":0,"label":"婦女會"},{"count":0,"sum":0,"label":"同心會"},{"count":0,"sum":0,"label":"早起會"},{"count":0,"sum":0,"label":"健身會"},{"count":0,"sum":0,"label":"功德會"},{"count":0,"sum":0,"label":"商業會"},{"count":0,"sum":0,"label":"長青會"},{"count":0,"sum":0,"label":"民眾服務社"},{"count":0,"sum":0,"label":"聯盟"}],"suggestions_piles":[{"count":286,"tokens":"協會|學會|商會|公會|協進會|促進會|研習會|婦聯會|婦女會|體育會|同心會|農會|早起會|健身會|宗親會|功德會|商業會|長青會|民眾服務社|聯盟","sum":7103000,"label":"協會"},{"count":26,"tokens":"國中|國小","sum":1841000,"label":"國中、國小"},{"count":21,"tokens":"廟|宮","sum":936000,"label":"廟"},{"count":15,"tokens":"消防局|消防隊|分隊|中隊","sum":456000,"label":"消防局"},{"count":4,"tokens":"警察局|分局","sum":279000,"label":"警察局"},{"count":0,"tokens":"辦公室|辦公處","sum":0,"label":"辦公室"}]},"councilor":"e42951fdc0c549be808fe225a4703ee7"}],"uid":"e42951fdc0c549be808fe225a4703ee7","name":"許國華","birth":null,"former_names":"","identifiers":["許國華"]}]}