{"count":1904,"next":"http://councils.g0v.tw/api/councilors/?page=98","previous":"http://councils.g0v.tw/api/councilors/?page=96","results":[{"url":"http://councils.g0v.tw/api/councilors/822/","each_terms":[{"url":"http://councils.g0v.tw/api/councilors_terms/1472/","election_year":"1946","name":"盧纘祥","gender":"","party":"","title":"議員","constituency":null,"county":"新北市","district":"","in_office":true,"contact_details":null,"term_start":"1946-04-15","term_end":{"date":"1950-12-31"},"education":"日語學校畢業。","experience":"曾任臺北州協議會會員\n頭城鄉長\n頭城中學校長\n農業副會長\n新蘭陽建設促進委員會主委\n宜蘭縣長(40.4-43.6)\n宜蘭縣文獻委員會主委\n臺灣省政府委員\n44年組織中國水泥公司，積勞成疾，以腦溢血卒於46年5月26日\n著史雲吟草一卷\n*民國三十六年六月辭第一任副議長，當選為第二任議長，同年9月22日辭議長職務。","remark":null,"image":"http://www.ntp.gov.tw/UpFile/CouncilorFile/TTCC0002.jpg","links":[{"url":"http://www.ntp.gov.tw/content/history/history01-5-p.aspx?sid=2","note":"議會個人官網"}],"social_media":null,"platform":"","param":null,"councilor":"10e08a8f0c5545db88b4d7bf9fbe8176"}],"uid":"10e08a8f0c5545db88b4d7bf9fbe8176","name":"盧纘祥","birth":null,"former_names":"","identifiers":["盧纘祥"]},{"url":"http://councils.g0v.tw/api/councilors/823/","each_terms":[{"url":"http://councils.g0v.tw/api/councilors_terms/1473/","election_year":"1946","name":"陳定國","gender":"","party":"","title":"議員","constituency":null,"county":"新北市","district":"","in_office":true,"contact_details":null,"term_start":"1946-04-15","term_end":{"date":"1950-12-31"},"education":"修業漢學十年\n臺北日語學校畢。","experience":"曾任公學校訓導\n汐止首任街長\n籌辦汐止公學校及自來水廠\n臺北州協議會員(民國14年-)\n曾興建陳氏宗祠德星堂\n*首任議長，民國三十六年六月十八日辭議長職。\n*卒於民國48年4月29日","remark":null,"image":"http://www.ntp.gov.tw/UpFile/CouncilorFile/TTCC0001.jpg","links":[{"url":"http://www.ntp.gov.tw/content/history/history01-5-p.aspx?sid=1","note":"議會個人官網"}],"social_media":null,"platform":"","param":null,"councilor":"4b688f2d3d8647fa8585eee672d35d8c"}],"uid":"4b688f2d3d8647fa8585eee672d35d8c","name":"陳定國","birth":null,"former_names":"","identifiers":["陳定國"]},{"url":"http://councils.g0v.tw/api/councilors/824/","each_terms":[{"url":"http://councils.g0v.tw/api/councilors_terms/1474/","election_year":"1951","name":"陳寶華","gender":"","party":"","title":"議員","constituency":9,"county":"新北市","district":"新店鎮、景美鎮、木柵鄉、深坑鄉、石碇鄉、坪林鄉","in_office":true,"contact_details":null,"term_start":"1951-01-04","term_end":{"date":"1953-01-05"},"education":"臺北第三高女學校","experience":"日本駐臺金辰商事會社辦事員\n臺灣油脂管理委員會助理管理員\n貴仁醫院創辦人\n鉅昌電化商品公司董事\n大宇色素工業股份有限公司常務董事\n臺北縣議會第1屆議員\n*民國80年歿","remark":null,"image":"http://www.ntp.gov.tw/UpFile/CouncilorFile/TTCC0159.jpg","links":[{"url":"http://www.ntp.gov.tw/content/history/history01-5-p.aspx?sid=117","note":"議會個人官網"}],"social_media":null,"platform":"","param":null,"councilor":"696f3b2061d649e9a57bb68435ff3054"}],"uid":"696f3b2061d649e9a57bb68435ff3054","name":"陳寶華","birth":null,"former_names":"","identifiers":["陳寶華","陳寳華"]},{"url":"http://councils.g0v.tw/api/councilors/825/","each_terms":[{"url":"http://councils.g0v.tw/api/councilors_terms/1475/","election_year":"1951","name":"黃火元","gender":"","party":"","title":"議員","constituency":9,"county":"新北市","district":"新店鎮、景美鎮、木柵鄉、深坑鄉、石碇鄉、坪林鄉","in_office":true,"contact_details":null,"term_start":"1951-01-04","term_end":{"date":"1953-01-05"},"education":"臺北師範學校","experience":"臺北縣議會第1、2屆議員\n北新庄國小教師\n三芝國小教師\n三芝庄助役（今副鄉長）\n新店街助役（副鎮長）\n三芝初級中學校長\n文山水利委員會委員\n*民國80年12月5日歿","remark":null,"image":"http://www.ntp.gov.tw/UpFile/CouncilorFile/TTCC0158.jpg","links":[{"url":"http://www.ntp.gov.tw/content/history/history01-5-p.aspx?sid=116","note":"議會個人官網"}],"social_media":null,"platform":"","param":null,"councilor":"4b1d934a4df8431f85580446c35db59f"},{"url":"http://councils.g0v.tw/api/councilors_terms/1539/","election_year":"1953","name":"黃火元","gender":"","party":"","title":"議員","constituency":9,"county":"新北市","district":"新店鎮、景美鎮、木柵鄉、深坑鄉、石碇鄉、坪林鄉","in_office":true,"contact_details":null,"term_start":"1953-01-16","term_end":{"date":"1955-01-15"},"education":"臺北師範學校","experience":"臺北縣議會第1、2屆議員\n北新庄國小教師\n三芝國小教師\n三芝庄助役（今副鄉長）\n新店街助役（副鎮長）\n三芝初級中學校長\n文山水利委員會委員\n*民國80年12月5日歿","remark":null,"image":"http://www.ntp.gov.tw/UpFile/CouncilorFile/TTCC0158.jpg","links":[{"url":"http://www.ntp.gov.tw/content/history/history01-5-p.aspx?sid=116","note":"議會個人官網"}],"social_media":null,"platform":"","param":null,"councilor":"4b1d934a4df8431f85580446c35db59f"}],"uid":"4b1d934a4df8431f85580446c35db59f","name":"黃火元","birth":null,"former_names":"","identifiers":["黄火元","黃火元"]},{"url":"http://councils.g0v.tw/api/councilors/826/","each_terms":[{"url":"http://councils.g0v.tw/api/councilors_terms/1478/","election_year":"1951","name":"張銀樂","gender":"","party":"","title":"議員","constituency":9,"county":"新北市","district":"新店鎮、景美鎮、木柵鄉、深坑鄉、石碇鄉、坪林鄉","in_office":true,"contact_details":null,"term_start":"1951-01-04","term_end":{"date":"1953-01-05"},"education":"中學畢業","experience":"新店鎮農會理事\n新店茶葉生產合作社理事主席\n北縣合作社聯合社理事主席\n北縣茶商業同業公會常務理事\n新店鎮民代表會代表\n調解委員會主席\n臺北縣議會第1、2、3、4屆議員\n*民國80年7月29日歿","remark":null,"image":"http://www.ntp.gov.tw/UpFile/CouncilorFile/TTCC0157.jpg","links":[{"url":"http://www.ntp.gov.tw/content/history/history01-5-p.aspx?sid=115","note":"議會個人官網"}],"social_media":null,"platform":"","param":null,"councilor":"f53e69805d234f119209300e2faeb97e"},{"url":"http://councils.g0v.tw/api/councilors_terms/1534/","election_year":"1953","name":"張銀樂","gender":"","party":"","title":"議員","constituency":9,"county":"新北市","district":"新店鎮、景美鎮、木柵鄉、深坑鄉、石碇鄉、坪林鄉","in_office":true,"contact_details":null,"term_start":"1953-01-16","term_end":{"date":"1955-01-15"},"education":"中學畢業","experience":"新店鎮農會理事\n新店茶葉生產合作社理事主席\n北縣合作社聯合社理事主席\n北縣茶商業同業公會常務理事\n新店鎮民代表會代表\n調解委員會主席\n臺北縣議會第1、2、3、4屆議員\n*民國80年7月29日歿","remark":null,"image":"http://www.ntp.gov.tw/UpFile/CouncilorFile/TTCC0157.jpg","links":[{"url":"http://www.ntp.gov.tw/content/history/history01-5-p.aspx?sid=115","note":"議會個人官網"}],"social_media":null,"platform":"","param":null,"councilor":"f53e69805d234f119209300e2faeb97e"},{"url":"http://councils.g0v.tw/api/councilors_terms/1600/","election_year":"1955","name":"張銀樂","gender":"","party":"","title":"議員","constituency":9,"county":"新北市","district":"新店鎮、景美鎮、木柵鄉、深坑鄉、石碇鄉、坪林鄉","in_office":true,"contact_details":null,"term_start":"1955-01-16","term_end":{"date":"1958-02-20"},"education":"中學畢業","experience":"新店鎮農會理事\n新店茶葉生產合作社理事主席\n北縣合作社聯合社理事主席\n北縣茶商業同業公會常務理事\n新店鎮民代表會代表\n調解委員會主席\n臺北縣議會第1、2、3、4屆議員\n*民國80年7月29日歿","remark":null,"image":"http://www.ntp.gov.tw/UpFile/CouncilorFile/TTCC0157.jpg","links":[{"url":"http://www.ntp.gov.tw/content/history/history01-5-p.aspx?sid=115","note":"議會個人官網"}],"social_media":null,"platform":"","param":null,"councilor":"f53e69805d234f119209300e2faeb97e"},{"url":"http://councils.g0v.tw/api/councilors_terms/1663/","election_year":"1958","name":"張銀樂","gender":"","party":"","title":"議員","constituency":9,"county":"新北市","district":"新店鎮、景美鎮、木柵鄉、深坑鄉、石碇鄉、坪林鄉","in_office":true,"contact_details":null,"term_start":"1958-02-21","term_end":{"date":"1961-02-20"},"education":"中學畢業","experience":"新店鎮農會理事\n新店茶葉生產合作社理事主席\n北縣合作社聯合社理事主席\n北縣茶商業同業公會常務理事\n新店鎮民代表會代表\n調解委員會主席\n臺北縣議會第1、2、3、4屆議員\n*民國80年7月29日歿","remark":null,"image":"http://www.ntp.gov.tw/UpFile/CouncilorFile/TTCC0157.jpg","links":[{"url":"http://www.ntp.gov.tw/content/history/history01-5-p.aspx?sid=115","note":"議會個人官網"}],"social_media":null,"platform":"","param":null,"councilor":"f53e69805d234f119209300e2faeb97e"}],"uid":"f53e69805d234f119209300e2faeb97e","name":"張銀樂","birth":null,"former_names":"","identifiers":["張銀樂"]},{"url":"http://councils.g0v.tw/api/councilors/827/","each_terms":[{"url":"http://councils.g0v.tw/api/councilors_terms/1479/","election_year":"1951","name":"葉火土","gender":"","party":"","title":"議員","constituency":9,"county":"新北市","district":"新店鎮、景美鎮、木柵鄉、深坑鄉、石碇鄉、坪林鄉","in_office":true,"contact_details":null,"term_start":"1951-01-04","term_end":{"date":"1953-01-05"},"education":"國校畢業。","experience":"石碇鄉副鄉長\n石碇鄉所秘書\n臺北縣議會第1屆議員","remark":null,"image":"http://www.ntp.gov.tw/UpFile/CouncilorFile/TTCC0154.jpg","links":[{"url":"http://www.ntp.gov.tw/content/history/history01-5-p.aspx?sid=114","note":"議會個人官網"}],"social_media":null,"platform":"","param":null,"councilor":"6c30e5eb1cb6410ba93845047014325c"}],"uid":"6c30e5eb1cb6410ba93845047014325c","name":"葉火土","birth":null,"former_names":"","identifiers":["葉火土"]},{"url":"http://councils.g0v.tw/api/councilors/828/","each_terms":[{"url":"http://councils.g0v.tw/api/councilors_terms/1483/","election_year":"1951","name":"林英麟","gender":"","party":"","title":"議員","constituency":7,"county":"新北市","district":"瑞芳鎮、貢寮鄉、雙溪鄉、平溪鄉","in_office":true,"contact_details":null,"term_start":"1951-01-04","term_end":{"date":"1953-01-05"},"education":"日據時代臺灣帝大醫專","experience":"臺北縣議會第1屆議員\n瑞芳鎮民代表\n醫師","remark":null,"image":"http://www.ntp.gov.tw/UpFile/CouncilorFile/TTCC0150.jpg","links":[{"url":"http://www.ntp.gov.tw/content/history/history01-5-p.aspx?sid=113","note":"議會個人官網"}],"social_media":null,"platform":"","param":null,"councilor":"5ac0ed6b1b88483e9e81ea0d3d700709"}],"uid":"5ac0ed6b1b88483e9e81ea0d3d700709","name":"林英麟","birth":null,"former_names":"","identifiers":["林英麟","林英麟"]},{"url":"http://councils.g0v.tw/api/councilors/829/","each_terms":[{"url":"http://councils.g0v.tw/api/councilors_terms/1484/","election_year":"1951","name":"游阿財","gender":"","party":"","title":"議員","constituency":7,"county":"新北市","district":"瑞芳鎮、貢寮鄉、雙溪鄉、平溪鄉","in_office":true,"contact_details":null,"term_start":"1951-01-04","term_end":{"date":"1953-01-05"},"education":"國校畢業。","experience":"金瓜石瑞六金礦公司總經理\n臺北縣議會第1屆議員","remark":null,"image":"http://www.ntp.gov.tw/UpFile/CouncilorFile/TTCC0149.jpg","links":[{"url":"http://www.ntp.gov.tw/content/history/history01-5-p.aspx?sid=112","note":"議會個人官網"}],"social_media":null,"platform":"","param":null,"councilor":"52ed9c646fde45b0b9289d1cf7462ad7"}],"uid":"52ed9c646fde45b0b9289d1cf7462ad7","name":"游阿財","birth":null,"former_names":"","identifiers":["游阿財"]},{"url":"http://councils.g0v.tw/api/councilors/830/","each_terms":[{"url":"http://councils.g0v.tw/api/councilors_terms/1545/","election_year":"1953","name":"楊慶宗","gender":"","party":"","title":"議員","constituency":7,"county":"新北市","district":"瑞芳鎮、貢寮鄉、雙溪鄉、平溪鄉","in_office":true,"contact_details":null,"term_start":"1953-01-16","term_end":{"date":"1955-01-15"},"education":"臺北州立宜蘭農林學校","experience":"貢寮鄉產業技手\n臺灣總督府雇員\n澳底築港工程監察檢驗委員\n臺北縣議會第1、2屆議員","remark":null,"image":"http://www.ntp.gov.tw/UpFile/CouncilorFile/TTCC0148.jpg","links":[{"url":"http://www.ntp.gov.tw/content/history/history01-5-p.aspx?sid=111","note":"議會個人官網"}],"social_media":null,"platform":"","param":null,"councilor":"d2ccf3451a6242e6b3e1e00492d4226c"},{"url":"http://councils.g0v.tw/api/councilors_terms/1485/","election_year":"1951","name":"楊慶宗","gender":"","party":"","title":"議員","constituency":7,"county":"新北市","district":"瑞芳鎮、貢寮鄉、雙溪鄉、平溪鄉","in_office":true,"contact_details":null,"term_start":"1951-01-04","term_end":{"date":"1953-01-05"},"education":"臺北州立宜蘭農林學校","experience":"貢寮鄉產業技手\n臺灣總督府雇員\n澳底築港工程監察檢驗委員\n臺北縣議會第1、2屆議員","remark":null,"image":"http://www.ntp.gov.tw/UpFile/CouncilorFile/TTCC0148.jpg","links":[{"url":"http://www.ntp.gov.tw/content/history/history01-5-p.aspx?sid=111","note":"議會個人官網"}],"social_media":null,"platform":"","param":null,"councilor":"d2ccf3451a6242e6b3e1e00492d4226c"}],"uid":"d2ccf3451a6242e6b3e1e00492d4226c","name":"楊慶宗","birth":null,"former_names":"","identifiers":["楊慶宗"]},{"url":"http://councils.g0v.tw/api/councilors/831/","each_terms":[{"url":"http://councils.g0v.tw/api/councilors_terms/1486/","election_year":"1951","name":"陳天生","gender":"","party":"","title":"議員","constituency":7,"county":"新北市","district":"瑞芳鎮、貢寮鄉、雙溪鄉、平溪鄉","in_office":true,"contact_details":null,"term_start":"1951-01-04","term_end":{"date":"1953-01-05"},"education":"國民學校畢業","experience":"臺北縣議會第1屆議員\n瑞芳鎮民代表\n瑞芳鎮農會幹事","remark":null,"image":"http://www.ntp.gov.tw/UpFile/CouncilorFile/TTCC0147.jpg","links":[{"url":"http://www.ntp.gov.tw/content/history/history01-5-p.aspx?sid=110","note":"議會個人官網"}],"social_media":null,"platform":"","param":null,"councilor":"edcb030067784e1197315cfd705153ef"}],"uid":"edcb030067784e1197315cfd705153ef","name":"陳天生","birth":null,"former_names":"","identifiers":["陳天生"]}]}