{"count":1904,"next":"http://councils.g0v.tw/api/councilors/?page=99","previous":"http://councils.g0v.tw/api/councilors/?page=97","results":[{"url":"http://councils.g0v.tw/api/councilors/832/","each_terms":[{"url":"http://councils.g0v.tw/api/councilors_terms/1487/","election_year":"1951","name":"詹文通","gender":"","party":"","title":"議員","constituency":7,"county":"新北市","district":"瑞芳鎮、貢寮鄉、雙溪鄉、平溪鄉","in_office":true,"contact_details":null,"term_start":"1951-01-04","term_end":{"date":"1953-01-05"},"education":"瑞芳國中","experience":"歷任瑞芳鎮之鎮民代表\n農會理事、鎮長\n臺灣省煤礦公會副總幹事\n臺灣省礦工醫院秘書\n建基煤礦公司廳長\n臺北縣議會第1、2屆議員\n*民國73年6月1日歿","remark":null,"image":"http://www.ntp.gov.tw/UpFile/CouncilorFile/TTCC0146.jpg","links":[{"url":"http://www.ntp.gov.tw/content/history/history01-5-p.aspx?sid=109","note":"議會個人官網"}],"social_media":null,"platform":"","param":null,"councilor":"2bc2e81f45fb4f99a6152757608b7d8c"},{"url":"http://councils.g0v.tw/api/councilors_terms/1544/","election_year":"1953","name":"詹文通","gender":"","party":"","title":"議員","constituency":7,"county":"新北市","district":"瑞芳鎮、貢寮鄉、雙溪鄉、平溪鄉","in_office":true,"contact_details":null,"term_start":"1953-01-16","term_end":{"date":"1955-01-15"},"education":"瑞芳國中","experience":"歷任瑞芳鎮之鎮民代表\n農會理事、鎮長\n臺灣省煤礦公會副總幹事\n臺灣省礦工醫院秘書\n建基煤礦公司廳長\n臺北縣議會第1、2屆議員\n*民國73年6月1日歿","remark":null,"image":"http://www.ntp.gov.tw/UpFile/CouncilorFile/TTCC0146.jpg","links":[{"url":"http://www.ntp.gov.tw/content/history/history01-5-p.aspx?sid=109","note":"議會個人官網"}],"social_media":null,"platform":"","param":null,"councilor":"2bc2e81f45fb4f99a6152757608b7d8c"}],"uid":"2bc2e81f45fb4f99a6152757608b7d8c","name":"詹文通","birth":null,"former_names":"","identifiers":["詹文通"]},{"url":"http://councils.g0v.tw/api/councilors/833/","each_terms":[{"url":"http://councils.g0v.tw/api/councilors_terms/1488/","election_year":"1951","name":"林明傳","gender":"","party":"","title":"議員","constituency":7,"county":"新北市","district":"瑞芳鎮、貢寮鄉、雙溪鄉、平溪鄉","in_office":true,"contact_details":null,"term_start":"1951-01-04","term_end":{"date":"1953-01-05"},"education":"國校畢業","experience":"里長、雙溪鄉民代表\n協益坑煤礦總經理\n臺北縣議會第1屆議員\n*民國81年1月15日歿","remark":null,"image":"http://www.ntp.gov.tw/UpFile/CouncilorFile/TTCC0145.jpg","links":[{"url":"http://www.ntp.gov.tw/content/history/history01-5-p.aspx?sid=108","note":"議會個人官網"}],"social_media":null,"platform":"","param":null,"councilor":"3f954f68afe94149b70cf8d098e18b2b"}],"uid":"3f954f68afe94149b70cf8d098e18b2b","name":"林明傳","birth":null,"former_names":"","identifiers":["林明傳","林明傳"]},{"url":"http://councils.g0v.tw/api/councilors/317/","each_terms":[{"url":"http://councils.g0v.tw/api/councilors_terms/2946/","election_year":"2014","name":"蔡成圭","gender":"男","party":"民主進步黨","title":"議員","constituency":14,"county":"臺中市","district":"東勢區、石岡區、新社區、和平區","in_office":true,"contact_details":[{"type":"email","value":"gua5617@xuite.net ","label":"E-mail"},{"type":"email","value":"c0211@tccc.gov.tw","label":"E-mail"}],"term_start":"2014-12-25","term_end":{"date":"2018-12-25"},"education":"•國中畢業","experience":"一、新社鄉永源村守望相助隊隊長\n二、九十六年新社高級中學家長會長\n三、台中縣協成慈善會顧問\n四、台中縣山城慈善會永久會員\n五、第十六屆臺中縣議員\n六、現任第一屆臺中市議員","remark":null,"image":"http://www.tccc.gov.tw/Conn/ConnThumb.asp?F=231_60.jpg&P=Pic\\Councillor&U=1&LW=200&LH=259","links":[{"url":"http://www.tccc.gov.tw/wb_introduction02.asp?cno=231&zno=33","note":"議會個人官網"},{"url":"https://www.facebook.com/profile.php?id=100005455712784&fref=ts","note":"社群網站"}],"social_media":null,"platform":"一、爭取129線道路環線開闢拓寬工程，紓解山城交通壅塞問題。\n二、配合行政政策，舉辦「大甲溪觀光文化祭」，推動「客家真水」系列活動。\n三、推動「城鄉特色二日遊」，結合產業、觀光一元化，帶動山城產業商機，發展山城觀光產業。\n四、前人種樹、後人乘涼，落實樹木保護自治條列，凡樹齡達50年以上，直徑達0.8公尺都列入保護。\n五、落實輔導山城農民生產精緻農產品（如花卉、香菇、蔬果…等），提高競爭力，以增加農民收益。\n六、爭取經費全面整治大甲溪、沙連溪、中嵙溪、石角溪、食水嵙溪，以確保百姓生命財產安全及產業道路暢通。\n七、打破派系壟斷，服務不分黨派，落實服務百姓。\n八、爭取弱勢團體各項社會福利。","param":{"bills_role_statistics":{"total":22,"priproposer":0,"sponsor":0,"cosponsor":22},"suggestions_years":{"count":44,"sum":23404000,"years":[{"count":21,"sum":12000000,"suggest_year":"2015","small_purchase":5},{"count":23,"sum":11404000,"suggest_year":"2016","small_purchase":15}]},"suggestions_associations":[{"count":0,"sum":0,"label":"社區發展協會"},{"count":0,"sum":0,"label":"學會"},{"count":0,"sum":0,"label":"商會"},{"count":0,"sum":0,"label":"公會"},{"count":0,"sum":0,"label":"協進會"},{"count":0,"sum":0,"label":"促進會"},{"count":0,"sum":0,"label":"研習會"},{"count":0,"sum":0,"label":"婦聯會"},{"count":0,"sum":0,"label":"婦女會"},{"count":0,"sum":0,"label":"體育會"},{"count":0,"sum":0,"label":"同心會"},{"count":0,"sum":0,"label":"農會"},{"count":0,"sum":0,"label":"早起會"},{"count":0,"sum":0,"label":"健身會"},{"count":0,"sum":0,"label":"宗親會"},{"count":0,"sum":0,"label":"功德會"},{"count":0,"sum":0,"label":"商業會"},{"count":0,"sum":0,"label":"長青會"},{"count":0,"sum":0,"label":"民眾服務社"},{"count":0,"sum":0,"label":"聯盟"}],"suggestions_piles":[{"count":2,"tokens":"國中|國小","sum":700000,"label":"國中、國小"},{"count":1,"tokens":"廟|宮","sum":98000,"label":"廟"},{"count":0,"tokens":"協會|學會|商會|公會|協進會|促進會|研習會|婦聯會|婦女會|體育會|同心會|農會|早起會|健身會|宗親會|功德會|商業會|長青會|民眾服務社|聯盟","sum":0,"label":"協會"},{"count":0,"tokens":"辦公室|辦公處","sum":0,"label":"辦公室"},{"count":0,"tokens":"警察局|分局","sum":0,"label":"警察局"},{"count":0,"tokens":"消防局|消防隊|分隊|中隊","sum":0,"label":"消防局"}],"bills_party_diversity":[{"party":"民主進步黨","ratio":0.8294117647058824},{"party":"中國國民黨","ratio":0.11764705882352941},{"party":"親民黨","ratio":0.041176470588235294},{"party":"無黨籍","ratio":0.011764705882352941}]},"councilor":"b0c0c455088a45e6b812317416eb7db8"},{"url":"http://councils.g0v.tw/api/councilors_terms/654/","election_year":"2010","name":"蔡成圭","gender":"","party":"民主進步黨","title":"議員","constituency":14,"county":"臺中市","district":"東勢區、石岡區、新社區、和平區","in_office":true,"contact_details":[{"type":"address","value":"臺中市新社區永源里東山街101號","label":"服務處地址"},{"type":"voice","value":"04-2582-6305","label":"服務處電話"},{"type":"fax","value":"04-2581-4647","label":"服務處傳真"},{"type":"email","value":"gua5617@xuite.net ","label":"e-mail"}],"term_start":"2010-12-25","term_end":{"date":"2014-12-25"},"education":"國中畢業","experience":"第十六屆臺中縣議員\n新社鄉永源村守望相助隊現任隊長\n九十六年新社高級中學家長會長\n台中縣協成慈善會顧問\n台中縣山城慈善會永久會員","remark":null,"image":"http://www.tccc.gov.tw/mediafile/1837/editor_model/273/pic/061.bmp","links":[{"url":"http://www.tccc.gov.tw/editor_model/u_editor_v1.asp?id=%7B2CA09991-C323-4CEC-A499-26DCE83078B5%7D","note":"議會個人官網"}],"social_media":null,"platform":"爭取新社鄉舊公所土地闢建為立體市場及停車場，改善消費環境、攤販管理及停車交通問題，以達多功能使用目標。\n積極爭取東勢鎮老街再造，重振東勢老街原始特有風貌，打造客家老街觀光特區。\n極力爭取山城區為客家族群專屬行政區，鞏固並發揚客家文化。\n爭取國道四號延伸至東勢，並要求沿大甲溪河畔規劃，勿從金星村通過將石岡劃分為二，影響沿線居民。\n督促政府輔導農業轉型，結合在地觀光資源發展為複合式觀光休閒農業特區，並加強產銷制度，帶動地方經濟效益。\n爭取打通中橫，改善交通以利產業輸送及觀光發展。","param":{"suggestions_years":{"count":14,"sum":8427765,"years":[{"count":14,"sum":8427765,"suggest_year":"2014","small_purchase":5}]},"diversity":{"中國國民黨":0.10797709353758568,"民主進步黨":0.847651165394722,"臺灣團結聯盟":0.024199297222597452,"親民黨":0.001644459436667229,"無黨籍":0.018527984408427494},"bills_role_statistics":{"total":17,"priproposer":0,"sponsor":0,"cosponsor":17},"suggestions_associations":[{"count":0,"sum":0,"label":"社區發展協會"},{"count":0,"sum":0,"label":"學會"},{"count":0,"sum":0,"label":"商會"},{"count":0,"sum":0,"label":"公會"},{"count":0,"sum":0,"label":"協進會"},{"count":0,"sum":0,"label":"促進會"},{"count":0,"sum":0,"label":"研習會"},{"count":0,"sum":0,"label":"婦聯會"},{"count":0,"sum":0,"label":"婦女會"},{"count":0,"sum":0,"label":"體育會"},{"count":0,"sum":0,"label":"同心會"},{"count":0,"sum":0,"label":"農會"},{"count":0,"sum":0,"label":"早起會"},{"count":0,"sum":0,"label":"健身會"},{"count":0,"sum":0,"label":"宗親會"},{"count":0,"sum":0,"label":"功德會"},{"count":0,"sum":0,"label":"商業會"},{"count":0,"sum":0,"label":"長青會"},{"count":0,"sum":0,"label":"民眾服務社"},{"count":0,"sum":0,"label":"聯盟"}],"bills_party_diversity":[{"party":"民主進步黨","ratio":0.7456647398843931},{"party":"中國國民黨","ratio":0.2023121387283237},{"party":"無黨籍","ratio":0.04046242774566474},{"party":"臺灣團結聯盟","ratio":0.011560693641618497}],"suggestions_piles":[{"count":0,"tokens":"協會|學會|商會|公會|協進會|促進會|研習會|婦聯會|婦女會|體育會|同心會|農會|早起會|健身會|宗親會|功德會|商業會|長青會|民眾服務社|聯盟","sum":0,"label":"協會"},{"count":0,"tokens":"辦公室|辦公處","sum":0,"label":"辦公室"},{"count":0,"tokens":"廟|宮","sum":0,"label":"廟"},{"count":0,"tokens":"警察局|分局","sum":0,"label":"警察局"},{"count":0,"tokens":"消防局|消防隊|分隊|中隊","sum":0,"label":"消防局"},{"count":0,"tokens":"國中|國小","sum":0,"label":"國中、國小"}]},"councilor":"b0c0c455088a45e6b812317416eb7db8"}],"uid":"b0c0c455088a45e6b812317416eb7db8","name":"蔡成圭","birth":null,"former_names":"","identifiers":["蔡成圭"]},{"url":"http://councils.g0v.tw/api/councilors/359/","each_terms":[{"url":"http://councils.g0v.tw/api/councilors_terms/2958/","election_year":"2014","name":"陳清龍","gender":"男","party":"無黨籍","title":"議員","constituency":4,"county":"臺中市","district":"后里區、豐原區","in_office":true,"contact_details":[{"type":"email","value":"lone.jacky@msa.hinet.net","label":"E-mail"},{"type":"email","value":"c0267@tccc.gov.tw","label":"E-mail"}],"term_start":"2014-12-25","term_end":{"date":"2018-12-25"},"education":"•淡江大學金融研究所碩士\n•靜宜大學觀光研究所碩士\n•淡江大學國際貿易學系\n•豐原高中\n•豐南國中\n•合作國小","experience":"•臺中縣第十五屆議員\n•臺中縣第十六屆議員\n•臺中市第一屆議員\n•臺中市繁榮葫蘆墩促進會理事長\n•靜宜大學觀光研究所系友會理事長\n•臺中市（縣）勞資關係協會理事長","remark":null,"image":"http://www.tccc.gov.tw/Conn/ConnThumb.asp?F=189_17.jpg&P=Pic\\Councillor&U=1&LW=200&LH=259","links":[{"url":"http://www.tccc.gov.tw/wb_introduction02.asp?cno=189&zno=14","note":"議會個人官網"},{"url":"https://www.facebook.com/jackylone","note":"社群網站"}],"social_media":null,"platform":"1.傾聽民意，行動服務，監督市政、問政透明化，善盡民意代表職責。\n2.堅持推動「水岸花都」，啟動豐原城市新魅力，以糕餅、漆器為文化產業底蘊，由觀光帶人潮，完善停車及接駁配套，繁榮商圈各行各業，期在邊緣化中尋對策，能為年輕世代爭機會。\n3.結合2018國際花卉博覽會，監督監測后里環境空氣品質，爭取相關公共基礎建設，建議花博第二展區（城市實踐區）在豐原，后里、豐原同軸翻轉發展。\n4.要求落實共同管溝政策，台電管線下地，以重劃區為優先辦理。爭取豐原汙水下水道施工期程由目前20年縮短至12年。\n5.既有都市計劃區內已編定之公園、綠地及廣場，爭取徵收開闢。監督文教用地、市場用地變更之時程與豐原及后里都市計\n劃通盤檢討進度。\n6.爭取大眾運輸路網更完善，主要街道都有公車。督促BRT快捷公車，棕線及金線於2018年前完成。8公里免費里程要延長。\n7.尋求民間資源成立「葫蘆墩講座」及「豐原公民學校」，推動閱讀、音樂、藝文及培養解說及導覽人才。\n8.十二年國教建議，學生端：一試二用、一次分發到位、志願序積分不採計。家長端：家庭教育及父母成長教育經費不能少。學校端：獎勵教師、教材與教學之進修與活化之預算編列，落實均質化高中、職。\n9.監督落實社會扶助、健康照護、就業職訓、新住民等福利且各年齡層級均全面到位。\n10.監督豐富專案之國民運動中心與運動體育休閒園區的進度時程。后豐、東豐鐵馬道與旱溪自行車道串連之期程監督。","param":{"bills_role_statistics":{"total":122,"priproposer":58,"sponsor":71,"cosponsor":51},"suggestions_years":{"count":64,"sum":21998023,"years":[{"count":39,"sum":11953000,"suggest_year":"2015","small_purchase":23},{"count":25,"sum":10045023,"suggest_year":"2016","small_purchase":8}]},"suggestions_associations":[{"count":0,"sum":0,"label":"社區發展協會"},{"count":0,"sum":0,"label":"學會"},{"count":0,"sum":0,"label":"商會"},{"count":0,"sum":0,"label":"公會"},{"count":0,"sum":0,"label":"協進會"},{"count":0,"sum":0,"label":"促進會"},{"count":0,"sum":0,"label":"研習會"},{"count":0,"sum":0,"label":"婦聯會"},{"count":0,"sum":0,"label":"婦女會"},{"count":0,"sum":0,"label":"體育會"},{"count":0,"sum":0,"label":"同心會"},{"count":0,"sum":0,"label":"農會"},{"count":0,"sum":0,"label":"早起會"},{"count":0,"sum":0,"label":"健身會"},{"count":0,"sum":0,"label":"宗親會"},{"count":0,"sum":0,"label":"功德會"},{"count":0,"sum":0,"label":"商業會"},{"count":0,"sum":0,"label":"長青會"},{"count":0,"sum":0,"label":"民眾服務社"},{"count":0,"sum":0,"label":"聯盟"}],"suggestions_piles":[{"count":0,"tokens":"協會|學會|商會|公會|協進會|促進會|研習會|婦聯會|婦女會|體育會|同心會|農會|早起會|健身會|宗親會|功德會|商業會|長青會|民眾服務社|聯盟","sum":0,"label":"協會"},{"count":0,"tokens":"辦公室|辦公處","sum":0,"label":"辦公室"},{"count":0,"tokens":"廟|宮","sum":0,"label":"廟"},{"count":0,"tokens":"警察局|分局","sum":0,"label":"警察局"},{"count":0,"tokens":"消防局|消防隊|分隊|中隊","sum":0,"label":"消防局"},{"count":0,"tokens":"國中|國小","sum":0,"label":"國中、國小"}],"bills_party_diversity":[{"party":"親民黨","ratio":0.37480314960629924},{"party":"中國國民黨","ratio":0.28188976377952757},{"party":"無黨籍","ratio":0.25354330708661416},{"party":"民主進步黨","ratio":0.08976377952755905}]},"councilor":"33d1e0475dd9499f8c4762de37932c8c"},{"url":"http://councils.g0v.tw/api/councilors_terms/697/","election_year":"2010","name":"陳清龍","gender":"","party":"無黨籍","title":"議員","constituency":4,"county":"臺中市","district":"后里區、豐原區","in_office":true,"contact_details":[{"type":"address","value":"臺中市豐原區大明路228號","label":"服務處地址"},{"type":"voice","value":"04-2528-6069","label":"服務處電話"},{"type":"fax","value":"04-2528-3080","label":"服務處傳真"},{"type":"email","value":"lone.jacky@msa.hinet.net","label":"e-mail"}],"term_start":"2010-12-25","term_end":{"date":"2014-12-25"},"education":"合作國小、豐南國中、豐原高中\n淡江大學國際貿易學系\n淡江大學金融研究所碩士\n靜宜大學觀光研究所碩士","experience":"台中縣第十五、十六屆議員\n豐原市籃球委員會主任委員\n台中縣勞資關係協會常務理事\n神岡東南獅子會(2007～08)會長\n豐原市警民偵防協會常務監事\n台中縣文化建設基金會監事","remark":null,"image":"http://www.tccc.gov.tw/mediafile/1837/editor_model/226/pic/015.bmp","links":[{"url":"http://www.tccc.gov.tw/editor_model/u_editor_v1.asp?id=%7B61972BB0-DFD8-4E51-A8D2-6300B43C2F1B%7D","note":"議會個人官網"}],"social_media":null,"platform":"以財經專業為您嚴審預算、監督市政。\n以觀光管理專業，為您提出市政建言、反應民情。\n以從不停止的服務熱忱，服務民眾的大小事，作為您最佳的代言人。\n成立「幫您找工作」服務中心，實際為您的就業貼心服務。\n以「教育六倫」為發展基礎，藉由倫理、道德教育紮根，提升人的品質，促進社會和諧。\n以「文創觀光」為發展策略，讓豐原、后里既有的地方特色文化及藝文資產，經由創意加值，以觀光為平台，打造「葫蘆墩」文創品牌，促進商機與增加民眾就業。\n以「低碳綠能」為發展特色，促進城市綠化、提倡生活減碳，讓「水與綠」環繞我們的生活環境。\n以「水岸花都幸福居」為發展願景，打造「葫蘆墩」成為最適合居住的美麗城市。","param":{"suggestions_years":{"count":31,"sum":10820103,"years":[{"count":31,"sum":10820103,"suggest_year":"2014","small_purchase":12}]},"diversity":{"中國國民黨":0.31340387253492924,"民主進步黨":0.18297327893425222,"臺灣團結聯盟":0.009759828443007197,"親民黨":0.16767399712117992,"無黨籍":0.3261890229666316},"bills_role_statistics":{"total":84,"priproposer":15,"sponsor":51,"cosponsor":33},"suggestions_associations":[{"count":0,"sum":0,"label":"社區發展協會"},{"count":0,"sum":0,"label":"學會"},{"count":0,"sum":0,"label":"商會"},{"count":0,"sum":0,"label":"公會"},{"count":0,"sum":0,"label":"協進會"},{"count":0,"sum":0,"label":"促進會"},{"count":0,"sum":0,"label":"研習會"},{"count":0,"sum":0,"label":"婦聯會"},{"count":0,"sum":0,"label":"婦女會"},{"count":0,"sum":0,"label":"體育會"},{"count":0,"sum":0,"label":"同心會"},{"count":0,"sum":0,"label":"農會"},{"count":0,"sum":0,"label":"早起會"},{"count":0,"sum":0,"label":"健身會"},{"count":0,"sum":0,"label":"宗親會"},{"count":0,"sum":0,"label":"功德會"},{"count":0,"sum":0,"label":"商業會"},{"count":0,"sum":0,"label":"長青會"},{"count":0,"sum":0,"label":"民眾服務社"},{"count":0,"sum":0,"label":"聯盟"}],"bills_party_diversity":[{"party":"中國國民黨","ratio":0.3881932021466905},{"party":"民主進步黨","ratio":0.2522361359570662},{"party":"無黨籍","ratio":0.24150268336314848},{"party":"親民黨","ratio":0.11270125223613596},{"party":"臺灣團結聯盟","ratio":0.005366726296958855}],"suggestions_piles":[{"count":1,"tokens":"國中|國小","sum":644235,"label":"國中、國小"},{"count":0,"tokens":"協會|學會|商會|公會|協進會|促進會|研習會|婦聯會|婦女會|體育會|同心會|農會|早起會|健身會|宗親會|功德會|商業會|長青會|民眾服務社|聯盟","sum":0,"label":"協會"},{"count":0,"tokens":"辦公室|辦公處","sum":0,"label":"辦公室"},{"count":0,"tokens":"廟|宮","sum":0,"label":"廟"},{"count":0,"tokens":"警察局|分局","sum":0,"label":"警察局"},{"count":0,"tokens":"消防局|消防隊|分隊|中隊","sum":0,"label":"消防局"}]},"councilor":"33d1e0475dd9499f8c4762de37932c8c"}],"uid":"33d1e0475dd9499f8c4762de37932c8c","name":"陳清龍","birth":null,"former_names":"","identifiers":["陳清龍"]},{"url":"http://councils.g0v.tw/api/councilors/1106/","each_terms":[{"url":"http://councils.g0v.tw/api/councilors_terms/2959/","election_year":"2014","name":"沈德茂","gender":"男","party":"民主進步黨","title":"議員","constituency":7,"county":"宜蘭縣","district":"五結","in_office":true,"contact_details":[{"type":"voice","value":"9601567","label":"服務處所電話"},{"type":"address","value":"五結鄉五結中路2段202巷8號","label":"服務處所"}],"term_start":"2014-12-25","term_end":{"date":"2018-12-25"},"education":"政治大學行專","experience":"1.羅東電信局雇工。\n2.五結鄉公所三興五結大吉村幹事及鄉民代表會組員。\n3.救國團宜蘭縣團委會指導委員。\n4.五結奠安宮總幹事。\n5.五結鄉第12、13屆鄉長。\n6.宜蘭縣議會第15、16屆及現任議員。\n7.(金鼎)橄社福安宮主任委員。\n8.縣內外丹功理事長。","remark":null,"image":"http://www.ilcc.gov.tw/pictures/people/A1821.JPG","links":[{"url":"http://www.ilcc.gov.tw/Html/H_05/H_0501.asp?GoOut=&pic=7&clique=DDP&User_id=A1821","note":"議會個人官網"}],"social_media":null,"platform":"選舉就是選民鄉親對候選人服務的成績打分數，德茂受鄉親選民的肯定支持，\n謹記在心，以行善積德公門好修行的做好待人處事，以服務到家親切關懷的佈\n道精神，感恩所託秉持「只有誠信的服務、才是最好的選擇」的服務態度，懇\n請鄉親再次肯定支持牽成德茂，連任縣議員成功，共同為地方建設來打拼和服\n務，持續努力的工作方向有；\n一、促使教育培植健康成長紮根青少年善思積福宜蘭棟樑。\n二、持續爭取宜蘭大學五結校區校園興建嘉惠子弟就學。\n三、促透過宗教民俗文化發揚蘭陽在地草根文化的開發史。\n四、促利澤特定區都市計畫早日發佈施行，均衡城鄉。\n五、持續爭取清水大閘門工程改善，疏洪可交通觀光發展。\n六、促五結排水(俗稱黑藥港)下游，抽水站儘速興建完成，錦草地區(俗稱茅仔\n寮)居民免淹水保生存。\n七、促二結聯絡道。鐵路高架化。宜蘭肉品市場搬遷。中興文創園區基地納入\n中興社區規劃，落實開發及地方需求。\n八、持續推動老年人、婦幼、鰥寡孤獨、農漁民、勞工、身心障礙等弱及其配\n合社區志工團體做好福利服務。\n九、促對民防、義警、義消、義交、救援、守望相助隊、愛心媽媽、環保志\n工、長青食堂等服務志工投平安險保障。\n十、持續爭取平行水路、打那岸圳及五結、四結、二結、竹林等區域排水整治\n及兩側駁坎砌石且堤岸闢自行車道等工程，利以排水、減輕水患兼休閒運\n動。\n十一、督促縣政府加強志願服務推廣業務，關懷弱勢族群，照顧生活邊緣人，\n感受政府興社會的溫暖。","param":{"attendance_statistics":{"absent":1,"total":262},"bills_role_statistics":{"total":106,"priproposer":34,"sponsor":34,"cosponsor":72},"bills_party_diversity":[{"party":"民主進步黨","ratio":0.43784639746634996},{"party":"中國國民黨","ratio":0.28028503562945367},{"party":"在野問政聯盟","ratio":0.1456848772763262},{"party":"無黨籍","ratio":0.13618368962787014}]},"councilor":"4c64d0dd1aab479e862a9c03ebc10c92"},{"url":"http://councils.g0v.tw/api/councilors_terms/2032/","election_year":"2009","name":"沈德茂","gender":"","party":"無黨籍","title":"議員","constituency":7,"county":"宜蘭縣","district":"五結","in_office":true,"contact_details":[{"type":"address","value":"五結鄉五結中路二段202巷8號","label":"服務處所"},{"type":"voice","value":"9601567","label":"服務處所電話"},{"type":"email","value":"a1622@ilcc.gov.tw","label":"E-mail"}],"term_start":"2009-12-25","term_end":{"date":"2014-12-25"},"education":"政治大學行專畢","experience":"宜蘭縣議會第十七屆議員。\n宜蘭縣志願服務協會理事長。\n羅東電信局雇工\n五結鄉公所三興五結大吉村幹事\n五結鄉民代表會組員\n救國團五結團委會副會長、會長、總幹事、諮詢委員\n五結奠安宮總幹事\n五結鄉第12、13屆鄉長\n宜蘭縣議會第15、16屆縣議員","remark":null,"image":"http://www.ilcc.gov.tw/pictures/people/A1721.JPG","links":[{"url":"http://www.ilcc.gov.tw/Html/H_05/H_0501.asp?GoOut=&pic=7&clique=&User_id=A1721","note":"議會個人官網"}],"social_media":null,"platform":"德茂從政以來，承蒙咱們鄉親鼎力愛護支持及肯定，由鄉長到縣議員的選舉\n一路相挺皆順利當選，德茂為了誠摯感謝秉持著服務到家隨叫隨到的服務精\n神，用心專職實在好央叫的工作態度來回饋鄉親用選票栽培之所託。又再次\n檢驗縣議員服務的成效及品質，時間是今年12月5日，懇請鄉親賜票繼續牽成\n給德茂為咱們鄉親繼續來打拚。感恩！\n一、持續爭取宜蘭大學五結校區，早日落實興辦。\n二、督促利澤特定區都市計畫施行，實現均衡城鄉。\n三、持續爭取清水大閘門工程改善，帶動交通及觀光發展。\n四、爭取冬山河下游兩側土地放寬建設，加速地利活路。\n五、持續爭取平行水道、打那岸圳及五結、四結、竹林、二結區域排水等河\n域整治及兩側堤岸駁坎砌石及堤築自行車道等工程，以利排水、減輕水\n患兼運動。\n六、持續爭取宜25線(國民路至學進路含大吉路、三結路等)、拓寬路基15公\n尺，確保人車行駛安全及地方繁榮。\n七、爭取鄉內農地重劃區農水路持續納入年度改善。\n八、督促政府落實1.興辦二結聯絡道。2.二結至羅東鐵路高架化。3.宜蘭肉\n品市場遷移。4.竹科中興基地開發。\n九、督促培植明星學校，充實教育設施，提升教育水準。\n十、持續關注加強老人、婦幼、青少年、身心障礙、漁民、勞工、農民及弱\n勢團體以及社區組織等福利照顧事務。\n十一、督促政府對民防、義警、義消、義交、救難、守望相助隊、愛心媽\n媽、環保義工、愛心志工團隊志願服務人員的平安保險等相關福祉保\n障之實現。","param":{"bills_role_statistics":{"total":143,"priproposer":55,"sponsor":55,"cosponsor":88},"diversity":{"中國國民黨":0.5165753554588959,"民主進步黨":0.2557244078334688,"無黨籍":0.22770023670763512},"bills_party_diversity":[{"party":"中國國民黨","ratio":0.49427312775330395},{"party":"民主進步黨","ratio":0.2933920704845815},{"party":"無黨籍","ratio":0.21233480176211453}]},"councilor":"4c64d0dd1aab479e862a9c03ebc10c92"}],"uid":"4c64d0dd1aab479e862a9c03ebc10c92","name":"沈德茂","birth":null,"former_names":"","identifiers":["沈德茂"]},{"url":"http://councils.g0v.tw/api/councilors/1759/","each_terms":[{"url":"http://councils.g0v.tw/api/councilors_terms/2960/","election_year":"2014","name":"黃建勇","gender":"男","party":"中國國民黨","title":"議員","constituency":5,"county":"宜蘭縣","district":"壯圍","in_office":true,"contact_details":[{"type":"email","value":"hjy9301816@gmail.com","label":"E-mail"},{"type":"voice","value":"9301816","label":"服務處所電話"},{"type":"address","value":"壯圍鄉大福路三段232巷18號","label":"服務處所"}],"term_start":"2014-12-25","term_end":{"date":"2018-12-25"},"education":"宜蘭農工電子科","experience":"1.力晟成衣負責人。\n2.利晟交通事業總經理。\n3.七張開興廟主任委員。\n4.功榮社區理事長。\n5.中道中學創校董事。\n6.壯圍鄉鄉民代表。","remark":null,"image":"http://www.ilcc.gov.tw/pictures/people/A1815.JPG","links":[{"url":"http://www.ilcc.gov.tw/Html/H_05/H_0501.asp?GoOut=&pic=5&clique=KMT&User_id=A1815","note":"議會個人官網"}],"social_media":null,"platform":"一、規劃壯圍鄉成為休閒農場及無毒農業的生產鄉鎮。\n二、爭取壯圍鄉東西向主要道路連接台二線及農、水路之拓寬整修。\n三、推動壯圍鄉都市計劃案早日完成及農業區內建地之容積移轉。\n四、正視弱勢之福利，爭取獨居老人之照顧。\n五、爭取宜蘭河岸壯圍段為觀光河道。\n六、爭取自來水公司為新居民或未裝設自來水之居民免費正供公共管線。","param":{"attendance_statistics":{"absent":1,"total":262},"bills_role_statistics":{"total":168,"priproposer":14,"sponsor":14,"cosponsor":154},"bills_party_diversity":[{"party":"中國國民黨","ratio":0.38148984198645597},{"party":"民主進步黨","ratio":0.3600451467268623},{"party":"在野問政聯盟","ratio":0.15406320541760724},{"party":"無黨籍","ratio":0.1044018058690745}]},"councilor":"d31038a4b1da4e7287f672d8bbdc587f"}],"uid":"d31038a4b1da4e7287f672d8bbdc587f","name":"黃建勇","birth":null,"former_names":"","identifiers":["黃建勇","黄建勇"]},{"url":"http://councils.g0v.tw/api/councilors/1115/","each_terms":[{"url":"http://councils.g0v.tw/api/councilors_terms/2987/","election_year":"2014","name":"黃浴沂","gender":"男","party":"中國國民黨","title":"議員","constituency":4,"county":"宜蘭縣","district":"員山","in_office":true,"contact_details":[{"type":"email","value":"tlps770@yahoo.com.tw","label":"E-mail"},{"type":"voice","value":"9229939","label":"服務處所電話"},{"type":"address","value":"員山鄉員山路一段189號","label":"服務處所"}],"term_start":"2014-12-25","term_end":{"date":"2018-12-25"},"education":"同樂國小","experience":"1.同樂國小。\n2.員山國中家長會長。\n3.員山鄉獅子會長。\n4.員山鄉民防、消防顧問團團長。\n5.員山鄉守望相助隊總會長。\n6.員山鄉民代表會主席。\n7.員山鄉民眾服務分社理事長。\n8.宜蘭縣議會第十四、十五、十六、十七屆議員。","remark":null,"image":"http://www.ilcc.gov.tw/pictures/people/A1813.JPG","links":[{"url":"http://www.ilcc.gov.tw/Html/H_05/H_0501.asp?GoOut=&pic=4&clique=KMT&User_id=A1813","note":"議會個人官網"}],"social_media":null,"platform":"一、理性監督縣政，反映民意，善盡為民代言之責。\n二、促請確實整治鄉內各處溪流，以確保人民身家財產安全。\n三、促請規劃及建設本鄉對外之完善交通網路，便利生活。\n四、促請裝設偏遠及特殊地區自來水管線，以解決飲用水問題。\n五、促請專款改建鄉內老舊社區活動中心。\n六、活化鄉內閒置空間，推動各項公共建設，提昇鄉民生活品質。\n七、促請籌設農產品直銷中心，以利農業及觀光發展。\n八、促請充實教育設備，提昇教育品質。\n九、關懷婦幼、老人、弱勢團體等社會福利議題，推動社會服務。\n十、爭取地方建設經費，嚴審縣府財政，有效利用財源。\n十一、提高食品衛生抽檢率，確保飲食安全。","param":{"attendance_statistics":{"absent":10,"total":262},"bills_role_statistics":{"total":95,"priproposer":1,"sponsor":5,"cosponsor":90},"bills_party_diversity":[{"party":"民主進步黨","ratio":0.41023417172593235},{"party":"中國國民黨","ratio":0.3304423243712056},{"party":"在野問政聯盟","ratio":0.15871639202081528},{"party":"無黨籍","ratio":0.10060711188204684}]},"councilor":"0b6d24cecb1d49759074824b428127de"},{"url":"http://councils.g0v.tw/api/councilors_terms/2041/","election_year":"2009","name":"黃浴沂","gender":"","party":"中國國民黨","title":"議員","constituency":4,"county":"宜蘭縣","district":"員山","in_office":true,"contact_details":[{"type":"address","value":"員山鄉枕山村(路)94巷5號","label":"服務處所"},{"type":"voice","value":"9223931","label":"服務處所電話"}],"term_start":"2009-12-25","term_end":{"date":"2014-12-25"},"education":"同樂國小畢業","experience":"宜蘭縣議會第十七屆議員。\n同樂國小家長會長。\n員山國中家長會長。\n員山鄉獅子會會長。\n宜蘭縣青年聯誼會副總會長。\n員山鄉民眾服務分社理事長。\n員山鄉民防、消防顧問團團長。\n員山鄉守望相助隊聯誼會總會長。\n員山鄉鄉民代表會主席。\n宜蘭縣議會第十四、十五、十六屆議員。","remark":null,"image":"http://www.ilcc.gov.tw/pictures/people/A1712.JPG","links":[{"url":"http://www.ilcc.gov.tw/Html/H_05/H_0501.asp?GoOut=&pic=4&clique=KMT&User_id=A1712","note":"議會個人官網"}],"social_media":null,"platform":"1.理性監督縣政，反映民意，善盡為民代言之責。\n2.促請儘速整治鄉內各處溪流，以確保人民身家財產安全。\n3.促請早日完成東西向銜接北宜高之道路。\n4.促請裝設偏遠及特殊地區之自來水管線，以解決飲水及缺水問題。\n5.促請專款改建鄉內老舊社區活動中心。\n6.促請加速開發大湖風景區，加強開發各處觀光據點。\n7.促請籌設農產品直銷中心，以利農業及觀光發展。\n8.促請充實教育設備，提昇教育品質。\n9.積極督促落實社利政策。\n10.爭取地方建設經費，嚴審縣政府財政，有效利用財源。","param":{"bills_role_statistics":{"total":40,"priproposer":0,"sponsor":0,"cosponsor":40},"diversity":{"中國國民黨":0.5845962664858987,"民主進步黨":0.3009592021199339,"無黨籍":0.11444453139416744},"bills_party_diversity":[{"party":"中國國民黨","ratio":0.5387755102040817},{"party":"民主進步黨","ratio":0.3326530612244898},{"party":"無黨籍","ratio":0.12857142857142856}]},"councilor":"0b6d24cecb1d49759074824b428127de"}],"uid":"0b6d24cecb1d49759074824b428127de","name":"黃浴沂","birth":null,"former_names":"","identifiers":["黄浴沂","黃浴沂"]},{"url":"http://councils.g0v.tw/api/councilors/1771/","each_terms":[{"url":"http://councils.g0v.tw/api/councilors_terms/2988/","election_year":"2014","name":"孫湯玉惠","gender":"女","party":"無黨籍","title":"議員","constituency":11,"county":"宜蘭縣","district":"山地原住民","in_office":true,"contact_details":[{"type":"email","value":"aly560522@yahoo.com.tw","label":"E-mail"},{"type":"voice","value":"9655918","label":"服務處所電話"},{"type":"address","value":"五結鄉五結中路3段567號","label":"服務處所"}],"term_start":"2014-12-25","term_end":{"date":"2018-12-25"},"education":"國立空中大學","experience":"1.宜蘭縣原住民部落大學副校長。\n2.瑪嗄吧嗨文化藝術團團長藝術總監。\n3.宜蘭縣原住民事務發展委員會委員。\n4.宜蘭縣政府就業評議委員會委員。\n5.部落大學族語振興歌舞文化講師。\n6.宜蘭縣內國小、國中、高中、大學講師。\n7.全國原住民族語言戲劇舞蹈評審。","remark":null,"image":"http://www.ilcc.gov.tw/pictures/people/A1832.JPG","links":[{"url":"http://www.ilcc.gov.tw/Html/H_05/H_0501.asp?GoOut=&pic=11&clique=&User_id=A1832","note":"議會個人官網"}],"social_media":null,"platform":"文化會館：\n積極爭取以置「宜蘭縣原住民多功能國際會館及文化廣場」增加住民文化活動\n展演場地，提供文化表演、體育活動、產品展售、增加就業機會、設置”原住\n民族產業暨發展中心”，將原住民的農特產品及手工藝品結合文創產業拓展行\n銷，保障住民創業給予各項優惠及獎勵，建構銀髮安親園地，設立原住民教育\n資源中心，落實原住民部落大學提供終生學習。\n婦幼福利：\n提供育嬰補助，督促政府編列生育津貼補助幼兒幼教，補助幼兒疫苗，補助並\n增加婦女二度就業機會。\n老人關懷：\n建置社區老人關懷站，提供健檢服務增加老人醫療補助。\n就業機會：\n爭取原住民市集並督促政府提供 原住民之工作機會，開設原住民文化需求之職\n訓技能專班，提供原住民族人更多就業機會。\n住宅政策：\n提高原住民租屋補助，放寬原住民購屋貸款門檻。\n文化傳承：\n建構原住民文化藝廊，加強兒童族語及文化教育提供全母語學習環境。\n醫療補助：\n爭取原住民各項醫療補助。\n領袖會議：\n建立頭目文化傳承的功能開辦各項頭目領袖會議，提供車馬津貼及活動費用。\n體育職能：\n積極培育原住民體育人才，並提供體育人員第二專才培訓，增加到學校職訓企\n業學習機會。\n社團服務：\n爭取經費使各區協會、社團得以維持讓各族群文化語言傳承技能提升高齡社團\n及各類體育發展正常運作。\n農漁政策：\n保障原住民農漁工作權，積極爭取承租國有土地耕作地，並輔導種植高經濟農\n作物，要求放寬原住民漁業從業人員捕撈執照限制。","param":{"attendance_statistics":{"absent":4,"total":262},"bills_role_statistics":{"total":166,"priproposer":11,"sponsor":12,"cosponsor":154},"bills_party_diversity":[{"party":"民主進步黨","ratio":0.46250629089079015},{"party":"無黨籍","ratio":0.2214393558127831},{"party":"中國國民黨","ratio":0.2199295420231505},{"party":"在野問政聯盟","ratio":0.0961248112732763}]},"councilor":"8db148547da1421cbb360eacb1e31c2e"}],"uid":"8db148547da1421cbb360eacb1e31c2e","name":"孫湯玉惠","birth":null,"former_names":"","identifiers":["孫湯玉惠"]},{"url":"http://councils.g0v.tw/api/councilors/1772/","each_terms":[{"url":"http://councils.g0v.tw/api/councilors_terms/2989/","election_year":"2014","name":"陳文昌","gender":"男","party":"民主進步黨","title":"議長","constituency":9,"county":"宜蘭縣","district":"三星","in_office":true,"contact_details":[{"type":"email","value":"chen@ilcc.gov.tw","label":"E-mail"},{"type":"voice","value":"9890646","label":"服務處所電話"},{"type":"address","value":"三星鄉大義村大義七路336號","label":"服務處所"}],"term_start":"2014-12-25","term_end":{"date":"2018-12-25"},"education":"省立蘇澳高級水產職業學校","experience":"1.企業經理人。\n2.宜蘭縣莊稼人發展協會創辦人。\n3.宜蘭縣議會第12、13、14、15、16屆議員。\n4.宜蘭縣議會第15屆副議長。\n5.宜蘭縣政府機要秘書。\n6.宜蘭縣政府民政處長。\n7.礁溪鄉代理鄉長。\n8.宜蘭縣政府縣政顧問。","remark":null,"image":"http://www.ilcc.gov.tw/pictures/people/A1828.JPG","links":[{"url":"http://www.ilcc.gov.tw/Html/H_05/H_0501.asp?GoOut=&pic=9&clique=DDP&User_id=A1828","note":"議會個人官網"}],"social_media":null,"platform":"訴求與目標：\n三星子弟拼議長，鄉親團結一定贏。\n十大政見：\n一、堅守非核家園。\n二、民進黨議會拼過半，有效監督及推動縣政。\n三、推動陽明醫院成為醫學中心。\n四、加速推動清水地熱(37公頃)及長埤湖之開發，成為宜蘭最大的溫泉觀光休\n閒區。\n五、運用蘭陽溪南岸天然溫泉資源(耕莘專校附近)，建立溪南平地溫泉遊憩園\n區及地熱綠能發電中心。\n六、加速安農溪「水綠農村計畫」，發展微型水力發電，營造健康休閒、自然\n樂活之南岸旅遊場域。\n七、結合社區營造並與聖母、耕莘護專建教合作，建立本鄉高齡友善之日照中\n心。\n八、善用本鄉天然湧泉資源，營造各級水渠及湧泉區為有魚有蛤的水米故鄉。\n九、發展精緻農業，推廣有機，加強行銷，建構青年農場，留住返鄉青年。\n十、加速196線拓寬、溪南水防道貫通、二結連絡道開闢至三星。","param":{"attendance_statistics":{"absent":12,"total":262},"bills_role_statistics":{"total":36,"priproposer":8,"sponsor":8,"cosponsor":28},"bills_party_diversity":[{"party":"民主進步黨","ratio":0.572202166064982},{"party":"中國國民黨","ratio":0.18231046931407943},{"party":"無黨籍","ratio":0.15703971119133575},{"party":"在野問政聯盟","ratio":0.08844765342960288}]},"councilor":"99d5a234d09347cf91d9a2736465918a"}],"uid":"99d5a234d09347cf91d9a2736465918a","name":"陳文昌","birth":null,"former_names":"","identifiers":["陳文昌"]},{"url":"http://councils.g0v.tw/api/councilors/1773/","each_terms":[{"url":"http://councils.g0v.tw/api/councilors_terms/2990/","election_year":"2014","name":"張明華","gender":"男","party":"民主進步黨","title":"議員","constituency":7,"county":"宜蘭縣","district":"五結","in_office":true,"contact_details":[{"type":"email","value":"a564.b746@msa.hinet.net","label":"E-mail"},{"type":"voice","value":"9653609","label":"服務處所電話"},{"type":"address","value":"五結鄉鎮安村舊街ㄧ路110巷1號","label":"服務處所"}],"term_start":"2014-12-25","term_end":{"date":"2018-12-25"},"education":"復興工商專科學校土木工程科","experience":"1.財團法人二結王公廟董事長\n2.宜蘭縣政府縣政顧問\n3.五結鄉代理鄉長\n4.五結鄉鎮安社區發展協會總幹事\n5.仰山文教基金會解說學會總幹事\n6.五結鄉都市計畫委員會副主任委員\n7.民進黨五結鄉聯誼會主任\n8.宜蘭縣婦女關懷協會總幹事","remark":null,"image":"http://www.ilcc.gov.tw/pictures/people/A1823.JPG","links":[{"url":"http://www.ilcc.gov.tw/Html/H_05/H_0501.asp?GoOut=&pic=7&clique=DDP&User_id=A1823","note":"議會個人官網"}],"social_media":null,"platform":"一、幸福安居的五結\n◎落實長青照護機制：嚴重少子化趨勢，高齡社會來臨、積極推廣社區照護機\n構，增設老人關懷據點。\n◎爭取婦女福利，廣發婦女生育補助金及嬰幼兒成長補助金。\n◎督促政府加強關懷單親、低收入戶、隔代教養之家庭。\n◎爭取政府舉辦新住民融入在地文化及就業輔導研習課程。\n二、均衡教育的五結\n◎建立特色學校：改善現有老舊學校軟硬體及弱劫族群學生知識落差。檢討小\n校存廢現象，建立五結特色學校，合理分配教育資源。\n◎積極爭取國中小學學生學費、午餐減免。\n◎協助舉辦2016年全國運動大會在宜蘭，提倡縣內學校運動風氣，重點式培植\n優秀運動選手。\n三、文創繁榮的五結\n◎促進中興文創園區開發；發展文創產業、文創造鎮，促進地方經濟繁榮。\n◎推動宜蘭縣肉品市場遷移。\n◎打造五結中區景觀商圈：扶助地方特色產業、帶動商圈發展及整體經濟。\n四、便捷交通的五結\n◎協助爭取二結連結道開關及鐵路高架化，串聯完整東西向交通網路。\n◎爭取廣設社區巴士路線。\n◎督促政府維護道路平整、排水、照明、改善視線死角等設施。\n五、遊憩大城的五結\n◎活化冬山河親水公園空間及夜間活動：爭取設置國家水上運動中心。\n◎積極爭取冬山河大閘門改建，強化排水功能並推動設置水上河濱公園。\n◎爭取舉辦套裝旅遊、結合民宿、觀光工廠、食宿產業，促進經濟繁榮。\n◎爭取廣闢縣內觀光景點，提升縣民遊憩休閒生活。","param":{"attendance_statistics":{"absent":6,"total":262},"bills_role_statistics":{"total":168,"priproposer":5,"sponsor":5,"cosponsor":163},"bills_party_diversity":[{"party":"民主進步黨","ratio":0.562992125984252},{"party":"中國國民黨","ratio":0.19094488188976377},{"party":"無黨籍","ratio":0.13828740157480315},{"party":"在野問政聯盟","ratio":0.1077755905511811}]},"councilor":"89e4586dab67490c91432780825d1b93"}],"uid":"89e4586dab67490c91432780825d1b93","name":"張明華","birth":null,"former_names":"","identifiers":["張明華"]}]}